382033 Imperfect,5,AAAA
186514 Imperfect,5,AAAC
181065 Imperfect,5,AAAG
247965 Imperfect,5,AAAT
125500 Imperfect,5,AACA
101919 Imperfect,5,AACC
13368 Imperfect,5,AACG
86627 Imperfect,5,AACT
166730 Imperfect,5,AAGA
123110 Imperfect,5,AAGC
119401 Imperfect,5,AAGG
99888 Imperfect,5,AAGT
166023 Imperfect,5,AATA
129451 Imperfect,5,AATC
140110 Imperfect,5,AATG
166357 Imperfect,5,AATT
241591 Imperfect,5,ACAA
155840 Imperfect,5,ACAC
187855 Imperfect,5,ACAG
137735 Imperfect,5,ACAT
108920 Imperfect,5,ACCA
113990 Imperfect,5,ACCC
12154 Imperfect,5,ACCG
70684 Imperfect,5,ACCT
17853 Imperfect,5,ACGA
15702 Imperfect,5,ACGC
20255 Imperfect,5,ACGG
17426 Imperfect,5,ACGT
110787 Imperfect,5,ACTA
112508 Imperfect,5,ACTC
123302 Imperfect,5,ACTG
100401 Imperfect,5,ACTT
301002 Imperfect,5,AGAA
130209 Imperfect,5,AGAC
187612 Imperfect,5,AGAG
122309 Imperfect,5,AGAT
136485 Imperfect,5,AGCA
135802 Imperfect,5,AGCC
17191 Imperfect,5,AGCG
103247 Imperfect,5,AGCT
174053 Imperfect,5,AGGA
126498 Imperfect,5,AGGC
116109 Imperfect,5,AGGG
80398 Imperfect,5,AGGT
114893 Imperfect,5,AGTA
97720 Imperfect,5,AGTC
124078 Imperfect,5,AGTG
98486 Imperfect,5,AGTT
231679 Imperfect,5,ATAA
130875 Imperfect,5,ATAC
107081 Imperfect,5,ATAG
140513 Imperfect,5,ATAT
110764 Imperfect,5,ATCA
100135 Imperfect,5,ATCC
13180 Imperfect,5,ATCG
80443 Imperfect,5,ATCT
164777 Imperfect,5,ATGA
113222 Imperfect,5,ATGC
136986 Imperfect,5,ATGG
106477 Imperfect,5,ATGT
157312 Imperfect,5,ATTA
135058 Imperfect,5,ATTC
102624 Imperfect,5,ATTG
170368 Imperfect,5,ATTT
83604 Imperfect,5,CAAA
65862 Imperfect,5,CAAC
66619 Imperfect,5,CAAG
59870 Imperfect,5,CAAT
90702 Imperfect,5,CACA
74918 Imperfect,5,CACC
30572 Imperfect,5,CACG
91729 Imperfect,5,CACT
67004 Imperfect,5,CAGA
154245 Imperfect,5,CAGC
129301 Imperfect,5,CAGG
69364 Imperfect,5,CAGT
47336 Imperfect,5,CATA
78313 Imperfect,5,CATC
90008 Imperfect,5,CATG
108172 Imperfect,5,CATT
77273 Imperfect,5,CCAA
122305 Imperfect,5,CCAC
135356 Imperfect,5,CCAG
101146 Imperfect,5,CCAT
88196 Imperfect,5,CCCA
72158 Imperfect,5,CCCC
15372 Imperfect,5,CCCG
82036 Imperfect,5,CCCT
8421 Imperfect,5,CCGA
27056 Imperfect,5,CCGC
18609 Imperfect,5,CCGG
19989 Imperfect,5,CCGT
50246 Imperfect,5,CCTA
123805 Imperfect,5,CCTC
93165 Imperfect,5,CCTG
98477 Imperfect,5,CCTT
13936 Imperfect,5,CGAA
10912 Imperfect,5,CGAC
14010 Imperfect,5,CGAG
17486 Imperfect,5,CGAT
16783 Imperfect,5,CGCA
27799 Imperfect,5,CGCC
9622 Imperfect,5,CGCG
20165 Imperfect,5,CGCT
10107 Imperfect,5,CGGA
28618 Imperfect,5,CGGC
23460 Imperfect,5,CGGG
11221 Imperfect,5,CGGT
8506 Imperfect,5,CGTA
16068 Imperfect,5,CGTC
24181 Imperfect,5,CGTG
16549 Imperfect,5,CGTT
49287 Imperfect,5,CTAA
46842 Imperfect,5,CTAC
43067 Imperfect,5,CTAG
45265 Imperfect,5,CTAT
93777 Imperfect,5,CTCA
141092 Imperfect,5,CTCC
11848 Imperfect,5,CTCG
95573 Imperfect,5,CTCT
78642 Imperfect,5,CTGA
97764 Imperfect,5,CTGC
98250 Imperfect,5,CTGG
82982 Imperfect,5,CTGT
55532 Imperfect,5,CTTA
109689 Imperfect,5,CTTC
66354 Imperfect,5,CTTG
109445 Imperfect,5,CTTT
121764 Imperfect,5,GAAA
12763 Imperfect,5,GAAC
97159 Imperfect,5,GAAG
111471 Imperfect,5,GAAT
90220 Imperfect,5,GACA
9253 Imperfect,5,GACC
17437 Imperfect,5,GACG
74823 Imperfect,5,GACT
100756 Imperfect,5,GAGA
13800 Imperfect,5,GAGC
84624 Imperfect,5,GAGG
89275 Imperfect,5,GAGT
48619 Imperfect,5,GATA
13558 Imperfect,5,GATC
94978 Imperfect,5,GATG
69790 Imperfect,5,GATT
90828 Imperfect,5,GCAA
20771 Imperfect,5,GCAC
123790 Imperfect,5,GCAG
105441 Imperfect,5,GCAT
122952 Imperfect,5,GCCA
22634 Imperfect,5,GCCC
24028 Imperfect,5,GCCG
163183 Imperfect,5,GCCT
17732 Imperfect,5,GCGA
8574 Imperfect,5,GCGC
22482 Imperfect,5,GCGG
32919 Imperfect,5,GCGT
53302 Imperfect,5,GCTA
12159 Imperfect,5,GCTC
182101 Imperfect,5,GCTG
86609 Imperfect,5,GCTT
127278 Imperfect,5,GGAA
12269 Imperfect,5,GGAC
168483 Imperfect,5,GGAG
79986 Imperfect,5,GGAT
113470 Imperfect,5,GGCA
21257 Imperfect,5,GGCC
22809 Imperfect,5,GGCG
128858 Imperfect,5,GGCT
102574 Imperfect,5,GGGA
23139 Imperfect,5,GGGC
71823 Imperfect,5,GGGG
80925 Imperfect,5,GGGT
53945 Imperfect,5,GGTA
7808 Imperfect,5,GGTC
113218 Imperfect,5,GGTG
71766 Imperfect,5,GGTT
60140 Imperfect,5,GTAA
5514 Imperfect,5,GTAC
51460 Imperfect,5,GTAG
51653 Imperfect,5,GTAT
90046 Imperfect,5,GTCA
8140 Imperfect,5,GTCC
10196 Imperfect,5,GTCG
76826 Imperfect,5,GTCT
128865 Imperfect,5,GTGA
14218 Imperfect,5,GTGC
107725 Imperfect,5,GTGG
105827 Imperfect,5,GTGT
55949 Imperfect,5,GTTA
11672 Imperfect,5,GTTC
76678 Imperfect,5,GTTG
95374 Imperfect,5,GTTT
176893 Imperfect,5,TAAA
94260 Imperfect,5,TAAC
90815 Imperfect,5,TAAG
186904 Imperfect,5,TAAT
111833 Imperfect,5,TACA
82271 Imperfect,5,TACC
15460 Imperfect,5,TACG
117793 Imperfect,5,TACT
84267 Imperfect,5,TAGA
100440 Imperfect,5,TAGC
65482 Imperfect,5,TAGG
98906 Imperfect,5,TAGT
150624 Imperfect,5,TATA
118275 Imperfect,5,TATC
121207 Imperfect,5,TATG
304867 Imperfect,5,TATT
118314 Imperfect,5,TCAA
149074 Imperfect,5,TCAC
119835 Imperfect,5,TCAG
174260 Imperfect,5,TCAT
132432 Imperfect,5,TCCA
125404 Imperfect,5,TCCC
15998 Imperfect,5,TCCG
150721 Imperfect,5,TCCT
11601 Imperfect,5,TCGA
18949 Imperfect,5,TCGC
11569 Imperfect,5,TCGG
16213 Imperfect,5,TCGT
118545 Imperfect,5,TCTA
193364 Imperfect,5,TCTC
169825 Imperfect,5,TCTG
243520 Imperfect,5,TCTT
143631 Imperfect,5,TGAA
99306 Imperfect,5,TGAC
105901 Imperfect,5,TGAG
149299 Imperfect,5,TGAT
114337 Imperfect,5,TGCA
140286 Imperfect,5,TGCC
12660 Imperfect,5,TGCG
144765 Imperfect,5,TGCT
102484 Imperfect,5,TGGA
139781 Imperfect,5,TGGC
96016 Imperfect,5,TGGG
116811 Imperfect,5,TGGT
150178 Imperfect,5,TGTA
147254 Imperfect,5,TGTC
142239 Imperfect,5,TGTG
236122 Imperfect,5,TGTT
139315 Imperfect,5,TTAA
94225 Imperfect,5,TTAC
89039 Imperfect,5,TTAG
159833 Imperfect,5,TTAT
140752 Imperfect,5,TTCA
160919 Imperfect,5,TTCC
14037 Imperfect,5,TTCG
177060 Imperfect,5,TTCT
96362 Imperfect,5,TTGA
118680 Imperfect,5,TTGC
89931 Imperfect,5,TTGG
127511 Imperfect,5,TTGT
191602 Imperfect,5,TTTA
241835 Imperfect,5,TTTC
182123 Imperfect,5,TTTG
385646 Imperfect,5,TTTT
117000 Imperfect,6,AAAA
49444 Imperfect,6,AAAC
62654 Imperfect,6,AAAG
72969 Imperfect,6,AAAT
83986 Imperfect,6,AACA
35230 Imperfect,6,AACC
5956 Imperfect,6,AACG
32968 Imperfect,6,AACT
107216 Imperfect,6,AAGA
48795 Imperfect,6,AAGC
57619 Imperfect,6,AAGG
39940 Imperfect,6,AAGT
92984 Imperfect,6,AATA
37306 Imperfect,6,AATC
57449 Imperfect,6,AATG
54468 Imperfect,6,AATT
20232 Imperfect,6,ACAA
21140 Imperfect,6,ACAC
17722 Imperfect,6,ACAG
15049 Imperfect,6,ACAT
18043 Imperfect,6,ACCA
18564 Imperfect,6,ACCC
1673 Imperfect,6,ACCG
13526 Imperfect,6,ACCT
2938 Imperfect,6,ACGA
3993 Imperfect,6,ACGC
2873 Imperfect,6,ACGG
3253 Imperfect,6,ACGT
11370 Imperfect,6,ACTA
17329 Imperfect,6,ACTC
14775 Imperfect,6,ACTG
15065 Imperfect,6,ACTT
45236 Imperfect,6,AGAA
37832 Imperfect,6,AGAC
35049 Imperfect,6,AGAG
17645 Imperfect,6,AGAT
36683 Imperfect,6,AGCA
43396 Imperfect,6,AGCC
8425 Imperfect,6,AGCG
18140 Imperfect,6,AGCT
47180 Imperfect,6,AGGA
43718 Imperfect,6,AGGC
31877 Imperfect,6,AGGG
18548 Imperfect,6,AGGT
19944 Imperfect,6,AGTA
26380 Imperfect,6,AGTC
52117 Imperfect,6,AGTG
17796 Imperfect,6,AGTT
53402 Imperfect,6,ATAA
33488 Imperfect,6,ATAC
24147 Imperfect,6,ATAG
51426 Imperfect,6,ATAT
31612 Imperfect,6,ATCA
27391 Imperfect,6,ATCC
3181 Imperfect,6,ATCG
29363 Imperfect,6,ATCT
38654 Imperfect,6,ATGA
29153 Imperfect,6,ATGC
25921 Imperfect,6,ATGG
42375 Imperfect,6,ATGT
36401 Imperfect,6,ATTA
33145 Imperfect,6,ATTC
23061 Imperfect,6,ATTG
52190 Imperfect,6,ATTT
34265 Imperfect,6,CAAA
19867 Imperfect,6,CAAC
24073 Imperfect,6,CAAG
22512 Imperfect,6,CAAT
40501 Imperfect,6,CACA
35504 Imperfect,6,CACC
5240 Imperfect,6,CACG
25690 Imperfect,6,CACT
32989 Imperfect,6,CAGA
35733 Imperfect,6,CAGC
47202 Imperfect,6,CAGG
24518 Imperfect,6,CAGT
23906 Imperfect,6,CATA
24033 Imperfect,6,CATC
27982 Imperfect,6,CATG
30288 Imperfect,6,CATT
15411 Imperfect,6,CCAA
27419 Imperfect,6,CCAC
60319 Imperfect,6,CCAG
25167 Imperfect,6,CCAT
32766 Imperfect,6,CCCA
13126 Imperfect,6,CCCC
10329 Imperfect,6,CCCG
24983 Imperfect,6,CCCT
3736 Imperfect,6,CCGA
8627 Imperfect,6,CCGC
9653 Imperfect,6,CCGG
4602 Imperfect,6,CCGT
11462 Imperfect,6,CCTA
69972 Imperfect,6,CCTC
28658 Imperfect,6,CCTG
29641 Imperfect,6,CCTT
525 Imperfect,6,CGAA
600 Imperfect,6,CGAC
1085 Imperfect,6,CGAG
434 Imperfect,6,CGAT
928 Imperfect,6,CGCA
4544 Imperfect,6,CGCC
980 Imperfect,6,CGCG
905 Imperfect,6,CGCT
822 Imperfect,6,CGGA
2188 Imperfect,6,CGGC
4380 Imperfect,6,CGGG
455 Imperfect,6,CGGT
285 Imperfect,6,CGTA
986 Imperfect,6,CGTC
1305 Imperfect,6,CGTG
541 Imperfect,6,CGTT
18180 Imperfect,6,CTAA
20809 Imperfect,6,CTAC
15724 Imperfect,6,CTAG
21350 Imperfect,6,CTAT
47074 Imperfect,6,CTCA
34023 Imperfect,6,CTCC
5051 Imperfect,6,CTCG
41300 Imperfect,6,CTCT
25932 Imperfect,6,CTGA
59438 Imperfect,6,CTGC
39771 Imperfect,6,CTGG
49628 Imperfect,6,CTGT
19332 Imperfect,6,CTTA
44487 Imperfect,6,CTTC
30646 Imperfect,6,CTTG
47837 Imperfect,6,CTTT
36670 Imperfect,6,GAAA
2884 Imperfect,6,GAAC
27800 Imperfect,6,GAAG
26523 Imperfect,6,GAAT
45586 Imperfect,6,GACA
2560 Imperfect,6,GACC
6979 Imperfect,6,GACG
21823 Imperfect,6,GACT
35561 Imperfect,6,GAGA
3249 Imperfect,6,GAGC
24427 Imperfect,6,GAGG
22445 Imperfect,6,GAGT
18265 Imperfect,6,GATA
3801 Imperfect,6,GATC
29915 Imperfect,6,GATG
15354 Imperfect,6,GATT
12796 Imperfect,6,GCAA
3747 Imperfect,6,GCAC
17153 Imperfect,6,GCAG
14444 Imperfect,6,GCAT
18294 Imperfect,6,GCCA
3294 Imperfect,6,GCCC
3749 Imperfect,6,GCCG
18000 Imperfect,6,GCCT
3044 Imperfect,6,GCGA
1891 Imperfect,6,GCGC
5623 Imperfect,6,GCGG
4341 Imperfect,6,GCGT
7880 Imperfect,6,GCTA
2363 Imperfect,6,GCTC
18336 Imperfect,6,GCTG
12584 Imperfect,6,GCTT
31355 Imperfect,6,GGAA
3856 Imperfect,6,GGAC
27867 Imperfect,6,GGAG
24036 Imperfect,6,GGAT
48559 Imperfect,6,GGCA
9566 Imperfect,6,GGCC
10582 Imperfect,6,GGCG
65197 Imperfect,6,GGCT
70062 Imperfect,6,GGGA
6090 Imperfect,6,GGGC
13205 Imperfect,6,GGGG
23499 Imperfect,6,GGGT
14466 Imperfect,6,GGTA
3410 Imperfect,6,GGTC
38533 Imperfect,6,GGTG
16583 Imperfect,6,GGTT
16777 Imperfect,6,GTAA
2732 Imperfect,6,GTAC
13090 Imperfect,6,GTAG
21443 Imperfect,6,GTAT
17861 Imperfect,6,GTCA
2615 Imperfect,6,GTCC
1899 Imperfect,6,GTCG
26466 Imperfect,6,GTCT
18396 Imperfect,6,GTGA
2365 Imperfect,6,GTGC
16992 Imperfect,6,GTGG
26253 Imperfect,6,GTGT
10870 Imperfect,6,GTTA
2190 Imperfect,6,GTTC
16538 Imperfect,6,GTTG
23619 Imperfect,6,GTTT
49504 Imperfect,6,TAAA
17867 Imperfect,6,TAAC
20263 Imperfect,6,TAAG
35637 Imperfect,6,TAAT
38284 Imperfect,6,TACA
18656 Imperfect,6,TACC
4655 Imperfect,6,TACG
25908 Imperfect,6,TACT
25939 Imperfect,6,TAGA
19166 Imperfect,6,TAGC
18743 Imperfect,6,TAGG
21865 Imperfect,6,TAGT
41826 Imperfect,6,TATA
20554 Imperfect,6,TATC
27813 Imperfect,6,TATG
47446 Imperfect,6,TATT
13253 Imperfect,6,TCAA
25975 Imperfect,6,TCAC
18179 Imperfect,6,TCAG
28817 Imperfect,6,TCAT
29210 Imperfect,6,TCCA
25380 Imperfect,6,TCCC
6339 Imperfect,6,TCCG
32311 Imperfect,6,TCCT
4386 Imperfect,6,TCGA
7601 Imperfect,6,TCGC
2726 Imperfect,6,TCGG
4082 Imperfect,6,TCGT
14600 Imperfect,6,TCTA
29580 Imperfect,6,TCTC
30638 Imperfect,6,TCTG
32879 Imperfect,6,TCTT
31315 Imperfect,6,TGAA
23847 Imperfect,6,TGAC
23560 Imperfect,6,TGAG
23028 Imperfect,6,TGAT
28844 Imperfect,6,TGCA
50905 Imperfect,6,TGCC
6045 Imperfect,6,TGCG
32852 Imperfect,6,TGCT
26086 Imperfect,6,TGGA
34666 Imperfect,6,TGGC
34152 Imperfect,6,TGGG
21274 Imperfect,6,TGGT
19509 Imperfect,6,TGTA
27719 Imperfect,6,TGTC
35831 Imperfect,6,TGTG
32126 Imperfect,6,TGTT
55659 Imperfect,6,TTAA
37385 Imperfect,6,TTAC
29880 Imperfect,6,TTAG
104385 Imperfect,6,TTAT
60697 Imperfect,6,TTCA
58063 Imperfect,6,TTCC
5552 Imperfect,6,TTCG
98923 Imperfect,6,TTCT
42912 Imperfect,6,TTGA
46063 Imperfect,6,TTGC
34438 Imperfect,6,TTGG
81399 Imperfect,6,TTGT
66032 Imperfect,6,TTTA
72978 Imperfect,6,TTTC
51809 Imperfect,6,TTTG
118451 Imperfect,6,TTTT
32917 Imperfect,7,AAAA
35637 Imperfect,7,AAAC
43204 Imperfect,7,AAAG
40205 Imperfect,7,AAAT
5376 Imperfect,7,AACA
4182 Imperfect,7,AACC
878 Imperfect,7,AACG
3400 Imperfect,7,AACT
10170 Imperfect,7,AAGA
8984 Imperfect,7,AAGC
10953 Imperfect,7,AAGG
5144 Imperfect,7,AAGT
14466 Imperfect,7,AATA
10445 Imperfect,7,AATC
11952 Imperfect,7,AATG
10137 Imperfect,7,AATT
8535 Imperfect,7,ACAA
10711 Imperfect,7,ACAC
10864 Imperfect,7,ACAG
8884 Imperfect,7,ACAT
2633 Imperfect,7,ACCA
3248 Imperfect,7,ACCC
452 Imperfect,7,ACCG
2115 Imperfect,7,ACCT
100 Imperfect,7,ACGA
177 Imperfect,7,ACGC
128 Imperfect,7,ACGG
81 Imperfect,7,ACGT
2919 Imperfect,7,ACTA
5470 Imperfect,7,ACTC
5155 Imperfect,7,ACTG
4458 Imperfect,7,ACTT
12144 Imperfect,7,AGAA
17244 Imperfect,7,AGAC
12340 Imperfect,7,AGAG
6219 Imperfect,7,AGAT
2939 Imperfect,7,AGCA
4616 Imperfect,7,AGCC
979 Imperfect,7,AGCG
2003 Imperfect,7,AGCT
8729 Imperfect,7,AGGA
24169 Imperfect,7,AGGC
8778 Imperfect,7,AGGG
5064 Imperfect,7,AGGT
4473 Imperfect,7,AGTA
5111 Imperfect,7,AGTC
5493 Imperfect,7,AGTG
2891 Imperfect,7,AGTT
13107 Imperfect,7,ATAA
12713 Imperfect,7,ATAC
7679 Imperfect,7,ATAG
13303 Imperfect,7,ATAT
2011 Imperfect,7,ATCA
4694 Imperfect,7,ATCC
471 Imperfect,7,ATCG
2748 Imperfect,7,ATCT
6563 Imperfect,7,ATGA
5840 Imperfect,7,ATGC
6662 Imperfect,7,ATGG
4482 Imperfect,7,ATGT
10122 Imperfect,7,ATTA
11933 Imperfect,7,ATTC
10387 Imperfect,7,ATTG
14286 Imperfect,7,ATTT
6287 Imperfect,7,CAAA
4947 Imperfect,7,CAAC
11991 Imperfect,7,CAAG
4683 Imperfect,7,CAAT
6731 Imperfect,7,CACA
5084 Imperfect,7,CACC
1649 Imperfect,7,CACG
4681 Imperfect,7,CACT
5737 Imperfect,7,CAGA
8209 Imperfect,7,CAGC
8865 Imperfect,7,CAGG
5304 Imperfect,7,CAGT
4441 Imperfect,7,CATA
6547 Imperfect,7,CATC
5747 Imperfect,7,CATG
6664 Imperfect,7,CATT
3784 Imperfect,7,CCAA
5927 Imperfect,7,CCAC
9272 Imperfect,7,CCAG
4613 Imperfect,7,CCAT
9523 Imperfect,7,CCCA
1720 Imperfect,7,CCCC
2816 Imperfect,7,CCCG
8593 Imperfect,7,CCCT
165 Imperfect,7,CCGA
493 Imperfect,7,CCGC
880 Imperfect,7,CCGG
346 Imperfect,7,CCGT
5066 Imperfect,7,CCTA
8874 Imperfect,7,CCTC
24277 Imperfect,7,CCTG
8467 Imperfect,7,CCTT
74 Imperfect,7,CGAA
75 Imperfect,7,CGAC
114 Imperfect,7,CGAG
54 Imperfect,7,CGAT
490 Imperfect,7,CGCA
396 Imperfect,7,CGCC
351 Imperfect,7,CGCG
359 Imperfect,7,CGCT
353 Imperfect,7,CGGA
856 Imperfect,7,CGGC
475 Imperfect,7,CGGG
174 Imperfect,7,CGGT
94 Imperfect,7,CGTA
156 Imperfect,7,CGTC
138 Imperfect,7,CGTG
98 Imperfect,7,CGTT
2546 Imperfect,7,CTAA
2792 Imperfect,7,CTAC
4306 Imperfect,7,CTAG
2319 Imperfect,7,CTAT
10027 Imperfect,7,CTCA
7067 Imperfect,7,CTCC
4368 Imperfect,7,CTCG
6679 Imperfect,7,CTCT
5193 Imperfect,7,CTGA
8824 Imperfect,7,CTGC
8233 Imperfect,7,CTGG
5736 Imperfect,7,CTGT
5264 Imperfect,7,CTTA
11183 Imperfect,7,CTTC
9000 Imperfect,7,CTTG
10494 Imperfect,7,CTTT
8950 Imperfect,7,GAAA
1119 Imperfect,7,GAAC
10980 Imperfect,7,GAAG
8803 Imperfect,7,GAAT
2207 Imperfect,7,GACA
296 Imperfect,7,GACC
436 Imperfect,7,GACG
2047 Imperfect,7,GACT
6659 Imperfect,7,GAGA
4204 Imperfect,7,GAGC
6907 Imperfect,7,GAGG
10359 Imperfect,7,GAGT
2650 Imperfect,7,GATA
493 Imperfect,7,GATC
4785 Imperfect,7,GATG
1944 Imperfect,7,GATT
3185 Imperfect,7,GCAA
1090 Imperfect,7,GCAC
5050 Imperfect,7,GCAG
5239 Imperfect,7,GCAT
4813 Imperfect,7,GCCA
2603 Imperfect,7,GCCC
1128 Imperfect,7,GCCG
4329 Imperfect,7,GCCT
302 Imperfect,7,GCGA
369 Imperfect,7,GCGC
371 Imperfect,7,GCGG
508 Imperfect,7,GCGT
2012 Imperfect,7,GCTA
949 Imperfect,7,GCTC
4558 Imperfect,7,GCTG
2988 Imperfect,7,GCTT
6892 Imperfect,7,GGAA
1015 Imperfect,7,GGAC
5712 Imperfect,7,GGAG
5350 Imperfect,7,GGAT
4197 Imperfect,7,GGCA
1111 Imperfect,7,GGCC
2606 Imperfect,7,GGCG
4637 Imperfect,7,GGCT
8770 Imperfect,7,GGGA
2862 Imperfect,7,GGGC
1730 Imperfect,7,GGGG
9317 Imperfect,7,GGGT
2086 Imperfect,7,GGTA
451 Imperfect,7,GGTC
3193 Imperfect,7,GGTG
2773 Imperfect,7,GGTT
2714 Imperfect,7,GTAA
664 Imperfect,7,GTAC
2769 Imperfect,7,GTAG
2648 Imperfect,7,GTAT
1937 Imperfect,7,GTCA
414 Imperfect,7,GTCC
364 Imperfect,7,GTCG
2116 Imperfect,7,GTCT
4734 Imperfect,7,GTGA
1755 Imperfect,7,GTGC
5011 Imperfect,7,GTGG
6750 Imperfect,7,GTGT
3404 Imperfect,7,GTTA
837 Imperfect,7,GTTC
4298 Imperfect,7,GTTG
5422 Imperfect,7,GTTT
10923 Imperfect,7,TAAA
6144 Imperfect,7,TAAC
8020 Imperfect,7,TAAG
9227 Imperfect,7,TAAT
2549 Imperfect,7,TACA
2794 Imperfect,7,TACC
677 Imperfect,7,TACG
2775 Imperfect,7,TACT
2343 Imperfect,7,TAGA
4418 Imperfect,7,TAGC
2821 Imperfect,7,TAGG
2630 Imperfect,7,TAGT
13127 Imperfect,7,TATA
7741 Imperfect,7,TATC
12851 Imperfect,7,TATG
13033 Imperfect,7,TATT
3932 Imperfect,7,TCAA
6719 Imperfect,7,TCAC
5856 Imperfect,7,TCAG
6182 Imperfect,7,TCAT
5443 Imperfect,7,TCCA
5962 Imperfect,7,TCCC
1075 Imperfect,7,TCCG
6939 Imperfect,7,TCCT
44 Imperfect,7,TCGA
124 Imperfect,7,TCGC
62 Imperfect,7,TCGG
77 Imperfect,7,TCGT
6300 Imperfect,7,TCTA
12484 Imperfect,7,TCTC
17248 Imperfect,7,TCTG
12198 Imperfect,7,TCTT
6275 Imperfect,7,TGAA
5836 Imperfect,7,TGAC
6677 Imperfect,7,TGAG
3994 Imperfect,7,TGAT
5114 Imperfect,7,TGCA
5025 Imperfect,7,TGCC
1072 Imperfect,7,TGCG
2976 Imperfect,7,TGCT
4667 Imperfect,7,TGGA
9373 Imperfect,7,TGGC
6001 Imperfect,7,TGGG
3869 Imperfect,7,TGGT
8773 Imperfect,7,TGTA
11005 Imperfect,7,TGTC
10857 Imperfect,7,TGTG
8702 Imperfect,7,TGTT
9266 Imperfect,7,TTAA
8200 Imperfect,7,TTAC
6286 Imperfect,7,TTAG
10904 Imperfect,7,TTAT
8764 Imperfect,7,TTCA
10978 Imperfect,7,TTCC
1119 Imperfect,7,TTCG
8928 Imperfect,7,TTCT
4706 Imperfect,7,TTGA
11988 Imperfect,7,TTGC
5099 Imperfect,7,TTGG
6199 Imperfect,7,TTGT
40626 Imperfect,7,TTTA
43103 Imperfect,7,TTTC
35572 Imperfect,7,TTTG
33096 Imperfect,7,TTTT
1 Perfect,104,TCTT
4609 Perfect,10,AAAA
831 Perfect,10,AAAC
743 Perfect,10,AAAG
1014 Perfect,10,AAAT
421 Perfect,10,AACA
157 Perfect,10,AACC
3 Perfect,10,AACG
79 Perfect,10,AACT
921 Perfect,10,AAGA
197 Perfect,10,AAGC
507 Perfect,10,AAGG
146 Perfect,10,AAGT
750 Perfect,10,AATA
182 Perfect,10,AATC
616 Perfect,10,AATG
375 Perfect,10,AATT
93 Perfect,10,ACAA
530 Perfect,10,ACAC
97 Perfect,10,ACAG
102 Perfect,10,ACAT
44 Perfect,10,ACCA
71 Perfect,10,ACCC
2 Perfect,10,ACCG
33 Perfect,10,ACCT
1 Perfect,10,ACGA
6 Perfect,10,ACGC
1 Perfect,10,ACGG
4 Perfect,10,ACGT
19 Perfect,10,ACTA
73 Perfect,10,ACTC
44 Perfect,10,ACTG
39 Perfect,10,ACTT
461 Perfect,10,AGAA
185 Perfect,10,AGAC
446 Perfect,10,AGAG
64 Perfect,10,AGAT
103 Perfect,10,AGCA
142 Perfect,10,AGCC
9 Perfect,10,AGCG
48 Perfect,10,AGCT
369 Perfect,10,AGGA
1454 Perfect,10,AGGC
304 Perfect,10,AGGG
81 Perfect,10,AGGT
38 Perfect,10,AGTA
80 Perfect,10,AGTC
163 Perfect,10,AGTG
43 Perfect,10,AGTT
528 Perfect,10,ATAA
287 Perfect,10,ATAC
131 Perfect,10,ATAG
1137 Perfect,10,ATAT
159 Perfect,10,ATCA
139 Perfect,10,ATCC
1 Perfect,10,ATCG
133 Perfect,10,ATCT
305 Perfect,10,ATGA
177 Perfect,10,ATGC
129 Perfect,10,ATGG
252 Perfect,10,ATGT
223 Perfect,10,ATTA
320 Perfect,10,ATTC
159 Perfect,10,ATTG
550 Perfect,10,ATTT
179 Perfect,10,CAAA
102 Perfect,10,CAAC
106 Perfect,10,CAAG
81 Perfect,10,CAAT
814 Perfect,10,CACA
111 Perfect,10,CACC
15 Perfect,10,CACG
144 Perfect,10,CACT
130 Perfect,10,CAGA
146 Perfect,10,CAGC
194 Perfect,10,CAGG
68 Perfect,10,CAGT
127 Perfect,10,CATA
148 Perfect,10,CATC
201 Perfect,10,CATG
284 Perfect,10,CATT
43 Perfect,10,CCAA
194 Perfect,10,CCAC
203 Perfect,10,CCAG
85 Perfect,10,CCAT
212 Perfect,10,CCCA
86 Perfect,10,CCCC
55 Perfect,10,CCCG
270 Perfect,10,CCCT
1 Perfect,10,CCGA
46 Perfect,10,CCGC
24 Perfect,10,CCGG
8 Perfect,10,CCGT
39 Perfect,10,CCTA
565 Perfect,10,CCTC
260 Perfect,10,CCTG
291 Perfect,10,CCTT
1 Perfect,10,CGAC
5 Perfect,10,CGAG
1 Perfect,10,CGAT
3 Perfect,10,CGCA
11 Perfect,10,CGCC
5 Perfect,10,CGCG
2 Perfect,10,CGCT
1 Perfect,10,CGGA
6 Perfect,10,CGGC
17 Perfect,10,CGGG
1 Perfect,10,CGTA
2 Perfect,10,CGTC
7 Perfect,10,CGTG
55 Perfect,10,CTAA
69 Perfect,10,CTAC
39 Perfect,10,CTAG
74 Perfect,10,CTAT
144 Perfect,10,CTCA
283 Perfect,10,CTCC
3 Perfect,10,CTCG
455 Perfect,10,CTCT
78 Perfect,10,CTGA
1401 Perfect,10,CTGC
161 Perfect,10,CTGG
150 Perfect,10,CTGT
57 Perfect,10,CTTA
356 Perfect,10,CTTC
129 Perfect,10,CTTG
430 Perfect,10,CTTT
367 Perfect,10,GAAA
2 Perfect,10,GAAC
286 Perfect,10,GAAG
179 Perfect,10,GAAT
159 Perfect,10,GACA
4 Perfect,10,GACC
4 Perfect,10,GACG
64 Perfect,10,GACT
474 Perfect,10,GAGA
2 Perfect,10,GAGC
274 Perfect,10,GAGG
100 Perfect,10,GAGT
55 Perfect,10,GATA
101 Perfect,10,GATG
87 Perfect,10,GATT
30 Perfect,10,GCAA
10 Perfect,10,GCAC
105 Perfect,10,GCAG
47 Perfect,10,GCAT
80 Perfect,10,GCCA
18 Perfect,10,GCCC
14 Perfect,10,GCCG
107 Perfect,10,GCCT
6 Perfect,10,GCGA
23 Perfect,10,GCGC
14 Perfect,10,GCGG
10 Perfect,10,GCGT
12 Perfect,10,GCTA
6 Perfect,10,GCTC
86 Perfect,10,GCTG
28 Perfect,10,GCTT
305 Perfect,10,GGAA
5 Perfect,10,GGAC
256 Perfect,10,GGAG
100 Perfect,10,GGAT
264 Perfect,10,GGCA
25 Perfect,10,GGCC
49 Perfect,10,GGCG
208 Perfect,10,GGCT
523 Perfect,10,GGGA
37 Perfect,10,GGGC
91 Perfect,10,GGGG
210 Perfect,10,GGGT
49 Perfect,10,GGTA
2 Perfect,10,GGTC
212 Perfect,10,GGTG
48 Perfect,10,GGTT
46 Perfect,10,GTAA
4 Perfect,10,GTAC
33 Perfect,10,GTAG
87 Perfect,10,GTAT
43 Perfect,10,GTCA
3 Perfect,10,GTCC
1 Perfect,10,GTCG
87 Perfect,10,GTCT
63 Perfect,10,GTGA
3 Perfect,10,GTGC
86 Perfect,10,GTGG
487 Perfect,10,GTGT
16 Perfect,10,GTTA
2 Perfect,10,GTTC
38 Perfect,10,GTTG
105 Perfect,10,GTTT
586 Perfect,10,TAAA
42 Perfect,10,TAAC
71 Perfect,10,TAAG
189 Perfect,10,TAAT
209 Perfect,10,TACA
58 Perfect,10,TACC
5 Perfect,10,TACG
87 Perfect,10,TACT
113 Perfect,10,TAGA
37 Perfect,10,TAGC
51 Perfect,10,TAGG
55 Perfect,10,TAGT
1061 Perfect,10,TATA
81 Perfect,10,TATC
227 Perfect,10,TATG
569 Perfect,10,TATT
75 Perfect,10,TCAA
98 Perfect,10,TCAC
71 Perfect,10,TCAG
198 Perfect,10,TCAT
125 Perfect,10,TCCA
259 Perfect,10,TCCC
5 Perfect,10,TCCG
274 Perfect,10,TCCT
2 Perfect,10,TCGA
5 Perfect,10,TCGC
1 Perfect,10,TCGG
3 Perfect,10,TCGT
54 Perfect,10,TCTA
441 Perfect,10,TCTC
140 Perfect,10,TCTG
315 Perfect,10,TCTT
254 Perfect,10,TGAA
94 Perfect,10,TGAC
125 Perfect,10,TGAG
71 Perfect,10,TGAT
246 Perfect,10,TGCA
188 Perfect,10,TGCC
15 Perfect,10,TGCG
94 Perfect,10,TGCT
154 Perfect,10,TGGA
151 Perfect,10,TGGC
130 Perfect,10,TGGG
91 Perfect,10,TGGT
134 Perfect,10,TGTA
158 Perfect,10,TGTC
815 Perfect,10,TGTG
181 Perfect,10,TGTT
413 Perfect,10,TTAA
169 Perfect,10,TTAC
78 Perfect,10,TTAG
1035 Perfect,10,TTAT
582 Perfect,10,TTCA
518 Perfect,10,TTCC
6 Perfect,10,TTCG
811 Perfect,10,TTCT
140 Perfect,10,TTGA
202 Perfect,10,TTGC
149 Perfect,10,TTGG
831 Perfect,10,TTGT
732 Perfect,10,TTTA
940 Perfect,10,TTTC
407 Perfect,10,TTTG
4629 Perfect,10,TTTT
1 Perfect,111,TTTC
2825 Perfect,11,AAAA
1070 Perfect,11,AAAC
1285 Perfect,11,AAAG
978 Perfect,11,AAAT
32 Perfect,11,AACA
26 Perfect,11,AACC
2 Perfect,11,AACG
15 Perfect,11,AACT
147 Perfect,11,AAGA
45 Perfect,11,AAGC
153 Perfect,11,AAGG
27 Perfect,11,AAGT
225 Perfect,11,AATA
91 Perfect,11,AATC
195 Perfect,11,AATG
111 Perfect,11,AATT
62 Perfect,11,ACAA
804 Perfect,11,ACAC
70 Perfect,11,ACAG
190 Perfect,11,ACAT
16 Perfect,11,ACCA
57 Perfect,11,ACCC
10 Perfect,11,ACCT
1 Perfect,11,ACGC
1 Perfect,11,ACGG
11 Perfect,11,ACTA
186 Perfect,11,ACTC
21 Perfect,11,ACTG
18 Perfect,11,ACTT
266 Perfect,11,AGAA
138 Perfect,11,AGAC
446 Perfect,11,AGAG
28 Perfect,11,AGAT
21 Perfect,11,AGCA
35 Perfect,11,AGCC
7 Perfect,11,AGCG
8 Perfect,11,AGCT
162 Perfect,11,AGGA
139 Perfect,11,AGGC
210 Perfect,11,AGGG
14 Perfect,11,AGGT
16 Perfect,11,AGTA
26 Perfect,11,AGTC
183 Perfect,11,AGTG
9 Perfect,11,AGTT
265 Perfect,11,ATAA
304 Perfect,11,ATAC
94 Perfect,11,ATAG
615 Perfect,11,ATAT
17 Perfect,11,ATCA
57 Perfect,11,ATCC
45 Perfect,11,ATCT
86 Perfect,11,ATGA
85 Perfect,11,ATGC
65 Perfect,11,ATGG
42 Perfect,11,ATGT
102 Perfect,11,ATTA
235 Perfect,11,ATTC
88 Perfect,11,ATTG
274 Perfect,11,ATTT
76 Perfect,11,CAAA
37 Perfect,11,CAAC
43 Perfect,11,CAAG
28 Perfect,11,CAAT
308 Perfect,11,CACA
56 Perfect,11,CACC
32 Perfect,11,CACG
43 Perfect,11,CACT
37 Perfect,11,CAGA
44 Perfect,11,CAGC
105 Perfect,11,CAGG
21 Perfect,11,CAGT
36 Perfect,11,CATA
69 Perfect,11,CATC
89 Perfect,11,CATG
89 Perfect,11,CATT
14 Perfect,11,CCAA
74 Perfect,11,CCAC
64 Perfect,11,CCAG
45 Perfect,11,CCAT
112 Perfect,11,CCCA
58 Perfect,11,CCCC
21 Perfect,11,CCCG
124 Perfect,11,CCCT
8 Perfect,11,CCGC
2 Perfect,11,CCGG
27 Perfect,11,CCTA
165 Perfect,11,CCTC
144 Perfect,11,CCTG
146 Perfect,11,CCTT
1 Perfect,11,CGAC
2 Perfect,11,CGCA
5 Perfect,11,CGCC
12 Perfect,11,CGCG
3 Perfect,11,CGCT
2 Perfect,11,CGGA
5 Perfect,11,CGGC
3 Perfect,11,CGGG
1 Perfect,11,CGTC
5 Perfect,11,CTAA
21 Perfect,11,CTAC
9 Perfect,11,CTAG
18 Perfect,11,CTAT
73 Perfect,11,CTCA
109 Perfect,11,CTCC
26 Perfect,11,CTCG
218 Perfect,11,CTCT
23 Perfect,11,CTGA
94 Perfect,11,CTGC
56 Perfect,11,CTGG
45 Perfect,11,CTGT
17 Perfect,11,CTTA
152 Perfect,11,CTTC
56 Perfect,11,CTTG
147 Perfect,11,CTTT
178 Perfect,11,GAAA
3 Perfect,11,GAAC
167 Perfect,11,GAAG
105 Perfect,11,GAAT
18 Perfect,11,GACA
2 Perfect,11,GACC
2 Perfect,11,GACG
12 Perfect,11,GACT
172 Perfect,11,GAGA
21 Perfect,11,GAGC
133 Perfect,11,GAGG
50 Perfect,11,GAGT
41 Perfect,11,GATA
75 Perfect,11,GATG
18 Perfect,11,GATT
25 Perfect,11,GCAA
7 Perfect,11,GCAC
27 Perfect,11,GCAG
33 Perfect,11,GCAT
38 Perfect,11,GCCA
8 Perfect,11,GCCC
10 Perfect,11,GCCG
44 Perfect,11,GCCT
1 Perfect,11,GCGA
13 Perfect,11,GCGC
8 Perfect,11,GCGG
2 Perfect,11,GCGT
11 Perfect,11,GCTA
1 Perfect,11,GCTC
39 Perfect,11,GCTG
21 Perfect,11,GCTT
117 Perfect,11,GGAA
6 Perfect,11,GGAC
162 Perfect,11,GGAG
36 Perfect,11,GGAT
42 Perfect,11,GGCA
7 Perfect,11,GGCC
12 Perfect,11,GGCG
22 Perfect,11,GGCT
125 Perfect,11,GGGA
29 Perfect,11,GGGC
50 Perfect,11,GGGG
120 Perfect,11,GGGT
12 Perfect,11,GGTA
62 Perfect,11,GGTG
18 Perfect,11,GGTT
8 Perfect,11,GTAA
4 Perfect,11,GTAC
13 Perfect,11,GTAG
24 Perfect,11,GTAT
8 Perfect,11,GTCA
4 Perfect,11,GTCC
2 Perfect,11,GTCG
23 Perfect,11,GTCT
52 Perfect,11,GTGA
37 Perfect,11,GTGC
33 Perfect,11,GTGG
263 Perfect,11,GTGT
12 Perfect,11,GTTA
2 Perfect,11,GTTC
21 Perfect,11,GTTG
40 Perfect,11,GTTT
198 Perfect,11,TAAA
20 Perfect,11,TAAC
38 Perfect,11,TAAG
95 Perfect,11,TAAT
25 Perfect,11,TACA
7 Perfect,11,TACC
2 Perfect,11,TACG
14 Perfect,11,TACT
18 Perfect,11,TAGA
21 Perfect,11,TAGC
33 Perfect,11,TAGG
11 Perfect,11,TAGT
709 Perfect,11,TATA
103 Perfect,11,TATC
275 Perfect,11,TATG
219 Perfect,11,TATT
35 Perfect,11,TCAA
66 Perfect,11,TCAC
32 Perfect,11,TCAG
116 Perfect,11,TCAT
68 Perfect,11,TCCA
161 Perfect,11,TCCC
5 Perfect,11,TCCG
146 Perfect,11,TCCT
1 Perfect,11,TCGC
1 Perfect,11,TCGG
39 Perfect,11,TCTA
435 Perfect,11,TCTC
138 Perfect,11,TCTG
277 Perfect,11,TCTT
122 Perfect,11,TGAA
31 Perfect,11,TGAC
56 Perfect,11,TGAG
44 Perfect,11,TGAT
34 Perfect,11,TGCA
35 Perfect,11,TGCC
7 Perfect,11,TGCG
28 Perfect,11,TGCT
96 Perfect,11,TGGA
60 Perfect,11,TGGC
95 Perfect,11,TGGG
16 Perfect,11,TGGT
159 Perfect,11,TGTA
69 Perfect,11,TGTC
828 Perfect,11,TGTG
47 Perfect,11,TGTT
78 Perfect,11,TTAA
47 Perfect,11,TTAC
18 Perfect,11,TTAG
238 Perfect,11,TTAT
100 Perfect,11,TTCA
181 Perfect,11,TTCC
4 Perfect,11,TTCG
181 Perfect,11,TTCT
31 Perfect,11,TTGA
43 Perfect,11,TTGC
32 Perfect,11,TTGG
86 Perfect,11,TTGT
999 Perfect,11,TTTA
1271 Perfect,11,TTTC
1057 Perfect,11,TTTG
2911 Perfect,11,TTTT
1 Perfect,120,GTGT
2195 Perfect,12,AAAA
105 Perfect,12,AAAC
164 Perfect,12,AAAG
269 Perfect,12,AAAT
20 Perfect,12,AACA
12 Perfect,12,AACC
4 Perfect,12,AACT
92 Perfect,12,AAGA
11 Perfect,12,AAGC
61 Perfect,12,AAGG
6 Perfect,12,AAGT
102 Perfect,12,AATA
12 Perfect,12,AATC
61 Perfect,12,AATG
79 Perfect,12,AATT
17 Perfect,12,ACAA
248 Perfect,12,ACAC
22 Perfect,12,ACAG
29 Perfect,12,ACAT
9 Perfect,12,ACCA
14 Perfect,12,ACCC
6 Perfect,12,ACCT
17 Perfect,12,ACTC
8 Perfect,12,ACTG
6 Perfect,12,ACTT
98 Perfect,12,AGAA
10 Perfect,12,AGAC
145 Perfect,12,AGAG
25 Perfect,12,AGAT
8 Perfect,12,AGCA
17 Perfect,12,AGCC
1 Perfect,12,AGCG
9 Perfect,12,AGCT
59 Perfect,12,AGGA
99 Perfect,12,AGGC
45 Perfect,12,AGGG
10 Perfect,12,AGGT
3 Perfect,12,AGTA
5 Perfect,12,AGTC
30 Perfect,12,AGTG
3 Perfect,12,AGTT
86 Perfect,12,ATAA
43 Perfect,12,ATAC
19 Perfect,12,ATAG
422 Perfect,12,ATAT
10 Perfect,12,ATCA
14 Perfect,12,ATCC
25 Perfect,12,ATCT
41 Perfect,12,ATGA
8 Perfect,12,ATGC
38 Perfect,12,ATGG
34 Perfect,12,ATGT
20 Perfect,12,ATTA
40 Perfect,12,ATTC
12 Perfect,12,ATTG
268 Perfect,12,ATTT
163 Perfect,12,CAAA
12 Perfect,12,CAAC
8 Perfect,12,CAAG
12 Perfect,12,CAAT
321 Perfect,12,CACA
15 Perfect,12,CACC
2 Perfect,12,CACG
31 Perfect,12,CACT
21 Perfect,12,CAGA
15 Perfect,12,CAGC
36 Perfect,12,CAGG
9 Perfect,12,CAGT
33 Perfect,12,CATA
41 Perfect,12,CATC
28 Perfect,12,CATG
76 Perfect,12,CATT
9 Perfect,12,CCAA
15 Perfect,12,CCAC
22 Perfect,12,CCAG
26 Perfect,12,CCAT
27 Perfect,12,CCCA
23 Perfect,12,CCCC
6 Perfect,12,CCCG
48 Perfect,12,CCCT
3 Perfect,12,CCGC
2 Perfect,12,CCGG
4 Perfect,12,CCTA
73 Perfect,12,CCTC
34 Perfect,12,CCTG
61 Perfect,12,CCTT
1 Perfect,12,CGAG
2 Perfect,12,CGCA
5 Perfect,12,CGCC
2 Perfect,12,CGCG
1 Perfect,12,CGGC
4 Perfect,12,CGGG
3 Perfect,12,CGTG
2 Perfect,12,CTAA
7 Perfect,12,CTAC
6 Perfect,12,CTAG
14 Perfect,12,CTAT
11 Perfect,12,CTCA
63 Perfect,12,CTCC
163 Perfect,12,CTCT
10 Perfect,12,CTGA
19 Perfect,12,CTGC
15 Perfect,12,CTGG
20 Perfect,12,CTGT
5 Perfect,12,CTTA
72 Perfect,12,CTTC
10 Perfect,12,CTTG
145 Perfect,12,CTTT
166 Perfect,12,GAAA
2 Perfect,12,GAAC
66 Perfect,12,GAAG
50 Perfect,12,GAAT
13 Perfect,12,GACA
1 Perfect,12,GACC
4 Perfect,12,GACT
187 Perfect,12,GAGA
4 Perfect,12,GAGC
95 Perfect,12,GAGG
17 Perfect,12,GAGT
21 Perfect,12,GATA
30 Perfect,12,GATG
7 Perfect,12,GATT
9 Perfect,12,GCAA
6 Perfect,12,GCAC
23 Perfect,12,GCAG
7 Perfect,12,GCAT
11 Perfect,12,GCCA
7 Perfect,12,GCCC
1 Perfect,12,GCCG
102 Perfect,12,GCCT
4 Perfect,12,GCGC
3 Perfect,12,GCGG
3 Perfect,12,GCTA
6 Perfect,12,GCTC
17 Perfect,12,GCTG
10 Perfect,12,GCTT
68 Perfect,12,GGAA
2 Perfect,12,GGAC
79 Perfect,12,GGAG
15 Perfect,12,GGAT
7 Perfect,12,GGCA
3 Perfect,12,GGCC
1 Perfect,12,GGCG
19 Perfect,12,GGCT
43 Perfect,12,GGGA
4 Perfect,12,GGGC
43 Perfect,12,GGGG
20 Perfect,12,GGGT
4 Perfect,12,GGTA
1 Perfect,12,GGTC
12 Perfect,12,GGTG
8 Perfect,12,GGTT
3 Perfect,12,GTAA
2 Perfect,12,GTAC
3 Perfect,12,GTAG
34 Perfect,12,GTAT
6 Perfect,12,GTCA
1 Perfect,12,GTCC
18 Perfect,12,GTCT
23 Perfect,12,GTGA
5 Perfect,12,GTGC
19 Perfect,12,GTGG
220 Perfect,12,GTGT
2 Perfect,12,GTTA
2 Perfect,12,GTTC
17 Perfect,12,GTTG
108 Perfect,12,GTTT
166 Perfect,12,TAAA
2 Perfect,12,TAAC
8 Perfect,12,TAAG
14 Perfect,12,TAAT
22 Perfect,12,TACA
5 Perfect,12,TACC
14 Perfect,12,TAGA
4 Perfect,12,TAGC
5 Perfect,12,TAGG
1 Perfect,12,TAGT
438 Perfect,12,TATA
21 Perfect,12,TATC
25 Perfect,12,TATG
111 Perfect,12,TATT
14 Perfect,12,TCAA
15 Perfect,12,TCAC
6 Perfect,12,TCAG
42 Perfect,12,TCAT
17 Perfect,12,TCCA
54 Perfect,12,TCCC
59 Perfect,12,TCCT
9 Perfect,12,TCTA
144 Perfect,12,TCTC
24 Perfect,12,TCTG
83 Perfect,12,TCTT
103 Perfect,12,TGAA
4 Perfect,12,TGAC
25 Perfect,12,TGAG
6 Perfect,12,TGAT
18 Perfect,12,TGCA
13 Perfect,12,TGCC
6 Perfect,12,TGCT
21 Perfect,12,TGGA
8 Perfect,12,TGGC
22 Perfect,12,TGGG
8 Perfect,12,TGGT
28 Perfect,12,TGTA
18 Perfect,12,TGTC
312 Perfect,12,TGTG
25 Perfect,12,TGTT
36 Perfect,12,TTAA
4 Perfect,12,TTAC
3 Perfect,12,TTAG
82 Perfect,12,TTAT
95 Perfect,12,TTCA
52 Perfect,12,TTCC
108 Perfect,12,TTCT
13 Perfect,12,TTGA
7 Perfect,12,TTGC
8 Perfect,12,TTGG
18 Perfect,12,TTGT
189 Perfect,12,TTTA
137 Perfect,12,TTTC
160 Perfect,12,TTTG
2196 Perfect,12,TTTT
2016 Perfect,13,AAAA
57 Perfect,13,AAAC
113 Perfect,13,AAAG
177 Perfect,13,AAAT
14 Perfect,13,AACA
9 Perfect,13,AACC
39 Perfect,13,AAGA
12 Perfect,13,AAGC
33 Perfect,13,AAGG
4 Perfect,13,AAGT
61 Perfect,13,AATA
7 Perfect,13,AATC
51 Perfect,13,AATG
22 Perfect,13,AATT
52 Perfect,13,ACAA
375 Perfect,13,ACAC
5 Perfect,13,ACAG
45 Perfect,13,ACAT
1 Perfect,13,ACCA
1 Perfect,13,ACCC
1 Perfect,13,ACCT
2 Perfect,13,ACTA
9 Perfect,13,ACTC
1 Perfect,13,ACTG
3 Perfect,13,ACTT
141 Perfect,13,AGAA
19 Perfect,13,AGAC
251 Perfect,13,AGAG
16 Perfect,13,AGAT
5 Perfect,13,AGCA
1 Perfect,13,AGCC
3 Perfect,13,AGCT
49 Perfect,13,AGGA
11 Perfect,13,AGGC
47 Perfect,13,AGGG
4 Perfect,13,AGGT
2 Perfect,13,AGTA
7 Perfect,13,AGTC
13 Perfect,13,AGTG
77 Perfect,13,ATAA
29 Perfect,13,ATAC
10 Perfect,13,ATAG
278 Perfect,13,ATAT
2 Perfect,13,ATCA
22 Perfect,13,ATCC
13 Perfect,13,ATCT
26 Perfect,13,ATGA
8 Perfect,13,ATGC
16 Perfect,13,ATGG
9 Perfect,13,ATGT
10 Perfect,13,ATTA
61 Perfect,13,ATTC
13 Perfect,13,ATTG
52 Perfect,13,ATTT
20 Perfect,13,CAAA
3 Perfect,13,CAAC
2 Perfect,13,CAAG
3 Perfect,13,CAAT
135 Perfect,13,CACA
7 Perfect,13,CACC
2 Perfect,13,CACG
1 Perfect,13,CACT
5 Perfect,13,CAGC
10 Perfect,13,CAGG
5 Perfect,13,CATA
7 Perfect,13,CATC
5 Perfect,13,CATG
19 Perfect,13,CATT
2 Perfect,13,CCAA
5 Perfect,13,CCAC
5 Perfect,13,CCAG
18 Perfect,13,CCAT
9 Perfect,13,CCCA
19 Perfect,13,CCCC
2 Perfect,13,CCCG
25 Perfect,13,CCCT
4 Perfect,13,CCGC
2 Perfect,13,CCGG
3 Perfect,13,CCTA
54 Perfect,13,CCTC
4 Perfect,13,CCTG
41 Perfect,13,CCTT
1 Perfect,13,CGAG
3 Perfect,13,CGCA
1 Perfect,13,CGCC
6 Perfect,13,CGCG
4 Perfect,13,CGGG
1 Perfect,13,CTAA
1 Perfect,13,CTAC
2 Perfect,13,CTAT
9 Perfect,13,CTCA
30 Perfect,13,CTCC
87 Perfect,13,CTCT
10 Perfect,13,CTGC
2 Perfect,13,CTGG
5 Perfect,13,CTGT
38 Perfect,13,CTTC
4 Perfect,13,CTTG
34 Perfect,13,CTTT
35 Perfect,13,GAAA
39 Perfect,13,GAAG
17 Perfect,13,GAAT
7 Perfect,13,GACA
2 Perfect,13,GACT
72 Perfect,13,GAGA
16 Perfect,13,GAGG
1 Perfect,13,GAGT
7 Perfect,13,GATA
24 Perfect,13,GATG
3 Perfect,13,GATT
1 Perfect,13,GCAA
10 Perfect,13,GCAG
4 Perfect,13,GCAT
1 Perfect,13,GCCA
1 Perfect,13,GCCC
8 Perfect,13,GCCT
3 Perfect,13,GCGC
3 Perfect,13,GCTG
2 Perfect,13,GCTT
28 Perfect,13,GGAA
41 Perfect,13,GGAG
13 Perfect,13,GGAT
6 Perfect,13,GGCA
1 Perfect,13,GGCC
3 Perfect,13,GGCG
8 Perfect,13,GGCT
27 Perfect,13,GGGA
1 Perfect,13,GGGC
17 Perfect,13,GGGG
9 Perfect,13,GGGT
1 Perfect,13,GGTA
17 Perfect,13,GGTG
4 Perfect,13,GGTT
1 Perfect,13,GTAA
2 Perfect,13,GTAG
3 Perfect,13,GTAT
3 Perfect,13,GTCA
2 Perfect,13,GTCT
10 Perfect,13,GTGA
4 Perfect,13,GTGC
10 Perfect,13,GTGG
125 Perfect,13,GTGT
1 Perfect,13,GTTA
2 Perfect,13,GTTG
4 Perfect,13,GTTT
52 Perfect,13,TAAA
1 Perfect,13,TAAC
2 Perfect,13,TAAG
13 Perfect,13,TAAT
8 Perfect,13,TACA
3 Perfect,13,TACC
1 Perfect,13,TACT
14 Perfect,13,TAGA
2 Perfect,13,TAGC
3 Perfect,13,TAGG
2 Perfect,13,TAGT
278 Perfect,13,TATA
14 Perfect,13,TATC
39 Perfect,13,TATG
187 Perfect,13,TATT
7 Perfect,13,TCAA
11 Perfect,13,TCAC
1 Perfect,13,TCAG
40 Perfect,13,TCAT
9 Perfect,13,TCCA
71 Perfect,13,TCCC
43 Perfect,13,TCCT
11 Perfect,13,TCTA
248 Perfect,13,TCTC
8 Perfect,13,TCTG
102 Perfect,13,TCTT
68 Perfect,13,TGAA
1 Perfect,13,TGAC
2 Perfect,13,TGAG
6 Perfect,13,TGAT
9 Perfect,13,TGCA
7 Perfect,13,TGCC
5 Perfect,13,TGCT
17 Perfect,13,TGGA
10 Perfect,13,TGGC
7 Perfect,13,TGGG
4 Perfect,13,TGGT
32 Perfect,13,TGTA
19 Perfect,13,TGTC
424 Perfect,13,TGTG
87 Perfect,13,TGTT
10 Perfect,13,TTAA
2 Perfect,13,TTAC
1 Perfect,13,TTAG
62 Perfect,13,TTAT
23 Perfect,13,TTCA
71 Perfect,13,TTCC
51 Perfect,13,TTCT
4 Perfect,13,TTGA
1 Perfect,13,TTGC
7 Perfect,13,TTGG
24 Perfect,13,TTGT
70 Perfect,13,TTTA
140 Perfect,13,TTTC
47 Perfect,13,TTTG
1936 Perfect,13,TTTT
1736 Perfect,14,AAAA
86 Perfect,14,AAAC
76 Perfect,14,AAAG
126 Perfect,14,AAAT
57 Perfect,14,AACA
21 Perfect,14,AACC
1 Perfect,14,AACT
64 Perfect,14,AAGA
8 Perfect,14,AAGC
54 Perfect,14,AAGG
2 Perfect,14,AAGT
86 Perfect,14,AATA
4 Perfect,14,AATC
32 Perfect,14,AATG
39 Perfect,14,AATT
4 Perfect,14,ACAA
153 Perfect,14,ACAC
1 Perfect,14,ACAG
4 Perfect,14,ACAT
3 Perfect,14,ACCA
1 Perfect,14,ACCC
3 Perfect,14,ACTC
32 Perfect,14,AGAA
6 Perfect,14,AGAC
66 Perfect,14,AGAG
4 Perfect,14,AGAT
3 Perfect,14,AGCA
1 Perfect,14,AGCC
1 Perfect,14,AGCT
25 Perfect,14,AGGA
4 Perfect,14,AGGC
30 Perfect,14,AGGG
2 Perfect,14,AGGT
1 Perfect,14,AGTA
3 Perfect,14,AGTG
19 Perfect,14,ATAA
11 Perfect,14,ATAC
16 Perfect,14,ATAG
202 Perfect,14,ATAT
3 Perfect,14,ATCA
19 Perfect,14,ATCC
9 Perfect,14,ATCT
18 Perfect,14,ATGA
6 Perfect,14,ATGC
9 Perfect,14,ATGG
14 Perfect,14,ATGT
7 Perfect,14,ATTA
17 Perfect,14,ATTC
3 Perfect,14,ATTG
31 Perfect,14,ATTT
6 Perfect,14,CAAA
2 Perfect,14,CAAG
1 Perfect,14,CAAT
162 Perfect,14,CACA
7 Perfect,14,CACC
1 Perfect,14,CACG
5 Perfect,14,CACT
3 Perfect,14,CAGA
1 Perfect,14,CAGC
2 Perfect,14,CAGT
6 Perfect,14,CATA
15 Perfect,14,CATC
7 Perfect,14,CATG
24 Perfect,14,CATT
8 Perfect,14,CCAC
3 Perfect,14,CCAG
7 Perfect,14,CCAT
5 Perfect,14,CCCA
11 Perfect,14,CCCC
2 Perfect,14,CCCG
15 Perfect,14,CCCT
3 Perfect,14,CCGC
15 Perfect,14,CCTC
4 Perfect,14,CCTG
34 Perfect,14,CCTT
2 Perfect,14,CGCC
1 Perfect,14,CGCG
1 Perfect,14,CTAA
2 Perfect,14,CTAC
1 Perfect,14,CTAG
2 Perfect,14,CTAT
34 Perfect,14,CTCC
95 Perfect,14,CTCT
2 Perfect,14,CTGA
4 Perfect,14,CTGC
1 Perfect,14,CTGG
6 Perfect,14,CTGT
28 Perfect,14,CTTC
31 Perfect,14,CTTT
37 Perfect,14,GAAA
32 Perfect,14,GAAG
19 Perfect,14,GAAT
5 Perfect,14,GACA
2 Perfect,14,GACT
80 Perfect,14,GAGA
27 Perfect,14,GAGG
9 Perfect,14,GATA
6 Perfect,14,GATG
1 Perfect,14,GATT
2 Perfect,14,GCAA
3 Perfect,14,GCAG
1 Perfect,14,GCCA
2 Perfect,14,GCCC
2 Perfect,14,GCCT
5 Perfect,14,GCGC
20 Perfect,14,GGAA
1 Perfect,14,GGAC
14 Perfect,14,GGAG
10 Perfect,14,GGAT
1 Perfect,14,GGCA
2 Perfect,14,GGCG
1 Perfect,14,GGCT
12 Perfect,14,GGGA
2 Perfect,14,GGGC
9 Perfect,14,GGGG
7 Perfect,14,GGGT
1 Perfect,14,GGTA
2 Perfect,14,GGTG
1 Perfect,14,GGTT
1 Perfect,14,GTAA
2 Perfect,14,GTAG
1 Perfect,14,GTAT
2 Perfect,14,GTCA
2 Perfect,14,GTGA
1 Perfect,14,GTGG
145 Perfect,14,GTGT
2 Perfect,14,GTTG
3 Perfect,14,GTTT
43 Perfect,14,TAAA
1 Perfect,14,TAAG
9 Perfect,14,TAAT
10 Perfect,14,TACA
1 Perfect,14,TACC
9 Perfect,14,TAGA
1 Perfect,14,TAGG
195 Perfect,14,TATA
10 Perfect,14,TATC
8 Perfect,14,TATG
47 Perfect,14,TATT
2 Perfect,14,TCAA
2 Perfect,14,TCAC
15 Perfect,14,TCAT
13 Perfect,14,TCCA
47 Perfect,14,TCCC
27 Perfect,14,TCCT
2 Perfect,14,TCTA
84 Perfect,14,TCTC
4 Perfect,14,TCTG
43 Perfect,14,TCTT
29 Perfect,14,TGAA
3 Perfect,14,TGAG
3 Perfect,14,TGAT
4 Perfect,14,TGCA
1 Perfect,14,TGCC
16 Perfect,14,TGGA
5 Perfect,14,TGGC
5 Perfect,14,TGGG
4 Perfect,14,TGGT
5 Perfect,14,TGTA
5 Perfect,14,TGTC
152 Perfect,14,TGTG
11 Perfect,14,TGTT
34 Perfect,14,TTAA
5 Perfect,14,TTAC
1 Perfect,14,TTAG
145 Perfect,14,TTAT
20 Perfect,14,TTCA
52 Perfect,14,TTCC
72 Perfect,14,TTCT
4 Perfect,14,TTGA
6 Perfect,14,TTGC
15 Perfect,14,TTGG
90 Perfect,14,TTGT
92 Perfect,14,TTTA
68 Perfect,14,TTTC
36 Perfect,14,TTTG
1780 Perfect,14,TTTT
1548 Perfect,15,AAAA
534 Perfect,15,AAAC
311 Perfect,15,AAAG
351 Perfect,15,AAAT
3 Perfect,15,AACA
7 Perfect,15,AACC
10 Perfect,15,AAGA
4 Perfect,15,AAGC
27 Perfect,15,AAGG
27 Perfect,15,AATA
10 Perfect,15,AATC
21 Perfect,15,AATG
12 Perfect,15,AATT
5 Perfect,15,ACAA
186 Perfect,15,ACAC
8 Perfect,15,ACAG
15 Perfect,15,ACAT
2 Perfect,15,ACCC
4 Perfect,15,ACTC
36 Perfect,15,AGAA
13 Perfect,15,AGAC
129 Perfect,15,AGAG
4 Perfect,15,AGAT
1 Perfect,15,AGCA
1 Perfect,15,AGCC
1 Perfect,15,AGCT
15 Perfect,15,AGGA
4 Perfect,15,AGGC
33 Perfect,15,AGGG
1 Perfect,15,AGGT
1 Perfect,15,AGTC
6 Perfect,15,AGTG
23 Perfect,15,ATAA
39 Perfect,15,ATAC
15 Perfect,15,ATAG
158 Perfect,15,ATAT
1 Perfect,15,ATCA
4 Perfect,15,ATCC
9 Perfect,15,ATCT
6 Perfect,15,ATGA
2 Perfect,15,ATGC
7 Perfect,15,ATGG
1 Perfect,15,ATGT
14 Perfect,15,ATTA
23 Perfect,15,ATTC
5 Perfect,15,ATTG
25 Perfect,15,ATTT
13 Perfect,15,CAAA
3 Perfect,15,CAAC
3 Perfect,15,CAAG
2 Perfect,15,CAAT
67 Perfect,15,CACA
7 Perfect,15,CACC
2 Perfect,15,CACG
5 Perfect,15,CACT
6 Perfect,15,CAGG
4 Perfect,15,CATA
7 Perfect,15,CATC
4 Perfect,15,CATG
10 Perfect,15,CATT
1 Perfect,15,CCAA
5 Perfect,15,CCAC
5 Perfect,15,CCAG
13 Perfect,15,CCAT
1 Perfect,15,CCCA
10 Perfect,15,CCCC
1 Perfect,15,CCCG
3 Perfect,15,CCCT
1 Perfect,15,CCGC
45 Perfect,15,CCTC
5 Perfect,15,CCTG
17 Perfect,15,CCTT
1 Perfect,15,CGCC
2 Perfect,15,CGCG
1 Perfect,15,CGCT
1 Perfect,15,CGGG
6 Perfect,15,CTAC
1 Perfect,15,CTAG
23 Perfect,15,CTCC
1 Perfect,15,CTCG
50 Perfect,15,CTCT
4 Perfect,15,CTGC
2 Perfect,15,CTGG
2 Perfect,15,CTGT
23 Perfect,15,CTTC
7 Perfect,15,CTTG
10 Perfect,15,CTTT
25 Perfect,15,GAAA
59 Perfect,15,GAAG
7 Perfect,15,GAAT
1 Perfect,15,GACG
37 Perfect,15,GAGA
1 Perfect,15,GAGC
9 Perfect,15,GAGG
8 Perfect,15,GATA
12 Perfect,15,GATG
1 Perfect,15,GCAA
1 Perfect,15,GCAT
1 Perfect,15,GCCC
1 Perfect,15,GCGA
1 Perfect,15,GCGC
1 Perfect,15,GCTG
29 Perfect,15,GGAA
2 Perfect,15,GGAC
17 Perfect,15,GGAG
3 Perfect,15,GGAT
1 Perfect,15,GGCG
6 Perfect,15,GGGA
8 Perfect,15,GGGG
5 Perfect,15,GGGT
1 Perfect,15,GGTA
3 Perfect,15,GGTG
1 Perfect,15,GTAG
2 Perfect,15,GTAT
1 Perfect,15,GTCT
4 Perfect,15,GTGA
2 Perfect,15,GTGC
5 Perfect,15,GTGG
55 Perfect,15,GTGT
4 Perfect,15,GTTG
1 Perfect,15,GTTT
33 Perfect,15,TAAA
1 Perfect,15,TAAC
1 Perfect,15,TAAG
5 Perfect,15,TAAT
1 Perfect,15,TACA
1 Perfect,15,TACC
5 Perfect,15,TAGA
3 Perfect,15,TAGC
1 Perfect,15,TAGG
1 Perfect,15,TAGT
137 Perfect,15,TATA
11 Perfect,15,TATC
30 Perfect,15,TATG
11 Perfect,15,TATT
6 Perfect,15,TCAA
6 Perfect,15,TCAC
2 Perfect,15,TCAG
31 Perfect,15,TCAT
4 Perfect,15,TCCA
30 Perfect,15,TCCC
1 Perfect,15,TCCG
34 Perfect,15,TCCT
4 Perfect,15,TCTA
151 Perfect,15,TCTC
12 Perfect,15,TCTG
41 Perfect,15,TCTT
22 Perfect,15,TGAA
2 Perfect,15,TGAC
4 Perfect,15,TGAG
2 Perfect,15,TGAT
3 Perfect,15,TGCA
1 Perfect,15,TGCC
1 Perfect,15,TGCT
24 Perfect,15,TGGA
5 Perfect,15,TGGC
11 Perfect,15,TGGG
1 Perfect,15,TGGT
12 Perfect,15,TGTA
2 Perfect,15,TGTC
216 Perfect,15,TGTG
1 Perfect,15,TGTT
6 Perfect,15,TTAA
4 Perfect,15,TTAC
34 Perfect,15,TTAT
9 Perfect,15,TTCA
36 Perfect,15,TTCC
17 Perfect,15,TTCT
3 Perfect,15,TTGA
1 Perfect,15,TTGC
3 Perfect,15,TTGG
14 Perfect,15,TTGT
366 Perfect,15,TTTA
320 Perfect,15,TTTC
498 Perfect,15,TTTG
1566 Perfect,15,TTTT
1384 Perfect,16,AAAA
28 Perfect,16,AAAC
39 Perfect,16,AAAG
62 Perfect,16,AAAT
6 Perfect,16,AACA
2 Perfect,16,AACC
18 Perfect,16,AAGA
4 Perfect,16,AAGC
20 Perfect,16,AAGG
20 Perfect,16,AATA
1 Perfect,16,AATC
12 Perfect,16,AATG
13 Perfect,16,AATT
4 Perfect,16,ACAA
75 Perfect,16,ACAC
3 Perfect,16,ACAG
6 Perfect,16,ACAT
1 Perfect,16,ACCC
1 Perfect,16,ACTT
20 Perfect,16,AGAA
1 Perfect,16,AGAC
27 Perfect,16,AGAG
6 Perfect,16,AGAT
1 Perfect,16,AGCA
2 Perfect,16,AGCC
18 Perfect,16,AGGA
3 Perfect,16,AGGC
8 Perfect,16,AGGG
1 Perfect,16,AGGT
2 Perfect,16,AGTG
17 Perfect,16,ATAA
3 Perfect,16,ATAC
2 Perfect,16,ATAG
120 Perfect,16,ATAT
3 Perfect,16,ATCC
9 Perfect,16,ATCT
6 Perfect,16,ATGA
1 Perfect,16,ATGC
6 Perfect,16,ATGG
3 Perfect,16,ATGT
2 Perfect,16,ATTA
7 Perfect,16,ATTC
1 Perfect,16,ATTG
78 Perfect,16,ATTT
75 Perfect,16,CAAA
1 Perfect,16,CAAG
5 Perfect,16,CAAT
77 Perfect,16,CACA
1 Perfect,16,CACC
2 Perfect,16,CACT
1 Perfect,16,CAGG
5 Perfect,16,CATA
4 Perfect,16,CATC
2 Perfect,16,CATG
13 Perfect,16,CATT
1 Perfect,16,CCAA
7 Perfect,16,CCAT
4 Perfect,16,CCCA
8 Perfect,16,CCCC
1 Perfect,16,CCCG
6 Perfect,16,CCCT
14 Perfect,16,CCTC
2 Perfect,16,CCTG
19 Perfect,16,CCTT
1 Perfect,16,CGTG
2 Perfect,16,CTAT
9 Perfect,16,CTCC
41 Perfect,16,CTCT
1 Perfect,16,CTGC
2 Perfect,16,CTGT
21 Perfect,16,CTTC
39 Perfect,16,CTTT
19 Perfect,16,GAAA
13 Perfect,16,GAAG
3 Perfect,16,GAAT
2 Perfect,16,GACA
63 Perfect,16,GAGA
17 Perfect,16,GAGG
9 Perfect,16,GATA
2 Perfect,16,GATG
1 Perfect,16,GCAA
2 Perfect,16,GCAC
1 Perfect,16,GCCC
4 Perfect,16,GCCT
1 Perfect,16,GCGA
1 Perfect,16,GCGC
1 Perfect,16,GCGG
2 Perfect,16,GCTT
19 Perfect,16,GGAA
7 Perfect,16,GGAG
5 Perfect,16,GGAT
1 Perfect,16,GGCA
1 Perfect,16,GGCC
2 Perfect,16,GGCT
8 Perfect,16,GGGA
3 Perfect,16,GGGG
2 Perfect,16,GGTG
2 Perfect,16,GGTT
1 Perfect,16,GTAA
1 Perfect,16,GTAG
4 Perfect,16,GTAT
2 Perfect,16,GTGA
1 Perfect,16,GTGG
91 Perfect,16,GTGT
1 Perfect,16,GTTG
24 Perfect,16,GTTT
54 Perfect,16,TAAA
3 Perfect,16,TAAT
1 Perfect,16,TACA
1 Perfect,16,TAGA
95 Perfect,16,TATA
7 Perfect,16,TATC
7 Perfect,16,TATG
31 Perfect,16,TATT
3 Perfect,16,TCAA
1 Perfect,16,TCAC
15 Perfect,16,TCAT
4 Perfect,16,TCCA
10 Perfect,16,TCCC
12 Perfect,16,TCCT
3 Perfect,16,TCTA
42 Perfect,16,TCTC
1 Perfect,16,TCTG
23 Perfect,16,TCTT
29 Perfect,16,TGAA
3 Perfect,16,TGAG
1 Perfect,16,TGAT
2 Perfect,16,TGCA
1 Perfect,16,TGCC
4 Perfect,16,TGGA
1 Perfect,16,TGGT
2 Perfect,16,TGTA
83 Perfect,16,TGTG
2 Perfect,16,TGTT
1 Perfect,16,TTAC
17 Perfect,16,TTAT
18 Perfect,16,TTCA
23 Perfect,16,TTCC
18 Perfect,16,TTCT
2 Perfect,16,TTGA
1 Perfect,16,TTGG
3 Perfect,16,TTGT
55 Perfect,16,TTTA
34 Perfect,16,TTTC
74 Perfect,16,TTTG
1357 Perfect,16,TTTT
1120 Perfect,17,AAAA
21 Perfect,17,AAAC
46 Perfect,17,AAAG
66 Perfect,17,AAAT
7 Perfect,17,AACA
1 Perfect,17,AACC
6 Perfect,17,AAGA
1 Perfect,17,AAGC
14 Perfect,17,AAGG
22 Perfect,17,AATA
6 Perfect,17,AATG
5 Perfect,17,AATT
7 Perfect,17,ACAA
147 Perfect,17,ACAC
2 Perfect,17,ACAG
5 Perfect,17,ACAT
1 Perfect,17,ACCC
38 Perfect,17,AGAA
4 Perfect,17,AGAC
81 Perfect,17,AGAG
7 Perfect,17,AGAT
1 Perfect,17,AGCA
3 Perfect,17,AGCC
21 Perfect,17,AGGA
24 Perfect,17,AGGG
1 Perfect,17,AGTA
10 Perfect,17,ATAA
3 Perfect,17,ATAC
4 Perfect,17,ATAG
107 Perfect,17,ATAT
1 Perfect,17,ATCA
8 Perfect,17,ATCC
3 Perfect,17,ATCT
6 Perfect,17,ATGA
1 Perfect,17,ATGG
2 Perfect,17,ATGT
3 Perfect,17,ATTA
12 Perfect,17,ATTC
4 Perfect,17,ATTG
23 Perfect,17,ATTT
1 Perfect,17,CAAA
38 Perfect,17,CACA
1 Perfect,17,CACC
1 Perfect,17,CACG
1 Perfect,17,CAGC
1 Perfect,17,CAGG
1 Perfect,17,CATA
4 Perfect,17,CATC
3 Perfect,17,CATT
1 Perfect,17,CCAC
4 Perfect,17,CCAT
1 Perfect,17,CCCC
5 Perfect,17,CCCT
1 Perfect,17,CCGC
12 Perfect,17,CCTC
13 Perfect,17,CCTT
2 Perfect,17,CTAC
1 Perfect,17,CTAT
1 Perfect,17,CTCA
8 Perfect,17,CTCC
25 Perfect,17,CTCT
1 Perfect,17,CTGT
9 Perfect,17,CTTC
8 Perfect,17,CTTT
9 Perfect,17,GAAA
18 Perfect,17,GAAG
6 Perfect,17,GAAT
20 Perfect,17,GAGA
4 Perfect,17,GAGG
1 Perfect,17,GAGT
2 Perfect,17,GATA
6 Perfect,17,GATG
1 Perfect,17,GCAA
1 Perfect,17,GCAC
1 Perfect,17,GCAG
1 Perfect,17,GCGC
2 Perfect,17,GCGG
1 Perfect,17,GCTA
7 Perfect,17,GGAA
8 Perfect,17,GGAG
2 Perfect,17,GGAT
7 Perfect,17,GGGA
1 Perfect,17,GGGC
2 Perfect,17,GGGG
1 Perfect,17,GGTG
1 Perfect,17,GGTT
1 Perfect,17,GTCA
55 Perfect,17,GTGT
3 Perfect,17,GTTT
11 Perfect,17,TAAA
3 Perfect,17,TAAT
1 Perfect,17,TACC
2 Perfect,17,TAGA
94 Perfect,17,TATA
2 Perfect,17,TATC
7 Perfect,17,TATG
67 Perfect,17,TATT
6 Perfect,17,TCAA
1 Perfect,17,TCAC
6 Perfect,17,TCAT
2 Perfect,17,TCCA
14 Perfect,17,TCCC
22 Perfect,17,TCCT
5 Perfect,17,TCTA
86 Perfect,17,TCTC
2 Perfect,17,TCTG
47 Perfect,17,TCTT
12 Perfect,17,TGAA
2 Perfect,17,TGAT
2 Perfect,17,TGCA
2 Perfect,17,TGCC
1 Perfect,17,TGCT
3 Perfect,17,TGGA
1 Perfect,17,TGGC
1 Perfect,17,TGGG
1 Perfect,17,TGGT
8 Perfect,17,TGTA
3 Perfect,17,TGTC
123 Perfect,17,TGTG
23 Perfect,17,TGTT
16 Perfect,17,TTAT
9 Perfect,17,TTCA
25 Perfect,17,TTCC
4 Perfect,17,TTCT
2 Perfect,17,TTGA
3 Perfect,17,TTGT
25 Perfect,17,TTTA
28 Perfect,17,TTTC
21 Perfect,17,TTTG
1094 Perfect,17,TTTT
866 Perfect,18,AAAA
25 Perfect,18,AAAC
20 Perfect,18,AAAG
72 Perfect,18,AAAT
14 Perfect,18,AACA
1 Perfect,18,AACC
1 Perfect,18,AACT
17 Perfect,18,AAGA
16 Perfect,18,AAGG
42 Perfect,18,AATA
7 Perfect,18,AATG
11 Perfect,18,AATT
2 Perfect,18,ACAA
48 Perfect,18,ACAC
2 Perfect,18,ACAT
5 Perfect,18,AGAA
3 Perfect,18,AGAC
31 Perfect,18,AGAG
10 Perfect,18,AGGA
1 Perfect,18,AGGC
2 Perfect,18,AGGG
1 Perfect,18,AGGT
1 Perfect,18,AGTG
8 Perfect,18,ATAA
1 Perfect,18,ATAC
8 Perfect,18,ATAG
94 Perfect,18,ATAT
1 Perfect,18,ATCA
2 Perfect,18,ATCC
2 Perfect,18,ATCT
4 Perfect,18,ATGA
1 Perfect,18,ATGC
6 Perfect,18,ATGG
2 Perfect,18,ATGT
2 Perfect,18,ATTC
2 Perfect,18,ATTT
4 Perfect,18,CAAA
1 Perfect,18,CAAT
51 Perfect,18,CACA
1 Perfect,18,CACC
2 Perfect,18,CACG
1 Perfect,18,CAGC
1 Perfect,18,CAGG
10 Perfect,18,CATC
1 Perfect,18,CATG
14 Perfect,18,CATT
2 Perfect,18,CCAT
3 Perfect,18,CCCC
3 Perfect,18,CCCT
2 Perfect,18,CCTC
7 Perfect,18,CCTT
2 Perfect,18,CTAT
1 Perfect,18,CTCA
5 Perfect,18,CTCC
24 Perfect,18,CTCT
1 Perfect,18,CTGT
6 Perfect,18,CTTC
4 Perfect,18,CTTT
17 Perfect,18,GAAA
8 Perfect,18,GAAG
3 Perfect,18,GAAT
2 Perfect,18,GACA
29 Perfect,18,GAGA
10 Perfect,18,GAGG
4 Perfect,18,GATA
2 Perfect,18,GATG
2 Perfect,18,GCAC
1 Perfect,18,GCAG
3 Perfect,18,GCGC
12 Perfect,18,GGAA
1 Perfect,18,GGAG
4 Perfect,18,GGAT
2 Perfect,18,GGCA
6 Perfect,18,GGGA
1 Perfect,18,GGGC
1 Perfect,18,GGGG
2 Perfect,18,GTAT
46 Perfect,18,GTGT
1 Perfect,18,GTTG
17 Perfect,18,TAAA
3 Perfect,18,TAAT
2 Perfect,18,TACA
1 Perfect,18,TACC
1 Perfect,18,TAGA
60 Perfect,18,TATA
4 Perfect,18,TATC
11 Perfect,18,TATT
2 Perfect,18,TCAA
1 Perfect,18,TCAT
3 Perfect,18,TCCA
12 Perfect,18,TCCC
10 Perfect,18,TCCT
5 Perfect,18,TCTA
35 Perfect,18,TCTC
2 Perfect,18,TCTG
15 Perfect,18,TCTT
11 Perfect,18,TGAA
1 Perfect,18,TGAC
1 Perfect,18,TGCT
18 Perfect,18,TGGA
1 Perfect,18,TGTA
1 Perfect,18,TGTC
50 Perfect,18,TGTG
7 Perfect,18,TGTT
10 Perfect,18,TTAA
82 Perfect,18,TTAT
5 Perfect,18,TTCA
22 Perfect,18,TTCC
25 Perfect,18,TTCT
4 Perfect,18,TTGG
39 Perfect,18,TTGT
34 Perfect,18,TTTA
11 Perfect,18,TTTC
16 Perfect,18,TTTG
877 Perfect,18,TTTT
743 Perfect,19,AAAA
251 Perfect,19,AAAC
116 Perfect,19,AAAG
205 Perfect,19,AAAT
1 Perfect,19,AACA
1 Perfect,19,AACC
2 Perfect,19,AAGA
2 Perfect,19,AAGC
9 Perfect,19,AAGG
10 Perfect,19,AATA
1 Perfect,19,AATC
4 Perfect,19,AATG
3 Perfect,19,AATT
83 Perfect,19,ACAC
1 Perfect,19,ACAT
21 Perfect,19,AGAA
7 Perfect,19,AGAC
52 Perfect,19,AGAG
3 Perfect,19,AGAT
1 Perfect,19,AGCC
9 Perfect,19,AGGA
6 Perfect,19,AGGC
17 Perfect,19,AGGG
1 Perfect,19,AGTG
6 Perfect,19,ATAA
13 Perfect,19,ATAC
7 Perfect,19,ATAG
63 Perfect,19,ATAT
3 Perfect,19,ATCC
9 Perfect,19,ATCT
2 Perfect,19,ATGA
1 Perfect,19,ATGG
6 Perfect,19,ATTA
8 Perfect,19,ATTC
2 Perfect,19,ATTG
7 Perfect,19,ATTT
7 Perfect,19,CAAA
1 Perfect,19,CAAC
32 Perfect,19,CACA
1 Perfect,19,CACC
4 Perfect,19,CACT
1 Perfect,19,CAGC
1 Perfect,19,CATA
5 Perfect,19,CATC
1 Perfect,19,CATT
1 Perfect,19,CCAA
1 Perfect,19,CCAC
1 Perfect,19,CCAG
3 Perfect,19,CCAT
1 Perfect,19,CCCC
1 Perfect,19,CCCT
17 Perfect,19,CCTC
5 Perfect,19,CCTT
1 Perfect,19,CGCG
1 Perfect,19,CTAC
1 Perfect,19,CTAG
3 Perfect,19,CTCC
17 Perfect,19,CTCT
1 Perfect,19,CTGA
11 Perfect,19,CTTC
4 Perfect,19,CTTG
4 Perfect,19,CTTT
4 Perfect,19,GAAA
20 Perfect,19,GAAG
4 Perfect,19,GAAT
13 Perfect,19,GAGA
5 Perfect,19,GAGG
3 Perfect,19,GATA
1 Perfect,19,GATT
1 Perfect,19,GCAA
1 Perfect,19,GCAG
6 Perfect,19,GGAA
15 Perfect,19,GGAG
4 Perfect,19,GGAT
1 Perfect,19,GGCG
1 Perfect,19,GGGA
1 Perfect,19,GGGG
2 Perfect,19,GTGC
43 Perfect,19,GTGT
9 Perfect,19,TAAA
1 Perfect,19,TAAT
2 Perfect,19,TACA
1 Perfect,19,TAGA
3 Perfect,19,TAGG
74 Perfect,19,TATA
8 Perfect,19,TATC
8 Perfect,19,TATG
8 Perfect,19,TATT
9 Perfect,19,TCAT
1 Perfect,19,TCCA
9 Perfect,19,TCCC
1 Perfect,19,TCCG
12 Perfect,19,TCCT
2 Perfect,19,TCTA
48 Perfect,19,TCTC
5 Perfect,19,TCTG
15 Perfect,19,TCTT
3 Perfect,19,TGAA
1 Perfect,19,TGAC
3 Perfect,19,TGAT
6 Perfect,19,TGGA
1 Perfect,19,TGGG
1 Perfect,19,TGTA
1 Perfect,19,TGTC
104 Perfect,19,TGTG
2 Perfect,19,TGTT
1 Perfect,19,TTAA
12 Perfect,19,TTAT
7 Perfect,19,TTCA
26 Perfect,19,TTCC
1 Perfect,19,TTCG
7 Perfect,19,TTCT
1 Perfect,19,TTGC
2 Perfect,19,TTGG
2 Perfect,19,TTGT
181 Perfect,19,TTTA
122 Perfect,19,TTTC
239 Perfect,19,TTTG
756 Perfect,19,TTTT
641 Perfect,20,AAAA
15 Perfect,20,AAAC
19 Perfect,20,AAAG
36 Perfect,20,AAAT
3 Perfect,20,AACA
3 Perfect,20,AAGA
12 Perfect,20,AAGG
19 Perfect,20,AATA
3 Perfect,20,AATC
5 Perfect,20,AATG
6 Perfect,20,AATT
42 Perfect,20,ACAC
3 Perfect,20,AGAA
14 Perfect,20,AGAG
3 Perfect,20,AGAT
1 Perfect,20,AGCG
5 Perfect,20,AGGA
4 Perfect,20,AGGG
1 Perfect,20,AGTG
6 Perfect,20,ATAA
2 Perfect,20,ATAC
54 Perfect,20,ATAT
2 Perfect,20,ATCC
5 Perfect,20,ATCT
2 Perfect,20,ATGA
1 Perfect,20,ATGG
1 Perfect,20,ATGT
2 Perfect,20,ATTC
33 Perfect,20,ATTT
29 Perfect,20,CAAA
1 Perfect,20,CAAC
1 Perfect,20,CAAG
37 Perfect,20,CACA
1 Perfect,20,CACC
1 Perfect,20,CAGA
2 Perfect,20,CATC
2 Perfect,20,CATT
2 Perfect,20,CCAA
1 Perfect,20,CCCC
1 Perfect,20,CCCT
6 Perfect,20,CCTC
1 Perfect,20,CCTG
5 Perfect,20,CCTT
2 Perfect,20,CTAG
1 Perfect,20,CTAT
3 Perfect,20,CTCC
1 Perfect,20,CTCG
15 Perfect,20,CTCT
11 Perfect,20,CTTC
1 Perfect,20,CTTG
9 Perfect,20,CTTT
5 Perfect,20,GAAA
1 Perfect,20,GAAG
2 Perfect,20,GAAT
1 Perfect,20,GACA
18 Perfect,20,GAGA
5 Perfect,20,GAGG
4 Perfect,20,GATA
4 Perfect,20,GATG
1 Perfect,20,GCCT
1 Perfect,20,GCGC
3 Perfect,20,GGAA
4 Perfect,20,GGAG
2 Perfect,20,GGAT
1 Perfect,20,GGCA
1 Perfect,20,GGGA
2 Perfect,20,GTAT
2 Perfect,20,GTCT
41 Perfect,20,GTGT
1 Perfect,20,GTTA
16 Perfect,20,GTTT
25 Perfect,20,TAAA
2 Perfect,20,TAGA
49 Perfect,20,TATA
3 Perfect,20,TATC
8 Perfect,20,TATT
4 Perfect,20,TCAT
4 Perfect,20,TCCA
2 Perfect,20,TCCC
3 Perfect,20,TCCT
2 Perfect,20,TCTA
26 Perfect,20,TCTC
5 Perfect,20,TCTT
2 Perfect,20,TGAA
1 Perfect,20,TGAG
2 Perfect,20,TGAT
1 Perfect,20,TGCA
3 Perfect,20,TGGA
1 Perfect,20,TGGT
1 Perfect,20,TGTA
39 Perfect,20,TGTG
2 Perfect,20,TGTT
3 Perfect,20,TTAA
1 Perfect,20,TTAC
3 Perfect,20,TTAT
4 Perfect,20,TTCA
12 Perfect,20,TTCC
5 Perfect,20,TTCT
2 Perfect,20,TTGA
1 Perfect,20,TTGT
26 Perfect,20,TTTA
9 Perfect,20,TTTC
40 Perfect,20,TTTG
646 Perfect,20,TTTT
546 Perfect,21,AAAA
15 Perfect,21,AAAC
14 Perfect,21,AAAG
31 Perfect,21,AAAT
1 Perfect,21,AAGA
3 Perfect,21,AAGG
6 Perfect,21,AATA
3 Perfect,21,AATG
1 Perfect,21,AATT
5 Perfect,21,ACAA
86 Perfect,21,ACAC
1 Perfect,21,ACTC
8 Perfect,21,AGAA
1 Perfect,21,AGAC
37 Perfect,21,AGAG
3 Perfect,21,AGAT
7 Perfect,21,AGGA
12 Perfect,21,AGGG
1 Perfect,21,AGTC
1 Perfect,21,AGTG
1 Perfect,21,AGTT
5 Perfect,21,ATAA
1 Perfect,21,ATAC
38 Perfect,21,ATAT
1 Perfect,21,ATCA
5 Perfect,21,ATCC
1 Perfect,21,ATCT
3 Perfect,21,ATGA
2 Perfect,21,ATGG
1 Perfect,21,ATTA
3 Perfect,21,ATTC
3 Perfect,21,ATTG
10 Perfect,21,ATTT
5 Perfect,21,CAAA
1 Perfect,21,CAAC
22 Perfect,21,CACA
1 Perfect,21,CATC
1 Perfect,21,CCAG
4 Perfect,21,CCAT
1 Perfect,21,CCCG
2 Perfect,21,CCTC
4 Perfect,21,CCTT
1 Perfect,21,CTAT
1 Perfect,21,CTCA
3 Perfect,21,CTCC
4 Perfect,21,CTCT
2 Perfect,21,CTTC
2 Perfect,21,GAAA
4 Perfect,21,GAAG
2 Perfect,21,GAAT
14 Perfect,21,GAGA
1 Perfect,21,GAGC
1 Perfect,21,GATA
3 Perfect,21,GATG
4 Perfect,21,GGAA
5 Perfect,21,GGAG
2 Perfect,21,GGAT
1 Perfect,21,GGGG
1 Perfect,21,GTCT
17 Perfect,21,GTGT
2 Perfect,21,GTTT
6 Perfect,21,TAAA
2 Perfect,21,TAAT
1 Perfect,21,TAGA
37 Perfect,21,TATA
3 Perfect,21,TATG
32 Perfect,21,TATT
3 Perfect,21,TCAA
3 Perfect,21,TCAT
13 Perfect,21,TCCC
1 Perfect,21,TCCT
2 Perfect,21,TCTA
34 Perfect,21,TCTC
13 Perfect,21,TCTT
2 Perfect,21,TGAA
2 Perfect,21,TGCC
1 Perfect,21,TGCT
2 Perfect,21,TGGA
1 Perfect,21,TGGT
1 Perfect,21,TGTA
74 Perfect,21,TGTG
15 Perfect,21,TGTT
1 Perfect,21,TTAA
19 Perfect,21,TTAT
3 Perfect,21,TTCA
8 Perfect,21,TTCC
1 Perfect,21,TTCT
2 Perfect,21,TTGA
10 Perfect,21,TTTA
12 Perfect,21,TTTC
7 Perfect,21,TTTG
577 Perfect,21,TTTT
506 Perfect,22,AAAA
17 Perfect,22,AAAC
12 Perfect,22,AAAG
32 Perfect,22,AAAT
6 Perfect,22,AACA
1 Perfect,22,AACC
3 Perfect,22,AAGA
2 Perfect,22,AAGC
5 Perfect,22,AAGG
12 Perfect,22,AATA
2 Perfect,22,AATG
1 Perfect,22,AATT
36 Perfect,22,ACAC
1 Perfect,22,ACCA
3 Perfect,22,AGAA
1 Perfect,22,AGAC
10 Perfect,22,AGAG
3 Perfect,22,AGGA
3 Perfect,22,AGGG
2 Perfect,22,AGGT
1 Perfect,22,ATAA
1 Perfect,22,ATAC
3 Perfect,22,ATAG
31 Perfect,22,ATAT
1 Perfect,22,ATCC
4 Perfect,22,ATGA
2 Perfect,22,ATGT
3 Perfect,22,ATTT
2 Perfect,22,CAAA
2 Perfect,22,CAAT
21 Perfect,22,CACA
1 Perfect,22,CATA
3 Perfect,22,CATC
1 Perfect,22,CATT
1 Perfect,22,CCAT
1 Perfect,22,CCCG
2 Perfect,22,CCCT
1 Perfect,22,CCTC
4 Perfect,22,CCTT
1 Perfect,22,CTAC
2 Perfect,22,CTCC
16 Perfect,22,CTCT
3 Perfect,22,CTTC
1 Perfect,22,CTTT
7 Perfect,22,GAAA
1 Perfect,22,GAAG
1 Perfect,22,GAAT
1 Perfect,22,GACA
19 Perfect,22,GAGA
2 Perfect,22,GAGG
2 Perfect,22,GATA
5 Perfect,22,GATG
1 Perfect,22,GATT
5 Perfect,22,GGAA
2 Perfect,22,GGAT
1 Perfect,22,GGGG
37 Perfect,22,GTGT
7 Perfect,22,TAAA
4 Perfect,22,TAGA
30 Perfect,22,TATA
2 Perfect,22,TATC
8 Perfect,22,TATT
1 Perfect,22,TCAA
2 Perfect,22,TCAT
1 Perfect,22,TCCA
5 Perfect,22,TCCC
2 Perfect,22,TCCT
2 Perfect,22,TCTA
15 Perfect,22,TCTC
5 Perfect,22,TCTT
6 Perfect,22,TGAA
7 Perfect,22,TGGA
1 Perfect,22,TGGG
39 Perfect,22,TGTG
4 Perfect,22,TGTT
2 Perfect,22,TTAA
28 Perfect,22,TTAT
5 Perfect,22,TTCA
12 Perfect,22,TTCC
7 Perfect,22,TTCT
1 Perfect,22,TTGA
1 Perfect,22,TTGC
1 Perfect,22,TTGG
15 Perfect,22,TTGT
20 Perfect,22,TTTA
6 Perfect,22,TTTC
9 Perfect,22,TTTG
529 Perfect,22,TTTT
432 Perfect,23,AAAA
108 Perfect,23,AAAC
56 Perfect,23,AAAG
78 Perfect,23,AAAT
1 Perfect,23,AAGA
10 Perfect,23,AAGG
5 Perfect,23,AATA
2 Perfect,23,AATT
1 Perfect,23,ACAA
66 Perfect,23,ACAC
7 Perfect,23,AGAA
1 Perfect,23,AGAC
23 Perfect,23,AGAG
2 Perfect,23,AGGA
1 Perfect,23,AGGC
4 Perfect,23,AGGG
3 Perfect,23,ATAA
5 Perfect,23,ATAC
1 Perfect,23,ATAG
25 Perfect,23,ATAT
3 Perfect,23,ATCC
2 Perfect,23,ATCT
1 Perfect,23,ATTA
2 Perfect,23,ATTT
2 Perfect,23,CAAA
1 Perfect,23,CAAG
23 Perfect,23,CACA
1 Perfect,23,CATC
1 Perfect,23,CATT
1 Perfect,23,CCAG
4 Perfect,23,CCAT
6 Perfect,23,CCTC
5 Perfect,23,CCTT
1 Perfect,23,CGCC
1 Perfect,23,CTAC
3 Perfect,23,CTCC
8 Perfect,23,CTCT
1 Perfect,23,CTTG
4 Perfect,23,CTTT
2 Perfect,23,GAAA
9 Perfect,23,GAAG
3 Perfect,23,GAAT
8 Perfect,23,GAGA
1 Perfect,23,GAGG
1 Perfect,23,GATA
5 Perfect,23,GATG
1 Perfect,23,GCAA
1 Perfect,23,GCAG
3 Perfect,23,GGAA
1 Perfect,23,GGAG
1 Perfect,23,GGGA
22 Perfect,23,GTGT
2 Perfect,23,GTTT
8 Perfect,23,TAAA
1 Perfect,23,TAAG
2 Perfect,23,TAAT
1 Perfect,23,TACG
2 Perfect,23,TAGA
3 Perfect,23,TAGG
30 Perfect,23,TATA
1 Perfect,23,TATC
3 Perfect,23,TATG
3 Perfect,23,TATT
1 Perfect,23,TCAC
3 Perfect,23,TCAT
1 Perfect,23,TCCA
2 Perfect,23,TCCC
2 Perfect,23,TCCT
20 Perfect,23,TCTC
2 Perfect,23,TCTG
6 Perfect,23,TCTT
4 Perfect,23,TGAA
1 Perfect,23,TGAG
1 Perfect,23,TGCC
2 Perfect,23,TGGA
2 Perfect,23,TGGG
1 Perfect,23,TGTA
64 Perfect,23,TGTG
1 Perfect,23,TGTT
1 Perfect,23,TTAA
8 Perfect,23,TTAT
1 Perfect,23,TTCA
5 Perfect,23,TTCC
1 Perfect,23,TTCT
3 Perfect,23,TTGG
4 Perfect,23,TTGT
106 Perfect,23,TTTA
57 Perfect,23,TTTC
86 Perfect,23,TTTG
441 Perfect,23,TTTT
398 Perfect,24,AAAA
7 Perfect,24,AAAC
6 Perfect,24,AAAG
22 Perfect,24,AAAT
2 Perfect,24,AACA
3 Perfect,24,AAGA
3 Perfect,24,AAGG
6 Perfect,24,AATA
3 Perfect,24,AATC
1 Perfect,24,AATT
1 Perfect,24,ACAA
36 Perfect,24,ACAC
1 Perfect,24,AGAA
10 Perfect,24,AGAG
1 Perfect,24,AGAT
2 Perfect,24,AGGA
2 Perfect,24,AGGG
1 Perfect,24,ATAA
32 Perfect,24,ATAT
3 Perfect,24,ATCC
2 Perfect,24,ATCT
3 Perfect,24,ATGA
1 Perfect,24,ATTG
16 Perfect,24,ATTT
14 Perfect,24,CAAA
31 Perfect,24,CACA
1 Perfect,24,CATA
1 Perfect,24,CATC
2 Perfect,24,CATT
2 Perfect,24,CCCC
1 Perfect,24,CCTC
6 Perfect,24,CCTT
1 Perfect,24,CTAT
1 Perfect,24,CTCC
8 Perfect,24,CTCT
3 Perfect,24,CTTC
8 Perfect,24,CTTT
2 Perfect,24,GAAA
3 Perfect,24,GAAG
15 Perfect,24,GAGA
4 Perfect,24,GAGG
2 Perfect,24,GATA
2 Perfect,24,GATG
1 Perfect,24,GCGC
1 Perfect,24,GCGG
3 Perfect,24,GGAA
1 Perfect,24,GGAC
1 Perfect,24,GTAA
1 Perfect,24,GTAT
1 Perfect,24,GTCT
2 Perfect,24,GTGA
1 Perfect,24,GTGG
44 Perfect,24,GTGT
12 Perfect,24,GTTT
5 Perfect,24,TAAA
1 Perfect,24,TAGA
23 Perfect,24,TATA
1 Perfect,24,TATC
5 Perfect,24,TATT
3 Perfect,24,TCAA
1 Perfect,24,TCAT
3 Perfect,24,TCCC
17 Perfect,24,TCTC
1 Perfect,24,TGAA
2 Perfect,24,TGGA
1 Perfect,24,TGTA
26 Perfect,24,TGTG
1 Perfect,24,TTAA
1 Perfect,24,TTAG
2 Perfect,24,TTAT
3 Perfect,24,TTCA
6 Perfect,24,TTCC
1 Perfect,24,TTCT
1 Perfect,24,TTGA
8 Perfect,24,TTTA
2 Perfect,24,TTTC
15 Perfect,24,TTTG
400 Perfect,24,TTTT
319 Perfect,25,AAAA
12 Perfect,25,AAAC
7 Perfect,25,AAAG
10 Perfect,25,AAAT
1 Perfect,25,AACA
1 Perfect,25,AAGA
3 Perfect,25,AAGG
3 Perfect,25,AATA
1 Perfect,25,AATG
1 Perfect,25,AATT
2 Perfect,25,ACAA
62 Perfect,25,ACAC
3 Perfect,25,AGAA
1 Perfect,25,AGAC
17 Perfect,25,AGAG
1 Perfect,25,AGAT
9 Perfect,25,AGGA
1 Perfect,25,AGGC
8 Perfect,25,AGGG
1 Perfect,25,ATAA
1 Perfect,25,ATAC
1 Perfect,25,ATAG
24 Perfect,25,ATAT
1 Perfect,25,ATCT
2 Perfect,25,ATGA
3 Perfect,25,ATGG
2 Perfect,25,ATTC
1 Perfect,25,ATTG
4 Perfect,25,ATTT
1 Perfect,25,CAAA
23 Perfect,25,CACA
1 Perfect,25,CCAA
1 Perfect,25,CCCA
1 Perfect,25,CCCC
1 Perfect,25,CCTC
1 Perfect,25,CCTT
1 Perfect,25,CTAT
7 Perfect,25,CTCT
1 Perfect,25,CTTC
6 Perfect,25,GAAG
1 Perfect,25,GAAT
11 Perfect,25,GAGA
1 Perfect,25,GAGG
2 Perfect,25,GATG
1 Perfect,25,GGAA
3 Perfect,25,GGAG
1 Perfect,25,GGAT
1 Perfect,25,GGTT
17 Perfect,25,GTGT
1 Perfect,25,TAGA
18 Perfect,25,TATA
3 Perfect,25,TATC
1 Perfect,25,TATG
15 Perfect,25,TATT
1 Perfect,25,TCAA
1 Perfect,25,TCAT
2 Perfect,25,TCCA
4 Perfect,25,TCCC
4 Perfect,25,TCCT
17 Perfect,25,TCTC
9 Perfect,25,TCTT
2 Perfect,25,TGAA
1 Perfect,25,TGAT
1 Perfect,25,TGCC
2 Perfect,25,TGGA
1 Perfect,25,TGTA
63 Perfect,25,TGTG
10 Perfect,25,TGTT
2 Perfect,25,TTAT
1 Perfect,25,TTCA
2 Perfect,25,TTCC
1 Perfect,25,TTGA
2 Perfect,25,TTTA
5 Perfect,25,TTTC
1 Perfect,25,TTTG
281 Perfect,25,TTTT
271 Perfect,26,AAAA
12 Perfect,26,AAAC
2 Perfect,26,AAAG
18 Perfect,26,AAAT
4 Perfect,26,AACA
1 Perfect,26,AACT
2 Perfect,26,AAGA
3 Perfect,26,AAGG
8 Perfect,26,AATA
1 Perfect,26,AATG
1 Perfect,26,ACAA
31 Perfect,26,ACAC
5 Perfect,26,AGAG
1 Perfect,26,AGAT
2 Perfect,26,AGGC
1 Perfect,26,AGGG
1 Perfect,26,ATAA
1 Perfect,26,ATAC
21 Perfect,26,ATAT
2 Perfect,26,ATCC
1 Perfect,26,ATCT
2 Perfect,26,ATGT
1 Perfect,26,ATTA
1 Perfect,26,ATTC
2 Perfect,26,ATTT
1 Perfect,26,CAAA
1 Perfect,26,CAAC
27 Perfect,26,CACA
1 Perfect,26,CATC
3 Perfect,26,CTCC
5 Perfect,26,CTCT
1 Perfect,26,CTGT
1 Perfect,26,CTTC
2 Perfect,26,CTTT
2 Perfect,26,GAAG
1 Perfect,26,GAAT
9 Perfect,26,GAGA
1 Perfect,26,GAGG
1 Perfect,26,GAGT
1 Perfect,26,GATA
1 Perfect,26,GATG
1 Perfect,26,GATT
3 Perfect,26,GGAA
1 Perfect,26,GGGA
35 Perfect,26,GTGT
7 Perfect,26,TAAA
1 Perfect,26,TACA
1 Perfect,26,TAGA
19 Perfect,26,TATA
2 Perfect,26,TATT
1 Perfect,26,TCAT
1 Perfect,26,TCCA
1 Perfect,26,TCCC
1 Perfect,26,TCTA
13 Perfect,26,TCTC
2 Perfect,26,TCTT
1 Perfect,26,TGAA
2 Perfect,26,TGGA
15 Perfect,26,TGTG
2 Perfect,26,TGTT
3 Perfect,26,TTAA
14 Perfect,26,TTAT
2 Perfect,26,TTCA
7 Perfect,26,TTCC
6 Perfect,26,TTCT
1 Perfect,26,TTGG
6 Perfect,26,TTGT
8 Perfect,26,TTTA
270 Perfect,26,TTTT
196 Perfect,27,AAAA
38 Perfect,27,AAAC
9 Perfect,27,AAAG
37 Perfect,27,AAAT
1 Perfect,27,AACA
1 Perfect,27,AACC
1 Perfect,27,AAGA
4 Perfect,27,AAGG
2 Perfect,27,AATA
1 Perfect,27,AATG
72 Perfect,27,ACAC
1 Perfect,27,AGAA
1 Perfect,27,AGAC
8 Perfect,27,AGAG
1 Perfect,27,AGGA
1 Perfect,27,AGGC
3 Perfect,27,AGGG
4 Perfect,27,ATAA
3 Perfect,27,ATAC
3 Perfect,27,ATAG
16 Perfect,27,ATAT
2 Perfect,27,ATCC
1 Perfect,27,ATGG
1 Perfect,27,ATGT
2 Perfect,27,ATTA
1 Perfect,27,ATTC
2 Perfect,27,ATTT
21 Perfect,27,CACA
1 Perfect,27,CACT
1 Perfect,27,CATT
2 Perfect,27,CCAT
1 Perfect,27,CCCG
1 Perfect,27,CCTC
2 Perfect,27,CCTT
1 Perfect,27,CTAC
1 Perfect,27,CTCC
3 Perfect,27,CTCT
6 Perfect,27,CTTC
2 Perfect,27,CTTT
2 Perfect,27,GAAA
2 Perfect,27,GAAG
1 Perfect,27,GAGA
3 Perfect,27,GATA
2 Perfect,27,GATG
2 Perfect,27,GGAA
1 Perfect,27,GGAG
1 Perfect,27,GGAT
17 Perfect,27,GTGT
3 Perfect,27,TAAA
1 Perfect,27,TAAC
23 Perfect,27,TATA
3 Perfect,27,TATC
1 Perfect,27,TATG
1 Perfect,27,TCAA
2 Perfect,27,TCAT
1 Perfect,27,TCCA
1 Perfect,27,TCCC
3 Perfect,27,TCCT
1 Perfect,27,TCTA
11 Perfect,27,TCTC
1 Perfect,27,TCTG
2 Perfect,27,TCTT
1 Perfect,27,TGAA
1 Perfect,27,TGAG
1 Perfect,27,TGGA
66 Perfect,27,TGTG
1 Perfect,27,TTAA
3 Perfect,27,TTAT
3 Perfect,27,TTCA
2 Perfect,27,TTCC
1 Perfect,27,TTGA
1 Perfect,27,TTGC
1 Perfect,27,TTGT
41 Perfect,27,TTTA
18 Perfect,27,TTTC
33 Perfect,27,TTTG
203 Perfect,27,TTTT
175 Perfect,28,AAAA
3 Perfect,28,AAAC
1 Perfect,28,AAAG
7 Perfect,28,AAAT
1 Perfect,28,AACT
1 Perfect,28,AAGA
2 Perfect,28,AAGG
2 Perfect,28,AATA
2 Perfect,28,AATC
1 Perfect,28,AATT
35 Perfect,28,ACAC
1 Perfect,28,AGAG
1 Perfect,28,AGGT
4 Perfect,28,ATAA
1 Perfect,28,ATAC
12 Perfect,28,ATAT
1 Perfect,28,ATGG
1 Perfect,28,ATGT
2 Perfect,28,ATTC
5 Perfect,28,ATTT
10 Perfect,28,CAAA
1 Perfect,28,CAAT
19 Perfect,28,CACA
1 Perfect,28,CAGG
1 Perfect,28,CCAC
1 Perfect,28,CCCT
3 Perfect,28,CCTC
1 Perfect,28,CCTG
3 Perfect,28,CCTT
1 Perfect,28,CTAT
4 Perfect,28,CTCT
3 Perfect,28,CTTC
1 Perfect,28,CTTT
1 Perfect,28,GAAA
1 Perfect,28,GAAG
6 Perfect,28,GAGA
1 Perfect,28,GATA
2 Perfect,28,GATG
1 Perfect,28,GGAA
1 Perfect,28,GGAG
1 Perfect,28,GGAT
36 Perfect,28,GTGT
3 Perfect,28,GTTT
4 Perfect,28,TAAA
14 Perfect,28,TATA
1 Perfect,28,TATC
1 Perfect,28,TATT
1 Perfect,28,TCCA
2 Perfect,28,TCCT
4 Perfect,28,TCTC
1 Perfect,28,TCTT
2 Perfect,28,TGAA
2 Perfect,28,TGGA
29 Perfect,28,TGTG
1 Perfect,28,TGTT
1 Perfect,28,TTAA
3 Perfect,28,TTAT
1 Perfect,28,TTCA
3 Perfect,28,TTCC
1 Perfect,28,TTCT
5 Perfect,28,TTTA
2 Perfect,28,TTTC
8 Perfect,28,TTTG
160 Perfect,28,TTTT
122 Perfect,29,AAAA
3 Perfect,29,AAAC
1 Perfect,29,AAAG
9 Perfect,29,AAAT
1 Perfect,29,AAGA
1 Perfect,29,AAGC
1 Perfect,29,AAGG
2 Perfect,29,AATA
1 Perfect,29,ACAA
46 Perfect,29,ACAC
1 Perfect,29,ACAG
1 Perfect,29,ACAT
1 Perfect,29,ACTA
2 Perfect,29,AGAA
10 Perfect,29,AGAG
1 Perfect,29,AGAT
4 Perfect,29,AGGA
2 Perfect,29,AGGG
4 Perfect,29,ATAA
2 Perfect,29,ATAG
9 Perfect,29,ATAT
1 Perfect,29,ATCC
1 Perfect,29,ATGA
1 Perfect,29,ATTG
2 Perfect,29,ATTT
1 Perfect,29,CAAA
18 Perfect,29,CACA
1 Perfect,29,CCAT
1 Perfect,29,CCTT
4 Perfect,29,GAGA
1 Perfect,29,GATA
1 Perfect,29,GCAA
4 Perfect,29,GGAA
1 Perfect,29,GGAG
20 Perfect,29,GTGT
2 Perfect,29,TAAA
18 Perfect,29,TATA
12 Perfect,29,TATT
1 Perfect,29,TCAG
2 Perfect,29,TCAT
1 Perfect,29,TCCA
1 Perfect,29,TCTA
7 Perfect,29,TCTC
1 Perfect,29,TCTT
1 Perfect,29,TGGA
1 Perfect,29,TGTC
53 Perfect,29,TGTG
3 Perfect,29,TGTT
1 Perfect,29,TTAA
3 Perfect,29,TTAT
1 Perfect,29,TTCA
1 Perfect,29,TTCC
1 Perfect,29,TTTA
1 Perfect,29,TTTG
109 Perfect,29,TTTT
83 Perfect,30,AAAA
2 Perfect,30,AAAC
12 Perfect,30,AAAT
2 Perfect,30,AAGA
4 Perfect,30,AAGG
3 Perfect,30,AATA
1 Perfect,30,AATG
36 Perfect,30,ACAC
5 Perfect,30,AGAG
1 Perfect,30,AGAT
1 Perfect,30,AGGG
3 Perfect,30,ATAA
2 Perfect,30,ATAG
13 Perfect,30,ATAT
1 Perfect,30,ATCC
1 Perfect,30,ATCT
1 Perfect,30,ATTT
1 Perfect,30,CAAA
22 Perfect,30,CACA
2 Perfect,30,CATC
1 Perfect,30,CATT
1 Perfect,30,CCAA
1 Perfect,30,CCAC
1 Perfect,30,CCTT
5 Perfect,30,CTCT
1 Perfect,30,CTTT
6 Perfect,30,GAGA
1 Perfect,30,GGAA
1 Perfect,30,GGAT
1 Perfect,30,GGGG
42 Perfect,30,GTGT
15 Perfect,30,TATA
2 Perfect,30,TCTA
6 Perfect,30,TCTC
1 Perfect,30,TCTT
1 Perfect,30,TGAA
3 Perfect,30,TGGA
19 Perfect,30,TGTG
1 Perfect,30,TGTT
7 Perfect,30,TTAT
1 Perfect,30,TTCA
1 Perfect,30,TTCC
1 Perfect,30,TTCT
2 Perfect,30,TTGT
3 Perfect,30,TTTA
92 Perfect,30,TTTT
49 Perfect,31,AAAA
22 Perfect,31,AAAC
2 Perfect,31,AAAG
30 Perfect,31,AAAT
2 Perfect,31,AATA
2 Perfect,31,AATC
48 Perfect,31,ACAC
2 Perfect,31,AGAA
7 Perfect,31,AGAG
1 Perfect,31,AGAT
2 Perfect,31,AGGA
2 Perfect,31,AGGG
2 Perfect,31,ATAG
11 Perfect,31,ATAT
1 Perfect,31,ATTC
1 Perfect,31,ATTG
1 Perfect,31,ATTT
1 Perfect,31,CAAA
17 Perfect,31,CACA
1 Perfect,31,CATC
1 Perfect,31,CATT
1 Perfect,31,CCAC
1 Perfect,31,CCAT
3 Perfect,31,CCTC
2 Perfect,31,CCTT
2 Perfect,31,CTCT
1 Perfect,31,CTTC
2 Perfect,31,GAAA
2 Perfect,31,GAAG
1 Perfect,31,GAAT
1 Perfect,31,GACG
3 Perfect,31,GAGA
1 Perfect,31,GAGG
1 Perfect,31,GATA
1 Perfect,31,GGAA
20 Perfect,31,GTGT
2 Perfect,31,TAAA
13 Perfect,31,TATA
1 Perfect,31,TATC
1 Perfect,31,TCAG
1 Perfect,31,TCAT
1 Perfect,31,TCCT
1 Perfect,31,TCTA
7 Perfect,31,TCTC
2 Perfect,31,TCTG
1 Perfect,31,TCTT
1 Perfect,31,TGGA
41 Perfect,31,TGTG
1 Perfect,31,TTAT
1 Perfect,31,TTCA
1 Perfect,31,TTCC
23 Perfect,31,TTTA
1 Perfect,31,TTTC
24 Perfect,31,TTTG
51 Perfect,31,TTTT
47 Perfect,32,AAAA
3 Perfect,32,AAAC
1 Perfect,32,AAAG
4 Perfect,32,AAAT
1 Perfect,32,AAGG
2 Perfect,32,AATA
1 Perfect,32,AATC
30 Perfect,32,ACAC
2 Perfect,32,AGGG
2 Perfect,32,ATAA
1 Perfect,32,ATAC
13 Perfect,32,ATAT
1 Perfect,32,ATTC
3 Perfect,32,ATTT
4 Perfect,32,CAAA
1 Perfect,32,CAAT
22 Perfect,32,CACA
1 Perfect,32,CCCT
1 Perfect,32,CCTC
1 Perfect,32,CCTT
1 Perfect,32,CTAT
3 Perfect,32,CTCT
1 Perfect,32,CTTC
2 Perfect,32,CTTT
2 Perfect,32,GAAG
1 Perfect,32,GAAT
5 Perfect,32,GAGA
1 Perfect,32,GAGG
1 Perfect,32,GAGT
1 Perfect,32,GATG
1 Perfect,32,GGAA
1 Perfect,32,GTAG
33 Perfect,32,GTGT
2 Perfect,32,GTTT
2 Perfect,32,TAAA
11 Perfect,32,TATA
2 Perfect,32,TATT
1 Perfect,32,TCAA
1 Perfect,32,TCCT
6 Perfect,32,TCTC
17 Perfect,32,TGTG
1 Perfect,32,TTAT
2 Perfect,32,TTCA
2 Perfect,32,TTTA
1 Perfect,32,TTTG
42 Perfect,32,TTTT
30 Perfect,33,AAAA
1 Perfect,33,AAAC
3 Perfect,33,AAAT
1 Perfect,33,AACC
1 Perfect,33,AAGA
1 Perfect,33,AATA
1 Perfect,33,AATG
43 Perfect,33,ACAC
7 Perfect,33,AGAG
1 Perfect,33,AGCC
2 Perfect,33,AGGA
1 Perfect,33,AGGC
2 Perfect,33,AGGG
1 Perfect,33,ATAA
13 Perfect,33,ATAT
1 Perfect,33,ATCC
1 Perfect,33,ATGG
1 Perfect,33,ATTT
18 Perfect,33,CACA
2 Perfect,33,CATT
1 Perfect,33,CCAA
1 Perfect,33,CCAT
3 Perfect,33,CTCT
3 Perfect,33,CTTC
1 Perfect,33,GAAA
1 Perfect,33,GAAG
2 Perfect,33,GAGA
1 Perfect,33,GGAT
11 Perfect,33,GTGT
1 Perfect,33,TAAA
18 Perfect,33,TATA
3 Perfect,33,TATT
1 Perfect,33,TCCT
4 Perfect,33,TCTC
3 Perfect,33,TCTT
49 Perfect,33,TGTG
3 Perfect,33,TGTT
3 Perfect,33,TTAT
1 Perfect,33,TTCA
2 Perfect,33,TTCC
25 Perfect,33,TTTT
24 Perfect,34,AAAA
5 Perfect,34,AAAT
1 Perfect,34,AAGG
3 Perfect,34,AATA
39 Perfect,34,ACAC
1 Perfect,34,AGAG
1 Perfect,34,AGGG
1 Perfect,34,ATAG
13 Perfect,34,ATAT
1 Perfect,34,ATCC
1 Perfect,34,ATCT
2 Perfect,34,ATTT
23 Perfect,34,CACA
1 Perfect,34,CTCC
4 Perfect,34,CTCT
2 Perfect,34,GAAG
7 Perfect,34,GAGA
1 Perfect,34,GATA
2 Perfect,34,GGAA
1 Perfect,34,GTAT
31 Perfect,34,GTGT
2 Perfect,34,TAAA
1 Perfect,34,TAGA
5 Perfect,34,TATA
2 Perfect,34,TATG
1 Perfect,34,TATT
1 Perfect,34,TCCT
4 Perfect,34,TCTC
1 Perfect,34,TGAA
1 Perfect,34,TGGA
16 Perfect,34,TGTG
1 Perfect,34,TGTT
5 Perfect,34,TTAT
1 Perfect,34,TTCA
3 Perfect,34,TTCC
4 Perfect,34,TTTA
15 Perfect,34,TTTT
21 Perfect,35,AAAA
8 Perfect,35,AAAC
2 Perfect,35,AAAG
7 Perfect,35,AAAT
1 Perfect,35,AACA
1 Perfect,35,AAGG
48 Perfect,35,ACAC
2 Perfect,35,AGAA
4 Perfect,35,AGAG
1 Perfect,35,AGGG
8 Perfect,35,ATAT
1 Perfect,35,ATCT
11 Perfect,35,CACA
1 Perfect,35,CATA
4 Perfect,35,CTCT
6 Perfect,35,CTTC
1 Perfect,35,GAAA
1 Perfect,35,GAAG
4 Perfect,35,GAGA
1 Perfect,35,GGAG
18 Perfect,35,GTGT
1 Perfect,35,TAAA
9 Perfect,35,TATA
1 Perfect,35,TATC
1 Perfect,35,TATG
1 Perfect,35,TCAA
2 Perfect,35,TCTC
1 Perfect,35,TCTG
1 Perfect,35,TCTT
1 Perfect,35,TGAA
1 Perfect,35,TGAG
55 Perfect,35,TGTG
2 Perfect,35,TTAT
3 Perfect,35,TTCC
12 Perfect,35,TTTA
3 Perfect,35,TTTC
12 Perfect,35,TTTG
14 Perfect,35,TTTT
20 Perfect,36,AAAA
4 Perfect,36,AAAT
2 Perfect,36,AAGA
2 Perfect,36,AAGG
1 Perfect,36,AATA
29 Perfect,36,ACAC
1 Perfect,36,ACAT
1 Perfect,36,AGAA
1 Perfect,36,AGAG
3 Perfect,36,ATAA
10 Perfect,36,ATAT
1 Perfect,36,ATTT
1 Perfect,36,CAAA
1 Perfect,36,CAAC
13 Perfect,36,CACA
1 Perfect,36,CCTG
2 Perfect,36,CTCT
1 Perfect,36,CTTT
1 Perfect,36,GAAT
6 Perfect,36,GAGA
1 Perfect,36,GAGG
5 Perfect,36,GATA
1 Perfect,36,GGAA
1 Perfect,36,GTAT
1 Perfect,36,GTCT
40 Perfect,36,GTGT
4 Perfect,36,TAAA
1 Perfect,36,TAGA
6 Perfect,36,TATA
3 Perfect,36,TATC
2 Perfect,36,TATT
1 Perfect,36,TCCA
1 Perfect,36,TCTA
2 Perfect,36,TCTC
1 Perfect,36,TGAA
14 Perfect,36,TGTG
1 Perfect,36,TTTG
16 Perfect,36,TTTT
30 Perfect,37,AAAA
1 Perfect,37,AAAC
2 Perfect,37,AAAG
3 Perfect,37,AAAT
35 Perfect,37,ACAC
1 Perfect,37,AGAA
3 Perfect,37,AGAG
2 Perfect,37,AGGG
2 Perfect,37,ATAA
6 Perfect,37,ATAT
2 Perfect,37,ATCC
2 Perfect,37,ATTT
14 Perfect,37,CACA
2 Perfect,37,CCTT
1 Perfect,37,GAGA
1 Perfect,37,GATG
1 Perfect,37,GGAT
13 Perfect,37,GTGT
1 Perfect,37,GTTT
2 Perfect,37,TAAA
8 Perfect,37,TATA
2 Perfect,37,TATC
2 Perfect,37,TATT
1 Perfect,37,TCAA
1 Perfect,37,TCCC
3 Perfect,37,TCTC
1 Perfect,37,TCTT
43 Perfect,37,TGTG
2 Perfect,37,TGTT
5 Perfect,37,TTAT
2 Perfect,37,TTCA
4 Perfect,37,TTTA
23 Perfect,37,TTTT
17 Perfect,38,AAAA
3 Perfect,38,AAAT
2 Perfect,38,AAGA
2 Perfect,38,AAGG
1 Perfect,38,AATA
32 Perfect,38,ACAC
1 Perfect,38,AGAA
5 Perfect,38,AGAG
1 Perfect,38,AGGA
1 Perfect,38,ATAA
1 Perfect,38,ATAC
7 Perfect,38,ATAT
1 Perfect,38,ATCT
1 Perfect,38,ATGG
1 Perfect,38,ATGT
17 Perfect,38,CACA
1 Perfect,38,CATC
1 Perfect,38,CCTT
1 Perfect,38,CTCT
1 Perfect,38,CTTC
3 Perfect,38,GAGA
1 Perfect,38,GATA
1 Perfect,38,GATG
1 Perfect,38,GGAA
34 Perfect,38,GTGT
1 Perfect,38,TAAA
1 Perfect,38,TACA
3 Perfect,38,TATA
2 Perfect,38,TATT
3 Perfect,38,TCTC
1 Perfect,38,TGGA
13 Perfect,38,TGTG
6 Perfect,38,TTAT
1 Perfect,38,TTCC
1 Perfect,38,TTGT
1 Perfect,38,TTTC
22 Perfect,38,TTTT
17 Perfect,39,AAAA
3 Perfect,39,AAAC
12 Perfect,39,AAAT
1 Perfect,39,AATC
46 Perfect,39,ACAC
1 Perfect,39,AGAC
5 Perfect,39,AGAG
1 Perfect,39,AGAT
2 Perfect,39,AGGA
1 Perfect,39,ATAA
2 Perfect,39,ATAC
6 Perfect,39,ATAT
1 Perfect,39,ATCC
1 Perfect,39,ATCT
1 Perfect,39,ATGG
1 Perfect,39,ATTT
11 Perfect,39,CACA
4 Perfect,39,CTTC
2 Perfect,39,GAGA
2 Perfect,39,GATA
2 Perfect,39,GGAT
12 Perfect,39,GTGT
9 Perfect,39,TATA
1 Perfect,39,TATC
1 Perfect,39,TCCA
1 Perfect,39,TCCT
1 Perfect,39,TCTC
41 Perfect,39,TGTG
2 Perfect,39,TTAT
1 Perfect,39,TTCC
4 Perfect,39,TTTA
2 Perfect,39,TTTC
3 Perfect,39,TTTG
18 Perfect,39,TTTT
14 Perfect,40,AAAA
1 Perfect,40,AAAT
1 Perfect,40,AAGG
2 Perfect,40,AATA
24 Perfect,40,ACAC
1 Perfect,40,AGAA
1 Perfect,40,AGAG
1 Perfect,40,AGGG
9 Perfect,40,ATAT
5 Perfect,40,ATTT
20 Perfect,40,CACA
1 Perfect,40,GAAA
1 Perfect,40,GAAG
1 Perfect,40,GAAT
1 Perfect,40,GAGA
1 Perfect,40,GATA
1 Perfect,40,GATG
2 Perfect,40,GGAA
1 Perfect,40,GTAT
28 Perfect,40,GTGT
5 Perfect,40,TAAA
8 Perfect,40,TATA
3 Perfect,40,TATC
1 Perfect,40,TCCA
2 Perfect,40,TCTC
2 Perfect,40,TGGA
20 Perfect,40,TGTG
2 Perfect,40,TGTT
2 Perfect,40,TTTA
9 Perfect,40,TTTT
6 Perfect,41,AAAA
1 Perfect,41,AAAG
3 Perfect,41,AAAT
1 Perfect,41,AAGG
2 Perfect,41,AATA
37 Perfect,41,ACAC
5 Perfect,41,AGAG
4 Perfect,41,AGAT
1 Perfect,41,AGGA
2 Perfect,41,ATAA
1 Perfect,41,ATAG
12 Perfect,41,ATAT
1 Perfect,41,ATCC
2 Perfect,41,ATCT
1 Perfect,41,ATGA
1 Perfect,41,ATGG
2 Perfect,41,ATTT
9 Perfect,41,CACA
1 Perfect,41,CCAT
1 Perfect,41,CTAT
4 Perfect,41,CTCT
1 Perfect,41,CTTT
1 Perfect,41,GAGA
1 Perfect,41,GATA
1 Perfect,41,GATG
1 Perfect,41,GGAA
1 Perfect,41,GGAT
13 Perfect,41,GTGT
1 Perfect,41,GTTT
1 Perfect,41,TAAA
9 Perfect,41,TATA
3 Perfect,41,TATC
7 Perfect,41,TATT
1 Perfect,41,TCTA
2 Perfect,41,TCTC
2 Perfect,41,TCTT
47 Perfect,41,TGTG
1 Perfect,41,TGTT
2 Perfect,41,TTAT
3 Perfect,41,TTTA
1 Perfect,41,TTTC
8 Perfect,41,TTTT
3 Perfect,42,AAAA
5 Perfect,42,AAAT
2 Perfect,42,AAGA
1 Perfect,42,AAGG
1 Perfect,42,AATA
20 Perfect,42,ACAC
1 Perfect,42,ATAA
2 Perfect,42,ATAG
13 Perfect,42,ATAT
2 Perfect,42,ATCT
1 Perfect,42,ATTT
10 Perfect,42,CACA
2 Perfect,42,CATC
1 Perfect,42,CCTT
2 Perfect,42,CTCT
3 Perfect,42,GAAG
3 Perfect,42,GAGA
2 Perfect,42,GATA
1 Perfect,42,GATG
1 Perfect,42,GGAA
35 Perfect,42,GTGT
2 Perfect,42,TAAA
2 Perfect,42,TAGA
5 Perfect,42,TATA
2 Perfect,42,TCCA
3 Perfect,42,TCTA
1 Perfect,42,TCTC
1 Perfect,42,TCTT
1 Perfect,42,TGGA
1 Perfect,42,TGTA
12 Perfect,42,TGTG
8 Perfect,42,TTAT
1 Perfect,42,TTCC
1 Perfect,42,TTCT
1 Perfect,42,TTGG
5 Perfect,42,TTTA
8 Perfect,42,TTTT
5 Perfect,43,AAAA
1 Perfect,43,AAAC
4 Perfect,43,AAAG
15 Perfect,43,AAAT
33 Perfect,43,ACAC
1 Perfect,43,AGAA
4 Perfect,43,AGAG
1 Perfect,43,AGAT
1 Perfect,43,AGGC
1 Perfect,43,ATAA
1 Perfect,43,ATAC
1 Perfect,43,ATAG
6 Perfect,43,ATAT
3 Perfect,43,ATCT
2 Perfect,43,ATTT
9 Perfect,43,CACA
2 Perfect,43,CATC
1 Perfect,43,CCAA
1 Perfect,43,CCTT
3 Perfect,43,CTCT
1 Perfect,43,CTTC
1 Perfect,43,GAAG
1 Perfect,43,GAGA
3 Perfect,43,GATA
2 Perfect,43,GGAA
4 Perfect,43,GTGT
3 Perfect,43,TAAA
1 Perfect,43,TAGG
12 Perfect,43,TATA
1 Perfect,43,TCCA
4 Perfect,43,TCTA
4 Perfect,43,TCTC
1 Perfect,43,TGGA
39 Perfect,43,TGTG
2 Perfect,43,TTAT
4 Perfect,43,TTCC
1 Perfect,43,TTGG
19 Perfect,43,TTTA
1 Perfect,43,TTTC
4 Perfect,43,TTTT
5 Perfect,44,AAAA
2 Perfect,44,AAAG
3 Perfect,44,AAAT
2 Perfect,44,AAGG
3 Perfect,44,AATA
21 Perfect,44,ACAC
1 Perfect,44,AGAA
2 Perfect,44,AGAG
1 Perfect,44,AGAT
1 Perfect,44,ATAA
1 Perfect,44,ATAC
13 Perfect,44,ATAT
2 Perfect,44,ATTT
7 Perfect,44,CACA
2 Perfect,44,CTAT
1 Perfect,44,CTTC
2 Perfect,44,CTTT
1 Perfect,44,GAAA
1 Perfect,44,GAGA
4 Perfect,44,GATA
28 Perfect,44,GTGT
3 Perfect,44,GTTT
2 Perfect,44,TAAA
1 Perfect,44,TAGA
8 Perfect,44,TATA
6 Perfect,44,TATC
2 Perfect,44,TATT
1 Perfect,44,TCAT
1 Perfect,44,TCCA
1 Perfect,44,TCTA
1 Perfect,44,TCTC
1 Perfect,44,TGGA
11 Perfect,44,TGTG
1 Perfect,44,TTCC
2 Perfect,44,TTTA
1 Perfect,44,TTTC
4 Perfect,44,TTTT
1 Perfect,45,AAAA
1 Perfect,45,AAAG
1 Perfect,45,AAGG
31 Perfect,45,ACAC
1 Perfect,45,ACAT
4 Perfect,45,AGAA
5 Perfect,45,AGAG
2 Perfect,45,AGAT
1 Perfect,45,ATAA
2 Perfect,45,ATAC
2 Perfect,45,ATAG
12 Perfect,45,ATAT
1 Perfect,45,ATCT
1 Perfect,45,ATGA
1 Perfect,45,ATGG
1 Perfect,45,ATTT
10 Perfect,45,CACA
2 Perfect,45,CCAT
1 Perfect,45,CCTT
1 Perfect,45,CTAT
4 Perfect,45,GTGT
2 Perfect,45,TAGA
10 Perfect,45,TATA
2 Perfect,45,TATC
4 Perfect,45,TATT
1 Perfect,45,TCTA
1 Perfect,45,TCTC
1 Perfect,45,TCTT
1 Perfect,45,TGGA
25 Perfect,45,TGTG
3 Perfect,45,TTTA
2 Perfect,45,TTTT
3 Perfect,46,AAAA
3 Perfect,46,AAAT
1 Perfect,46,AAGG
1 Perfect,46,AATA
11 Perfect,46,ACAC
1 Perfect,46,AGAT
1 Perfect,46,AGGA
1 Perfect,46,AGTG
1 Perfect,46,ATAA
1 Perfect,46,ATAG
7 Perfect,46,ATAT
2 Perfect,46,ATCT
1 Perfect,46,ATTT
9 Perfect,46,CACA
1 Perfect,46,CATA
1 Perfect,46,CCTT
2 Perfect,46,CTAT
1 Perfect,46,CTCT
1 Perfect,46,CTTT
1 Perfect,46,GAAA
2 Perfect,46,GAGA
2 Perfect,46,GATA
2 Perfect,46,GGAA
1 Perfect,46,GGAT
15 Perfect,46,GTGT
1 Perfect,46,TAGA
9 Perfect,46,TATA
1 Perfect,46,TATT
1 Perfect,46,TCCT
6 Perfect,46,TCTA
1 Perfect,46,TCTC
1 Perfect,46,TGGA
1 Perfect,46,TGGC
8 Perfect,46,TGTG
5 Perfect,46,TTAT
2 Perfect,46,TTCC
1 Perfect,46,TTCT
1 Perfect,46,TTGG
9 Perfect,46,TTTA
2 Perfect,46,TTTT
6 Perfect,47,AAAA
3 Perfect,47,AAAG
11 Perfect,47,AAAT
24 Perfect,47,ACAC
2 Perfect,47,AGAA
2 Perfect,47,AGAG
1 Perfect,47,AGAT
1 Perfect,47,AGGA
1 Perfect,47,ATAC
2 Perfect,47,ATAG
5 Perfect,47,ATAT
7 Perfect,47,ATCT
1 Perfect,47,ATTT
2 Perfect,47,CACA
1 Perfect,47,CCTC
1 Perfect,47,CTCT
4 Perfect,47,CTTC
5 Perfect,47,GAAG
4 Perfect,47,GATA
1 Perfect,47,GGAA
1 Perfect,47,GGAT
7 Perfect,47,GTGT
2 Perfect,47,TAGA
6 Perfect,47,TATA
2 Perfect,47,TATC
1 Perfect,47,TCTA
1 Perfect,47,TCTC
12 Perfect,47,TGTG
1 Perfect,47,TTCC
15 Perfect,47,TTTA
2 Perfect,47,TTTC
3 Perfect,47,TTTT
2 Perfect,48,AAAA
1 Perfect,48,AAAG
7 Perfect,48,AAAT
1 Perfect,48,AAGA
1 Perfect,48,AAGG
2 Perfect,48,AATA
15 Perfect,48,ACAC
1 Perfect,48,ACAT
2 Perfect,48,AGAT
5 Perfect,48,ATAT
2 Perfect,48,ATCT
3 Perfect,48,ATTT
8 Perfect,48,CACA
1 Perfect,48,CATC
1 Perfect,48,CCTT
1 Perfect,48,CTAT
1 Perfect,48,CTTC
1 Perfect,48,GAAG
1 Perfect,48,GAGA
1 Perfect,48,GATA
1 Perfect,48,GGAA
1 Perfect,48,GGAT
1 Perfect,48,GTAG
18 Perfect,48,GTGT
1 Perfect,48,TAGA
7 Perfect,48,TATA
2 Perfect,48,TATC
1 Perfect,48,TCCT
1 Perfect,48,TCTT
4 Perfect,48,TGTG
1 Perfect,48,TTCC
1 Perfect,48,TTCT
1 Perfect,48,TTTA
1 Perfect,48,TTTC
4 Perfect,48,TTTT
1 Perfect,49,AAAA
1 Perfect,49,AAGA
1 Perfect,49,AATA
20 Perfect,49,ACAC
1 Perfect,49,ACAT
1 Perfect,49,AGAG
3 Perfect,49,AGAT
1 Perfect,49,AGGG
3 Perfect,49,ATAA
5 Perfect,49,ATAT
4 Perfect,49,ATCT
3 Perfect,49,CACA
1 Perfect,49,CCAT
1 Perfect,49,GATA
1 Perfect,49,GATG
2 Perfect,49,GGAA
1 Perfect,49,GGAT
3 Perfect,49,GTGT
1 Perfect,49,TAGA
6 Perfect,49,TATA
3 Perfect,49,TATC
4 Perfect,49,TATT
3 Perfect,49,TCTA
2 Perfect,49,TCTT
1 Perfect,49,TGAA
3 Perfect,49,TGGA
19 Perfect,49,TGTG
1 Perfect,49,TTAT
4 Perfect,49,TTCC
1 Perfect,49,TTTA
2 Perfect,50,AAAG
2 Perfect,50,AAAT
2 Perfect,50,AAGA
1 Perfect,50,AAGG
2 Perfect,50,AATA
10 Perfect,50,ACAC
2 Perfect,50,AGAA
2 Perfect,50,AGGA
1 Perfect,50,ATAG
2 Perfect,50,ATAT
6 Perfect,50,CACA
1 Perfect,50,CCAT
1 Perfect,50,CCTT
1 Perfect,50,CTTT
1 Perfect,50,GAAA
3 Perfect,50,GAGA
3 Perfect,50,GATA
2 Perfect,50,GGAA
7 Perfect,50,GTGT
3 Perfect,50,TAGA
5 Perfect,50,TATA
1 Perfect,50,TATC
2 Perfect,50,TCTA
1 Perfect,50,TCTC
5 Perfect,50,TGTG
1 Perfect,50,TTAT
3 Perfect,50,TTCC
1 Perfect,50,TTTT
3 Perfect,51,AAAA
1 Perfect,51,AAAG
8 Perfect,51,AAAT
2 Perfect,51,AAGG
6 Perfect,51,ACAC
1 Perfect,51,AGAA
1 Perfect,51,AGGA
1 Perfect,51,AGGG
1 Perfect,51,ATAC
2 Perfect,51,ATAG
7 Perfect,51,ATAT
1 Perfect,51,ATCT
1 Perfect,51,CACA
1 Perfect,51,CTCT
2 Perfect,51,GAAG
2 Perfect,51,GATA
10 Perfect,51,TATA
1 Perfect,51,TATC
2 Perfect,51,TATG
1 Perfect,51,TCCT
1 Perfect,51,TCTA
3 Perfect,51,TCTC
3 Perfect,51,TCTT
1 Perfect,51,TGTA
8 Perfect,51,TGTG
3 Perfect,51,TTCC
8 Perfect,51,TTTA
2 Perfect,51,TTTC
1 Perfect,51,TTTT
1 Perfect,52,AAAT
2 Perfect,52,AAGA
1 Perfect,52,AATA
4 Perfect,52,ACAC
1 Perfect,52,AGAA
1 Perfect,52,AGAG
2 Perfect,52,AGAT
7 Perfect,52,ATAT
1 Perfect,52,ATCT
1 Perfect,52,ATTT
1 Perfect,52,CACA
1 Perfect,52,CCAT
1 Perfect,52,CCTT
1 Perfect,52,GAAA
3 Perfect,52,GATA
1 Perfect,52,GGAA
1 Perfect,52,GGAT
8 Perfect,52,GTGT
2 Perfect,52,TAGA
3 Perfect,52,TATA
1 Perfect,52,TATC
1 Perfect,52,TCTA
2 Perfect,52,TCTC
2 Perfect,52,TGTG
2 Perfect,52,TTCT
2 Perfect,52,TTTC
3 Perfect,52,TTTT
2 Perfect,53,AAAG
6 Perfect,53,ACAC
3 Perfect,53,AGAA
2 Perfect,53,AGAG
2 Perfect,53,AGAT
2 Perfect,53,AGGA
1 Perfect,53,ATAA
1 Perfect,53,ATAC
1 Perfect,53,ATAG
1 Perfect,53,ATAT
1 Perfect,53,ATCT
1 Perfect,53,CCTT
2 Perfect,53,GAAA
3 Perfect,53,GAAG
2 Perfect,53,GTGT
1 Perfect,53,TATA
3 Perfect,53,TATC
1 Perfect,53,TATT
1 Perfect,53,TCCT
1 Perfect,53,TCTC
2 Perfect,53,TCTT
1 Perfect,53,TGGA
4 Perfect,53,TGTG
1 Perfect,53,TTTC
1 Perfect,54,AAAA
1 Perfect,54,AAAG
1 Perfect,54,AAGA
3 Perfect,54,AAGG
3 Perfect,54,ACAC
1 Perfect,54,AGAA
1 Perfect,54,AGGA
1 Perfect,54,ATAG
5 Perfect,54,ATAT
1 Perfect,54,ATGT
2 Perfect,54,CACA
1 Perfect,54,CTAT
2 Perfect,54,GAAA
2 Perfect,54,GAAG
2 Perfect,54,GTGT
1 Perfect,54,TATA
1 Perfect,54,TCTC
2 Perfect,54,TCTT
1 Perfect,54,TGTG
3 Perfect,54,TTCC
1 Perfect,54,TTTA
1 Perfect,54,TTTC
2 Perfect,54,TTTT
1 Perfect,55,AAAA
2 Perfect,55,AAAG
4 Perfect,55,AAAT
1 Perfect,55,ACAC
4 Perfect,55,AGAA
1 Perfect,55,AGGA
1 Perfect,55,AGGG
1 Perfect,55,ATAT
1 Perfect,55,ATCT
1 Perfect,55,CCAT
3 Perfect,55,CTCT
1 Perfect,55,CTTT
1 Perfect,55,GAAG
2 Perfect,55,GATA
1 Perfect,55,GGAT
1 Perfect,55,TATA
1 Perfect,55,TATC
1 Perfect,55,TCCA
4 Perfect,55,TCTT
3 Perfect,55,TGTG
2 Perfect,55,TTCC
1 Perfect,55,TTCT
5 Perfect,55,TTTA
4 Perfect,55,TTTC
1 Perfect,56,AAAG
1 Perfect,56,AAAT
2 Perfect,56,AAGA
1 Perfect,56,ACAC
1 Perfect,56,AGAA
1 Perfect,56,AGAG
1 Perfect,56,ATAT
2 Perfect,56,GAAA
2 Perfect,56,GAGA
2 Perfect,56,GATA
3 Perfect,56,GGAA
1 Perfect,56,TAGA
3 Perfect,56,TCTT
1 Perfect,56,TTCC
1 Perfect,56,TTCT
2 Perfect,56,TTTC
2 Perfect,57,AAAG
2 Perfect,57,AAGA
4 Perfect,57,ACAC
2 Perfect,57,AGAA
3 Perfect,57,AGGA
1 Perfect,57,AGGG
2 Perfect,57,ATAT
1 Perfect,57,ATCT
1 Perfect,57,CTCT
1 Perfect,57,GAAA
1 Perfect,57,GATA
1 Perfect,57,GTGT
2 Perfect,57,TATA
1 Perfect,57,TATC
1 Perfect,57,TATT
1 Perfect,57,TCCT
1 Perfect,57,TCTT
3 Perfect,57,TTCC
1 Perfect,57,TTTC
2 Perfect,58,AAGA
1 Perfect,58,AATA
1 Perfect,58,AGAA
1 Perfect,58,AGAT
1 Perfect,58,ATAG
1 Perfect,58,CATC
1 Perfect,58,CCTT
1 Perfect,58,CTTC
1 Perfect,58,GAAA
1 Perfect,58,GAAG
3 Perfect,58,GTGT
1 Perfect,58,TATA
1 Perfect,58,TATC
1 Perfect,58,TCTA
2 Perfect,58,TCTT
1 Perfect,58,TGTG
2 Perfect,58,TTCC
1 Perfect,58,TTTC
1 Perfect,58,TTTT
1 Perfect,59,AAAA
1 Perfect,59,AAAG
2 Perfect,59,ACAC
2 Perfect,59,AGAA
1 Perfect,59,AGAG
2 Perfect,59,AGAT
3 Perfect,59,ATAT
1 Perfect,59,ATCT
1 Perfect,59,CTCT
1 Perfect,59,CTTT
1 Perfect,59,GAAG
1 Perfect,59,GGAA
1 Perfect,59,GTGT
1 Perfect,59,TATA
1 Perfect,59,TATG
1 Perfect,59,TCTC
4 Perfect,59,TCTT
2 Perfect,59,TTCC
1 Perfect,59,TTCT
1 Perfect,60,AAAG
1 Perfect,60,AAGA
1 Perfect,60,AAGG
1 Perfect,60,ACAC
1 Perfect,60,AGAA
1 Perfect,60,AGAT
1 Perfect,60,ATAT
1 Perfect,60,ATCT
1 Perfect,60,CCTT
1 Perfect,60,CTTT
2 Perfect,60,GAAG
2 Perfect,60,GGAA
1 Perfect,60,TATA
1 Perfect,60,TCTT
1 Perfect,60,TTTC
2 Perfect,61,AAAG
1 Perfect,61,ACAC
6 Perfect,61,AGAA
2 Perfect,61,AGGA
1 Perfect,61,CACA
2 Perfect,61,CTCT
1 Perfect,61,GAAA
2 Perfect,61,GAAG
1 Perfect,61,TATA
1 Perfect,61,TCTC
2 Perfect,61,TCTT
1 Perfect,61,TTCC
1 Perfect,61,TTCT
4 Perfect,61,TTTC
3 Perfect,62,AAGA
1 Perfect,62,AGAA
1 Perfect,62,AGAT
2 Perfect,62,ATAT
1 Perfect,62,ATCT
1 Perfect,62,TATA
2 Perfect,62,TCCT
2 Perfect,62,TCTT
2 Perfect,62,TTCT
4 Perfect,63,AAAG
1 Perfect,63,AAGA
2 Perfect,63,ACAC
1 Perfect,63,AGGA
1 Perfect,63,ATAT
1 Perfect,63,ATCT
1 Perfect,63,CTTC
1 Perfect,63,CTTT
1 Perfect,63,GAAG
1 Perfect,63,GGAA
1 Perfect,63,TATA
1 Perfect,63,TCTT
1 Perfect,63,TTCT
6 Perfect,63,TTTC
1 Perfect,64,AAAG
1 Perfect,64,AGAA
1 Perfect,64,ATAT
1 Perfect,64,CCTT
2 Perfect,64,GAAA
2 Perfect,64,GGAA
1 Perfect,64,TTCT
2 Perfect,64,TTTC
1 Perfect,65,AAAG
1 Perfect,65,AAGA
1 Perfect,65,ACAC
2 Perfect,65,AGAA
1 Perfect,65,AGGA
2 Perfect,65,ATAT
1 Perfect,65,CTTT
1 Perfect,65,GAGA
2 Perfect,65,TCTT
1 Perfect,65,TTCC
2 Perfect,65,TTCT
2 Perfect,66,AAGA
1 Perfect,66,AAGG
1 Perfect,66,AGGA
1 Perfect,66,GAAA
2 Perfect,66,TCTT
4 Perfect,66,TTTC
1 Perfect,67,AAAG
1 Perfect,67,AGAA
1 Perfect,67,ATCT
2 Perfect,67,GAAA
3 Perfect,67,GAAG
1 Perfect,67,TCCT
1 Perfect,67,TCTT
3 Perfect,68,AAAG
1 Perfect,68,AAGA
2 Perfect,68,AAGG
1 Perfect,68,CTTT
1 Perfect,68,TATA
1 Perfect,68,TCTC
1 Perfect,68,TTCC
1 Perfect,68,TTCT
1 Perfect,68,TTTC
1 Perfect,69,AAGA
1 Perfect,69,AGAA
1 Perfect,69,CTTT
1 Perfect,69,GAAG
1 Perfect,69,GGAA
2 Perfect,69,TCTT
1 Perfect,69,TTCC
2 Perfect,69,TTTC
1 Perfect,70,AAAG
1 Perfect,70,AAGA
1 Perfect,70,AAGG
1 Perfect,70,AGAA
1 Perfect,70,CTTT
1 Perfect,70,GAAA
1 Perfect,70,GAGA
1 Perfect,70,TATA
1 Perfect,70,TTCC
1 Perfect,70,TTCT
1 Perfect,71,AAAG
1 Perfect,71,AAGA
2 Perfect,71,AGAA
1 Perfect,71,GAAA
1 Perfect,71,TTCT
1 Perfect,71,TTTC
1 Perfect,72,ACAC
1 Perfect,72,CCTT
1 Perfect,72,CTTT
2 Perfect,72,GAAA
1 Perfect,73,AAAG
3 Perfect,73,AGAA
1 Perfect,73,CTTT
1 Perfect,73,GAAA
1 Perfect,73,TTTC
1 Perfect,74,AAGG
1 Perfect,74,CTTT
2 Perfect,74,GAAA
1 Perfect,74,TTCT
2 Perfect,75,AAAG
1 Perfect,75,AAGA
1 Perfect,75,AGAA
1 Perfect,75,CTTT
1 Perfect,75,TTTC
3 Perfect,76,AGAA
2 Perfect,76,GAAA
2 Perfect,77,AAAG
2 Perfect,77,AAGA
1 Perfect,77,GAAG
1 Perfect,79,AGAA
1 Perfect,79,GAAA
1 Perfect,79,TCTT
1 Perfect,82,AAAG
1 Perfect,82,CTTT
1 Perfect,83,GAAA
1 Perfect,83,TTCC
1 Perfect,84,TCTT
1 Perfect,89,GAAA
12044 Perfect,8,AAAA
2639 Perfect,8,AAAC
5184 Perfect,8,AAAG
8659 Perfect,8,AAAT
2593 Perfect,8,AACA
1455 Perfect,8,AACC
36 Perfect,8,AACG
1139 Perfect,8,AACT
3374 Perfect,8,AAGA
1141 Perfect,8,AAGC
2728 Perfect,8,AAGG
1472 Perfect,8,AAGT
4903 Perfect,8,AATA
943 Perfect,8,AATC
2618 Perfect,8,AATG
4154 Perfect,8,AATT
1830 Perfect,8,ACAA
1899 Perfect,8,ACAC
1896 Perfect,8,ACAG
2128 Perfect,8,ACAT
893 Perfect,8,ACCA
965 Perfect,8,ACCC
25 Perfect,8,ACCG
1001 Perfect,8,ACCT
23 Perfect,8,ACGA
44 Perfect,8,ACGC
52 Perfect,8,ACGG
52 Perfect,8,ACGT
533 Perfect,8,ACTA
913 Perfect,8,ACTC
1077 Perfect,8,ACTG
1432 Perfect,8,ACTT
4142 Perfect,8,AGAA
1158 Perfect,8,AGAC
2863 Perfect,8,AGAG
1157 Perfect,8,AGAT
1365 Perfect,8,AGCA
1120 Perfect,8,AGCC
64 Perfect,8,AGCG
716 Perfect,8,AGCT
2990 Perfect,8,AGGA
2335 Perfect,8,AGGC
2515 Perfect,8,AGGG
1004 Perfect,8,AGGT
1080 Perfect,8,AGTA
694 Perfect,8,AGTC
1580 Perfect,8,AGTG
1116 Perfect,8,AGTT
3441 Perfect,8,ATAA
1124 Perfect,8,ATAC
919 Perfect,8,ATAG
6432 Perfect,8,ATAT
962 Perfect,8,ATCA
876 Perfect,8,ATCC
17 Perfect,8,ATCG
1232 Perfect,8,ATCT
1714 Perfect,8,ATGA
1054 Perfect,8,ATGC
1211 Perfect,8,ATGG
2188 Perfect,8,ATGT
2418 Perfect,8,ATTA
1825 Perfect,8,ATTC
1392 Perfect,8,ATTG
8796 Perfect,8,ATTT
3585 Perfect,8,CAAA
856 Perfect,8,CAAC
1413 Perfect,8,CAAG
1377 Perfect,8,CAAT
3407 Perfect,8,CACA
1839 Perfect,8,CACC
121 Perfect,8,CACG
1467 Perfect,8,CACT
2117 Perfect,8,CAGA
1660 Perfect,8,CAGC
3202 Perfect,8,CAGG
1071 Perfect,8,CAGT
1421 Perfect,8,CATA
1164 Perfect,8,CATC
1858 Perfect,8,CATG
2633 Perfect,8,CATT
1048 Perfect,8,CCAA
1414 Perfect,8,CCAC
2788 Perfect,8,CCAG
1130 Perfect,8,CCAT
2782 Perfect,8,CCCA
324 Perfect,8,CCCC
264 Perfect,8,CCCG
2446 Perfect,8,CCCT
18 Perfect,8,CCGA
175 Perfect,8,CCGC
229 Perfect,8,CCGG
48 Perfect,8,CCGT
642 Perfect,8,CCTA
2294 Perfect,8,CCTC
3322 Perfect,8,CCTG
2762 Perfect,8,CCTT
21 Perfect,8,CGAA
14 Perfect,8,CGAC
47 Perfect,8,CGAG
13 Perfect,8,CGAT
67 Perfect,8,CGCA
1072 Perfect,8,CGCC
64 Perfect,8,CGCG
64 Perfect,8,CGCT
82 Perfect,8,CGGA
139 Perfect,8,CGGC
264 Perfect,8,CGGG
27 Perfect,8,CGGT
12 Perfect,8,CGTA
43 Perfect,8,CGTC
95 Perfect,8,CGTG
39 Perfect,8,CGTT
803 Perfect,8,CTAA
565 Perfect,8,CTAC
739 Perfect,8,CTAG
980 Perfect,8,CTAT
2407 Perfect,8,CTCA
2349 Perfect,8,CTCC
57 Perfect,8,CTCG
2923 Perfect,8,CTCT
1264 Perfect,8,CTGA
1932 Perfect,8,CTGC
2846 Perfect,8,CTGG
1748 Perfect,8,CTGT
1087 Perfect,8,CTTA
3124 Perfect,8,CTTC
1386 Perfect,8,CTTG
5102 Perfect,8,CTTT
5268 Perfect,8,GAAA
196 Perfect,8,GAAC
2990 Perfect,8,GAAG
1917 Perfect,8,GAAT
1155 Perfect,8,GACA
107 Perfect,8,GACC
29 Perfect,8,GACG
646 Perfect,8,GACT
2803 Perfect,8,GAGA
268 Perfect,8,GAGC
2376 Perfect,8,GAGG
882 Perfect,8,GAGT
881 Perfect,8,GATA
101 Perfect,8,GATC
1182 Perfect,8,GATG
921 Perfect,8,GATT
780 Perfect,8,GCAA
837 Perfect,8,GCAC
1993 Perfect,8,GCAG
964 Perfect,8,GCAT
1131 Perfect,8,GCCA
453 Perfect,8,GCCC
114 Perfect,8,GCCG
2301 Perfect,8,GCCT
25 Perfect,8,GCGA
225 Perfect,8,GCGC
175 Perfect,8,GCGG
42 Perfect,8,GCGT
343 Perfect,8,GCTA
275 Perfect,8,GCTC
1656 Perfect,8,GCTG
1101 Perfect,8,GCTT
2411 Perfect,8,GGAA
136 Perfect,8,GGAC
2344 Perfect,8,GGAG
861 Perfect,8,GGAT
1790 Perfect,8,GGCA
426 Perfect,8,GGCC
1064 Perfect,8,GGCG
1134 Perfect,8,GGCT
2681 Perfect,8,GGGA
448 Perfect,8,GGGC
368 Perfect,8,GGGG
975 Perfect,8,GGGT
519 Perfect,8,GGTA
106 Perfect,8,GGTC
1907 Perfect,8,GGTG
1404 Perfect,8,GGTT
1070 Perfect,8,GTAA
128 Perfect,8,GTAC
531 Perfect,8,GTAG
1084 Perfect,8,GTAT
717 Perfect,8,GTCA
135 Perfect,8,GTCC
12 Perfect,8,GTCG
1122 Perfect,8,GTCT
1019 Perfect,8,GTGA
787 Perfect,8,GTGC
1488 Perfect,8,GTGG
1905 Perfect,8,GTGT
931 Perfect,8,GTTA
256 Perfect,8,GTTC
818 Perfect,8,GTTG
2672 Perfect,8,GTTT
5091 Perfect,8,TAAA
957 Perfect,8,TAAC
1140 Perfect,8,TAAG
2385 Perfect,8,TAAT
1382 Perfect,8,TACA
497 Perfect,8,TACC
18 Perfect,8,TACG
1086 Perfect,8,TACT
916 Perfect,8,TAGA
356 Perfect,8,TAGC
577 Perfect,8,TAGG
532 Perfect,8,TAGT
4849 Perfect,8,TATA
830 Perfect,8,TATC
1360 Perfect,8,TATG
4628 Perfect,8,TATT
1130 Perfect,8,TCAA
1077 Perfect,8,TCAC
1304 Perfect,8,TCAG
1791 Perfect,8,TCAT
1667 Perfect,8,TCCA
2646 Perfect,8,TCCC
86 Perfect,8,TCCG
2991 Perfect,8,TCCT
9 Perfect,8,TCGA
32 Perfect,8,TCGC
18 Perfect,8,TCGG
20 Perfect,8,TCGT
999 Perfect,8,TCTA
2656 Perfect,8,TCTC
2344 Perfect,8,TCTG
3382 Perfect,8,TCTT
2511 Perfect,8,TGAA
713 Perfect,8,TGAC
2447 Perfect,8,TGAG
959 Perfect,8,TGAT
1510 Perfect,8,TGCA
1841 Perfect,8,TGCC
67 Perfect,8,TGCG
1322 Perfect,8,TGCT
1716 Perfect,8,TGGA
1223 Perfect,8,TGGC
2682 Perfect,8,TGGG
858 Perfect,8,TGGT
1422 Perfect,8,TGTA
1118 Perfect,8,TGTC
3465 Perfect,8,TGTG
2671 Perfect,8,TGTT
3242 Perfect,8,TTAA
984 Perfect,8,TTAC
827 Perfect,8,TTAG
3516 Perfect,8,TTAT
2437 Perfect,8,TTCA
2474 Perfect,8,TTCC
21 Perfect,8,TTCG
4317 Perfect,8,TTCT
1257 Perfect,8,TTGA
753 Perfect,8,TTGC
1064 Perfect,8,TTGG
1915 Perfect,8,TTGT
5170 Perfect,8,TTTA
5213 Perfect,8,TTTC
3606 Perfect,8,TTTG
12156 Perfect,8,TTTT
1 Perfect,92,AAGA
1 Perfect,94,AAAG
1 Perfect,96,AAAG
1 Perfect,96,GAAA
1 Perfect,98,GAGA
6986 Perfect,9,AAAA
1507 Perfect,9,AAAC
1831 Perfect,9,AAAG
2581 Perfect,9,AAAT
574 Perfect,9,AACA
334 Perfect,9,AACC
9 Perfect,9,AACG
195 Perfect,9,AACT
1457 Perfect,9,AAGA
565 Perfect,9,AAGC
818 Perfect,9,AAGG
305 Perfect,9,AAGT
1373 Perfect,9,AATA
437 Perfect,9,AATC
908 Perfect,9,AATG
866 Perfect,9,AATT
1504 Perfect,9,ACAA
2180 Perfect,9,ACAC
757 Perfect,9,ACAG
846 Perfect,9,ACAT
468 Perfect,9,ACCA
287 Perfect,9,ACCC
4 Perfect,9,ACCG
162 Perfect,9,ACCT
4 Perfect,9,ACGA
33 Perfect,9,ACGC
26 Perfect,9,ACGG
13 Perfect,9,ACGT
170 Perfect,9,ACTA
555 Perfect,9,ACTC
337 Perfect,9,ACTG
355 Perfect,9,ACTT
2770 Perfect,9,AGAA
818 Perfect,9,AGAC
2001 Perfect,9,AGAG
451 Perfect,9,AGAT
318 Perfect,9,AGCA
442 Perfect,9,AGCC
9 Perfect,9,AGCG
144 Perfect,9,AGCT
1128 Perfect,9,AGGA
599 Perfect,9,AGGC
777 Perfect,9,AGGG
288 Perfect,9,AGGT
357 Perfect,9,AGTA
292 Perfect,9,AGTC
437 Perfect,9,AGTG
310 Perfect,9,AGTT
1755 Perfect,9,ATAA
957 Perfect,9,ATAC
349 Perfect,9,ATAG
2161 Perfect,9,ATAT
334 Perfect,9,ATCA
416 Perfect,9,ATCC
4 Perfect,9,ATCG
226 Perfect,9,ATCT
787 Perfect,9,ATGA
474 Perfect,9,ATGC
671 Perfect,9,ATGG
489 Perfect,9,ATGT
688 Perfect,9,ATTA
912 Perfect,9,ATTC
445 Perfect,9,ATTG
1689 Perfect,9,ATTT
305 Perfect,9,CAAA
145 Perfect,9,CAAC
217 Perfect,9,CAAG
160 Perfect,9,CAAT
935 Perfect,9,CACA
412 Perfect,9,CACC
27 Perfect,9,CACG
347 Perfect,9,CACT
312 Perfect,9,CAGA
489 Perfect,9,CAGC
499 Perfect,9,CAGG
204 Perfect,9,CAGT
181 Perfect,9,CATA
279 Perfect,9,CATC
271 Perfect,9,CATG
538 Perfect,9,CATT
192 Perfect,9,CCAA
2079 Perfect,9,CCAC
561 Perfect,9,CCAG
339 Perfect,9,CCAT
668 Perfect,9,CCCA
137 Perfect,9,CCCC
67 Perfect,9,CCCG
636 Perfect,9,CCCT
4 Perfect,9,CCGA
1014 Perfect,9,CCGC
62 Perfect,9,CCGG
28 Perfect,9,CCGT
143 Perfect,9,CCTA
1123 Perfect,9,CCTC
663 Perfect,9,CCTG
705 Perfect,9,CCTT
3 Perfect,9,CGAA
4 Perfect,9,CGAC
11 Perfect,9,CGAG
7 Perfect,9,CGAT
41 Perfect,9,CGCA
92 Perfect,9,CGCC
41 Perfect,9,CGCG
40 Perfect,9,CGCT
9 Perfect,9,CGGA
48 Perfect,9,CGGC
32 Perfect,9,CGGG
6 Perfect,9,CGGT
6 Perfect,9,CGTA
12 Perfect,9,CGTC
29 Perfect,9,CGTG
9 Perfect,9,CGTT
100 Perfect,9,CTAA
158 Perfect,9,CTAC
110 Perfect,9,CTAG
105 Perfect,9,CTAT
455 Perfect,9,CTCA
929 Perfect,9,CTCC
16 Perfect,9,CTCG
866 Perfect,9,CTCT
226 Perfect,9,CTGA
631 Perfect,9,CTGC
425 Perfect,9,CTGG
329 Perfect,9,CTGT
158 Perfect,9,CTTA
779 Perfect,9,CTTC
193 Perfect,9,CTTG
939 Perfect,9,CTTT
919 Perfect,9,GAAA
16 Perfect,9,GAAC
688 Perfect,9,GAAG
518 Perfect,9,GAAT
308 Perfect,9,GACA
10 Perfect,9,GACC
17 Perfect,9,GACG
185 Perfect,9,GACT
819 Perfect,9,GAGA
33 Perfect,9,GAGC
676 Perfect,9,GAGG
307 Perfect,9,GAGT
122 Perfect,9,GATA
6 Perfect,9,GATC
356 Perfect,9,GATG
142 Perfect,9,GATT
221 Perfect,9,GCAA
21 Perfect,9,GCAC
615 Perfect,9,GCAG
232 Perfect,9,GCAT
466 Perfect,9,GCCA
37 Perfect,9,GCCC
50 Perfect,9,GCCG
510 Perfect,9,GCCT
15 Perfect,9,GCGA
56 Perfect,9,GCGC
80 Perfect,9,GCGG
39 Perfect,9,GCGT
109 Perfect,9,GCTA
8 Perfect,9,GCTC
569 Perfect,9,GCTG
239 Perfect,9,GCTT
765 Perfect,9,GGAA
8 Perfect,9,GGAC
1073 Perfect,9,GGAG
276 Perfect,9,GGAT
623 Perfect,9,GGCA
41 Perfect,9,GGCC
1015 Perfect,9,GGCG
430 Perfect,9,GGCT
924 Perfect,9,GGGA
92 Perfect,9,GGGC
124 Perfect,9,GGGG
430 Perfect,9,GGGT
125 Perfect,9,GGTA
5 Perfect,9,GGTC
2077 Perfect,9,GGTG
144 Perfect,9,GGTT
178 Perfect,9,GTAA
2 Perfect,9,GTAC
153 Perfect,9,GTAG
167 Perfect,9,GTAT
227 Perfect,9,GTCA
6 Perfect,9,GTCC
5 Perfect,9,GTCG
295 Perfect,9,GTCT
418 Perfect,9,GTGA
52 Perfect,9,GTGC
661 Perfect,9,GTGG
1012 Perfect,9,GTGT
102 Perfect,9,GTTA
5 Perfect,9,GTTC
205 Perfect,9,GTTG
347 Perfect,9,GTTT
1725 Perfect,9,TAAA
336 Perfect,9,TAAC
335 Perfect,9,TAAG
857 Perfect,9,TAAT
500 Perfect,9,TACA
292 Perfect,9,TACC
12 Perfect,9,TACG
326 Perfect,9,TACT
238 Perfect,9,TAGA
143 Perfect,9,TAGC
147 Perfect,9,TAGG
213 Perfect,9,TAGT
2202 Perfect,9,TATA
453 Perfect,9,TATC
905 Perfect,9,TATG
2551 Perfect,9,TATT
444 Perfect,9,TCAA
457 Perfect,9,TCAC
369 Perfect,9,TCAG
911 Perfect,9,TCAT
689 Perfect,9,TCCA
727 Perfect,9,TCCC
9 Perfect,9,TCCG
890 Perfect,9,TCCT
3 Perfect,9,TCGA
7 Perfect,9,TCGC
8 Perfect,9,TCGG
6 Perfect,9,TCGT
351 Perfect,9,TCTA
2074 Perfect,9,TCTC
719 Perfect,9,TCTG
1899 Perfect,9,TCTT
838 Perfect,9,TGAA
325 Perfect,9,TGAC
548 Perfect,9,TGAG
499 Perfect,9,TGAT
450 Perfect,9,TGCA
616 Perfect,9,TGCC
15 Perfect,9,TGCG
588 Perfect,9,TGCT
375 Perfect,9,TGGA
462 Perfect,9,TGGC
349 Perfect,9,TGGG
305 Perfect,9,TGGT
968 Perfect,9,TGTA
798 Perfect,9,TGTC
2207 Perfect,9,TGTG
1524 Perfect,9,TGTT
692 Perfect,9,TTAA
403 Perfect,9,TTAC
158 Perfect,9,TTAG
1426 Perfect,9,TTAT
839 Perfect,9,TTCA
1109 Perfect,9,TTCC
7 Perfect,9,TTCG
1426 Perfect,9,TTCT
347 Perfect,9,TTGA
343 Perfect,9,TTGC
437 Perfect,9,TTGG
591 Perfect,9,TTGT
1780 Perfect,9,TTTA
2853 Perfect,9,TTTC
1431 Perfect,9,TTTG
7194 Perfect,9,TTTT
