373727 Imperfect,4,AAA
211889 Imperfect,4,AAC
208072 Imperfect,4,AAG
203772 Imperfect,4,AAT
230835 Imperfect,4,ACA
173299 Imperfect,4,ACC
29492 Imperfect,4,ACG
115727 Imperfect,4,ACT
296947 Imperfect,4,AGA
194337 Imperfect,4,AGC
212128 Imperfect,4,AGG
128950 Imperfect,4,AGT
208851 Imperfect,4,ATA
167098 Imperfect,4,ATC
195873 Imperfect,4,ATG
179065 Imperfect,4,ATT
97613 Imperfect,4,CAA
166871 Imperfect,4,CAC
213123 Imperfect,4,CAG
145990 Imperfect,4,CAT
163435 Imperfect,4,CCA
175645 Imperfect,4,CCC
29487 Imperfect,4,CCG
195806 Imperfect,4,CCT
21504 Imperfect,4,CGA
61550 Imperfect,4,CGC
45815 Imperfect,4,CGG
35086 Imperfect,4,CGT
89715 Imperfect,4,CTA
211907 Imperfect,4,CTC
201108 Imperfect,4,CTG
165127 Imperfect,4,CTT
178050 Imperfect,4,GAA
31010 Imperfect,4,GAC
225429 Imperfect,4,GAG
151390 Imperfect,4,GAT
216584 Imperfect,4,GCA
41799 Imperfect,4,GCC
41841 Imperfect,4,GCG
242328 Imperfect,4,GCT
204411 Imperfect,4,GGA
45243 Imperfect,4,GGC
175799 Imperfect,4,GGG
158006 Imperfect,4,GGT
106967 Imperfect,4,GTA
18790 Imperfect,4,GTC
191151 Imperfect,4,GTG
127645 Imperfect,4,GTT
188757 Imperfect,4,TAA
142471 Imperfect,4,TAC
115066 Imperfect,4,TAG
255299 Imperfect,4,TAT
204476 Imperfect,4,TCA
238578 Imperfect,4,TCC
28357 Imperfect,4,TCG
264681 Imperfect,4,TCT
172434 Imperfect,4,TGA
184725 Imperfect,4,TGC
159623 Imperfect,4,TGG
243749 Imperfect,4,TGT
173850 Imperfect,4,TTA
268577 Imperfect,4,TTC
186431 Imperfect,4,TTG
387732 Imperfect,4,TTT
102560 Imperfect,5,AAA
67551 Imperfect,5,AAC
81673 Imperfect,5,AAG
74829 Imperfect,5,AAT
17738 Imperfect,5,ACA
26862 Imperfect,5,ACC
4148 Imperfect,5,ACG
19981 Imperfect,5,ACT
49347 Imperfect,5,AGA
46760 Imperfect,5,AGC
61363 Imperfect,5,AGG
35891 Imperfect,5,AGT
38112 Imperfect,5,ATA
38796 Imperfect,5,ATC
38768 Imperfect,5,ATG
38133 Imperfect,5,ATT
44027 Imperfect,5,CAA
43468 Imperfect,5,CAC
57254 Imperfect,5,CAG
36398 Imperfect,5,CAT
52731 Imperfect,5,CCA
35052 Imperfect,5,CCC
18606 Imperfect,5,CCG
68740 Imperfect,5,CCT
1393 Imperfect,5,CGA
2250 Imperfect,5,CGC
2149 Imperfect,5,CGG
1365 Imperfect,5,CGT
35522 Imperfect,5,CTA
62240 Imperfect,5,CTC
45966 Imperfect,5,CTG
49935 Imperfect,5,CTT
35261 Imperfect,5,GAA
5801 Imperfect,5,GAC
38693 Imperfect,5,GAG
33062 Imperfect,5,GAT
31275 Imperfect,5,GCA
6560 Imperfect,5,GCC
6370 Imperfect,5,GCG
31290 Imperfect,5,GCT
68602 Imperfect,5,GGA
18608 Imperfect,5,GGC
35103 Imperfect,5,GGG
52758 Imperfect,5,GGT
20645 Imperfect,5,GTA
4212 Imperfect,5,GTC
27637 Imperfect,5,GTG
18164 Imperfect,5,GTT
30617 Imperfect,5,TAA
23430 Imperfect,5,TAC
23446 Imperfect,5,TAG
30358 Imperfect,5,TAT
33255 Imperfect,5,TCA
38928 Imperfect,5,TCC
5806 Imperfect,5,TCG
36010 Imperfect,5,TCT
37919 Imperfect,5,TGA
58833 Imperfect,5,TGC
43596 Imperfect,5,TGG
45068 Imperfect,5,TGT
78452 Imperfect,5,TTA
85521 Imperfect,5,TTC
70719 Imperfect,5,TTG
106859 Imperfect,5,TTT
1881 Perfect,10,AAA
73 Perfect,10,AAC
95 Perfect,10,AAG
231 Perfect,10,AAT
78 Perfect,10,ACA
98 Perfect,10,ACC
19 Perfect,10,ACT
167 Perfect,10,AGA
116 Perfect,10,AGC
127 Perfect,10,AGG
18 Perfect,10,AGT
203 Perfect,10,ATA
57 Perfect,10,ATC
60 Perfect,10,ATG
118 Perfect,10,ATT
32 Perfect,10,CAA
113 Perfect,10,CAC
160 Perfect,10,CAG
53 Perfect,10,CAT
550 Perfect,10,CCA
58 Perfect,10,CCC
12 Perfect,10,CCG
181 Perfect,10,CCT
29 Perfect,10,CGC
15 Perfect,10,CGG
13 Perfect,10,CTA
206 Perfect,10,CTC
98 Perfect,10,CTG
72 Perfect,10,CTT
72 Perfect,10,GAA
2 Perfect,10,GAC
156 Perfect,10,GAG
65 Perfect,10,GAT
97 Perfect,10,GCA
8 Perfect,10,GCC
14 Perfect,10,GCG
144 Perfect,10,GCT
186 Perfect,10,GGA
21 Perfect,10,GGC
49 Perfect,10,GGG
105 Perfect,10,GGT
9 Perfect,10,GTA
524 Perfect,10,GTG
34 Perfect,10,GTT
148 Perfect,10,TAA
30 Perfect,10,TAC
17 Perfect,10,TAG
237 Perfect,10,TAT
84 Perfect,10,TCA
152 Perfect,10,TCC
99 Perfect,10,TCT
81 Perfect,10,TGA
127 Perfect,10,TGC
88 Perfect,10,TGG
91 Perfect,10,TGT
170 Perfect,10,TTA
181 Perfect,10,TTC
112 Perfect,10,TTG
2026 Perfect,10,TTT
1233 Perfect,11,AAA
222 Perfect,11,AAC
109 Perfect,11,AAG
198 Perfect,11,AAT
4 Perfect,11,ACA
38 Perfect,11,ACC
2 Perfect,11,ACG
3 Perfect,11,ACT
38 Perfect,11,AGA
42 Perfect,11,AGC
67 Perfect,11,AGG
5 Perfect,11,AGT
80 Perfect,11,ATA
34 Perfect,11,ATC
36 Perfect,11,ATG
74 Perfect,11,ATT
19 Perfect,11,CAA
68 Perfect,11,CAC
67 Perfect,11,CAG
57 Perfect,11,CAT
67 Perfect,11,CCA
21 Perfect,11,CCC
14 Perfect,11,CCG
165 Perfect,11,CCT
1 Perfect,11,CGA
7 Perfect,11,CGC
5 Perfect,11,CGG
8 Perfect,11,CTA
72 Perfect,11,CTC
53 Perfect,11,CTG
32 Perfect,11,CTT
43 Perfect,11,GAA
2 Perfect,11,GAC
77 Perfect,11,GAG
20 Perfect,11,GAT
31 Perfect,11,GCA
6 Perfect,11,GCC
14 Perfect,11,GCG
27 Perfect,11,GCT
126 Perfect,11,GGA
24 Perfect,11,GGC
31 Perfect,11,GGG
67 Perfect,11,GGT
5 Perfect,11,GTA
1 Perfect,11,GTC
40 Perfect,11,GTG
4 Perfect,11,GTT
75 Perfect,11,TAA
17 Perfect,11,TAC
8 Perfect,11,TAG
96 Perfect,11,TAT
13 Perfect,11,TCA
70 Perfect,11,TCC
1 Perfect,11,TCG
34 Perfect,11,TCT
70 Perfect,11,TGA
69 Perfect,11,TGC
83 Perfect,11,TGG
11 Perfect,11,TGT
169 Perfect,11,TTA
102 Perfect,11,TTC
232 Perfect,11,TTG
1361 Perfect,11,TTT
989 Perfect,12,AAA
14 Perfect,12,AAC
12 Perfect,12,AAG
70 Perfect,12,AAT
8 Perfect,12,ACA
4 Perfect,12,ACC
1 Perfect,12,ACT
16 Perfect,12,AGA
19 Perfect,12,AGC
36 Perfect,12,AGG
5 Perfect,12,AGT
39 Perfect,12,ATA
15 Perfect,12,ATC
13 Perfect,12,ATG
81 Perfect,12,ATT
54 Perfect,12,CAA
29 Perfect,12,CAC
18 Perfect,12,CAG
18 Perfect,12,CAT
24 Perfect,12,CCA
17 Perfect,12,CCC
6 Perfect,12,CCG
40 Perfect,12,CCT
2 Perfect,12,CGA
5 Perfect,12,CGC
1 Perfect,12,CGG
5 Perfect,12,CTA
35 Perfect,12,CTC
29 Perfect,12,CTG
21 Perfect,12,CTT
42 Perfect,12,GAA
30 Perfect,12,GAG
5 Perfect,12,GAT
11 Perfect,12,GCA
8 Perfect,12,GCC
7 Perfect,12,GCG
22 Perfect,12,GCT
20 Perfect,12,GGA
10 Perfect,12,GGC
20 Perfect,12,GGG
10 Perfect,12,GGT
2 Perfect,12,GTA
26 Perfect,12,GTG
12 Perfect,12,GTT
48 Perfect,12,TAA
4 Perfect,12,TAC
1 Perfect,12,TAG
34 Perfect,12,TAT
13 Perfect,12,TCA
30 Perfect,12,TCC
9 Perfect,12,TCT
13 Perfect,12,TGA
13 Perfect,12,TGC
27 Perfect,12,TGG
3 Perfect,12,TGT
44 Perfect,12,TTA
20 Perfect,12,TTC
59 Perfect,12,TTG
1126 Perfect,12,TTT
938 Perfect,13,AAA
18 Perfect,13,AAC
12 Perfect,13,AAG
43 Perfect,13,AAT
17 Perfect,13,ACA
15 Perfect,13,ACC
1 Perfect,13,ACG
9 Perfect,13,AGA
12 Perfect,13,AGC
19 Perfect,13,AGG
61 Perfect,13,ATA
10 Perfect,13,ATC
8 Perfect,13,ATG
16 Perfect,13,ATT
2 Perfect,13,CAA
4 Perfect,13,CAC
16 Perfect,13,CAG
9 Perfect,13,CAT
10 Perfect,13,CCA
5 Perfect,13,CCC
4 Perfect,13,CCG
22 Perfect,13,CCT
1 Perfect,13,CGA
4 Perfect,13,CGC
2 Perfect,13,CGG
1 Perfect,13,CTA
13 Perfect,13,CTC
12 Perfect,13,CTG
7 Perfect,13,CTT
13 Perfect,13,GAA
14 Perfect,13,GAG
11 Perfect,13,GAT
3 Perfect,13,GCA
1 Perfect,13,GCC
2 Perfect,13,GCG
15 Perfect,13,GCT
10 Perfect,13,GGA
4 Perfect,13,GGC
14 Perfect,13,GGG
8 Perfect,13,GGT
11 Perfect,13,GTG
1 Perfect,13,GTT
23 Perfect,13,TAA
2 Perfect,13,TAC
4 Perfect,13,TAG
47 Perfect,13,TAT
11 Perfect,13,TCA
12 Perfect,13,TCC
8 Perfect,13,TCT
9 Perfect,13,TGA
5 Perfect,13,TGC
12 Perfect,13,TGG
24 Perfect,13,TGT
69 Perfect,13,TTA
11 Perfect,13,TTC
26 Perfect,13,TTG
960 Perfect,13,TTT
851 Perfect,14,AAA
106 Perfect,14,AAC
30 Perfect,14,AAG
75 Perfect,14,AAT
3 Perfect,14,ACA
5 Perfect,14,ACC
4 Perfect,14,AGA
8 Perfect,14,AGC
15 Perfect,14,AGG
1 Perfect,14,AGT
11 Perfect,14,ATA
7 Perfect,14,ATC
13 Perfect,14,ATG
19 Perfect,14,ATT
7 Perfect,14,CAA
16 Perfect,14,CAC
12 Perfect,14,CAG
8 Perfect,14,CAT
8 Perfect,14,CCA
6 Perfect,14,CCC
3 Perfect,14,CCG
8 Perfect,14,CCT
4 Perfect,14,CGC
3 Perfect,14,CGG
1 Perfect,14,CTA
13 Perfect,14,CTC
8 Perfect,14,CTG
4 Perfect,14,CTT
7 Perfect,14,GAA
12 Perfect,14,GAG
5 Perfect,14,GAT
6 Perfect,14,GCA
5 Perfect,14,GCC
1 Perfect,14,GCG
1 Perfect,14,GCT
8 Perfect,14,GGA
1 Perfect,14,GGC
4 Perfect,14,GGG
5 Perfect,14,GGT
1 Perfect,14,GTA
3 Perfect,14,GTG
2 Perfect,14,GTT
8 Perfect,14,TAA
1 Perfect,14,TAG
11 Perfect,14,TAT
5 Perfect,14,TCA
14 Perfect,14,TCC
4 Perfect,14,TCT
12 Perfect,14,TGA
7 Perfect,14,TGC
14 Perfect,14,TGG
3 Perfect,14,TGT
83 Perfect,14,TTA
29 Perfect,14,TTC
117 Perfect,14,TTG
853 Perfect,14,TTT
695 Perfect,15,AAA
4 Perfect,15,AAC
9 Perfect,15,AAG
37 Perfect,15,AAT
1 Perfect,15,ACA
2 Perfect,15,ACC
3 Perfect,15,AGA
1 Perfect,15,AGC
7 Perfect,15,AGG
8 Perfect,15,ATA
2 Perfect,15,ATC
2 Perfect,15,ATG
34 Perfect,15,ATT
23 Perfect,15,CAA
4 Perfect,15,CAC
2 Perfect,15,CAG
2 Perfect,15,CAT
5 Perfect,15,CCA
2 Perfect,15,CCC
1 Perfect,15,CCG
8 Perfect,15,CCT
1 Perfect,15,CGC
2 Perfect,15,CGG
5 Perfect,15,CTC
3 Perfect,15,CTG
10 Perfect,15,CTT
6 Perfect,15,GAA
7 Perfect,15,GAG
4 Perfect,15,GAT
2 Perfect,15,GCA
2 Perfect,15,GCC
2 Perfect,15,GCG
1 Perfect,15,GCT
4 Perfect,15,GGA
5 Perfect,15,GGC
5 Perfect,15,GGG
2 Perfect,15,GGT
1 Perfect,15,GTC
4 Perfect,15,GTG
3 Perfect,15,GTT
7 Perfect,15,TAA
1 Perfect,15,TAC
4 Perfect,15,TAT
2 Perfect,15,TCA
3 Perfect,15,TCC
3 Perfect,15,TCT
1 Perfect,15,TGA
3 Perfect,15,TGC
5 Perfect,15,TGG
2 Perfect,15,TGT
8 Perfect,15,TTA
5 Perfect,15,TTC
23 Perfect,15,TTG
774 Perfect,15,TTT
699 Perfect,16,AAA
5 Perfect,16,AAC
9 Perfect,16,AAG
22 Perfect,16,AAT
8 Perfect,16,ACA
3 Perfect,16,ACC
1 Perfect,16,ACT
3 Perfect,16,AGA
1 Perfect,16,AGC
3 Perfect,16,AGG
1 Perfect,16,AGT
15 Perfect,16,ATA
1 Perfect,16,ATC
1 Perfect,16,ATG
4 Perfect,16,ATT
1 Perfect,16,CAC
6 Perfect,16,CAG
2 Perfect,16,CAT
2 Perfect,16,CCA
2 Perfect,16,CCC
2 Perfect,16,CCG
2 Perfect,16,CCT
4 Perfect,16,CGC
1 Perfect,16,CGG
7 Perfect,16,CTC
2 Perfect,16,CTG
4 Perfect,16,CTT
2 Perfect,16,GAA
6 Perfect,16,GAG
5 Perfect,16,GAT
2 Perfect,16,GCA
1 Perfect,16,GCC
1 Perfect,16,GCG
5 Perfect,16,GCT
5 Perfect,16,GGA
5 Perfect,16,GGC
1 Perfect,16,GGG
6 Perfect,16,GGT
4 Perfect,16,GTG
1 Perfect,16,GTT
4 Perfect,16,TAA
1 Perfect,16,TAG
25 Perfect,16,TAT
1 Perfect,16,TCA
4 Perfect,16,TCC
5 Perfect,16,TCT
3 Perfect,16,TGA
2 Perfect,16,TGC
5 Perfect,16,TGG
10 Perfect,16,TGT
10 Perfect,16,TTA
2 Perfect,16,TTC
8 Perfect,16,TTG
692 Perfect,16,TTT
547 Perfect,17,AAA
61 Perfect,17,AAC
18 Perfect,17,AAG
39 Perfect,17,AAT
5 Perfect,17,ACC
2 Perfect,17,AGA
2 Perfect,17,AGC
4 Perfect,17,AGG
2 Perfect,17,ATA
4 Perfect,17,ATC
2 Perfect,17,ATG
1 Perfect,17,ATT
10 Perfect,17,CAC
3 Perfect,17,CAG
3 Perfect,17,CAT
1 Perfect,17,CCA
2 Perfect,17,CCC
2 Perfect,17,CCG
1 Perfect,17,CCT
1 Perfect,17,CGG
3 Perfect,17,CTC
1 Perfect,17,CTT
4 Perfect,17,GAA
1 Perfect,17,GAC
4 Perfect,17,GAG
2 Perfect,17,GAT
2 Perfect,17,GCC
1 Perfect,17,GCG
1 Perfect,17,GCT
2 Perfect,17,GGA
1 Perfect,17,GGT
2 Perfect,17,GTG
2 Perfect,17,TAA
1 Perfect,17,TAC
1 Perfect,17,TAG
4 Perfect,17,TAT
11 Perfect,17,TCC
3 Perfect,17,TCT
2 Perfect,17,TGA
6 Perfect,17,TGC
8 Perfect,17,TGG
2 Perfect,17,TGT
26 Perfect,17,TTA
20 Perfect,17,TTC
53 Perfect,17,TTG
556 Perfect,17,TTT
397 Perfect,18,AAA
3 Perfect,18,AAC
1 Perfect,18,AAG
15 Perfect,18,AAT
2 Perfect,18,AGA
1 Perfect,18,AGC
1 Perfect,18,AGG
2 Perfect,18,ATA
13 Perfect,18,ATT
17 Perfect,18,CAA
2 Perfect,18,CAG
1 Perfect,18,CAT
3 Perfect,18,CCA
1 Perfect,18,CCT
1 Perfect,18,CGC
2 Perfect,18,CGG
6 Perfect,18,CTC
3 Perfect,18,CTG
3 Perfect,18,CTT
2 Perfect,18,GAA
2 Perfect,18,GAG
3 Perfect,18,GCC
2 Perfect,18,GCG
2 Perfect,18,GCT
1 Perfect,18,GGA
3 Perfect,18,GGT
9 Perfect,18,GTT
9 Perfect,18,TAA
1 Perfect,18,TAC
3 Perfect,18,TAT
1 Perfect,18,TCA
2 Perfect,18,TCC
1 Perfect,18,TCT
1 Perfect,18,TGA
1 Perfect,18,TGC
6 Perfect,18,TTA
1 Perfect,18,TTC
13 Perfect,18,TTG
431 Perfect,18,TTT
373 Perfect,19,AAA
2 Perfect,19,AAC
3 Perfect,19,AAG
9 Perfect,19,AAT
9 Perfect,19,ACA
3 Perfect,19,ACC
2 Perfect,19,AGG
5 Perfect,19,ATA
1 Perfect,19,ATC
1 Perfect,19,ATG
3 Perfect,19,ATT
1 Perfect,19,CAG
1 Perfect,19,CCA
2 Perfect,19,CCT
1 Perfect,19,CTC
1 Perfect,19,CTT
1 Perfect,19,GAA
1 Perfect,19,GAG
1 Perfect,19,GAT
1 Perfect,19,GCA
1 Perfect,19,GCG
1 Perfect,19,GGC
2 Perfect,19,GGG
2 Perfect,19,GGT
1 Perfect,19,GTG
2 Perfect,19,GTT
1 Perfect,19,TAA
6 Perfect,19,TAT
3 Perfect,19,TCC
5 Perfect,19,TCT
2 Perfect,19,TGG
4 Perfect,19,TGT
4 Perfect,19,TTA
6 Perfect,19,TTG
407 Perfect,19,TTT
340 Perfect,20,AAA
20 Perfect,20,AAC
7 Perfect,20,AAG
17 Perfect,20,AAT
1 Perfect,20,ACA
1 Perfect,20,ACC
2 Perfect,20,AGG
3 Perfect,20,ATA
2 Perfect,20,ATC
1 Perfect,20,ATT
1 Perfect,20,CAG
1 Perfect,20,CCC
1 Perfect,20,CCG
2 Perfect,20,CCT
1 Perfect,20,CGG
1 Perfect,20,GAA
6 Perfect,20,GAG
1 Perfect,20,GCA
5 Perfect,20,GCC
2 Perfect,20,GCG
3 Perfect,20,GCT
1 Perfect,20,GGA
1 Perfect,20,GGC
1 Perfect,20,GGT
1 Perfect,20,GTT
2 Perfect,20,TAA
3 Perfect,20,TAT
3 Perfect,20,TCA
5 Perfect,20,TCC
1 Perfect,20,TGA
3 Perfect,20,TGG
1 Perfect,20,TGT
21 Perfect,20,TTA
4 Perfect,20,TTC
28 Perfect,20,TTG
335 Perfect,20,TTT
269 Perfect,21,AAA
2 Perfect,21,AAG
13 Perfect,21,AAT
2 Perfect,21,AGC
1 Perfect,21,ATC
16 Perfect,21,ATT
6 Perfect,21,CAA
1 Perfect,21,CAC
1 Perfect,21,CAG
1 Perfect,21,CAT
2 Perfect,21,CCT
1 Perfect,21,CTA
1 Perfect,21,CTG
1 Perfect,21,CTT
1 Perfect,21,GAA
1 Perfect,21,GAT
1 Perfect,21,GCA
2 Perfect,21,GCC
1 Perfect,21,GCT
2 Perfect,21,GGA
1 Perfect,21,TAA
2 Perfect,21,TCC
2 Perfect,21,TCT
1 Perfect,21,TGA
1 Perfect,21,TGC
1 Perfect,21,TGG
3 Perfect,21,TTA
1 Perfect,21,TTC
5 Perfect,21,TTG
291 Perfect,21,TTT
264 Perfect,22,AAA
2 Perfect,22,AAC
4 Perfect,22,AAT
2 Perfect,22,ACA
1 Perfect,22,ACC
2 Perfect,22,ATG
1 Perfect,22,ATT
1 Perfect,22,CAA
1 Perfect,22,CAT
1 Perfect,22,CTG
1 Perfect,22,CTT
1 Perfect,22,GCG
1 Perfect,22,GGC
3 Perfect,22,TAA
1 Perfect,22,TAG
1 Perfect,22,TAT
1 Perfect,22,TCC
1 Perfect,22,TCT
1 Perfect,22,TGA
1 Perfect,22,TGC
2 Perfect,22,TGG
4 Perfect,22,TGT
1 Perfect,22,TTA
1 Perfect,22,TTG
285 Perfect,22,TTT
231 Perfect,23,AAA
16 Perfect,23,AAC
2 Perfect,23,AAG
9 Perfect,23,AAT
1 Perfect,23,AGC
1 Perfect,23,AGG
1 Perfect,23,ATA
2 Perfect,23,CAC
1 Perfect,23,CAG
1 Perfect,23,CCC
1 Perfect,23,CCG
1 Perfect,23,CCT
1 Perfect,23,CGC
1 Perfect,23,CTC
2 Perfect,23,GAA
1 Perfect,23,GAG
1 Perfect,23,GGC
1 Perfect,23,GTG
3 Perfect,23,TCA
2 Perfect,23,TGC
1 Perfect,23,TGG
1 Perfect,23,TGT
7 Perfect,23,TTA
17 Perfect,23,TTG
224 Perfect,23,TTT
184 Perfect,24,AAA
4 Perfect,24,AAT
1 Perfect,24,ACA
1 Perfect,24,ATA
5 Perfect,24,ATT
2 Perfect,24,GCC
1 Perfect,24,GCG
1 Perfect,24,TAA
1 Perfect,24,TAG
1 Perfect,24,TAT
1 Perfect,24,TCC
2 Perfect,24,TCT
1 Perfect,24,TGC
1 Perfect,24,TGT
1 Perfect,24,TTA
1 Perfect,24,TTC
4 Perfect,24,TTG
191 Perfect,24,TTT
139 Perfect,25,AAA
1 Perfect,25,AAT
1 Perfect,25,AGG
2 Perfect,25,ATA
1 Perfect,25,ATC
2 Perfect,25,CCT
1 Perfect,25,CGG
1 Perfect,25,CTC
1 Perfect,25,CTT
1 Perfect,25,GCC
1 Perfect,25,GTA
1 Perfect,25,GTG
1 Perfect,25,TAA
3 Perfect,25,TAT
2 Perfect,25,TCC
1 Perfect,25,TCT
1 Perfect,25,TGA
1 Perfect,25,TGG
1 Perfect,25,TTA
1 Perfect,25,TTG
167 Perfect,25,TTT
108 Perfect,26,AAA
7 Perfect,26,AAC
5 Perfect,26,AAT
1 Perfect,26,ATG
1 Perfect,26,ATT
1 Perfect,26,CAC
1 Perfect,26,CAG
1 Perfect,26,CCA
1 Perfect,26,CCT
1 Perfect,26,CTG
1 Perfect,26,GAG
1 Perfect,26,GGC
1 Perfect,26,TAA
1 Perfect,26,TGC
1 Perfect,26,TGG
6 Perfect,26,TTA
1 Perfect,26,TTC
6 Perfect,26,TTG
159 Perfect,26,TTT
74 Perfect,27,AAA
2 Perfect,27,AAT
2 Perfect,27,CAA
1 Perfect,27,CTC
1 Perfect,27,GCC
1 Perfect,27,GTG
1 Perfect,27,GTT
1 Perfect,27,TAA
2 Perfect,27,TTA
3 Perfect,27,TTG
89 Perfect,27,TTT
56 Perfect,28,AAA
1 Perfect,28,AAC
1 Perfect,28,AAG
2 Perfect,28,AAT
2 Perfect,28,ATA
1 Perfect,28,ATC
1 Perfect,28,GCG
2 Perfect,28,TAT
1 Perfect,28,TCT
1 Perfect,28,TGT
1 Perfect,28,TTA
69 Perfect,28,TTT
49 Perfect,29,AAA
3 Perfect,29,AAT
1 Perfect,29,ATA
1 Perfect,29,ATG
1 Perfect,29,ATT
1 Perfect,29,CAG
1 Perfect,29,GTG
1 Perfect,29,TAA
1 Perfect,29,TGG
4 Perfect,29,TTA
1 Perfect,29,TTC
2 Perfect,29,TTG
55 Perfect,29,TTT
39 Perfect,30,AAA
1 Perfect,30,AAG
1 Perfect,30,ATA
1 Perfect,30,CAA
1 Perfect,30,TCA
1 Perfect,30,TCC
1 Perfect,30,TGT
1 Perfect,30,TTC
2 Perfect,30,TTG
40 Perfect,30,TTT
27 Perfect,31,AAA
1 Perfect,31,AAT
1 Perfect,31,CCA
1 Perfect,31,TAA
3 Perfect,31,TAT
1 Perfect,31,TGA
1 Perfect,31,TTA
39 Perfect,31,TTT
27 Perfect,32,AAA
2 Perfect,32,AAC
2 Perfect,32,AAT
1 Perfect,32,AGC
1 Perfect,32,ATG
1 Perfect,32,ATT
1 Perfect,32,CTC
1 Perfect,32,TAT
1 Perfect,32,TTA
1 Perfect,32,TTG
19 Perfect,32,TTT
12 Perfect,33,AAA
1 Perfect,33,AAG
1 Perfect,33,ATT
1 Perfect,33,CAA
1 Perfect,33,GGA
1 Perfect,33,TCA
1 Perfect,33,TGA
2 Perfect,33,TTA
1 Perfect,33,TTC
15 Perfect,33,TTT
6 Perfect,34,AAA
1 Perfect,34,AAT
1 Perfect,34,ATA
1 Perfect,34,ATC
1 Perfect,34,TAA
1 Perfect,34,TAT
1 Perfect,34,TGT
15 Perfect,34,TTT
8 Perfect,35,AAA
2 Perfect,35,AAC
1 Perfect,35,CTC
1 Perfect,35,GAG
2 Perfect,35,TTG
6 Perfect,35,TTT
4 Perfect,36,AAA
1 Perfect,36,AAT
1 Perfect,36,ATC
1 Perfect,36,GGA
1 Perfect,36,TAA
5 Perfect,36,TTT
8 Perfect,37,AAA
2 Perfect,37,TAT
9 Perfect,37,TTT
6 Perfect,38,AAA
2 Perfect,38,AAT
1 Perfect,38,AGA
1 Perfect,38,AGT
1 Perfect,38,CCG
1 Perfect,38,TCT
1 Perfect,38,TGA
1 Perfect,38,TTA
1 Perfect,38,TTC
7 Perfect,38,TTT
6 Perfect,39,AAA
1 Perfect,39,AAT
1 Perfect,39,ATA
2 Perfect,39,ATT
1 Perfect,39,CTG
1 Perfect,39,GAT
1 Perfect,39,GTT
6 Perfect,39,TTT
3 Perfect,40,AAA
3 Perfect,40,AAT
1 Perfect,40,ATT
2 Perfect,40,TAT
1 Perfect,40,TCC
2 Perfect,40,TTA
6 Perfect,40,TTT
3 Perfect,41,AAA
1 Perfect,41,ATC
1 Perfect,41,ATT
1 Perfect,41,CCA
1 Perfect,41,TTA
7 Perfect,41,TTT
5 Perfect,42,AAA
2 Perfect,42,AAT
2 Perfect,42,ATA
1 Perfect,42,ATC
1 Perfect,42,ATT
1 Perfect,42,CAC
1 Perfect,42,GCG
1 Perfect,42,TTG
5 Perfect,42,TTT
2 Perfect,43,AAA
1 Perfect,43,AAT
1 Perfect,43,ATA
1 Perfect,43,ATC
1 Perfect,43,TAA
1 Perfect,43,TAT
1 Perfect,43,TTT
2 Perfect,44,AAA
2 Perfect,44,AAT
1 Perfect,44,CTC
1 Perfect,44,GGA
1 Perfect,44,GGT
3 Perfect,44,TTA
4 Perfect,44,TTT
4 Perfect,45,AAA
1 Perfect,45,ATA
1 Perfect,45,ATC
3 Perfect,45,ATT
1 Perfect,45,CAA
1 Perfect,45,TAA
1 Perfect,45,TGA
2 Perfect,45,TTG
1 Perfect,46,ATA
1 Perfect,46,TAC
1 Perfect,46,TAT
1 Perfect,46,TCT
1 Perfect,46,TGA
2 Perfect,46,TTT
1 Perfect,47,AAT
1 Perfect,47,TTA
2 Perfect,47,TTT
1 Perfect,48,AAA
1 Perfect,48,AAT
2 Perfect,48,TTT
1 Perfect,49,AAA
1 Perfect,49,AAT
1 Perfect,49,TAT
2 Perfect,49,TTT
1 Perfect,50,AAA
1 Perfect,50,AAG
1 Perfect,50,AAT
1 Perfect,51,AAA
1 Perfect,51,AAT
1 Perfect,51,ATA
2 Perfect,52,CTT
1 Perfect,53,AAA
1 Perfect,55,TAT
1 Perfect,56,TTT
1 Perfect,57,TTT
1 Perfect,58,TCT
1 Perfect,60,TTT
1 Perfect,62,GAA
1 Perfect,62,TTC
1 Perfect,63,CTT
1 Perfect,64,AGA
1 Perfect,66,TCT
1 Perfect,67,CTT
1 Perfect,68,TCT
30893 Perfect,6,AAA
6503 Perfect,6,AAC
13805 Perfect,6,AAG
16101 Perfect,6,AAT
8458 Perfect,6,ACA
5743 Perfect,6,ACC
279 Perfect,6,ACG
5859 Perfect,6,ACT
13439 Perfect,6,AGA
8810 Perfect,6,AGC
20298 Perfect,6,AGG
5911 Perfect,6,AGT
9293 Perfect,6,ATA
5994 Perfect,6,ATC
9945 Perfect,6,ATG
16446 Perfect,6,ATT
11484 Perfect,6,CAA
10411 Perfect,6,CAC
15677 Perfect,6,CAG
9706 Perfect,6,CAT
15629 Perfect,6,CCA
6867 Perfect,6,CCC
668 Perfect,6,CCG
20230 Perfect,6,CCT
220 Perfect,6,CGA
704 Perfect,6,CGC
706 Perfect,6,CGG
316 Perfect,6,CGT
11352 Perfect,6,CTA
10896 Perfect,6,CTC
15943 Perfect,6,CTG
14541 Perfect,6,CTT
13903 Perfect,6,GAA
1126 Perfect,6,GAC
11157 Perfect,6,GAG
5972 Perfect,6,GAT
8360 Perfect,6,GCA
3534 Perfect,6,GCC
703 Perfect,6,GCG
8611 Perfect,6,GCT
12683 Perfect,6,GGA
3276 Perfect,6,GGC
6626 Perfect,6,GGG
5925 Perfect,6,GGT
3405 Perfect,6,GTA
1106 Perfect,6,GTC
10875 Perfect,6,GTG
6744 Perfect,6,GTT
11374 Perfect,6,TAA
3369 Perfect,6,TAC
11683 Perfect,6,TAG
9668 Perfect,6,TAT
10008 Perfect,6,TCA
12914 Perfect,6,TCC
210 Perfect,6,TCG
13961 Perfect,6,TCT
10174 Perfect,6,TGA
8572 Perfect,6,TGC
15803 Perfect,6,TGG
8935 Perfect,6,TGT
11574 Perfect,6,TTA
14309 Perfect,6,TTC
12129 Perfect,6,TTG
32472 Perfect,6,TTT
1 Perfect,70,AAG
1 Perfect,71,CTT
13076 Perfect,7,AAA
3407 Perfect,7,AAC
4612 Perfect,7,AAG
4290 Perfect,7,AAT
2557 Perfect,7,ACA
2613 Perfect,7,ACC
49 Perfect,7,ACG
1163 Perfect,7,ACT
6312 Perfect,7,AGA
2995 Perfect,7,AGC
5376 Perfect,7,AGG
1359 Perfect,7,AGT
3573 Perfect,7,ATA
2230 Perfect,7,ATC
3115 Perfect,7,ATG
3091 Perfect,7,ATT
1286 Perfect,7,CAA
2184 Perfect,7,CAC
3894 Perfect,7,CAG
2118 Perfect,7,CAT
7069 Perfect,7,CCA
1068 Perfect,7,CCC
279 Perfect,7,CCG
4126 Perfect,7,CCT
62 Perfect,7,CGA
367 Perfect,7,CGC
303 Perfect,7,CGG
117 Perfect,7,CGT
825 Perfect,7,CTA
3729 Perfect,7,CTC
3488 Perfect,7,CTG
3353 Perfect,7,CTT
3343 Perfect,7,GAA
92 Perfect,7,GAC
4111 Perfect,7,GAG
2250 Perfect,7,GAT
3551 Perfect,7,GCA
306 Perfect,7,GCC
288 Perfect,7,GCG
3944 Perfect,7,GCT
3686 Perfect,7,GGA
386 Perfect,7,GGC
1019 Perfect,7,GGG
2207 Perfect,7,GGT
881 Perfect,7,GTA
60 Perfect,7,GTC
7365 Perfect,7,GTG
1382 Perfect,7,GTT
3125 Perfect,7,TAA
1307 Perfect,7,TAC
1219 Perfect,7,TAG
4425 Perfect,7,TAT
3129 Perfect,7,TCA
5373 Perfect,7,TCC
54 Perfect,7,TCG
4760 Perfect,7,TCT
2307 Perfect,7,TGA
3031 Perfect,7,TGC
2728 Perfect,7,TGG
3549 Perfect,7,TGT
3722 Perfect,7,TTA
6415 Perfect,7,TTC
2628 Perfect,7,TTG
13861 Perfect,7,TTT
4885 Perfect,8,AAA
1307 Perfect,8,AAC
2444 Perfect,8,AAG
2271 Perfect,8,AAT
314 Perfect,8,ACA
663 Perfect,8,ACC
13 Perfect,8,ACG
208 Perfect,8,ACT
1023 Perfect,8,AGA
1165 Perfect,8,AGC
1297 Perfect,8,AGG
279 Perfect,8,AGT
1006 Perfect,8,ATA
761 Perfect,8,ATC
749 Perfect,8,ATG
1002 Perfect,8,ATT
716 Perfect,8,CAA
1736 Perfect,8,CAC
1546 Perfect,8,CAG
809 Perfect,8,CAT
1184 Perfect,8,CCA
201 Perfect,8,CCC
236 Perfect,8,CCG
1849 Perfect,8,CCT
10 Perfect,8,CGA
63 Perfect,8,CGC
56 Perfect,8,CGG
14 Perfect,8,CGT
272 Perfect,8,CTA
1276 Perfect,8,CTC
1130 Perfect,8,CTG
1055 Perfect,8,CTT
1007 Perfect,8,GAA
41 Perfect,8,GAC
1139 Perfect,8,GAG
632 Perfect,8,GAT
872 Perfect,8,GCA
153 Perfect,8,GCC
149 Perfect,8,GCG
917 Perfect,8,GCT
1858 Perfect,8,GGA
222 Perfect,8,GGC
230 Perfect,8,GGG
1205 Perfect,8,GGT
192 Perfect,8,GTA
12 Perfect,8,GTC
761 Perfect,8,GTG
358 Perfect,8,GTT
1018 Perfect,8,TAA
309 Perfect,8,TAC
302 Perfect,8,TAG
1005 Perfect,8,TAT
646 Perfect,8,TCA
1127 Perfect,8,TCC
29 Perfect,8,TCG
1038 Perfect,8,TCT
814 Perfect,8,TGA
1491 Perfect,8,TGC
1710 Perfect,8,TGG
710 Perfect,8,TGT
2293 Perfect,8,TTA
2496 Perfect,8,TTC
1324 Perfect,8,TTG
5242 Perfect,8,TTT
2954 Perfect,9,AAA
153 Perfect,9,AAC
333 Perfect,9,AAG
605 Perfect,9,AAT
144 Perfect,9,ACA
158 Perfect,9,ACC
74 Perfect,9,ACT
329 Perfect,9,AGA
307 Perfect,9,AGC
552 Perfect,9,AGG
73 Perfect,9,AGT
378 Perfect,9,ATA
120 Perfect,9,ATC
218 Perfect,9,ATG
636 Perfect,9,ATT
246 Perfect,9,CAA
1094 Perfect,9,CAC
443 Perfect,9,CAG
186 Perfect,9,CAT
569 Perfect,9,CCA
82 Perfect,9,CCC
29 Perfect,9,CCG
532 Perfect,9,CCT
35 Perfect,9,CGA
35 Perfect,9,CGC
26 Perfect,9,CGG
3 Perfect,9,CGT
50 Perfect,9,CTA
369 Perfect,9,CTC
453 Perfect,9,CTG
316 Perfect,9,CTT
432 Perfect,9,GAA
9 Perfect,9,GAC
386 Perfect,9,GAG
133 Perfect,9,GAT
250 Perfect,9,GCA
76 Perfect,9,GCC
36 Perfect,9,GCG
322 Perfect,9,GCT
389 Perfect,9,GGA
78 Perfect,9,GGC
99 Perfect,9,GGG
183 Perfect,9,GGT
58 Perfect,9,GTA
7 Perfect,9,GTC
1143 Perfect,9,GTG
158 Perfect,9,GTT
371 Perfect,9,TAA
42 Perfect,9,TAC
85 Perfect,9,TAG
383 Perfect,9,TAT
335 Perfect,9,TCA
398 Perfect,9,TCC
1 Perfect,9,TCG
344 Perfect,9,TCT
344 Perfect,9,TGA
279 Perfect,9,TGC
555 Perfect,9,TGG
151 Perfect,9,TGT
448 Perfect,9,TTA
443 Perfect,9,TTC
305 Perfect,9,TTG
3058 Perfect,9,TTT
