2092831 Imperfect,3,AA
1761557 Imperfect,3,AC
1768235 Imperfect,3,AG
1465387 Imperfect,3,AT
1046832 Imperfect,3,CA
1117384 Imperfect,3,CC
250256 Imperfect,3,CG
1077020 Imperfect,3,CT
1075028 Imperfect,3,GA
248570 Imperfect,3,GC
1112591 Imperfect,3,GG
1042300 Imperfect,3,GT
1470425 Imperfect,3,TA
1770347 Imperfect,3,TC
1765710 Imperfect,3,TG
2096631 Imperfect,3,TT
5451 Perfect,10,AA
530 Perfect,10,AC
503 Perfect,10,AG
1453 Perfect,10,AT
935 Perfect,10,CA
94 Perfect,10,CC
9 Perfect,10,CG
472 Perfect,10,CT
571 Perfect,10,GA
32 Perfect,10,GC
87 Perfect,10,GG
514 Perfect,10,GT
1474 Perfect,10,TA
551 Perfect,10,TC
843 Perfect,10,TG
5712 Perfect,10,TT
3399 Perfect,11,AA
914 Perfect,11,AC
553 Perfect,11,AG
922 Perfect,11,AT
351 Perfect,11,CA
53 Perfect,11,CC
17 Perfect,11,CG
243 Perfect,11,CT
246 Perfect,11,GA
10 Perfect,11,GC
62 Perfect,11,GG
329 Perfect,11,GT
856 Perfect,11,TA
578 Perfect,11,TC
891 Perfect,11,TG
3546 Perfect,11,TT
1 Perfect,124,AT
2655 Perfect,12,AA
241 Perfect,12,AC
152 Perfect,12,AG
567 Perfect,12,AT
378 Perfect,12,CA
35 Perfect,12,CC
1 Perfect,12,CG
179 Perfect,12,CT
199 Perfect,12,GA
6 Perfect,12,GC
39 Perfect,12,GG
247 Perfect,12,GT
487 Perfect,12,TA
223 Perfect,12,TC
327 Perfect,12,TG
2727 Perfect,12,TT
2387 Perfect,13,AA
467 Perfect,13,AC
297 Perfect,13,AG
369 Perfect,13,AT
162 Perfect,13,CA
24 Perfect,13,CC
9 Perfect,13,CG
93 Perfect,13,CT
84 Perfect,13,GA
4 Perfect,13,GC
20 Perfect,13,GG
146 Perfect,13,GT
376 Perfect,13,TA
308 Perfect,13,TC
453 Perfect,13,TG
2367 Perfect,13,TT
2169 Perfect,14,AA
157 Perfect,14,AC
103 Perfect,14,AG
267 Perfect,14,AT
189 Perfect,14,CA
18 Perfect,14,CC
106 Perfect,14,CT
119 Perfect,14,GA
7 Perfect,14,GC
16 Perfect,14,GG
119 Perfect,14,GT
267 Perfect,14,TA
107 Perfect,14,TC
182 Perfect,14,TG
2174 Perfect,14,TT
1844 Perfect,15,AA
224 Perfect,15,AC
185 Perfect,15,AG
200 Perfect,15,AT
75 Perfect,15,CA
10 Perfect,15,CC
5 Perfect,15,CG
46 Perfect,15,CT
35 Perfect,15,GA
4 Perfect,15,GC
11 Perfect,15,GG
72 Perfect,15,GT
204 Perfect,15,TA
192 Perfect,15,TC
253 Perfect,15,TG
1930 Perfect,15,TT
1575 Perfect,16,AA
84 Perfect,16,AC
39 Perfect,16,AG
156 Perfect,16,AT
91 Perfect,16,CA
5 Perfect,16,CC
41 Perfect,16,CT
65 Perfect,16,GA
2 Perfect,16,GC
5 Perfect,16,GG
94 Perfect,16,GT
105 Perfect,16,TA
49 Perfect,16,TC
89 Perfect,16,TG
1718 Perfect,16,TT
1303 Perfect,17,AA
133 Perfect,17,AC
111 Perfect,17,AG
111 Perfect,17,AT
36 Perfect,17,CA
1 Perfect,17,CC
1 Perfect,17,CG
23 Perfect,17,CT
21 Perfect,17,GA
1 Perfect,17,GC
4 Perfect,17,GG
31 Perfect,17,GT
121 Perfect,17,TA
97 Perfect,17,TC
151 Perfect,17,TG
1298 Perfect,17,TT
1081 Perfect,18,AA
67 Perfect,18,AC
26 Perfect,18,AG
105 Perfect,18,AT
58 Perfect,18,CA
2 Perfect,18,CC
25 Perfect,18,CT
39 Perfect,18,GA
2 Perfect,18,GC
1 Perfect,18,GG
55 Perfect,18,GT
94 Perfect,18,TA
44 Perfect,18,TC
51 Perfect,18,TG
1046 Perfect,18,TT
883 Perfect,19,AA
85 Perfect,19,AC
65 Perfect,19,AG
55 Perfect,19,AT
32 Perfect,19,CA
1 Perfect,19,CC
2 Perfect,19,CG
24 Perfect,19,CT
21 Perfect,19,GA
1 Perfect,19,GG
31 Perfect,19,GT
73 Perfect,19,TA
54 Perfect,19,TC
96 Perfect,19,TG
882 Perfect,19,TT
741 Perfect,20,AA
46 Perfect,20,AC
16 Perfect,20,AG
64 Perfect,20,AT
35 Perfect,20,CA
19 Perfect,20,CT
31 Perfect,20,GA
1 Perfect,20,GC
1 Perfect,20,GG
56 Perfect,20,GT
57 Perfect,20,TA
24 Perfect,20,TC
48 Perfect,20,TG
805 Perfect,20,TT
682 Perfect,21,AA
86 Perfect,21,AC
43 Perfect,21,AG
49 Perfect,21,AT
18 Perfect,21,CA
12 Perfect,21,CT
11 Perfect,21,GA
1 Perfect,21,GG
23 Perfect,21,GT
50 Perfect,21,TA
43 Perfect,21,TC
84 Perfect,21,TG
665 Perfect,21,TT
612 Perfect,22,AA
48 Perfect,22,AC
15 Perfect,22,AG
53 Perfect,22,AT
31 Perfect,22,CA
8 Perfect,22,CT
34 Perfect,22,GA
47 Perfect,22,GT
35 Perfect,22,TA
20 Perfect,22,TC
26 Perfect,22,TG
577 Perfect,22,TT
539 Perfect,23,AA
76 Perfect,23,AC
20 Perfect,23,AG
32 Perfect,23,AT
26 Perfect,23,CA
1 Perfect,23,CG
8 Perfect,23,CT
9 Perfect,23,GA
11 Perfect,23,GT
29 Perfect,23,TA
29 Perfect,23,TC
69 Perfect,23,TG
574 Perfect,23,TT
472 Perfect,24,AA
47 Perfect,24,AC
7 Perfect,24,AG
27 Perfect,24,AT
36 Perfect,24,CA
11 Perfect,24,CT
17 Perfect,24,GA
41 Perfect,24,GT
16 Perfect,24,TA
15 Perfect,24,TC
27 Perfect,24,TG
451 Perfect,24,TT
355 Perfect,25,AA
65 Perfect,25,AC
12 Perfect,25,AG
26 Perfect,25,AT
25 Perfect,25,CA
1 Perfect,25,CT
5 Perfect,25,GA
9 Perfect,25,GT
27 Perfect,25,TA
22 Perfect,25,TC
72 Perfect,25,TG
391 Perfect,25,TT
306 Perfect,26,AA
52 Perfect,26,AC
8 Perfect,26,AG
23 Perfect,26,AT
26 Perfect,26,CA
7 Perfect,26,CT
4 Perfect,26,GA
36 Perfect,26,GT
20 Perfect,26,TA
10 Perfect,26,TC
27 Perfect,26,TG
322 Perfect,26,TT
242 Perfect,27,AA
70 Perfect,27,AC
9 Perfect,27,AG
21 Perfect,27,AT
21 Perfect,27,CA
1 Perfect,27,CT
3 Perfect,27,GA
18 Perfect,27,GT
30 Perfect,27,TA
14 Perfect,27,TC
73 Perfect,27,TG
233 Perfect,27,TT
199 Perfect,28,AA
42 Perfect,28,AC
6 Perfect,28,AG
27 Perfect,28,AT
20 Perfect,28,CA
6 Perfect,28,CT
7 Perfect,28,GA
57 Perfect,28,GT
19 Perfect,28,TA
8 Perfect,28,TC
24 Perfect,28,TG
214 Perfect,28,TT
142 Perfect,29,AA
51 Perfect,29,AC
13 Perfect,29,AG
24 Perfect,29,AT
11 Perfect,29,CA
1 Perfect,29,CC
4 Perfect,29,CT
3 Perfect,29,GA
17 Perfect,29,GT
24 Perfect,29,TA
15 Perfect,29,TC
55 Perfect,29,TG
147 Perfect,29,TT
111 Perfect,30,AA
34 Perfect,30,AC
4 Perfect,30,AG
26 Perfect,30,AT
15 Perfect,30,CA
2 Perfect,30,CT
5 Perfect,30,GA
39 Perfect,30,GT
17 Perfect,30,TA
6 Perfect,30,TC
24 Perfect,30,TG
116 Perfect,30,TT
73 Perfect,31,AA
53 Perfect,31,AC
6 Perfect,31,AG
14 Perfect,31,AT
22 Perfect,31,CA
1 Perfect,31,CT
2 Perfect,31,GA
20 Perfect,31,GT
17 Perfect,31,TA
12 Perfect,31,TC
66 Perfect,31,TG
64 Perfect,31,TT
42 Perfect,32,AA
46 Perfect,32,AC
5 Perfect,32,AG
18 Perfect,32,AT
17 Perfect,32,CA
3 Perfect,32,CT
4 Perfect,32,GA
45 Perfect,32,GT
9 Perfect,32,TA
23 Perfect,32,TG
47 Perfect,32,TT
38 Perfect,33,AA
55 Perfect,33,AC
9 Perfect,33,AG
10 Perfect,33,AT
13 Perfect,33,CA
2 Perfect,33,GA
18 Perfect,33,GT
13 Perfect,33,TA
10 Perfect,33,TC
62 Perfect,33,TG
39 Perfect,33,TT
23 Perfect,34,AA
31 Perfect,34,AC
2 Perfect,34,AG
19 Perfect,34,AT
27 Perfect,34,CA
3 Perfect,34,CT
4 Perfect,34,GA
51 Perfect,34,GT
11 Perfect,34,TA
2 Perfect,34,TC
16 Perfect,34,TG
34 Perfect,34,TT
23 Perfect,35,AA
67 Perfect,35,AC
8 Perfect,35,AG
7 Perfect,35,AT
19 Perfect,35,CA
1 Perfect,35,CT
2 Perfect,35,GA
13 Perfect,35,GT
7 Perfect,35,TA
4 Perfect,35,TC
57 Perfect,35,TG
25 Perfect,35,TT
24 Perfect,36,AA
41 Perfect,36,AC
5 Perfect,36,AG
18 Perfect,36,AT
16 Perfect,36,CA
5 Perfect,36,GA
36 Perfect,36,GT
10 Perfect,36,TA
2 Perfect,36,TC
17 Perfect,36,TG
35 Perfect,36,TT
18 Perfect,37,AA
47 Perfect,37,AC
6 Perfect,37,AG
14 Perfect,37,AT
19 Perfect,37,CA
5 Perfect,37,GA
13 Perfect,37,GT
7 Perfect,37,TA
5 Perfect,37,TC
54 Perfect,37,TG
26 Perfect,37,TT
26 Perfect,38,AA
28 Perfect,38,AC
1 Perfect,38,AG
7 Perfect,38,AT
12 Perfect,38,CA
1 Perfect,38,CT
4 Perfect,38,GA
41 Perfect,38,GT
11 Perfect,38,TA
8 Perfect,38,TC
18 Perfect,38,TG
25 Perfect,38,TT
15 Perfect,39,AA
40 Perfect,39,AC
5 Perfect,39,AG
10 Perfect,39,AT
4 Perfect,39,CA
2 Perfect,39,CT
2 Perfect,39,GA
13 Perfect,39,GT
10 Perfect,39,TA
7 Perfect,39,TC
61 Perfect,39,TG
14 Perfect,39,TT
19 Perfect,40,AA
40 Perfect,40,AC
8 Perfect,40,AT
12 Perfect,40,CA
2 Perfect,40,CT
2 Perfect,40,GA
45 Perfect,40,GT
9 Perfect,40,TA
2 Perfect,40,TC
12 Perfect,40,TG
13 Perfect,40,TT
11 Perfect,41,AA
40 Perfect,41,AC
4 Perfect,41,AG
10 Perfect,41,AT
10 Perfect,41,CA
1 Perfect,41,CT
1 Perfect,41,GA
11 Perfect,41,GT
9 Perfect,41,TA
6 Perfect,41,TC
39 Perfect,41,TG
11 Perfect,41,TT
7 Perfect,42,AA
37 Perfect,42,AC
1 Perfect,42,AG
5 Perfect,42,AT
16 Perfect,42,CA
2 Perfect,42,GA
35 Perfect,42,GT
7 Perfect,42,TA
3 Perfect,42,TC
13 Perfect,42,TG
9 Perfect,42,TT
8 Perfect,43,AA
33 Perfect,43,AC
3 Perfect,43,AG
10 Perfect,43,AT
5 Perfect,43,CA
3 Perfect,43,CT
3 Perfect,43,GA
14 Perfect,43,GT
10 Perfect,43,TA
1 Perfect,43,TC
34 Perfect,43,TG
5 Perfect,43,TT
4 Perfect,44,AA
34 Perfect,44,AC
1 Perfect,44,AG
11 Perfect,44,AT
14 Perfect,44,CA
1 Perfect,44,CT
4 Perfect,44,GA
26 Perfect,44,GT
14 Perfect,44,TA
12 Perfect,44,TG
6 Perfect,44,TT
28 Perfect,45,AC
3 Perfect,45,AG
14 Perfect,45,AT
9 Perfect,45,CA
4 Perfect,45,CT
5 Perfect,45,GT
3 Perfect,45,TA
1 Perfect,45,TC
35 Perfect,45,TG
12 Perfect,45,TT
4 Perfect,46,AA
19 Perfect,46,AC
10 Perfect,46,AT
8 Perfect,46,CA
2 Perfect,46,CT
1 Perfect,46,GA
13 Perfect,46,GT
10 Perfect,46,TA
1 Perfect,46,TC
12 Perfect,46,TG
2 Perfect,46,TT
6 Perfect,47,AA
28 Perfect,47,AC
10 Perfect,47,AT
5 Perfect,47,CA
1 Perfect,47,CT
1 Perfect,47,GA
2 Perfect,47,GT
4 Perfect,47,TA
2 Perfect,47,TC
29 Perfect,47,TG
6 Perfect,47,TT
2 Perfect,48,AA
15 Perfect,48,AC
1 Perfect,48,AG
8 Perfect,48,AT
3 Perfect,48,CA
3 Perfect,48,CT
2 Perfect,48,GA
11 Perfect,48,GT
3 Perfect,48,TA
1 Perfect,48,TC
8 Perfect,48,TG
2 Perfect,48,TT
3 Perfect,49,AA
16 Perfect,49,AC
4 Perfect,49,AG
3 Perfect,49,AT
3 Perfect,49,CA
1 Perfect,49,GA
1 Perfect,49,GT
8 Perfect,49,TA
2 Perfect,49,TC
22 Perfect,49,TG
1 Perfect,49,TT
824442 Perfect,4,AA
211608 Perfect,4,AC
402593 Perfect,4,AG
496596 Perfect,4,AT
432657 Perfect,4,CA
270311 Perfect,4,CC
14499 Perfect,4,CG
401497 Perfect,4,CT
410145 Perfect,4,GA
62164 Perfect,4,GC
269077 Perfect,4,GG
209980 Perfect,4,GT
354571 Perfect,4,TA
411327 Perfect,4,TC
431372 Perfect,4,TG
827813 Perfect,4,TT
14 Perfect,50,AC
1 Perfect,50,AG
8 Perfect,50,AT
4 Perfect,50,CA
1 Perfect,50,CT
11 Perfect,50,GT
6 Perfect,50,TA
2 Perfect,50,TC
9 Perfect,50,TG
1 Perfect,50,TT
2 Perfect,51,AA
10 Perfect,51,AC
2 Perfect,51,AG
4 Perfect,51,AT
2 Perfect,51,CA
1 Perfect,51,CT
1 Perfect,51,GA
6 Perfect,51,GT
3 Perfect,51,TA
1 Perfect,51,TC
12 Perfect,51,TG
2 Perfect,51,TT
8 Perfect,52,AC
2 Perfect,52,AG
9 Perfect,52,AT
5 Perfect,52,CA
3 Perfect,52,GA
3 Perfect,52,GT
4 Perfect,52,TA
3 Perfect,52,TC
1 Perfect,52,TG
2 Perfect,52,TT
7 Perfect,53,AC
3 Perfect,53,AG
6 Perfect,53,AT
1 Perfect,53,CA
2 Perfect,53,GT
4 Perfect,53,TA
1 Perfect,53,TC
11 Perfect,53,TG
6 Perfect,54,AC
1 Perfect,54,AT
2 Perfect,54,CA
1 Perfect,54,GA
3 Perfect,54,GT
4 Perfect,54,TA
1 Perfect,54,TG
1 Perfect,54,TT
1 Perfect,55,AA
4 Perfect,55,AC
1 Perfect,55,AG
2 Perfect,55,AT
3 Perfect,55,TA
2 Perfect,55,TC
6 Perfect,55,TG
1 Perfect,55,TT
1 Perfect,56,AC
9 Perfect,56,AT
1 Perfect,56,CA
6 Perfect,56,TA
4 Perfect,57,AC
4 Perfect,57,AT
2 Perfect,57,CA
1 Perfect,57,TA
4 Perfect,57,TG
1 Perfect,58,AA
1 Perfect,58,AC
3 Perfect,58,AT
1 Perfect,58,CA
2 Perfect,58,GT
1 Perfect,58,TA
1 Perfect,58,TC
2 Perfect,58,TG
2 Perfect,59,AT
4 Perfect,59,TA
2 Perfect,59,TG
322394 Perfect,5,AA
135799 Perfect,5,AC
180968 Perfect,5,AG
127603 Perfect,5,AT
79108 Perfect,5,CA
63241 Perfect,5,CC
9355 Perfect,5,CG
74068 Perfect,5,CT
73405 Perfect,5,GA
9392 Perfect,5,GC
64088 Perfect,5,GG
78527 Perfect,5,GT
126920 Perfect,5,TA
180298 Perfect,5,TC
135780 Perfect,5,TG
325262 Perfect,5,TT
1 Perfect,60,AC
1 Perfect,60,AG
2 Perfect,60,GA
1 Perfect,61,AC
1 Perfect,61,AT
1 Perfect,61,CA
2 Perfect,61,GT
3 Perfect,61,TA
1 Perfect,61,TG
1 Perfect,62,AC
1 Perfect,62,AT
1 Perfect,62,GT
2 Perfect,62,TA
1 Perfect,62,TC
1 Perfect,62,TG
1 Perfect,63,AC
1 Perfect,63,CT
1 Perfect,63,TA
1 Perfect,64,AC
1 Perfect,64,AT
1 Perfect,64,CA
2 Perfect,64,TA
1 Perfect,65,AC
1 Perfect,65,AT
1 Perfect,66,AT
1 Perfect,66,GA
1 Perfect,66,GT
1 Perfect,66,TG
1 Perfect,68,AG
99123 Perfect,6,AA
15865 Perfect,6,AC
31820 Perfect,6,AG
48754 Perfect,6,AT
32368 Perfect,6,CA
12968 Perfect,6,CC
659 Perfect,6,CG
31734 Perfect,6,CT
26157 Perfect,6,GA
1713 Perfect,6,GC
12672 Perfect,6,GG
15609 Perfect,6,GT
35776 Perfect,6,TA
26046 Perfect,6,TC
32315 Perfect,6,TG
99552 Perfect,6,TT
1 Perfect,70,AC
1 Perfect,70,GT
1 Perfect,73,AT
1 Perfect,73,TT
41212 Perfect,7,AA
12338 Perfect,7,AC
14663 Perfect,7,AG
17523 Perfect,7,AT
7345 Perfect,7,CA
1934 Perfect,7,CC
413 Perfect,7,CG
7526 Perfect,7,CT
7475 Perfect,7,GA
405 Perfect,7,GC
2100 Perfect,7,GG
7467 Perfect,7,GT
17588 Perfect,7,TA
14612 Perfect,7,TC
12079 Perfect,7,TG
41539 Perfect,7,TT
1 Perfect,88,TA
14900 Perfect,8,AA
2138 Perfect,8,AC
3292 Perfect,8,AG
8422 Perfect,8,AT
3766 Perfect,8,CA
398 Perfect,8,CC
78 Perfect,8,CG
3126 Perfect,8,CT
3299 Perfect,8,GA
292 Perfect,8,GC
390 Perfect,8,GG
2137 Perfect,8,GT
6495 Perfect,8,TA
3116 Perfect,8,TC
3485 Perfect,8,TG
15272 Perfect,8,TT
8548 Perfect,9,AA
2498 Perfect,9,AC
2333 Perfect,9,AG
3068 Perfect,9,AT
1060 Perfect,9,CA
169 Perfect,9,CC
74 Perfect,9,CG
979 Perfect,9,CT
933 Perfect,9,GA
54 Perfect,9,GC
151 Perfect,9,GG
940 Perfect,9,GT
3028 Perfect,9,TA
2367 Perfect,9,TC
2405 Perfect,9,TG
8750 Perfect,9,TT
