1777286 Imperfect,3,AA
1494351 Imperfect,3,AC
1506110 Imperfect,3,AG
1245657 Imperfect,3,AT
895649 Imperfect,3,CA
963713 Imperfect,3,CC
208540 Imperfect,3,CG
929664 Imperfect,3,CT
929371 Imperfect,3,GA
208565 Imperfect,3,GC
961528 Imperfect,3,GG
895141 Imperfect,3,GT
1246545 Imperfect,3,TA
1507487 Imperfect,3,TC
1494595 Imperfect,3,TG
1776020 Imperfect,3,TT
4902 Perfect,10,AA
477 Perfect,10,AC
498 Perfect,10,AG
1252 Perfect,10,AT
678 Perfect,10,CA
72 Perfect,10,CC
7 Perfect,10,CG
441 Perfect,10,CT
512 Perfect,10,GA
26 Perfect,10,GC
78 Perfect,10,GG
412 Perfect,10,GT
1169 Perfect,10,TA
478 Perfect,10,TC
743 Perfect,10,TG
4811 Perfect,10,TT
3024 Perfect,11,AA
748 Perfect,11,AC
486 Perfect,11,AG
735 Perfect,11,AT
245 Perfect,11,CA
49 Perfect,11,CC
11 Perfect,11,CG
172 Perfect,11,CT
204 Perfect,11,GA
13 Perfect,11,GC
48 Perfect,11,GG
248 Perfect,11,GT
697 Perfect,11,TA
494 Perfect,11,TC
717 Perfect,11,TG
3047 Perfect,11,TT
2389 Perfect,12,AA
213 Perfect,12,AC
160 Perfect,12,AG
456 Perfect,12,AT
293 Perfect,12,CA
32 Perfect,12,CC
2 Perfect,12,CG
164 Perfect,12,CT
157 Perfect,12,GA
10 Perfect,12,GC
37 Perfect,12,GG
181 Perfect,12,GT
419 Perfect,12,TA
174 Perfect,12,TC
315 Perfect,12,TG
2334 Perfect,12,TT
2096 Perfect,13,AA
371 Perfect,13,AC
274 Perfect,13,AG
336 Perfect,13,AT
104 Perfect,13,CA
19 Perfect,13,CC
5 Perfect,13,CG
76 Perfect,13,CT
64 Perfect,13,GA
7 Perfect,13,GC
23 Perfect,13,GG
100 Perfect,13,GT
333 Perfect,13,TA
254 Perfect,13,TC
360 Perfect,13,TG
2045 Perfect,13,TT
1882 Perfect,14,AA
108 Perfect,14,AC
77 Perfect,14,AG
232 Perfect,14,AT
127 Perfect,14,CA
10 Perfect,14,CC
2 Perfect,14,CG
88 Perfect,14,CT
93 Perfect,14,GA
6 Perfect,14,GC
11 Perfect,14,GG
127 Perfect,14,GT
241 Perfect,14,TA
97 Perfect,14,TC
147 Perfect,14,TG
1846 Perfect,14,TT
1661 Perfect,15,AA
228 Perfect,15,AC
177 Perfect,15,AG
180 Perfect,15,AT
60 Perfect,15,CA
5 Perfect,15,CC
1 Perfect,15,CG
31 Perfect,15,CT
35 Perfect,15,GA
1 Perfect,15,GC
5 Perfect,15,GG
63 Perfect,15,GT
162 Perfect,15,TA
193 Perfect,15,TC
239 Perfect,15,TG
1722 Perfect,15,TT
1467 Perfect,16,AA
75 Perfect,16,AC
51 Perfect,16,AG
180 Perfect,16,AT
67 Perfect,16,CA
7 Perfect,16,CC
48 Perfect,16,CT
69 Perfect,16,GA
3 Perfect,16,GC
3 Perfect,16,GG
77 Perfect,16,GT
127 Perfect,16,TA
63 Perfect,16,TC
67 Perfect,16,TG
1463 Perfect,16,TT
1166 Perfect,17,AA
140 Perfect,17,AC
107 Perfect,17,AG
84 Perfect,17,AT
33 Perfect,17,CA
4 Perfect,17,CC
28 Perfect,17,CT
24 Perfect,17,GA
2 Perfect,17,GC
3 Perfect,17,GG
39 Perfect,17,GT
93 Perfect,17,TA
92 Perfect,17,TC
134 Perfect,17,TG
1174 Perfect,17,TT
931 Perfect,18,AA
46 Perfect,18,AC
27 Perfect,18,AG
77 Perfect,18,AT
40 Perfect,18,CA
22 Perfect,18,CT
42 Perfect,18,GA
3 Perfect,18,GC
1 Perfect,18,GG
56 Perfect,18,GT
79 Perfect,18,TA
53 Perfect,18,TC
42 Perfect,18,TG
948 Perfect,18,TT
778 Perfect,19,AA
100 Perfect,19,AC
58 Perfect,19,AG
55 Perfect,19,AT
20 Perfect,19,CA
1 Perfect,19,CC
1 Perfect,19,CG
18 Perfect,19,CT
14 Perfect,19,GA
2 Perfect,19,GG
26 Perfect,19,GT
55 Perfect,19,TA
55 Perfect,19,TC
92 Perfect,19,TG
796 Perfect,19,TT
698 Perfect,20,AA
34 Perfect,20,AC
10 Perfect,20,AG
54 Perfect,20,AT
37 Perfect,20,CA
1 Perfect,20,CC
1 Perfect,20,CG
16 Perfect,20,CT
29 Perfect,20,GA
36 Perfect,20,GT
42 Perfect,20,TA
25 Perfect,20,TC
46 Perfect,20,TG
654 Perfect,20,TT
588 Perfect,21,AA
66 Perfect,21,AC
32 Perfect,21,AG
38 Perfect,21,AT
13 Perfect,21,CA
1 Perfect,21,CG
11 Perfect,21,CT
8 Perfect,21,GA
1 Perfect,21,GC
26 Perfect,21,GT
32 Perfect,21,TA
30 Perfect,21,TC
67 Perfect,21,TG
659 Perfect,21,TT
587 Perfect,22,AA
45 Perfect,22,AC
9 Perfect,22,AG
37 Perfect,22,AT
36 Perfect,22,CA
2 Perfect,22,CC
15 Perfect,22,CT
21 Perfect,22,GA
30 Perfect,22,GT
30 Perfect,22,TA
5 Perfect,22,TC
25 Perfect,22,TG
505 Perfect,22,TT
487 Perfect,23,AA
63 Perfect,23,AC
18 Perfect,23,AG
35 Perfect,23,AT
20 Perfect,23,CA
5 Perfect,23,CT
7 Perfect,23,GA
12 Perfect,23,GT
29 Perfect,23,TA
18 Perfect,23,TC
61 Perfect,23,TG
438 Perfect,23,TT
377 Perfect,24,AA
38 Perfect,24,AC
5 Perfect,24,AG
32 Perfect,24,AT
29 Perfect,24,CA
3 Perfect,24,CT
14 Perfect,24,GA
38 Perfect,24,GT
13 Perfect,24,TA
9 Perfect,24,TC
26 Perfect,24,TG
446 Perfect,24,TT
304 Perfect,25,AA
69 Perfect,25,AC
26 Perfect,25,AG
21 Perfect,25,AT
14 Perfect,25,CA
9 Perfect,25,GA
16 Perfect,25,GT
26 Perfect,25,TA
21 Perfect,25,TC
64 Perfect,25,TG
358 Perfect,25,TT
252 Perfect,26,AA
33 Perfect,26,AC
7 Perfect,26,AG
24 Perfect,26,AT
17 Perfect,26,CA
4 Perfect,26,CT
6 Perfect,26,GA
1 Perfect,26,GC
30 Perfect,26,GT
20 Perfect,26,TA
4 Perfect,26,TC
24 Perfect,26,TG
255 Perfect,26,TT
202 Perfect,27,AA
55 Perfect,27,AC
11 Perfect,27,AG
23 Perfect,27,AT
16 Perfect,27,CA
3 Perfect,27,CT
4 Perfect,27,GA
14 Perfect,27,GT
14 Perfect,27,TA
19 Perfect,27,TC
57 Perfect,27,TG
192 Perfect,27,TT
157 Perfect,28,AA
35 Perfect,28,AC
2 Perfect,28,AG
23 Perfect,28,AT
14 Perfect,28,CA
4 Perfect,28,CT
10 Perfect,28,GA
43 Perfect,28,GT
21 Perfect,28,TA
4 Perfect,28,TC
19 Perfect,28,TG
181 Perfect,28,TT
136 Perfect,29,AA
54 Perfect,29,AC
7 Perfect,29,AG
16 Perfect,29,AT
17 Perfect,29,CA
2 Perfect,29,CT
7 Perfect,29,GA
12 Perfect,29,GT
15 Perfect,29,TA
15 Perfect,29,TC
49 Perfect,29,TG
121 Perfect,29,TT
87 Perfect,30,AA
32 Perfect,30,AC
3 Perfect,30,AG
18 Perfect,30,AT
29 Perfect,30,CA
2 Perfect,30,CT
7 Perfect,30,GA
38 Perfect,30,GT
13 Perfect,30,TA
2 Perfect,30,TC
20 Perfect,30,TG
85 Perfect,30,TT
54 Perfect,31,AA
45 Perfect,31,AC
9 Perfect,31,AG
13 Perfect,31,AT
14 Perfect,31,CA
1 Perfect,31,CT
1 Perfect,31,GA
18 Perfect,31,GT
7 Perfect,31,TA
5 Perfect,31,TC
43 Perfect,31,TG
62 Perfect,31,TT
42 Perfect,32,AA
32 Perfect,32,AC
1 Perfect,32,AG
10 Perfect,32,AT
25 Perfect,32,CA
4 Perfect,32,CT
8 Perfect,32,GA
35 Perfect,32,GT
8 Perfect,32,TA
4 Perfect,32,TC
19 Perfect,32,TG
40 Perfect,32,TT
36 Perfect,33,AA
56 Perfect,33,AC
5 Perfect,33,AG
8 Perfect,33,AT
15 Perfect,33,CA
6 Perfect,33,CT
3 Perfect,33,GA
19 Perfect,33,GT
9 Perfect,33,TA
9 Perfect,33,TC
48 Perfect,33,TG
28 Perfect,33,TT
22 Perfect,34,AA
32 Perfect,34,AC
2 Perfect,34,AG
10 Perfect,34,AT
21 Perfect,34,CA
1 Perfect,34,GA
31 Perfect,34,GT
6 Perfect,34,TA
6 Perfect,34,TC
11 Perfect,34,TG
30 Perfect,34,TT
22 Perfect,35,AA
39 Perfect,35,AC
2 Perfect,35,AG
11 Perfect,35,AT
15 Perfect,35,CA
1 Perfect,35,CT
1 Perfect,35,GA
25 Perfect,35,GT
12 Perfect,35,TA
7 Perfect,35,TC
44 Perfect,35,TG
19 Perfect,35,TT
20 Perfect,36,AA
26 Perfect,36,AC
1 Perfect,36,AG
9 Perfect,36,AT
11 Perfect,36,CA
2 Perfect,36,CT
4 Perfect,36,GA
30 Perfect,36,GT
7 Perfect,36,TA
3 Perfect,36,TC
16 Perfect,36,TG
28 Perfect,36,TT
20 Perfect,37,AA
49 Perfect,37,AC
4 Perfect,37,AG
6 Perfect,37,AT
13 Perfect,37,CA
14 Perfect,37,GT
7 Perfect,37,TA
2 Perfect,37,TC
44 Perfect,37,TG
18 Perfect,37,TT
16 Perfect,38,AA
24 Perfect,38,AC
3 Perfect,38,AG
10 Perfect,38,AT
13 Perfect,38,CA
2 Perfect,38,CT
3 Perfect,38,GA
23 Perfect,38,GT
4 Perfect,38,TA
3 Perfect,38,TC
12 Perfect,38,TG
25 Perfect,38,TT
17 Perfect,39,AA
51 Perfect,39,AC
2 Perfect,39,AG
7 Perfect,39,AT
7 Perfect,39,CA
1 Perfect,39,CT
2 Perfect,39,GA
11 Perfect,39,GT
6 Perfect,39,TA
2 Perfect,39,TC
50 Perfect,39,TG
17 Perfect,39,TT
14 Perfect,40,AA
16 Perfect,40,AC
1 Perfect,40,AG
14 Perfect,40,AT
7 Perfect,40,CA
1 Perfect,40,CT
2 Perfect,40,GA
30 Perfect,40,GT
4 Perfect,40,TA
3 Perfect,40,TC
20 Perfect,40,TG
14 Perfect,40,TT
7 Perfect,41,AA
40 Perfect,41,AC
3 Perfect,41,AG
4 Perfect,41,AT
7 Perfect,41,CA
2 Perfect,41,CT
1 Perfect,41,GA
11 Perfect,41,GT
4 Perfect,41,TA
4 Perfect,41,TC
46 Perfect,41,TG
8 Perfect,41,TT
4 Perfect,42,AA
18 Perfect,42,AC
2 Perfect,42,AG
8 Perfect,42,AT
14 Perfect,42,CA
1 Perfect,42,CT
4 Perfect,42,GA
23 Perfect,42,GT
5 Perfect,42,TA
4 Perfect,42,TC
8 Perfect,42,TG
6 Perfect,42,TT
3 Perfect,43,AA
37 Perfect,43,AC
1 Perfect,43,AG
7 Perfect,43,AT
7 Perfect,43,CA
8 Perfect,43,GT
6 Perfect,43,TA
5 Perfect,43,TC
36 Perfect,43,TG
3 Perfect,43,TT
1 Perfect,44,AA
22 Perfect,44,AC
17 Perfect,44,AT
8 Perfect,44,CA
1 Perfect,44,CT
1 Perfect,44,GA
18 Perfect,44,GT
8 Perfect,44,TA
7 Perfect,44,TG
5 Perfect,44,TT
3 Perfect,45,AA
21 Perfect,45,AC
3 Perfect,45,AG
7 Perfect,45,AT
10 Perfect,45,CA
1 Perfect,45,CT
2 Perfect,45,GA
5 Perfect,45,GT
15 Perfect,45,TA
4 Perfect,45,TC
25 Perfect,45,TG
5 Perfect,45,TT
2 Perfect,46,AA
15 Perfect,46,AC
1 Perfect,46,AG
8 Perfect,46,AT
5 Perfect,46,CA
1 Perfect,46,GA
24 Perfect,46,GT
7 Perfect,46,TA
11 Perfect,46,TG
3 Perfect,46,TT
1 Perfect,47,AA
16 Perfect,47,AC
3 Perfect,47,AG
4 Perfect,47,AT
2 Perfect,47,CA
1 Perfect,47,GA
4 Perfect,47,GT
9 Perfect,47,TA
1 Perfect,47,TC
14 Perfect,47,TG
2 Perfect,47,TT
3 Perfect,48,AA
12 Perfect,48,AC
7 Perfect,48,AT
9 Perfect,48,CA
2 Perfect,48,CT
1 Perfect,48,GA
9 Perfect,48,GT
5 Perfect,48,TA
2 Perfect,48,TC
5 Perfect,48,TG
2 Perfect,48,TT
2 Perfect,49,AA
17 Perfect,49,AC
3 Perfect,49,AG
10 Perfect,49,AT
6 Perfect,49,CA
4 Perfect,49,GT
7 Perfect,49,TA
1 Perfect,49,TC
15 Perfect,49,TG
1 Perfect,49,TT
688429 Perfect,4,AA
176797 Perfect,4,AC
346878 Perfect,4,AG
418045 Perfect,4,AT
365118 Perfect,4,CA
232485 Perfect,4,CC
11045 Perfect,4,CG
348750 Perfect,4,CT
355974 Perfect,4,GA
52009 Perfect,4,GC
233122 Perfect,4,GG
177902 Perfect,4,GT
300067 Perfect,4,TA
355861 Perfect,4,TC
364847 Perfect,4,TG
690950 Perfect,4,TT
2 Perfect,50,AA
6 Perfect,50,AC
11 Perfect,50,AT
4 Perfect,50,CA
1 Perfect,50,CT
4 Perfect,50,GA
5 Perfect,50,GT
3 Perfect,50,TA
3 Perfect,50,TC
1 Perfect,50,TG
1 Perfect,51,AA
9 Perfect,51,AC
1 Perfect,51,AG
5 Perfect,51,AT
3 Perfect,51,CA
2 Perfect,51,GT
4 Perfect,51,TA
2 Perfect,51,TC
16 Perfect,51,TG
1 Perfect,51,TT
3 Perfect,52,AC
3 Perfect,52,AT
2 Perfect,52,CA
1 Perfect,52,GA
3 Perfect,52,GT
5 Perfect,52,TA
4 Perfect,52,TG
2 Perfect,52,TT
6 Perfect,53,AC
1 Perfect,53,AG
4 Perfect,53,AT
1 Perfect,53,CA
1 Perfect,53,CT
7 Perfect,53,TA
1 Perfect,53,TC
8 Perfect,53,TG
6 Perfect,54,AC
5 Perfect,54,AT
1 Perfect,54,CA
6 Perfect,54,GT
2 Perfect,54,TA
2 Perfect,54,TT
1 Perfect,55,AA
3 Perfect,55,AC
2 Perfect,55,AT
1 Perfect,55,CA
3 Perfect,55,CT
3 Perfect,55,GT
5 Perfect,55,TG
1 Perfect,55,TT
4 Perfect,56,AC
6 Perfect,56,AT
1 Perfect,56,CA
1 Perfect,56,GT
3 Perfect,56,TA
1 Perfect,56,TC
1 Perfect,56,TG
1 Perfect,56,TT
4 Perfect,57,AC
4 Perfect,57,AT
2 Perfect,57,CA
1 Perfect,57,GA
2 Perfect,57,TA
4 Perfect,57,TG
1 Perfect,57,TT
3 Perfect,58,AT
1 Perfect,58,GT
1 Perfect,58,TC
1 Perfect,58,TG
3 Perfect,59,AC
1 Perfect,59,AG
5 Perfect,59,TA
1 Perfect,59,TG
1 Perfect,59,TT
270056 Perfect,5,AA
114144 Perfect,5,AC
156332 Perfect,5,AG
105976 Perfect,5,AT
65690 Perfect,5,CA
55440 Perfect,5,CC
7930 Perfect,5,CG
62289 Perfect,5,CT
63432 Perfect,5,GA
8063 Perfect,5,GC
55715 Perfect,5,GG
65011 Perfect,5,GT
106097 Perfect,5,TA
157056 Perfect,5,TC
114087 Perfect,5,TG
272656 Perfect,5,TT
1 Perfect,60,CA
1 Perfect,60,CT
1 Perfect,60,GA
1 Perfect,60,GT
2 Perfect,60,TA
1 Perfect,61,AC
2 Perfect,61,TG
1 Perfect,62,AC
1 Perfect,62,AT
1 Perfect,62,GT
1 Perfect,63,AC
1 Perfect,63,TT
2 Perfect,65,AT
1 Perfect,65,GA
1 Perfect,66,AC
1 Perfect,66,AT
1 Perfect,66,GT
1 Perfect,66,TG
1 Perfect,68,CT
1 Perfect,68,TG
1 Perfect,69,AT
1 Perfect,69,TA
83215 Perfect,6,AA
13159 Perfect,6,AC
28141 Perfect,6,AG
40894 Perfect,6,AT
27238 Perfect,6,CA
11220 Perfect,6,CC
508 Perfect,6,CG
28102 Perfect,6,CT
22804 Perfect,6,GA
1353 Perfect,6,GC
10928 Perfect,6,GG
13091 Perfect,6,GT
30258 Perfect,6,TA
22793 Perfect,6,TC
27359 Perfect,6,TG
83559 Perfect,6,TT
1 Perfect,75,AT
34903 Perfect,7,AA
10180 Perfect,7,AC
12667 Perfect,7,AG
14286 Perfect,7,AT
6064 Perfect,7,CA
1744 Perfect,7,CC
357 Perfect,7,CG
6363 Perfect,7,CT
6291 Perfect,7,GA
291 Perfect,7,GC
1781 Perfect,7,GG
6065 Perfect,7,GT
14607 Perfect,7,TA
12792 Perfect,7,TC
10339 Perfect,7,TG
35299 Perfect,7,TT
13125 Perfect,8,AA
1924 Perfect,8,AC
2904 Perfect,8,AG
6751 Perfect,8,AT
2905 Perfect,8,CA
348 Perfect,8,CC
54 Perfect,8,CG
2823 Perfect,8,CT
2880 Perfect,8,GA
257 Perfect,8,GC
364 Perfect,8,GG
1728 Perfect,8,GT
5306 Perfect,8,TA
2787 Perfect,8,TC
3017 Perfect,8,TG
13020 Perfect,8,TT
1 Perfect,90,TT
1 Perfect,96,TG
7498 Perfect,9,AA
2004 Perfect,9,AC
1902 Perfect,9,AG
2560 Perfect,9,AT
768 Perfect,9,CA
143 Perfect,9,CC
36 Perfect,9,CG
837 Perfect,9,CT
824 Perfect,9,GA
44 Perfect,9,GC
145 Perfect,9,GG
738 Perfect,9,GT
2517 Perfect,9,TA
2015 Perfect,9,TC
2068 Perfect,9,TG
7397 Perfect,9,TT
