152456 Imperfect,5,AAAA
77665 Imperfect,5,AAAC
74594 Imperfect,5,AAAG
94866 Imperfect,5,AAAT
52256 Imperfect,5,AACA
46109 Imperfect,5,AACC
6275 Imperfect,5,AACG
33263 Imperfect,5,AACT
69545 Imperfect,5,AAGA
55890 Imperfect,5,AAGC
55340 Imperfect,5,AAGG
40487 Imperfect,5,AAGT
62844 Imperfect,5,AATA
53344 Imperfect,5,AATC
57919 Imperfect,5,AATG
64637 Imperfect,5,AATT
99437 Imperfect,5,ACAA
68900 Imperfect,5,ACAC
85460 Imperfect,5,ACAG
53457 Imperfect,5,ACAT
45985 Imperfect,5,ACCA
56719 Imperfect,5,ACCC
6019 Imperfect,5,ACCG
29811 Imperfect,5,ACCT
7858 Imperfect,5,ACGA
7957 Imperfect,5,ACGC
10299 Imperfect,5,ACGG
7378 Imperfect,5,ACGT
44330 Imperfect,5,ACTA
51658 Imperfect,5,ACTC
54712 Imperfect,5,ACTG
39883 Imperfect,5,ACTT
120743 Imperfect,5,AGAA
57221 Imperfect,5,AGAC
84967 Imperfect,5,AGAG
48019 Imperfect,5,AGAT
58517 Imperfect,5,AGCA
67350 Imperfect,5,AGCC
8844 Imperfect,5,AGCG
46068 Imperfect,5,AGCT
75724 Imperfect,5,AGGA
61016 Imperfect,5,AGGC
57311 Imperfect,5,AGGG
34008 Imperfect,5,AGGT
44786 Imperfect,5,AGTA
43233 Imperfect,5,AGTC
57233 Imperfect,5,AGTG
38917 Imperfect,5,AGTT
88549 Imperfect,5,ATAA
53556 Imperfect,5,ATAC
42972 Imperfect,5,ATAG
51246 Imperfect,5,ATAT
44072 Imperfect,5,ATCA
46552 Imperfect,5,ATCC
5667 Imperfect,5,ATCG
32224 Imperfect,5,ATCT
66767 Imperfect,5,ATGA
50251 Imperfect,5,ATGC
59896 Imperfect,5,ATGG
42172 Imperfect,5,ATGT
59277 Imperfect,5,ATTA
55612 Imperfect,5,ATTC
41470 Imperfect,5,ATTG
64666 Imperfect,5,ATTT
37752 Imperfect,5,CAAA
32980 Imperfect,5,CAAC
33684 Imperfect,5,CAAG
26941 Imperfect,5,CAAT
45988 Imperfect,5,CACA
42857 Imperfect,5,CACC
16919 Imperfect,5,CACG
46678 Imperfect,5,CACT
34049 Imperfect,5,CAGA
85736 Imperfect,5,CAGC
71907 Imperfect,5,CAGG
34186 Imperfect,5,CAGT
20024 Imperfect,5,CATA
40768 Imperfect,5,CATC
44870 Imperfect,5,CATG
45612 Imperfect,5,CATT
37253 Imperfect,5,CCAA
65503 Imperfect,5,CCAC
72939 Imperfect,5,CCAG
50025 Imperfect,5,CCAT
46786 Imperfect,5,CCCA
43025 Imperfect,5,CCCC
9283 Imperfect,5,CCCG
45521 Imperfect,5,CCCT
4896 Imperfect,5,CCGA
15896 Imperfect,5,CCGC
10959 Imperfect,5,CCGG
11223 Imperfect,5,CCGT
23411 Imperfect,5,CCTA
67750 Imperfect,5,CCTC
50548 Imperfect,5,CCTG
48508 Imperfect,5,CCTT
7006 Imperfect,5,CGAA
6146 Imperfect,5,CGAC
8113 Imperfect,5,CGAG
8967 Imperfect,5,CGAT
9318 Imperfect,5,CGCA
16965 Imperfect,5,CGCC
5753 Imperfect,5,CGCG
11508 Imperfect,5,CGCT
5600 Imperfect,5,CGGA
17198 Imperfect,5,CGGC
14124 Imperfect,5,CGGG
6351 Imperfect,5,CGGT
4045 Imperfect,5,CGTA
9348 Imperfect,5,CGTC
13459 Imperfect,5,CGTG
8096 Imperfect,5,CGTT
21185 Imperfect,5,CTAA
22344 Imperfect,5,CTAC
19861 Imperfect,5,CTAG
19412 Imperfect,5,CTAT
48770 Imperfect,5,CTCA
77233 Imperfect,5,CTCC
6748 Imperfect,5,CTCG
49090 Imperfect,5,CTCT
39968 Imperfect,5,CTGA
54382 Imperfect,5,CTGC
54494 Imperfect,5,CTGG
42628 Imperfect,5,CTGT
24296 Imperfect,5,CTTA
55590 Imperfect,5,CTTC
33167 Imperfect,5,CTTG
49451 Imperfect,5,CTTT
54421 Imperfect,5,GAAA
6609 Imperfect,5,GAAC
49267 Imperfect,5,GAAG
47813 Imperfect,5,GAAT
45613 Imperfect,5,GACA
5326 Imperfect,5,GACC
10163 Imperfect,5,GACG
37060 Imperfect,5,GACT
52088 Imperfect,5,GAGA
8197 Imperfect,5,GAGC
48552 Imperfect,5,GAGG
46521 Imperfect,5,GAGT
21018 Imperfect,5,GATA
7113 Imperfect,5,GATC
49445 Imperfect,5,GATG
31562 Imperfect,5,GATT
44181 Imperfect,5,GCAA
11270 Imperfect,5,GCAC
68329 Imperfect,5,GCAG
51327 Imperfect,5,GCAT
66751 Imperfect,5,GCCA
13513 Imperfect,5,GCCC
14489 Imperfect,5,GCCG
89071 Imperfect,5,GCCT
10004 Imperfect,5,GCGA
5139 Imperfect,5,GCGC
14212 Imperfect,5,GCGG
18347 Imperfect,5,GCGT
25123 Imperfect,5,GCTA
6728 Imperfect,5,GCTC
100348 Imperfect,5,GCTG
43846 Imperfect,5,GCTT
62534 Imperfect,5,GGAA
7062 Imperfect,5,GGAC
91641 Imperfect,5,GGAG
40120 Imperfect,5,GGAT
60463 Imperfect,5,GGCA
12907 Imperfect,5,GGCC
13669 Imperfect,5,GGCG
70090 Imperfect,5,GGCT
55476 Imperfect,5,GGGA
13763 Imperfect,5,GGGC
42784 Imperfect,5,GGGG
44421 Imperfect,5,GGGT
25142 Imperfect,5,GGTA
4440 Imperfect,5,GGTC
62248 Imperfect,5,GGTG
35405 Imperfect,5,GGTT
26266 Imperfect,5,GTAA
2808 Imperfect,5,GTAC
25030 Imperfect,5,GTAG
22229 Imperfect,5,GTAT
46009 Imperfect,5,GTCA
4712 Imperfect,5,GTCC
5888 Imperfect,5,GTCG
39649 Imperfect,5,GTCT
66539 Imperfect,5,GTGA
8118 Imperfect,5,GTGC
59899 Imperfect,5,GTGG
54207 Imperfect,5,GTGT
24962 Imperfect,5,GTTA
6033 Imperfect,5,GTTC
39599 Imperfect,5,GTTG
44428 Imperfect,5,GTTT
67077 Imperfect,5,TAAA
39053 Imperfect,5,TAAC
37400 Imperfect,5,TAAG
74048 Imperfect,5,TAAT
44884 Imperfect,5,TACA
36896 Imperfect,5,TACC
6548 Imperfect,5,TACG
48222 Imperfect,5,TACT
34954 Imperfect,5,TAGA
47076 Imperfect,5,TAGC
29279 Imperfect,5,TAGG
39349 Imperfect,5,TAGT
55481 Imperfect,5,TATA
49066 Imperfect,5,TATC
49427 Imperfect,5,TATG
119854 Imperfect,5,TATT
46434 Imperfect,5,TCAA
69852 Imperfect,5,TCAC
53744 Imperfect,5,TCAG
71195 Imperfect,5,TCAT
54994 Imperfect,5,TCCA
62813 Imperfect,5,TCCC
7939 Imperfect,5,TCCG
67263 Imperfect,5,TCCT
4977 Imperfect,5,TCGA
9737 Imperfect,5,TCGC
5816 Imperfect,5,TCGG
7405 Imperfect,5,TCGT
46762 Imperfect,5,TCTA
90033 Imperfect,5,TCTC
77580 Imperfect,5,TCTG
101822 Imperfect,5,TCTT
58312 Imperfect,5,TGAA
44901 Imperfect,5,TGAC
48258 Imperfect,5,TGAG
61702 Imperfect,5,TGAT
50003 Imperfect,5,TGCA
68911 Imperfect,5,TGCC
6404 Imperfect,5,TGCG
64328 Imperfect,5,TGCT
46232 Imperfect,5,TGGA
70442 Imperfect,5,TGGC
47616 Imperfect,5,TGGG
52565 Imperfect,5,TGGT
61251 Imperfect,5,TGTA
68004 Imperfect,5,TGTC
64242 Imperfect,5,TGTG
99035 Imperfect,5,TGTT
52738 Imperfect,5,TTAA
38571 Imperfect,5,TTAC
37157 Imperfect,5,TTAG
62663 Imperfect,5,TTAT
58574 Imperfect,5,TTCA
75190 Imperfect,5,TTCC
6602 Imperfect,5,TTCG
75086 Imperfect,5,TTCT
40378 Imperfect,5,TTGA
55147 Imperfect,5,TTGC
40529 Imperfect,5,TTGG
54666 Imperfect,5,TTGT
73446 Imperfect,5,TTTA
102486 Imperfect,5,TTTC
79204 Imperfect,5,TTTG
159635 Imperfect,5,TTTT
46700 Imperfect,6,AAAA
20195 Imperfect,6,AAAC
24721 Imperfect,6,AAAG
27044 Imperfect,6,AAAT
33761 Imperfect,6,AACA
14384 Imperfect,6,AACC
2510 Imperfect,6,AACG
12233 Imperfect,6,AACT
42045 Imperfect,6,AAGA
20248 Imperfect,6,AAGC
23604 Imperfect,6,AAGG
15130 Imperfect,6,AAGT
35852 Imperfect,6,AATA
14363 Imperfect,6,AATC
22158 Imperfect,6,AATG
20473 Imperfect,6,AATT
8500 Imperfect,6,ACAA
10153 Imperfect,6,ACAC
8325 Imperfect,6,ACAG
6314 Imperfect,6,ACAT
8046 Imperfect,6,ACCA
9450 Imperfect,6,ACCC
990 Imperfect,6,ACCG
6083 Imperfect,6,ACCT
1281 Imperfect,6,ACGA
2103 Imperfect,6,ACGC
1442 Imperfect,6,ACGG
1401 Imperfect,6,ACGT
4522 Imperfect,6,ACTA
8780 Imperfect,6,ACTC
6847 Imperfect,6,ACTG
6184 Imperfect,6,ACTT
19801 Imperfect,6,AGAA
18552 Imperfect,6,AGAC
17684 Imperfect,6,AGAG
7728 Imperfect,6,AGAT
17636 Imperfect,6,AGCA
22875 Imperfect,6,AGCC
4561 Imperfect,6,AGCG
8416 Imperfect,6,AGCT
22625 Imperfect,6,AGGA
22365 Imperfect,6,AGGC
16914 Imperfect,6,AGGG
8443 Imperfect,6,AGGT
8450 Imperfect,6,AGTA
12712 Imperfect,6,AGTC
26229 Imperfect,6,AGTG
7707 Imperfect,6,AGTT
19792 Imperfect,6,ATAA
12893 Imperfect,6,ATAC
9729 Imperfect,6,ATAG
18527 Imperfect,6,ATAT
12169 Imperfect,6,ATCA
11589 Imperfect,6,ATCC
1348 Imperfect,6,ATCG
11321 Imperfect,6,ATCT
15202 Imperfect,6,ATGA
12079 Imperfect,6,ATGC
10774 Imperfect,6,ATGG
16232 Imperfect,6,ATGT
13236 Imperfect,6,ATTA
13405 Imperfect,6,ATTC
9141 Imperfect,6,ATTG
19569 Imperfect,6,ATTT
15038 Imperfect,6,CAAA
9478 Imperfect,6,CAAC
11599 Imperfect,6,CAAG
9590 Imperfect,6,CAAT
19242 Imperfect,6,CACA
18509 Imperfect,6,CACC
2819 Imperfect,6,CACG
12748 Imperfect,6,CACT
15460 Imperfect,6,CAGA
18576 Imperfect,6,CAGC
24137 Imperfect,6,CAGG
11554 Imperfect,6,CAGT
10005 Imperfect,6,CATA
12003 Imperfect,6,CATC
13302 Imperfect,6,CATG
13395 Imperfect,6,CATT
8410 Imperfect,6,CCAA
16540 Imperfect,6,CCAC
34225 Imperfect,6,CCAG
13536 Imperfect,6,CCAT
18012 Imperfect,6,CCCA
7965 Imperfect,6,CCCC
6166 Imperfect,6,CCCG
14701 Imperfect,6,CCCT
2095 Imperfect,6,CCGA
5762 Imperfect,6,CCGC
5851 Imperfect,6,CCGG
2790 Imperfect,6,CCGT
5904 Imperfect,6,CCTA
38991 Imperfect,6,CCTC
16900 Imperfect,6,CCTG
15992 Imperfect,6,CCTT
302 Imperfect,6,CGAA
405 Imperfect,6,CGAC
677 Imperfect,6,CGAG
270 Imperfect,6,CGAT
537 Imperfect,6,CGCA
2612 Imperfect,6,CGCC
589 Imperfect,6,CGCG
591 Imperfect,6,CGCT
491 Imperfect,6,CGGA
1453 Imperfect,6,CGGC
2513 Imperfect,6,CGGG
306 Imperfect,6,CGGT
171 Imperfect,6,CGTA
651 Imperfect,6,CGTC
820 Imperfect,6,CGTG
254 Imperfect,6,CGTT
7859 Imperfect,6,CTAA
9740 Imperfect,6,CTAC
7490 Imperfect,6,CTAG
9459 Imperfect,6,CTAT
23694 Imperfect,6,CTCA
18386 Imperfect,6,CTCC
2658 Imperfect,6,CTCG
20355 Imperfect,6,CTCT
12545 Imperfect,6,CTGA
30633 Imperfect,6,CTGC
20727 Imperfect,6,CTGG
24826 Imperfect,6,CTGT
8574 Imperfect,6,CTTA
22130 Imperfect,6,CTTC
15435 Imperfect,6,CTTG
21666 Imperfect,6,CTTT
16168 Imperfect,6,GAAA
1447 Imperfect,6,GAAC
14066 Imperfect,6,GAAG
11645 Imperfect,6,GAAT
22281 Imperfect,6,GACA
1318 Imperfect,6,GACC
3806 Imperfect,6,GACG
10318 Imperfect,6,GACT
16675 Imperfect,6,GAGA
1719 Imperfect,6,GAGC
12960 Imperfect,6,GAGG
10970 Imperfect,6,GAGT
7748 Imperfect,6,GATA
1886 Imperfect,6,GATC
15121 Imperfect,6,GATG
6657 Imperfect,6,GATT
6282 Imperfect,6,GCAA
2197 Imperfect,6,GCAC
9786 Imperfect,6,GCAG
7537 Imperfect,6,GCAT
10075 Imperfect,6,GCCA
2047 Imperfect,6,GCCC
2301 Imperfect,6,GCCG
9946 Imperfect,6,GCCT
1777 Imperfect,6,GCGA
1190 Imperfect,6,GCGC
3295 Imperfect,6,GCGG
2461 Imperfect,6,GCGT
3372 Imperfect,6,GCTA
1346 Imperfect,6,GCTC
10531 Imperfect,6,GCTG
6372 Imperfect,6,GCTT
16783 Imperfect,6,GGAA
2415 Imperfect,6,GGAC
16683 Imperfect,6,GGAG
13416 Imperfect,6,GGAT
27280 Imperfect,6,GGCA
5776 Imperfect,6,GGCC
6725 Imperfect,6,GGCG
36726 Imperfect,6,GGCT
38543 Imperfect,6,GGGA
3895 Imperfect,6,GGGC
7687 Imperfect,6,GGGG
13944 Imperfect,6,GGGT
7582 Imperfect,6,GGTA
2022 Imperfect,6,GGTC
22333 Imperfect,6,GGTG
9194 Imperfect,6,GGTT
7237 Imperfect,6,GTAA
1197 Imperfect,6,GTAC
6153 Imperfect,6,GTAG
9059 Imperfect,6,GTAT
8656 Imperfect,6,GTCA
1368 Imperfect,6,GTCC
1032 Imperfect,6,GTCG
12572 Imperfect,6,GTCT
8613 Imperfect,6,GTGA
1320 Imperfect,6,GTGC
8547 Imperfect,6,GTGG
12654 Imperfect,6,GTGT
4473 Imperfect,6,GTTA
1063 Imperfect,6,GTTC
7921 Imperfect,6,GTTG
10209 Imperfect,6,GTTT
18131 Imperfect,6,TAAA
6583 Imperfect,6,TAAC
7909 Imperfect,6,TAAG
13047 Imperfect,6,TAAT
14146 Imperfect,6,TACA
7349 Imperfect,6,TACC
1823 Imperfect,6,TACG
9767 Imperfect,6,TACT
9771 Imperfect,6,TAGA
7792 Imperfect,6,TAGC
7462 Imperfect,6,TAGG
8091 Imperfect,6,TAGT
14893 Imperfect,6,TATA
7832 Imperfect,6,TATC
10574 Imperfect,6,TATG
17475 Imperfect,6,TATT
5924 Imperfect,6,TCAA
13071 Imperfect,6,TCAC
8872 Imperfect,6,TCAG
12793 Imperfect,6,TCAT
14254 Imperfect,6,TCCA
13354 Imperfect,6,TCCC
3414 Imperfect,6,TCCG
15409 Imperfect,6,TCCT
2113 Imperfect,6,TCGA
4087 Imperfect,6,TCGC
1481 Imperfect,6,TCGG
1944 Imperfect,6,TCGT
6345 Imperfect,6,TCTA
14243 Imperfect,6,TCTC
15357 Imperfect,6,TCTG
14811 Imperfect,6,TCTT
13668 Imperfect,6,TGAA
11498 Imperfect,6,TGAC
12274 Imperfect,6,TGAG
10101 Imperfect,6,TGAT
13524 Imperfect,6,TGCA
26988 Imperfect,6,TGCC
3397 Imperfect,6,TGCG
16046 Imperfect,6,TGCT
12989 Imperfect,6,TGGA
18516 Imperfect,6,TGGC
18063 Imperfect,6,TGGG
10235 Imperfect,6,TGGT
8560 Imperfect,6,TGTA
13957 Imperfect,6,TGTC
17969 Imperfect,6,TGTG
14541 Imperfect,6,TGTT
21462 Imperfect,6,TTAA
14987 Imperfect,6,TTAC
11901 Imperfect,6,TTAG
41289 Imperfect,6,TTAT
24036 Imperfect,6,TTCA
24639 Imperfect,6,TTCC
2476 Imperfect,6,TTCG
40694 Imperfect,6,TTCT
16967 Imperfect,6,TTGA
19806 Imperfect,6,TTGC
14932 Imperfect,6,TTGG
34214 Imperfect,6,TTGT
26124 Imperfect,6,TTTA
29699 Imperfect,6,TTTC
21693 Imperfect,6,TTTG
49308 Imperfect,6,TTTT
13097 Imperfect,7,AAAA
14285 Imperfect,7,AAAC
16970 Imperfect,7,AAAG
15814 Imperfect,7,AAAT
2191 Imperfect,7,AACA
1726 Imperfect,7,AACC
340 Imperfect,7,AACG
1269 Imperfect,7,AACT
4357 Imperfect,7,AAGA
4076 Imperfect,7,AAGC
4958 Imperfect,7,AAGG
2062 Imperfect,7,AAGT
5516 Imperfect,7,AATA
3939 Imperfect,7,AATC
4484 Imperfect,7,AATG
3639 Imperfect,7,AATT
3740 Imperfect,7,ACAA
4832 Imperfect,7,ACAC
4661 Imperfect,7,ACAG
3551 Imperfect,7,ACAT
1378 Imperfect,7,ACCA
1700 Imperfect,7,ACCC
237 Imperfect,7,ACCG
1014 Imperfect,7,ACCT
71 Imperfect,7,ACGA
77 Imperfect,7,ACGC
85 Imperfect,7,ACGG
50 Imperfect,7,ACGT
1297 Imperfect,7,ACTA
2575 Imperfect,7,ACTC
2218 Imperfect,7,ACTG
1968 Imperfect,7,ACTT
5326 Imperfect,7,AGAA
8289 Imperfect,7,AGAC
5670 Imperfect,7,AGAG
2615 Imperfect,7,AGAT
1475 Imperfect,7,AGCA
2396 Imperfect,7,AGCC
549 Imperfect,7,AGCG
941 Imperfect,7,AGCT
4636 Imperfect,7,AGGA
12736 Imperfect,7,AGGC
4961 Imperfect,7,AGGG
2691 Imperfect,7,AGGT
1921 Imperfect,7,AGTA
2383 Imperfect,7,AGTC
2394 Imperfect,7,AGTG
1178 Imperfect,7,AGTT
4729 Imperfect,7,ATAA
4634 Imperfect,7,ATAC
3002 Imperfect,7,ATAG
4610 Imperfect,7,ATAT
831 Imperfect,7,ATCA
2048 Imperfect,7,ATCC
189 Imperfect,7,ATCG
1193 Imperfect,7,ATCT
2916 Imperfect,7,ATGA
2546 Imperfect,7,ATGC
2980 Imperfect,7,ATGG
1854 Imperfect,7,ATGT
3806 Imperfect,7,ATTA
4607 Imperfect,7,ATTC
3965 Imperfect,7,ATTG
5681 Imperfect,7,ATTT
2613 Imperfect,7,CAAA
2154 Imperfect,7,CAAC
5462 Imperfect,7,CAAG
1930 Imperfect,7,CAAT
3366 Imperfect,7,CACA
2649 Imperfect,7,CACC
928 Imperfect,7,CACG
2495 Imperfect,7,CACT
3040 Imperfect,7,CAGA
4599 Imperfect,7,CAGC
4825 Imperfect,7,CAGG
2603 Imperfect,7,CAGT
1870 Imperfect,7,CATA
2998 Imperfect,7,CATC
2571 Imperfect,7,CATG
2981 Imperfect,7,CATT
2030 Imperfect,7,CCAA
3358 Imperfect,7,CCAC
5060 Imperfect,7,CCAG
2449 Imperfect,7,CCAT
5862 Imperfect,7,CCCA
1069 Imperfect,7,CCCC
2059 Imperfect,7,CCCG
5120 Imperfect,7,CCCT
107 Imperfect,7,CCGA
311 Imperfect,7,CCGC
611 Imperfect,7,CCGG
232 Imperfect,7,CCGT
2599 Imperfect,7,CCTA
5129 Imperfect,7,CCTC
13086 Imperfect,7,CCTG
4632 Imperfect,7,CCTT
47 Imperfect,7,CGAA
48 Imperfect,7,CGAC
71 Imperfect,7,CGAG
30 Imperfect,7,CGAT
283 Imperfect,7,CGCA
258 Imperfect,7,CGCC
229 Imperfect,7,CGCG
183 Imperfect,7,CGCT
255 Imperfect,7,CGGA
536 Imperfect,7,CGGC
345 Imperfect,7,CGGG
117 Imperfect,7,CGGT
42 Imperfect,7,CGTA
103 Imperfect,7,CGTC
83 Imperfect,7,CGTG
48 Imperfect,7,CGTT
989 Imperfect,7,CTAA
1173 Imperfect,7,CTAC
1958 Imperfect,7,CTAG
979 Imperfect,7,CTAT
5471 Imperfect,7,CTCA
3930 Imperfect,7,CTCC
2421 Imperfect,7,CTCG
3337 Imperfect,7,CTCT
2640 Imperfect,7,CTGA
4999 Imperfect,7,CTGC
4699 Imperfect,7,CTGG
3109 Imperfect,7,CTGT
2166 Imperfect,7,CTTA
5008 Imperfect,7,CTTC
4163 Imperfect,7,CTTG
4539 Imperfect,7,CTTT
3695 Imperfect,7,GAAA
509 Imperfect,7,GAAC
4553 Imperfect,7,GAAG
3587 Imperfect,7,GAAT
1124 Imperfect,7,GACA
195 Imperfect,7,GACC
253 Imperfect,7,GACG
937 Imperfect,7,GACT
3494 Imperfect,7,GAGA
2334 Imperfect,7,GAGC
3706 Imperfect,7,GAGG
5320 Imperfect,7,GAGT
1336 Imperfect,7,GATA
220 Imperfect,7,GATC
2042 Imperfect,7,GATG
842 Imperfect,7,GATT
1518 Imperfect,7,GCAA
527 Imperfect,7,GCAC
2683 Imperfect,7,GCAG
2631 Imperfect,7,GCAT
2724 Imperfect,7,GCCA
1454 Imperfect,7,GCCC
655 Imperfect,7,GCCG
2441 Imperfect,7,GCCT
197 Imperfect,7,GCGA
217 Imperfect,7,GCGC
243 Imperfect,7,GCGG
293 Imperfect,7,GCGT
965 Imperfect,7,GCTA
562 Imperfect,7,GCTC
2524 Imperfect,7,GCTG
1544 Imperfect,7,GCTT
3794 Imperfect,7,GGAA
627 Imperfect,7,GGAC
3224 Imperfect,7,GGAG
2880 Imperfect,7,GGAT
2402 Imperfect,7,GGCA
728 Imperfect,7,GGCC
1417 Imperfect,7,GGCG
2874 Imperfect,7,GGCT
5267 Imperfect,7,GGGA
1952 Imperfect,7,GGGC
1019 Imperfect,7,GGGG
5896 Imperfect,7,GGGT
1097 Imperfect,7,GGTA
259 Imperfect,7,GGTC
1683 Imperfect,7,GGTG
1371 Imperfect,7,GGTT
1105 Imperfect,7,GTAA
282 Imperfect,7,GTAC
1161 Imperfect,7,GTAG
1067 Imperfect,7,GTAT
1034 Imperfect,7,GTCA
266 Imperfect,7,GTCC
203 Imperfect,7,GTCG
1088 Imperfect,7,GTCT
2468 Imperfect,7,GTGA
991 Imperfect,7,GTGC
2669 Imperfect,7,GTGG
3536 Imperfect,7,GTGT
1416 Imperfect,7,GTTA
390 Imperfect,7,GTTC
1845 Imperfect,7,GTTG
2272 Imperfect,7,GTTT
3972 Imperfect,7,TAAA
2230 Imperfect,7,TAAC
3061 Imperfect,7,TAAG
3353 Imperfect,7,TAAT
1076 Imperfect,7,TACA
1150 Imperfect,7,TACC
236 Imperfect,7,TACG
1030 Imperfect,7,TACT
952 Imperfect,7,TAGA
1969 Imperfect,7,TAGC
1097 Imperfect,7,TAGG
1020 Imperfect,7,TAGT
4774 Imperfect,7,TATA
2924 Imperfect,7,TATC
4907 Imperfect,7,TATG
4965 Imperfect,7,TATT
1600 Imperfect,7,TCAA
3229 Imperfect,7,TCAC
2628 Imperfect,7,TCAG
2688 Imperfect,7,TCAT
2988 Imperfect,7,TCCA
3168 Imperfect,7,TCCC
610 Imperfect,7,TCCG
3717 Imperfect,7,TCCT
33 Imperfect,7,TCGA
70 Imperfect,7,TCGC
57 Imperfect,7,TCGG
42 Imperfect,7,TCGT
2903 Imperfect,7,TCTA
5790 Imperfect,7,TCTC
8596 Imperfect,7,TCTG
5598 Imperfect,7,TCTT
2839 Imperfect,7,TGAA
2520 Imperfect,7,TGAC
3216 Imperfect,7,TGAG
1639 Imperfect,7,TGAT
2660 Imperfect,7,TGCA
2682 Imperfect,7,TGCC
601 Imperfect,7,TGCG
1463 Imperfect,7,TGCT
2542 Imperfect,7,TGGA
5012 Imperfect,7,TGGC
3500 Imperfect,7,TGGG
2091 Imperfect,7,TGGT
3777 Imperfect,7,TGTA
5038 Imperfect,7,TGTC
5207 Imperfect,7,TGTG
3744 Imperfect,7,TGTT
3476 Imperfect,7,TTAA
3048 Imperfect,7,TTAC
2274 Imperfect,7,TTAG
4148 Imperfect,7,TTAT
3757 Imperfect,7,TTCA
4837 Imperfect,7,TTCC
548 Imperfect,7,TTCG
3995 Imperfect,7,TTCT
2072 Imperfect,7,TTGA
5784 Imperfect,7,TTGC
2368 Imperfect,7,TTGG
2707 Imperfect,7,TTGT
16699 Imperfect,7,TTTA
17711 Imperfect,7,TTTC
15090 Imperfect,7,TTTG
13867 Imperfect,7,TTTT
1881 Perfect,10,AAAA
298 Perfect,10,AAAC
333 Perfect,10,AAAG
373 Perfect,10,AAAT
165 Perfect,10,AACA
76 Perfect,10,AACC
1 Perfect,10,AACG
23 Perfect,10,AACT
373 Perfect,10,AAGA
64 Perfect,10,AAGC
222 Perfect,10,AAGG
61 Perfect,10,AAGT
285 Perfect,10,AATA
66 Perfect,10,AATC
233 Perfect,10,AATG
130 Perfect,10,AATT
31 Perfect,10,ACAA
299 Perfect,10,ACAC
57 Perfect,10,ACAG
33 Perfect,10,ACAT
11 Perfect,10,ACCA
39 Perfect,10,ACCC
1 Perfect,10,ACCG
17 Perfect,10,ACCT
1 Perfect,10,ACGA
4 Perfect,10,ACGC
1 Perfect,10,ACGG
1 Perfect,10,ACGT
8 Perfect,10,ACTA
45 Perfect,10,ACTC
25 Perfect,10,ACTG
25 Perfect,10,ACTT
186 Perfect,10,AGAA
89 Perfect,10,AGAC
220 Perfect,10,AGAG
22 Perfect,10,AGAT
66 Perfect,10,AGCA
83 Perfect,10,AGCC
3 Perfect,10,AGCG
18 Perfect,10,AGCT
188 Perfect,10,AGGA
704 Perfect,10,AGGC
177 Perfect,10,AGGG
26 Perfect,10,AGGT
21 Perfect,10,AGTA
42 Perfect,10,AGTC
79 Perfect,10,AGTG
21 Perfect,10,AGTT
209 Perfect,10,ATAA
101 Perfect,10,ATAC
42 Perfect,10,ATAG
406 Perfect,10,ATAT
59 Perfect,10,ATCA
75 Perfect,10,ATCC
1 Perfect,10,ATCG
50 Perfect,10,ATCT
146 Perfect,10,ATGA
73 Perfect,10,ATGC
72 Perfect,10,ATGG
114 Perfect,10,ATGT
77 Perfect,10,ATTA
149 Perfect,10,ATTC
66 Perfect,10,ATTG
224 Perfect,10,ATTT
77 Perfect,10,CAAA
40 Perfect,10,CAAC
55 Perfect,10,CAAG
47 Perfect,10,CAAT
409 Perfect,10,CACA
100 Perfect,10,CACC
10 Perfect,10,CACG
75 Perfect,10,CACT
67 Perfect,10,CAGA
64 Perfect,10,CAGC
101 Perfect,10,CAGG
50 Perfect,10,CAGT
46 Perfect,10,CATA
84 Perfect,10,CATC
102 Perfect,10,CATG
153 Perfect,10,CATT
19 Perfect,10,CCAA
136 Perfect,10,CCAC
140 Perfect,10,CCAG
62 Perfect,10,CCAT
160 Perfect,10,CCCA
58 Perfect,10,CCCC
35 Perfect,10,CCCG
182 Perfect,10,CCCT
2 Perfect,10,CCGA
26 Perfect,10,CCGC
20 Perfect,10,CCGG
6 Perfect,10,CCGT
27 Perfect,10,CCTA
387 Perfect,10,CCTC
143 Perfect,10,CCTG
165 Perfect,10,CCTT
1 Perfect,10,CGAA
1 Perfect,10,CGAC
2 Perfect,10,CGAG
2 Perfect,10,CGCA
7 Perfect,10,CGCC
4 Perfect,10,CGCG
1 Perfect,10,CGCT
4 Perfect,10,CGGA
8 Perfect,10,CGGC
11 Perfect,10,CGGG
3 Perfect,10,CGTC
30 Perfect,10,CTAA
37 Perfect,10,CTAC
22 Perfect,10,CTAG
40 Perfect,10,CTAT
94 Perfect,10,CTCA
183 Perfect,10,CTCC
3 Perfect,10,CTCG
245 Perfect,10,CTCT
35 Perfect,10,CTGA
756 Perfect,10,CTGC
90 Perfect,10,CTGG
108 Perfect,10,CTGT
16 Perfect,10,CTTA
208 Perfect,10,CTTC
50 Perfect,10,CTTG
205 Perfect,10,CTTT
156 Perfect,10,GAAA
2 Perfect,10,GAAC
153 Perfect,10,GAAG
101 Perfect,10,GAAT
89 Perfect,10,GACA
1 Perfect,10,GACC
4 Perfect,10,GACG
34 Perfect,10,GACT
232 Perfect,10,GAGA
2 Perfect,10,GAGC
160 Perfect,10,GAGG
42 Perfect,10,GAGT
16 Perfect,10,GATA
1 Perfect,10,GATC
68 Perfect,10,GATG
48 Perfect,10,GATT
17 Perfect,10,GCAA
5 Perfect,10,GCAC
64 Perfect,10,GCAG
25 Perfect,10,GCAT
55 Perfect,10,GCCA
15 Perfect,10,GCCC
4 Perfect,10,GCCG
54 Perfect,10,GCCT
2 Perfect,10,GCGA
15 Perfect,10,GCGC
4 Perfect,10,GCGG
7 Perfect,10,GCGT
4 Perfect,10,GCTA
3 Perfect,10,GCTC
58 Perfect,10,GCTG
18 Perfect,10,GCTT
164 Perfect,10,GGAA
2 Perfect,10,GGAC
195 Perfect,10,GGAG
79 Perfect,10,GGAT
149 Perfect,10,GGCA
15 Perfect,10,GGCC
34 Perfect,10,GGCG
127 Perfect,10,GGCT
352 Perfect,10,GGGA
35 Perfect,10,GGGC
49 Perfect,10,GGGG
136 Perfect,10,GGGT
16 Perfect,10,GGTA
4 Perfect,10,GGTC
151 Perfect,10,GGTG
28 Perfect,10,GGTT
20 Perfect,10,GTAA
1 Perfect,10,GTAC
20 Perfect,10,GTAG
51 Perfect,10,GTAT
26 Perfect,10,GTCA
1 Perfect,10,GTCC
1 Perfect,10,GTCG
44 Perfect,10,GTCT
42 Perfect,10,GTGA
3 Perfect,10,GTGC
52 Perfect,10,GTGG
249 Perfect,10,GTGT
5 Perfect,10,GTTA
26 Perfect,10,GTTG
43 Perfect,10,GTTT
204 Perfect,10,TAAA
20 Perfect,10,TAAC
28 Perfect,10,TAAG
79 Perfect,10,TAAT
76 Perfect,10,TACA
23 Perfect,10,TACC
2 Perfect,10,TACG
35 Perfect,10,TACT
30 Perfect,10,TAGA
14 Perfect,10,TAGC
18 Perfect,10,TAGG
17 Perfect,10,TAGT
451 Perfect,10,TATA
47 Perfect,10,TATC
86 Perfect,10,TATG
222 Perfect,10,TATT
40 Perfect,10,TCAA
46 Perfect,10,TCAC
41 Perfect,10,TCAG
84 Perfect,10,TCAT
68 Perfect,10,TCCA
153 Perfect,10,TCCC
4 Perfect,10,TCCG
169 Perfect,10,TCCT
7 Perfect,10,TCGC
2 Perfect,10,TCGG
4 Perfect,10,TCGT
27 Perfect,10,TCTA
266 Perfect,10,TCTC
77 Perfect,10,TCTG
142 Perfect,10,TCTT
138 Perfect,10,TGAA
56 Perfect,10,TGAC
89 Perfect,10,TGAG
55 Perfect,10,TGAT
92 Perfect,10,TGCA
109 Perfect,10,TGCC
4 Perfect,10,TGCG
45 Perfect,10,TGCT
105 Perfect,10,TGGA
80 Perfect,10,TGGC
106 Perfect,10,TGGG
40 Perfect,10,TGGT
59 Perfect,10,TGTA
77 Perfect,10,TGTC
442 Perfect,10,TGTG
99 Perfect,10,TGTT
161 Perfect,10,TTAA
64 Perfect,10,TTAC
24 Perfect,10,TTAG
406 Perfect,10,TTAT
225 Perfect,10,TTCA
234 Perfect,10,TTCC
2 Perfect,10,TTCG
325 Perfect,10,TTCT
53 Perfect,10,TTGA
69 Perfect,10,TTGC
78 Perfect,10,TTGG
326 Perfect,10,TTGT
336 Perfect,10,TTTA
386 Perfect,10,TTTC
184 Perfect,10,TTTG
2027 Perfect,10,TTTT
1233 Perfect,11,AAAA
452 Perfect,11,AAAC
520 Perfect,11,AAAG
450 Perfect,11,AAAT
20 Perfect,11,AACA
21 Perfect,11,AACC
1 Perfect,11,AACG
1 Perfect,11,AACT
63 Perfect,11,AAGA
19 Perfect,11,AAGC
88 Perfect,11,AAGG
15 Perfect,11,AAGT
86 Perfect,11,AATA
44 Perfect,11,AATC
75 Perfect,11,AATG
42 Perfect,11,AATT
24 Perfect,11,ACAA
308 Perfect,11,ACAC
42 Perfect,11,ACAG
63 Perfect,11,ACAT
4 Perfect,11,ACCA
38 Perfect,11,ACCC
7 Perfect,11,ACCT
1 Perfect,11,ACGT
2 Perfect,11,ACTA
87 Perfect,11,ACTC
8 Perfect,11,ACTG
9 Perfect,11,ACTT
115 Perfect,11,AGAA
76 Perfect,11,AGAC
192 Perfect,11,AGAG
17 Perfect,11,AGAT
11 Perfect,11,AGCA
19 Perfect,11,AGCC
2 Perfect,11,AGCT
90 Perfect,11,AGGA
89 Perfect,11,AGGC
96 Perfect,11,AGGG
12 Perfect,11,AGGT
3 Perfect,11,AGTA
12 Perfect,11,AGTC
91 Perfect,11,AGTG
98 Perfect,11,ATAA
109 Perfect,11,ATAC
26 Perfect,11,ATAG
249 Perfect,11,ATAT
12 Perfect,11,ATCA
31 Perfect,11,ATCC
1 Perfect,11,ATCG
25 Perfect,11,ATCT
54 Perfect,11,ATGA
38 Perfect,11,ATGC
56 Perfect,11,ATGG
21 Perfect,11,ATGT
37 Perfect,11,ATTA
96 Perfect,11,ATTC
41 Perfect,11,ATTG
118 Perfect,11,ATTT
27 Perfect,11,CAAA
13 Perfect,11,CAAC
26 Perfect,11,CAAG
15 Perfect,11,CAAT
178 Perfect,11,CACA
27 Perfect,11,CACC
15 Perfect,11,CACG
31 Perfect,11,CACT
19 Perfect,11,CAGA
30 Perfect,11,CAGC
54 Perfect,11,CAGG
8 Perfect,11,CAGT
23 Perfect,11,CATA
54 Perfect,11,CATC
41 Perfect,11,CATG
49 Perfect,11,CATT
12 Perfect,11,CCAA
52 Perfect,11,CCAC
24 Perfect,11,CCAG
33 Perfect,11,CCAT
88 Perfect,11,CCCA
21 Perfect,11,CCCC
7 Perfect,11,CCCG
97 Perfect,11,CCCT
5 Perfect,11,CCGC
7 Perfect,11,CCGG
6 Perfect,11,CCTA
130 Perfect,11,CCTC
76 Perfect,11,CCTG
80 Perfect,11,CCTT
5 Perfect,11,CGCC
5 Perfect,11,CGCG
3 Perfect,11,CGCT
11 Perfect,11,CGGC
8 Perfect,11,CGGG
3 Perfect,11,CGTG
10 Perfect,11,CTAA
10 Perfect,11,CTAC
5 Perfect,11,CTAG
6 Perfect,11,CTAT
31 Perfect,11,CTCA
83 Perfect,11,CTCC
6 Perfect,11,CTCG
86 Perfect,11,CTCT
10 Perfect,11,CTGA
53 Perfect,11,CTGC
40 Perfect,11,CTGG
21 Perfect,11,CTGT
10 Perfect,11,CTTA
86 Perfect,11,CTTC
22 Perfect,11,CTTG
79 Perfect,11,CTTT
82 Perfect,11,GAAA
1 Perfect,11,GAAC
82 Perfect,11,GAAG
48 Perfect,11,GAAT
10 Perfect,11,GACA
1 Perfect,11,GACC
9 Perfect,11,GACT
75 Perfect,11,GAGA
3 Perfect,11,GAGC
78 Perfect,11,GAGG
42 Perfect,11,GAGT
29 Perfect,11,GATA
1 Perfect,11,GATC
62 Perfect,11,GATG
4 Perfect,11,GATT
8 Perfect,11,GCAA
1 Perfect,11,GCAC
23 Perfect,11,GCAG
11 Perfect,11,GCAT
26 Perfect,11,GCCA
8 Perfect,11,GCCC
10 Perfect,11,GCCG
26 Perfect,11,GCCT
4 Perfect,11,GCGC
3 Perfect,11,GCGG
1 Perfect,11,GCGT
3 Perfect,11,GCTA
1 Perfect,11,GCTC
21 Perfect,11,GCTG
5 Perfect,11,GCTT
80 Perfect,11,GGAA
6 Perfect,11,GGAC
84 Perfect,11,GGAG
28 Perfect,11,GGAT
21 Perfect,11,GGCA
5 Perfect,11,GGCC
13 Perfect,11,GGCG
18 Perfect,11,GGCT
79 Perfect,11,GGGA
15 Perfect,11,GGGC
31 Perfect,11,GGGG
87 Perfect,11,GGGT
10 Perfect,11,GGTA
1 Perfect,11,GGTC
48 Perfect,11,GGTG
5 Perfect,11,GGTT
4 Perfect,11,GTAA
1 Perfect,11,GTAC
7 Perfect,11,GTAG
11 Perfect,11,GTAT
4 Perfect,11,GTCA
2 Perfect,11,GTCC
1 Perfect,11,GTCG
8 Perfect,11,GTCT
26 Perfect,11,GTGA
20 Perfect,11,GTGC
24 Perfect,11,GTGG
149 Perfect,11,GTGT
2 Perfect,11,GTTA
3 Perfect,11,GTTC
14 Perfect,11,GTTG
16 Perfect,11,GTTT
94 Perfect,11,TAAA
8 Perfect,11,TAAC
18 Perfect,11,TAAG
36 Perfect,11,TAAT
9 Perfect,11,TACA
3 Perfect,11,TACC
4 Perfect,11,TACT
8 Perfect,11,TAGA
6 Perfect,11,TAGC
13 Perfect,11,TAGG
4 Perfect,11,TAGT
274 Perfect,11,TATA
45 Perfect,11,TATC
115 Perfect,11,TATG
67 Perfect,11,TATT
23 Perfect,11,TCAA
44 Perfect,11,TCAC
20 Perfect,11,TCAG
84 Perfect,11,TCAT
35 Perfect,11,TCCA
105 Perfect,11,TCCC
4 Perfect,11,TCCG
77 Perfect,11,TCCT
7 Perfect,11,TCTA
230 Perfect,11,TCTC
68 Perfect,11,TCTG
123 Perfect,11,TCTT
85 Perfect,11,TGAA
14 Perfect,11,TGAC
29 Perfect,11,TGAG
18 Perfect,11,TGAT
12 Perfect,11,TGCA
19 Perfect,11,TGCC
2 Perfect,11,TGCG
12 Perfect,11,TGCT
73 Perfect,11,TGGA
31 Perfect,11,TGGC
73 Perfect,11,TGGG
12 Perfect,11,TGGT
66 Perfect,11,TGTA
29 Perfect,11,TGTC
418 Perfect,11,TGTG
20 Perfect,11,TGTT
34 Perfect,11,TTAA
18 Perfect,11,TTAC
7 Perfect,11,TTAG
91 Perfect,11,TTAT
60 Perfect,11,TTCA
90 Perfect,11,TTCC
4 Perfect,11,TTCG
87 Perfect,11,TTCT
8 Perfect,11,TTGA
20 Perfect,11,TTGC
15 Perfect,11,TTGG
34 Perfect,11,TTGT
450 Perfect,11,TTTA
545 Perfect,11,TTTC
455 Perfect,11,TTTG
1361 Perfect,11,TTTT
989 Perfect,12,AAAA
32 Perfect,12,AAAC
73 Perfect,12,AAAG
116 Perfect,12,AAAT
5 Perfect,12,AACA
8 Perfect,12,AACC
2 Perfect,12,AACT
34 Perfect,12,AAGA
5 Perfect,12,AAGC
30 Perfect,12,AAGG
3 Perfect,12,AAGT
33 Perfect,12,AATA
3 Perfect,12,AATC
36 Perfect,12,AATG
26 Perfect,12,AATT
12 Perfect,12,ACAA
129 Perfect,12,ACAC
8 Perfect,12,ACAG
17 Perfect,12,ACAT
2 Perfect,12,ACCA
5 Perfect,12,ACCC
2 Perfect,12,ACCT
9 Perfect,12,ACTC
2 Perfect,12,ACTG
1 Perfect,12,ACTT
45 Perfect,12,AGAA
5 Perfect,12,AGAC
70 Perfect,12,AGAG
4 Perfect,12,AGAT
7 Perfect,12,AGCA
5 Perfect,12,AGCC
2 Perfect,12,AGCT
37 Perfect,12,AGGA
28 Perfect,12,AGGC
32 Perfect,12,AGGG
3 Perfect,12,AGGT
2 Perfect,12,AGTA
2 Perfect,12,AGTC
11 Perfect,12,AGTG
2 Perfect,12,AGTT
43 Perfect,12,ATAA
12 Perfect,12,ATAC
2 Perfect,12,ATAG
184 Perfect,12,ATAT
4 Perfect,12,ATCA
15 Perfect,12,ATCC
11 Perfect,12,ATCT
36 Perfect,12,ATGA
4 Perfect,12,ATGC
27 Perfect,12,ATGG
8 Perfect,12,ATGT
8 Perfect,12,ATTA
32 Perfect,12,ATTC
8 Perfect,12,ATTG
113 Perfect,12,ATTT
71 Perfect,12,CAAA
4 Perfect,12,CAAC
6 Perfect,12,CAAG
6 Perfect,12,CAAT
144 Perfect,12,CACA
11 Perfect,12,CACC
1 Perfect,12,CACG
11 Perfect,12,CACT
9 Perfect,12,CAGA
10 Perfect,12,CAGC
20 Perfect,12,CAGG
1 Perfect,12,CAGT
17 Perfect,12,CATA
27 Perfect,12,CATC
15 Perfect,12,CATG
38 Perfect,12,CATT
2 Perfect,12,CCAA
14 Perfect,12,CCAC
11 Perfect,12,CCAG
20 Perfect,12,CCAT
22 Perfect,12,CCCA
17 Perfect,12,CCCC
5 Perfect,12,CCCG
33 Perfect,12,CCCT
2 Perfect,12,CCGC
4 Perfect,12,CCGG
3 Perfect,12,CCTA
49 Perfect,12,CCTC
29 Perfect,12,CCTG
34 Perfect,12,CCTT
5 Perfect,12,CGCC
2 Perfect,12,CGCG
1 Perfect,12,CGGC
4 Perfect,12,CGGG
1 Perfect,12,CGTC
3 Perfect,12,CTAA
2 Perfect,12,CTAG
8 Perfect,12,CTAT
8 Perfect,12,CTCA
45 Perfect,12,CTCC
69 Perfect,12,CTCT
7 Perfect,12,CTGA
14 Perfect,12,CTGC
18 Perfect,12,CTGG
7 Perfect,12,CTGT
28 Perfect,12,CTTC
2 Perfect,12,CTTG
87 Perfect,12,CTTT
56 Perfect,12,GAAA
1 Perfect,12,GAAC
47 Perfect,12,GAAG
34 Perfect,12,GAAT
8 Perfect,12,GACA
1 Perfect,12,GACC
1 Perfect,12,GACG
3 Perfect,12,GACT
62 Perfect,12,GAGA
1 Perfect,12,GAGC
55 Perfect,12,GAGG
4 Perfect,12,GAGT
6 Perfect,12,GATA
36 Perfect,12,GATG
8 Perfect,12,GATT
4 Perfect,12,GCAA
6 Perfect,12,GCAC
23 Perfect,12,GCAG
6 Perfect,12,GCAT
2 Perfect,12,GCCA
2 Perfect,12,GCCC
29 Perfect,12,GCCT
6 Perfect,12,GCGC
1 Perfect,12,GCGG
1 Perfect,12,GCTC
11 Perfect,12,GCTG
4 Perfect,12,GCTT
49 Perfect,12,GGAA
54 Perfect,12,GGAG
12 Perfect,12,GGAT
5 Perfect,12,GGCA
4 Perfect,12,GGCG
5 Perfect,12,GGCT
25 Perfect,12,GGGA
7 Perfect,12,GGGC
20 Perfect,12,GGGG
7 Perfect,12,GGGT
3 Perfect,12,GGTA
14 Perfect,12,GGTG
1 Perfect,12,GGTT
1 Perfect,12,GTAA
1 Perfect,12,GTAG
11 Perfect,12,GTAT
1 Perfect,12,GTCA
7 Perfect,12,GTCT
8 Perfect,12,GTGA
3 Perfect,12,GTGC
16 Perfect,12,GTGG
89 Perfect,12,GTGT
2 Perfect,12,GTTA
1 Perfect,12,GTTC
2 Perfect,12,GTTG
37 Perfect,12,GTTT
64 Perfect,12,TAAA
1 Perfect,12,TAAC
2 Perfect,12,TAAG
11 Perfect,12,TAAT
13 Perfect,12,TACA
1 Perfect,12,TACC
1 Perfect,12,TACT
1 Perfect,12,TAGG
170 Perfect,12,TATA
11 Perfect,12,TATC
12 Perfect,12,TATG
45 Perfect,12,TATT
5 Perfect,12,TCAA
7 Perfect,12,TCAC
3 Perfect,12,TCAG
26 Perfect,12,TCAT
16 Perfect,12,TCCA
33 Perfect,12,TCCC
36 Perfect,12,TCCT
6 Perfect,12,TCTA
94 Perfect,12,TCTC
10 Perfect,12,TCTG
37 Perfect,12,TCTT
60 Perfect,12,TGAA
3 Perfect,12,TGAC
5 Perfect,12,TGAG
2 Perfect,12,TGAT
10 Perfect,12,TGCA
11 Perfect,12,TGCC
1 Perfect,12,TGCG
5 Perfect,12,TGCT
24 Perfect,12,TGGA
4 Perfect,12,TGGC
18 Perfect,12,TGGG
1 Perfect,12,TGGT
11 Perfect,12,TGTA
8 Perfect,12,TGTC
152 Perfect,12,TGTG
7 Perfect,12,TGTT
18 Perfect,12,TTAA
1 Perfect,12,TTAC
1 Perfect,12,TTAG
30 Perfect,12,TTAT
67 Perfect,12,TTCA
44 Perfect,12,TTCC
48 Perfect,12,TTCT
5 Perfect,12,TTGA
1 Perfect,12,TTGC
4 Perfect,12,TTGG
10 Perfect,12,TTGT
73 Perfect,12,TTTA
69 Perfect,12,TTTC
89 Perfect,12,TTTG
1126 Perfect,12,TTTT
938 Perfect,13,AAAA
33 Perfect,13,AAAC
59 Perfect,13,AAAG
73 Perfect,13,AAAT
7 Perfect,13,AACA
2 Perfect,13,AACC
1 Perfect,13,AACT
21 Perfect,13,AAGA
4 Perfect,13,AAGC
30 Perfect,13,AAGG
1 Perfect,13,AAGT
30 Perfect,13,AATA
8 Perfect,13,AATC
21 Perfect,13,AATG
2 Perfect,13,AATT
21 Perfect,13,ACAA
170 Perfect,13,ACAC
8 Perfect,13,ACAG
12 Perfect,13,ACAT
3 Perfect,13,ACCA
6 Perfect,13,ACCC
1 Perfect,13,ACCT
4 Perfect,13,ACTC
2 Perfect,13,ACTG
56 Perfect,13,AGAA
5 Perfect,13,AGAC
124 Perfect,13,AGAG
5 Perfect,13,AGAT
2 Perfect,13,AGCA
2 Perfect,13,AGCC
1 Perfect,13,AGCT
29 Perfect,13,AGGA
4 Perfect,13,AGGC
27 Perfect,13,AGGG
1 Perfect,13,AGGT
2 Perfect,13,AGTA
2 Perfect,13,AGTC
5 Perfect,13,AGTG
1 Perfect,13,AGTT
31 Perfect,13,ATAA
13 Perfect,13,ATAC
3 Perfect,13,ATAG
103 Perfect,13,ATAT
3 Perfect,13,ATCA
19 Perfect,13,ATCC
4 Perfect,13,ATCT
14 Perfect,13,ATGA
4 Perfect,13,ATGC
11 Perfect,13,ATGG
2 Perfect,13,ATGT
3 Perfect,13,ATTA
42 Perfect,13,ATTC
6 Perfect,13,ATTG
30 Perfect,13,ATTT
3 Perfect,13,CAAA
2 Perfect,13,CAAC
1 Perfect,13,CAAG
1 Perfect,13,CAAT
68 Perfect,13,CACA
5 Perfect,13,CACC
3 Perfect,13,CACG
5 Perfect,13,CACT
2 Perfect,13,CAGA
4 Perfect,13,CAGC
3 Perfect,13,CAGG
1 Perfect,13,CAGT
1 Perfect,13,CATA
14 Perfect,13,CATC
2 Perfect,13,CATG
11 Perfect,13,CATT
1 Perfect,13,CCAA
9 Perfect,13,CCAC
2 Perfect,13,CCAG
16 Perfect,13,CCAT
11 Perfect,13,CCCA
5 Perfect,13,CCCC
2 Perfect,13,CCCG
8 Perfect,13,CCCT
2 Perfect,13,CCGC
37 Perfect,13,CCTC
8 Perfect,13,CCTG
24 Perfect,13,CCTT
1 Perfect,13,CGCA
2 Perfect,13,CGCG
2 Perfect,13,CGGG
1 Perfect,13,CGTG
1 Perfect,13,CTAA
1 Perfect,13,CTAC
1 Perfect,13,CTAG
3 Perfect,13,CTCA
19 Perfect,13,CTCC
32 Perfect,13,CTCT
1 Perfect,13,CTGA
7 Perfect,13,CTGC
3 Perfect,13,CTGT
1 Perfect,13,CTTA
12 Perfect,13,CTTC
1 Perfect,13,CTTG
9 Perfect,13,CTTT
24 Perfect,13,GAAA
20 Perfect,13,GAAG
10 Perfect,13,GAAT
4 Perfect,13,GACA
31 Perfect,13,GAGA
1 Perfect,13,GAGC
10 Perfect,13,GAGG
3 Perfect,13,GAGT
1 Perfect,13,GATA
31 Perfect,13,GATG
1 Perfect,13,GATT
2 Perfect,13,GCAA
1 Perfect,13,GCAC
7 Perfect,13,GCAG
2 Perfect,13,GCAT
2 Perfect,13,GCCA
1 Perfect,13,GCCC
1 Perfect,13,GCCG
2 Perfect,13,GCCT
4 Perfect,13,GCGC
1 Perfect,13,GCTT
14 Perfect,13,GGAA
27 Perfect,13,GGAG
14 Perfect,13,GGAT
9 Perfect,13,GGCA
1 Perfect,13,GGCC
1 Perfect,13,GGCG
2 Perfect,13,GGCT
21 Perfect,13,GGGA
14 Perfect,13,GGGG
27 Perfect,13,GGGT
2 Perfect,13,GGTA
18 Perfect,13,GGTG
1 Perfect,13,GGTT
1 Perfect,13,GTAA
1 Perfect,13,GTAG
3 Perfect,13,GTAT
1 Perfect,13,GTCA
5 Perfect,13,GTCT
7 Perfect,13,GTGA
1 Perfect,13,GTGC
8 Perfect,13,GTGG
72 Perfect,13,GTGT
1 Perfect,13,GTTA
1 Perfect,13,GTTG
6 Perfect,13,GTTT
33 Perfect,13,TAAA
1 Perfect,13,TAAC
1 Perfect,13,TAAG
7 Perfect,13,TAAT
3 Perfect,13,TACA
4 Perfect,13,TAGA
2 Perfect,13,TAGC
141 Perfect,13,TATA
10 Perfect,13,TATC
12 Perfect,13,TATG
86 Perfect,13,TATT
6 Perfect,13,TCAA
7 Perfect,13,TCAC
4 Perfect,13,TCAG
23 Perfect,13,TCAT
14 Perfect,13,TCCA
32 Perfect,13,TCCC
23 Perfect,13,TCCT
2 Perfect,13,TCTA
115 Perfect,13,TCTC
1 Perfect,13,TCTG
62 Perfect,13,TCTT
44 Perfect,13,TGAA
1 Perfect,13,TGAC
4 Perfect,13,TGAG
3 Perfect,13,TGAT
2 Perfect,13,TGCA
5 Perfect,13,TGCC
4 Perfect,13,TGCT
22 Perfect,13,TGGA
1 Perfect,13,TGGC
13 Perfect,13,TGGG
1 Perfect,13,TGGT
21 Perfect,13,TGTA
12 Perfect,13,TGTC
192 Perfect,13,TGTG
53 Perfect,13,TGTT
4 Perfect,13,TTAA
28 Perfect,13,TTAT
14 Perfect,13,TTCA
30 Perfect,13,TTCC
15 Perfect,13,TTCT
1 Perfect,13,TTGA
2 Perfect,13,TTGC
2 Perfect,13,TTGG
4 Perfect,13,TTGT
47 Perfect,13,TTTA
71 Perfect,13,TTTC
23 Perfect,13,TTTG
960 Perfect,13,TTTT
851 Perfect,14,AAAA
36 Perfect,14,AAAC
31 Perfect,14,AAAG
61 Perfect,14,AAAT
19 Perfect,14,AACA
4 Perfect,14,AACC
30 Perfect,14,AAGA
3 Perfect,14,AAGC
15 Perfect,14,AAGG
1 Perfect,14,AAGT
33 Perfect,14,AATA
2 Perfect,14,AATC
15 Perfect,14,AATG
22 Perfect,14,AATT
4 Perfect,14,ACAA
52 Perfect,14,ACAC
22 Perfect,14,ACAG
1 Perfect,14,ACAT
4 Perfect,14,ACCC
5 Perfect,14,ACTC
14 Perfect,14,AGAA
3 Perfect,14,AGAC
40 Perfect,14,AGAG
1 Perfect,14,AGAT
1 Perfect,14,AGCT
15 Perfect,14,AGGA
2 Perfect,14,AGGC
16 Perfect,14,AGGG
1 Perfect,14,AGGT
1 Perfect,14,AGTC
10 Perfect,14,ATAA
8 Perfect,14,ATAC
4 Perfect,14,ATAG
71 Perfect,14,ATAT
2 Perfect,14,ATCA
11 Perfect,14,ATCC
2 Perfect,14,ATCT
16 Perfect,14,ATGA
3 Perfect,14,ATGC
16 Perfect,14,ATGG
5 Perfect,14,ATGT
1 Perfect,14,ATTA
8 Perfect,14,ATTC
2 Perfect,14,ATTG
11 Perfect,14,ATTT
1 Perfect,14,CAAA
1 Perfect,14,CAAC
1 Perfect,14,CAAG
4 Perfect,14,CAAT
64 Perfect,14,CACA
3 Perfect,14,CACC
3 Perfect,14,CACT
5 Perfect,14,CAGA
2 Perfect,14,CAGC
1 Perfect,14,CAGG
1 Perfect,14,CATA
14 Perfect,14,CATC
2 Perfect,14,CATG
27 Perfect,14,CATT
5 Perfect,14,CCAC
3 Perfect,14,CCAG
9 Perfect,14,CCAT
5 Perfect,14,CCCA
6 Perfect,14,CCCC
10 Perfect,14,CCCT
1 Perfect,14,CCGG
8 Perfect,14,CCTC
5 Perfect,14,CCTG
20 Perfect,14,CCTT
1 Perfect,14,CGCC
1 Perfect,14,CGCG
1 Perfect,14,CGCT
1 Perfect,14,CTAT
3 Perfect,14,CTCA
20 Perfect,14,CTCC
36 Perfect,14,CTCT
4 Perfect,14,CTGC
2 Perfect,14,CTGG
13 Perfect,14,CTTC
7 Perfect,14,CTTT
24 Perfect,14,GAAA
23 Perfect,14,GAAG
9 Perfect,14,GAAT
3 Perfect,14,GACA
1 Perfect,14,GACG
1 Perfect,14,GACT
49 Perfect,14,GAGA
19 Perfect,14,GAGG
1 Perfect,14,GAGT
3 Perfect,14,GATA
10 Perfect,14,GATG
1 Perfect,14,GATT
1 Perfect,14,GCAT
2 Perfect,14,GCCA
1 Perfect,14,GCCT
3 Perfect,14,GCGC
1 Perfect,14,GCGG
1 Perfect,14,GCTT
17 Perfect,14,GGAA
12 Perfect,14,GGAG
5 Perfect,14,GGAT
1 Perfect,14,GGCA
2 Perfect,14,GGCG
2 Perfect,14,GGCT
11 Perfect,14,GGGA
2 Perfect,14,GGGC
4 Perfect,14,GGGG
6 Perfect,14,GGGT
2 Perfect,14,GGTG
1 Perfect,14,GGTT
1 Perfect,14,GTAT
1 Perfect,14,GTCT
2 Perfect,14,GTGG
59 Perfect,14,GTGT
1 Perfect,14,GTTT
19 Perfect,14,TAAA
1 Perfect,14,TAAG
5 Perfect,14,TAAT
8 Perfect,14,TACA
3 Perfect,14,TACC
1 Perfect,14,TACT
3 Perfect,14,TAGA
1 Perfect,14,TAGG
82 Perfect,14,TATA
3 Perfect,14,TATC
5 Perfect,14,TATG
16 Perfect,14,TATT
1 Perfect,14,TCAA
3 Perfect,14,TCAC
11 Perfect,14,TCAT
7 Perfect,14,TCCA
27 Perfect,14,TCCC
23 Perfect,14,TCCT
3 Perfect,14,TCTA
44 Perfect,14,TCTC
3 Perfect,14,TCTG
17 Perfect,14,TCTT
24 Perfect,14,TGAA
1 Perfect,14,TGAT
3 Perfect,14,TGCA
1 Perfect,14,TGCG
3 Perfect,14,TGCT
24 Perfect,14,TGGA
3 Perfect,14,TGGG
1 Perfect,14,TGGT
4 Perfect,14,TGTA
4 Perfect,14,TGTC
71 Perfect,14,TGTG
5 Perfect,14,TGTT
18 Perfect,14,TTAA
2 Perfect,14,TTAC
59 Perfect,14,TTAT
20 Perfect,14,TTCA
32 Perfect,14,TTCC
38 Perfect,14,TTCT
3 Perfect,14,TTGA
2 Perfect,14,TTGC
3 Perfect,14,TTGG
41 Perfect,14,TTGT
37 Perfect,14,TTTA
30 Perfect,14,TTTC
25 Perfect,14,TTTG
853 Perfect,14,TTTT
695 Perfect,15,AAAA
242 Perfect,15,AAAC
176 Perfect,15,AAAG
181 Perfect,15,AAAT
2 Perfect,15,AACA
1 Perfect,15,AACC
4 Perfect,15,AAGA
2 Perfect,15,AAGC
10 Perfect,15,AAGG
1 Perfect,15,AAGT
18 Perfect,15,AATA
3 Perfect,15,AATC
13 Perfect,15,AATG
3 Perfect,15,AATT
3 Perfect,15,ACAA
87 Perfect,15,ACAC
5 Perfect,15,ACAG
6 Perfect,15,ACAT
2 Perfect,15,ACCC
2 Perfect,15,ACTC
11 Perfect,15,AGAA
4 Perfect,15,AGAC
55 Perfect,15,AGAG
3 Perfect,15,AGAT
1 Perfect,15,AGCC
10 Perfect,15,AGGA
3 Perfect,15,AGGC
22 Perfect,15,AGGG
1 Perfect,15,AGGT
1 Perfect,15,AGTC
2 Perfect,15,AGTG
1 Perfect,15,AGTT
14 Perfect,15,ATAA
19 Perfect,15,ATAC
9 Perfect,15,ATAG
64 Perfect,15,ATAT
4 Perfect,15,ATCA
15 Perfect,15,ATCC
12 Perfect,15,ATCT
7 Perfect,15,ATGA
14 Perfect,15,ATGG
6 Perfect,15,ATGT
4 Perfect,15,ATTA
15 Perfect,15,ATTC
5 Perfect,15,ATTG
17 Perfect,15,ATTT
5 Perfect,15,CAAA
6 Perfect,15,CAAC
3 Perfect,15,CAAG
36 Perfect,15,CACA
3 Perfect,15,CACG
2 Perfect,15,CACT
2 Perfect,15,CAGG
1 Perfect,15,CATA
8 Perfect,15,CATC
1 Perfect,15,CATG
6 Perfect,15,CATT
7 Perfect,15,CCAC
1 Perfect,15,CCAG
12 Perfect,15,CCAT
2 Perfect,15,CCCA
2 Perfect,15,CCCC
12 Perfect,15,CCTC
3 Perfect,15,CCTG
10 Perfect,15,CCTT
1 Perfect,15,CGCG
2 Perfect,15,CTAC
2 Perfect,15,CTAG
3 Perfect,15,CTAT
1 Perfect,15,CTCA
16 Perfect,15,CTCC
17 Perfect,15,CTCT
1 Perfect,15,CTGC
2 Perfect,15,CTGG
2 Perfect,15,CTGT
14 Perfect,15,CTTC
3 Perfect,15,CTTG
4 Perfect,15,CTTT
10 Perfect,15,GAAA
14 Perfect,15,GAAG
6 Perfect,15,GAAT
1 Perfect,15,GACG
19 Perfect,15,GAGA
13 Perfect,15,GAGG
3 Perfect,15,GAGT
5 Perfect,15,GATA
7 Perfect,15,GATG
1 Perfect,15,GATT
2 Perfect,15,GCAG
1 Perfect,15,GCCA
2 Perfect,15,GCCC
1 Perfect,15,GCCG
1 Perfect,15,GCCT
2 Perfect,15,GCTG
14 Perfect,15,GGAA
27 Perfect,15,GGAG
8 Perfect,15,GGAT
6 Perfect,15,GGGA
1 Perfect,15,GGGC
5 Perfect,15,GGGG
4 Perfect,15,GGGT
1 Perfect,15,GGTG
1 Perfect,15,GTAG
3 Perfect,15,GTCT
1 Perfect,15,GTGA
4 Perfect,15,GTGC
2 Perfect,15,GTGG
33 Perfect,15,GTGT
2 Perfect,15,GTTT
23 Perfect,15,TAAA
1 Perfect,15,TAAG
4 Perfect,15,TAAT
1 Perfect,15,TACC
1 Perfect,15,TAGA
3 Perfect,15,TAGC
1 Perfect,15,TAGG
57 Perfect,15,TATA
4 Perfect,15,TATC
12 Perfect,15,TATG
11 Perfect,15,TATT
1 Perfect,15,TCAC
2 Perfect,15,TCAG
23 Perfect,15,TCAT
10 Perfect,15,TCCA
28 Perfect,15,TCCC
1 Perfect,15,TCCG
19 Perfect,15,TCCT
2 Perfect,15,TCTA
84 Perfect,15,TCTC
9 Perfect,15,TCTG
24 Perfect,15,TCTT
22 Perfect,15,TGAA
4 Perfect,15,TGAG
3 Perfect,15,TGAT
17 Perfect,15,TGGA
1 Perfect,15,TGGC
23 Perfect,15,TGGG
5 Perfect,15,TGTA
4 Perfect,15,TGTC
107 Perfect,15,TGTG
3 Perfect,15,TGTT
2 Perfect,15,TTAA
3 Perfect,15,TTAC
1 Perfect,15,TTAG
9 Perfect,15,TTAT
11 Perfect,15,TTCA
19 Perfect,15,TTCC
11 Perfect,15,TTCT
1 Perfect,15,TTGG
7 Perfect,15,TTGT
213 Perfect,15,TTTA
151 Perfect,15,TTTC
229 Perfect,15,TTTG
774 Perfect,15,TTTT
699 Perfect,16,AAAA
11 Perfect,16,AAAC
19 Perfect,16,AAAG
33 Perfect,16,AAAT
2 Perfect,16,AACC
14 Perfect,16,AAGA
1 Perfect,16,AAGC
8 Perfect,16,AAGG
8 Perfect,16,AATA
1 Perfect,16,AATC
11 Perfect,16,AATG
10 Perfect,16,AATT
3 Perfect,16,ACAA
35 Perfect,16,ACAC
13 Perfect,16,AGAA
2 Perfect,16,AGAC
21 Perfect,16,AGAG
3 Perfect,16,AGAT
1 Perfect,16,AGCA
1 Perfect,16,AGCC
5 Perfect,16,AGGA
1 Perfect,16,AGGC
5 Perfect,16,AGGG
2 Perfect,16,AGGT
7 Perfect,16,ATAA
2 Perfect,16,ATAC
1 Perfect,16,ATAG
44 Perfect,16,ATAT
2 Perfect,16,ATCA
7 Perfect,16,ATCC
5 Perfect,16,ATCT
5 Perfect,16,ATGA
5 Perfect,16,ATGG
4 Perfect,16,ATTA
6 Perfect,16,ATTC
32 Perfect,16,ATTT
33 Perfect,16,CAAA
2 Perfect,16,CAAC
33 Perfect,16,CACA
1 Perfect,16,CATA
7 Perfect,16,CATC
3 Perfect,16,CATT
3 Perfect,16,CCAA
4 Perfect,16,CCAC
3 Perfect,16,CCAT
1 Perfect,16,CCCA
2 Perfect,16,CCCC
5 Perfect,16,CCCT
12 Perfect,16,CCTC
1 Perfect,16,CCTG
19 Perfect,16,CCTT
1 Perfect,16,CGCG
1 Perfect,16,CGTG
1 Perfect,16,CTAA
1 Perfect,16,CTAT
7 Perfect,16,CTCC
27 Perfect,16,CTCT
1 Perfect,16,CTGA
1 Perfect,16,CTGG
1 Perfect,16,CTGT
12 Perfect,16,CTTC
33 Perfect,16,CTTT
13 Perfect,16,GAAA
1 Perfect,16,GAAC
7 Perfect,16,GAAG
4 Perfect,16,GAAT
23 Perfect,16,GAGA
11 Perfect,16,GAGG
1 Perfect,16,GAGT
2 Perfect,16,GATA
10 Perfect,16,GATG
1 Perfect,16,GCAT
2 Perfect,16,GCCT
3 Perfect,16,GCGC
2 Perfect,16,GCTT
13 Perfect,16,GGAA
13 Perfect,16,GGAG
3 Perfect,16,GGAT
1 Perfect,16,GGCG
3 Perfect,16,GGGA
1 Perfect,16,GGGG
5 Perfect,16,GGTG
1 Perfect,16,GGTT
1 Perfect,16,GTAG
2 Perfect,16,GTAT
2 Perfect,16,GTCT
1 Perfect,16,GTGA
2 Perfect,16,GTGC
1 Perfect,16,GTGG
30 Perfect,16,GTGT
13 Perfect,16,GTTT
25 Perfect,16,TAAA
1 Perfect,16,TAAG
1 Perfect,16,TAAT
1 Perfect,16,TAGA
1 Perfect,16,TAGT
44 Perfect,16,TATA
2 Perfect,16,TATC
1 Perfect,16,TATG
13 Perfect,16,TATT
1 Perfect,16,TCAA
1 Perfect,16,TCAC
5 Perfect,16,TCAT
5 Perfect,16,TCCA
5 Perfect,16,TCCC
12 Perfect,16,TCCT
1 Perfect,16,TCTA
29 Perfect,16,TCTC
6 Perfect,16,TCTT
11 Perfect,16,TGAA
1 Perfect,16,TGAC
1 Perfect,16,TGAT
1 Perfect,16,TGCA
10 Perfect,16,TGGA
2 Perfect,16,TGGG
1 Perfect,16,TGTC
45 Perfect,16,TGTG
1 Perfect,16,TTAA
5 Perfect,16,TTAT
10 Perfect,16,TTCA
12 Perfect,16,TTCC
5 Perfect,16,TTCT
2 Perfect,16,TTGA
1 Perfect,16,TTGC
1 Perfect,16,TTGG
2 Perfect,16,TTGT
29 Perfect,16,TTTA
12 Perfect,16,TTTC
34 Perfect,16,TTTG
692 Perfect,16,TTTT
547 Perfect,17,AAAA
13 Perfect,17,AAAC
17 Perfect,17,AAAG
33 Perfect,17,AAAT
1 Perfect,17,AACA
1 Perfect,17,AACC
3 Perfect,17,AAGA
1 Perfect,17,AAGC
5 Perfect,17,AAGG
16 Perfect,17,AATA
3 Perfect,17,AATC
4 Perfect,17,AATG
1 Perfect,17,AATT
8 Perfect,17,ACAA
52 Perfect,17,ACAC
2 Perfect,17,ACAT
2 Perfect,17,ACTC
11 Perfect,17,AGAA
3 Perfect,17,AGAC
45 Perfect,17,AGAG
4 Perfect,17,AGAT
1 Perfect,17,AGCT
10 Perfect,17,AGGA
1 Perfect,17,AGGC
14 Perfect,17,AGGG
10 Perfect,17,ATAA
2 Perfect,17,ATAC
33 Perfect,17,ATAT
6 Perfect,17,ATCC
4 Perfect,17,ATGA
1 Perfect,17,ATGC
4 Perfect,17,ATGG
1 Perfect,17,ATGT
1 Perfect,17,ATTA
9 Perfect,17,ATTC
4 Perfect,17,ATTG
10 Perfect,17,ATTT
1 Perfect,17,CAAA
1 Perfect,17,CAAC
2 Perfect,17,CAAT
19 Perfect,17,CACA
1 Perfect,17,CACT
2 Perfect,17,CAGA
1 Perfect,17,CATA
4 Perfect,17,CATC
2 Perfect,17,CATT
1 Perfect,17,CCAA
1 Perfect,17,CCAC
2 Perfect,17,CCAT
1 Perfect,17,CCCA
2 Perfect,17,CCCC
1 Perfect,17,CCCT
13 Perfect,17,CCTC
1 Perfect,17,CCTG
10 Perfect,17,CCTT
2 Perfect,17,CTAT
5 Perfect,17,CTCC
8 Perfect,17,CTCT
1 Perfect,17,CTGC
7 Perfect,17,CTTC
3 Perfect,17,CTTT
5 Perfect,17,GAAA
14 Perfect,17,GAAG
2 Perfect,17,GAAT
15 Perfect,17,GAGA
1 Perfect,17,GAGG
1 Perfect,17,GATA
6 Perfect,17,GATG
1 Perfect,17,GCGC
1 Perfect,17,GCGG
3 Perfect,17,GGAA
10 Perfect,17,GGAG
3 Perfect,17,GGAT
1 Perfect,17,GGCA
2 Perfect,17,GGGA
1 Perfect,17,GGGT
2 Perfect,17,GGTG
16 Perfect,17,GTGT
1 Perfect,17,GTTG
2 Perfect,17,GTTT
3 Perfect,17,TAAA
2 Perfect,17,TAAT
3 Perfect,17,TACA
1 Perfect,17,TAGA
30 Perfect,17,TATA
1 Perfect,17,TATC
33 Perfect,17,TATT
2 Perfect,17,TCAA
2 Perfect,17,TCAC
6 Perfect,17,TCAT
4 Perfect,17,TCCA
15 Perfect,17,TCCC
8 Perfect,17,TCCT
45 Perfect,17,TCTC
16 Perfect,17,TCTT
7 Perfect,17,TGAA
2 Perfect,17,TGCT
13 Perfect,17,TGGA
3 Perfect,17,TGTA
5 Perfect,17,TGTC
64 Perfect,17,TGTG
15 Perfect,17,TGTT
7 Perfect,17,TTAT
3 Perfect,17,TTCA
9 Perfect,17,TTCC
5 Perfect,17,TTCT
2 Perfect,17,TTGT
14 Perfect,17,TTTA
24 Perfect,17,TTTC
6 Perfect,17,TTTG
556 Perfect,17,TTTT
397 Perfect,18,AAAA
12 Perfect,18,AAAC
9 Perfect,18,AAAG
44 Perfect,18,AAAT
4 Perfect,18,AACA
3 Perfect,18,AACC
9 Perfect,18,AAGA
9 Perfect,18,AAGG
12 Perfect,18,AATA
5 Perfect,18,AATG
6 Perfect,18,AATT
21 Perfect,18,ACAC
5 Perfect,18,ACAG
1 Perfect,18,ACCC
1 Perfect,18,ACTC
5 Perfect,18,AGAA
4 Perfect,18,AGAG
1 Perfect,18,AGGA
4 Perfect,18,AGGG
5 Perfect,18,ATAA
1 Perfect,18,ATAC
28 Perfect,18,ATAT
5 Perfect,18,ATCC
2 Perfect,18,ATGA
3 Perfect,18,ATGG
1 Perfect,18,ATGT
1 Perfect,18,ATTA
1 Perfect,18,ATTC
3 Perfect,18,ATTT
2 Perfect,18,CAAA
16 Perfect,18,CACA
1 Perfect,18,CAGG
5 Perfect,18,CATC
4 Perfect,18,CATT
1 Perfect,18,CCAC
1 Perfect,18,CCAG
2 Perfect,18,CCAT
1 Perfect,18,CCCT
1 Perfect,18,CCTC
1 Perfect,18,CCTG
7 Perfect,18,CCTT
1 Perfect,18,CGCG
7 Perfect,18,CTCC
8 Perfect,18,CTCT
1 Perfect,18,CTGT
4 Perfect,18,CTTC
8 Perfect,18,CTTT
5 Perfect,18,GAAA
8 Perfect,18,GAAG
2 Perfect,18,GAAT
1 Perfect,18,GACA
17 Perfect,18,GAGA
2 Perfect,18,GAGG
4 Perfect,18,GATG
1 Perfect,18,GCAA
1 Perfect,18,GCCC
2 Perfect,18,GCGC
8 Perfect,18,GGAA
3 Perfect,18,GGAT
3 Perfect,18,GGGA
1 Perfect,18,GGGC
23 Perfect,18,GTGT
1 Perfect,18,GTTT
12 Perfect,18,TAAA
1 Perfect,18,TAAT
2 Perfect,18,TACA
21 Perfect,18,TATA
1 Perfect,18,TATC
6 Perfect,18,TATT
3 Perfect,18,TCAT
3 Perfect,18,TCCA
5 Perfect,18,TCCC
8 Perfect,18,TCCT
1 Perfect,18,TCTA
16 Perfect,18,TCTC
1 Perfect,18,TCTG
9 Perfect,18,TCTT
6 Perfect,18,TGAA
3 Perfect,18,TGAG
1 Perfect,18,TGAT
1 Perfect,18,TGCT
11 Perfect,18,TGGA
12 Perfect,18,TGTG
7 Perfect,18,TGTT
7 Perfect,18,TTAA
35 Perfect,18,TTAT
6 Perfect,18,TTCA
14 Perfect,18,TTCC
10 Perfect,18,TTCT
1 Perfect,18,TTGA
1 Perfect,18,TTGC
1 Perfect,18,TTGG
16 Perfect,18,TTGT
19 Perfect,18,TTTA
6 Perfect,18,TTTC
14 Perfect,18,TTTG
431 Perfect,18,TTTT
373 Perfect,19,AAAA
116 Perfect,19,AAAC
74 Perfect,19,AAAG
97 Perfect,19,AAAT
1 Perfect,19,AACA
2 Perfect,19,AAGA
1 Perfect,19,AAGC
3 Perfect,19,AAGG
7 Perfect,19,AATA
1 Perfect,19,AATC
4 Perfect,19,AATG
2 Perfect,19,ACAA
42 Perfect,19,ACAC
2 Perfect,19,ACAG
2 Perfect,19,ACAT
1 Perfect,19,ACTA
6 Perfect,19,AGAA
1 Perfect,19,AGAC
20 Perfect,19,AGAG
3 Perfect,19,AGGA
10 Perfect,19,AGGG
3 Perfect,19,ATAA
1 Perfect,19,ATAC
3 Perfect,19,ATAG
17 Perfect,19,ATAT
4 Perfect,19,ATCC
1 Perfect,19,ATCT
4 Perfect,19,ATGA
5 Perfect,19,ATGT
1 Perfect,19,ATTA
3 Perfect,19,ATTC
1 Perfect,19,ATTG
4 Perfect,19,ATTT
2 Perfect,19,CAAA
2 Perfect,19,CAAC
1 Perfect,19,CAAG
15 Perfect,19,CACA
1 Perfect,19,CACG
1 Perfect,19,CAGT
3 Perfect,19,CATC
1 Perfect,19,CATT
2 Perfect,19,CCAC
4 Perfect,19,CCAT
1 Perfect,19,CCCG
6 Perfect,19,CCTC
6 Perfect,19,CCTT
1 Perfect,19,CGCC
2 Perfect,19,CTAC
1 Perfect,19,CTAT
2 Perfect,19,CTCC
7 Perfect,19,CTCT
2 Perfect,19,CTTC
2 Perfect,19,CTTG
3 Perfect,19,GAAA
14 Perfect,19,GAAG
2 Perfect,19,GAAT
12 Perfect,19,GAGA
6 Perfect,19,GAGG
1 Perfect,19,GAGT
3 Perfect,19,GATA
3 Perfect,19,GATG
1 Perfect,19,GCGC
8 Perfect,19,GGAA
4 Perfect,19,GGAG
4 Perfect,19,GGAT
2 Perfect,19,GGGA
2 Perfect,19,GGGG
1 Perfect,19,GGGT
1 Perfect,19,GGTG
1 Perfect,19,GTAT
1 Perfect,19,GTCC
1 Perfect,19,GTGA
1 Perfect,19,GTGC
1 Perfect,19,GTGG
21 Perfect,19,GTGT
1 Perfect,19,GTTG
1 Perfect,19,GTTT
9 Perfect,19,TAAA
1 Perfect,19,TAAT
1 Perfect,19,TAGG
24 Perfect,19,TATA
1 Perfect,19,TATG
4 Perfect,19,TATT
1 Perfect,19,TCAG
3 Perfect,19,TCAT
1 Perfect,19,TCCA
9 Perfect,19,TCCC
2 Perfect,19,TCCG
4 Perfect,19,TCCT
3 Perfect,19,TCTA
28 Perfect,19,TCTC
3 Perfect,19,TCTG
4 Perfect,19,TCTT
8 Perfect,19,TGAA
1 Perfect,19,TGAC
3 Perfect,19,TGAG
1 Perfect,19,TGAT
7 Perfect,19,TGGA
5 Perfect,19,TGGG
1 Perfect,19,TGTA
38 Perfect,19,TGTG
2 Perfect,19,TTAA
1 Perfect,19,TTAC
5 Perfect,19,TTAT
1 Perfect,19,TTCA
20 Perfect,19,TTCC
1 Perfect,19,TTGC
1 Perfect,19,TTGT
107 Perfect,19,TTTA
61 Perfect,19,TTTC
113 Perfect,19,TTTG
407 Perfect,19,TTTT
340 Perfect,20,AAAA
10 Perfect,20,AAAC
7 Perfect,20,AAAG
17 Perfect,20,AAAT
3 Perfect,20,AACA
3 Perfect,20,AAGA
6 Perfect,20,AAGG
2 Perfect,20,AATA
1 Perfect,20,ACAA
26 Perfect,20,ACAC
5 Perfect,20,AGGA
2 Perfect,20,AGGG
2 Perfect,20,ATAA
1 Perfect,20,ATAC
21 Perfect,20,ATAT
3 Perfect,20,ATCC
5 Perfect,20,ATGA
1 Perfect,20,ATGG
1 Perfect,20,ATTC
12 Perfect,20,ATTT
13 Perfect,20,CAAA
1 Perfect,20,CAAC
12 Perfect,20,CACA
2 Perfect,20,CATT
1 Perfect,20,CCAT
1 Perfect,20,CCCA
1 Perfect,20,CCCC
3 Perfect,20,CCCT
7 Perfect,20,CCTC
2 Perfect,20,CCTT
2 Perfect,20,CTCC
3 Perfect,20,CTCT
2 Perfect,20,CTTC
9 Perfect,20,CTTT
5 Perfect,20,GAAA
1 Perfect,20,GAAG
1 Perfect,20,GAAT
16 Perfect,20,GAGA
1 Perfect,20,GAGG
8 Perfect,20,GATG
1 Perfect,20,GCTT
3 Perfect,20,GGAA
1 Perfect,20,GGAT
1 Perfect,20,GGGT
1 Perfect,20,GGTT
1 Perfect,20,GTAT
25 Perfect,20,GTGT
5 Perfect,20,GTTT
13 Perfect,20,TAAA
1 Perfect,20,TAGA
16 Perfect,20,TATA
1 Perfect,20,TATC
6 Perfect,20,TATT
1 Perfect,20,TCCA
1 Perfect,20,TCTA
14 Perfect,20,TCTC
3 Perfect,20,TCTT
1 Perfect,20,TGAA
1 Perfect,20,TGCT
2 Perfect,20,TGGA
1 Perfect,20,TGTC
14 Perfect,20,TGTG
1 Perfect,20,TGTT
1 Perfect,20,TTAA
6 Perfect,20,TTAT
3 Perfect,20,TTCA
7 Perfect,20,TTCC
1 Perfect,20,TTCT
2 Perfect,20,TTGA
1 Perfect,20,TTGT
9 Perfect,20,TTTA
7 Perfect,20,TTTC
13 Perfect,20,TTTG
335 Perfect,20,TTTT
269 Perfect,21,AAAA
6 Perfect,21,AAAC
9 Perfect,21,AAAG
15 Perfect,21,AAAT
1 Perfect,21,AAGA
6 Perfect,21,AAGG
4 Perfect,21,AATA
1 Perfect,21,AATG
1 Perfect,21,ACAA
19 Perfect,21,ACAC
2 Perfect,21,ACAG
1 Perfect,21,AGAA
19 Perfect,21,AGAG
1 Perfect,21,AGAT
6 Perfect,21,AGGA
10 Perfect,21,AGGG
2 Perfect,21,ATAA
2 Perfect,21,ATAC
11 Perfect,21,ATAT
5 Perfect,21,ATCC
1 Perfect,21,ATCT
3 Perfect,21,ATGG
3 Perfect,21,ATTC
1 Perfect,21,ATTG
6 Perfect,21,ATTT
1 Perfect,21,CAAA
7 Perfect,21,CACA
2 Perfect,21,CATT
3 Perfect,21,CCAT
2 Perfect,21,CCTC
3 Perfect,21,CCTT
3 Perfect,21,CTCT
1 Perfect,21,CTTT
3 Perfect,21,GAAG
1 Perfect,21,GAAT
2 Perfect,21,GAGA
1 Perfect,21,GATG
1 Perfect,21,GCGG
2 Perfect,21,GGAA
4 Perfect,21,GGAG
5 Perfect,21,GGAT
1 Perfect,21,GGTG
1 Perfect,21,GTCC
14 Perfect,21,GTGT
6 Perfect,21,TAAA
1 Perfect,21,TAAT
1 Perfect,21,TACA
17 Perfect,21,TATA
1 Perfect,21,TATG
14 Perfect,21,TATT
1 Perfect,21,TCAA
3 Perfect,21,TCAT
1 Perfect,21,TCCA
6 Perfect,21,TCCC
5 Perfect,21,TCCT
11 Perfect,21,TCTC
7 Perfect,21,TCTT
3 Perfect,21,TGAA
1 Perfect,21,TGAT
1 Perfect,21,TGCC
3 Perfect,21,TGGA
1 Perfect,21,TGTA
1 Perfect,21,TGTC
36 Perfect,21,TGTG
12 Perfect,21,TGTT
6 Perfect,21,TTAT
3 Perfect,21,TTCC
1 Perfect,21,TTCT
1 Perfect,21,TTGT
4 Perfect,21,TTTA
4 Perfect,21,TTTC
4 Perfect,21,TTTG
291 Perfect,21,TTTT
264 Perfect,22,AAAA
4 Perfect,22,AAAC
3 Perfect,22,AAAG
27 Perfect,22,AAAT
4 Perfect,22,AACA
3 Perfect,22,AAGA
5 Perfect,22,AAGG
11 Perfect,22,AATA
1 Perfect,22,AATC
1 Perfect,22,AATG
3 Perfect,22,AATT
19 Perfect,22,ACAC
3 Perfect,22,ACAG
1 Perfect,22,ACCT
2 Perfect,22,AGAC
5 Perfect,22,AGAG
1 Perfect,22,AGAT
1 Perfect,22,AGGG
1 Perfect,22,ATAA
15 Perfect,22,ATAT
1 Perfect,22,ATCA
1 Perfect,22,ATCC
1 Perfect,22,ATGA
4 Perfect,22,ATGG
1 Perfect,22,ATGT
12 Perfect,22,CACA
1 Perfect,22,CACT
2 Perfect,22,CATC
4 Perfect,22,CATT
1 Perfect,22,CCAT
6 Perfect,22,CTCT
4 Perfect,22,CTTC
1 Perfect,22,CTTT
1 Perfect,22,GAAA
3 Perfect,22,GAAG
6 Perfect,22,GAGA
2 Perfect,22,GAGG
4 Perfect,22,GATG
2 Perfect,22,GGAA
3 Perfect,22,GGAG
1 Perfect,22,GGAT
19 Perfect,22,GTGT
4 Perfect,22,TAAA
1 Perfect,22,TACA
9 Perfect,22,TATA
1 Perfect,22,TATC
1 Perfect,22,TATG
5 Perfect,22,TATT
2 Perfect,22,TCAA
1 Perfect,22,TCAT
2 Perfect,22,TCCC
1 Perfect,22,TCCT
2 Perfect,22,TCTA
7 Perfect,22,TCTC
3 Perfect,22,TCTT
1 Perfect,22,TGAA
6 Perfect,22,TGGA
9 Perfect,22,TGTG
2 Perfect,22,TGTT
2 Perfect,22,TTAA
14 Perfect,22,TTAT
1 Perfect,22,TTCA
5 Perfect,22,TTCC
4 Perfect,22,TTCT
1 Perfect,22,TTGG
8 Perfect,22,TTGT
11 Perfect,22,TTTA
2 Perfect,22,TTTC
5 Perfect,22,TTTG
285 Perfect,22,TTTT
231 Perfect,23,AAAA
47 Perfect,23,AAAC
30 Perfect,23,AAAG
41 Perfect,23,AAAT
1 Perfect,23,AAGG
1 Perfect,23,AATG
23 Perfect,23,ACAC
3 Perfect,23,AGAA
5 Perfect,23,AGAG
3 Perfect,23,AGGA
4 Perfect,23,AGGG
2 Perfect,23,ATAA
2 Perfect,23,ATAC
7 Perfect,23,ATAT
2 Perfect,23,ATCC
1 Perfect,23,ATCT
2 Perfect,23,ATGA
2 Perfect,23,ATGG
4 Perfect,23,ATGT
3 Perfect,23,ATTC
2 Perfect,23,ATTT
2 Perfect,23,CAAA
1 Perfect,23,CAAT
4 Perfect,23,CACA
3 Perfect,23,CATC
1 Perfect,23,CATG
1 Perfect,23,CATT
1 Perfect,23,CCAA
3 Perfect,23,CCAT
1 Perfect,23,CCCC
4 Perfect,23,CCTC
2 Perfect,23,CCTT
2 Perfect,23,CTCC
2 Perfect,23,CTCT
1 Perfect,23,CTGC
1 Perfect,23,CTGG
1 Perfect,23,CTTC
2 Perfect,23,CTTT
2 Perfect,23,GAAG
2 Perfect,23,GAGA
2 Perfect,23,GATA
1 Perfect,23,GATG
2 Perfect,23,GGAA
2 Perfect,23,GGAG
2 Perfect,23,GGAT
1 Perfect,23,GGGA
1 Perfect,23,GTGG
7 Perfect,23,GTGT
1 Perfect,23,GTTT
7 Perfect,23,TAAA
1 Perfect,23,TAAT
1 Perfect,23,TAGA
1 Perfect,23,TAGG
15 Perfect,23,TATA
3 Perfect,23,TATG
2 Perfect,23,TCAA
5 Perfect,23,TCAT
4 Perfect,23,TCCA
2 Perfect,23,TCCC
5 Perfect,23,TCCT
1 Perfect,23,TCTA
9 Perfect,23,TCTC
2 Perfect,23,TCTG
1 Perfect,23,TGAA
1 Perfect,23,TGAT
6 Perfect,23,TGGA
4 Perfect,23,TGGG
21 Perfect,23,TGTG
1 Perfect,23,TTAA
1 Perfect,23,TTAT
2 Perfect,23,TTCA
5 Perfect,23,TTCC
2 Perfect,23,TTCT
3 Perfect,23,TTGT
34 Perfect,23,TTTA
28 Perfect,23,TTTC
64 Perfect,23,TTTG
224 Perfect,23,TTTT
184 Perfect,24,AAAA
3 Perfect,24,AAAG
6 Perfect,24,AAAT
1 Perfect,24,AAGA
1 Perfect,24,AATA
2 Perfect,24,AATG
1 Perfect,24,AATT
11 Perfect,24,ACAC
3 Perfect,24,AGAG
1 Perfect,24,AGGA
1 Perfect,24,AGGG
2 Perfect,24,ATAA
11 Perfect,24,ATAT
1 Perfect,24,ATGG
1 Perfect,24,ATTC
7 Perfect,24,ATTT
6 Perfect,24,CAAA
7 Perfect,24,CACA
3 Perfect,24,CATC
1 Perfect,24,CATT
3 Perfect,24,CCCT
1 Perfect,24,CCGC
2 Perfect,24,CCTC
1 Perfect,24,CCTT
2 Perfect,24,CTCC
4 Perfect,24,CTCT
2 Perfect,24,CTTC
3 Perfect,24,CTTT
1 Perfect,24,GAAG
3 Perfect,24,GAGA
1 Perfect,24,GCCT
2 Perfect,24,GGAG
2 Perfect,24,GGAT
1 Perfect,24,GGGA
1 Perfect,24,GTAT
19 Perfect,24,GTGT
4 Perfect,24,GTTT
2 Perfect,24,TAAA
1 Perfect,24,TAGA
5 Perfect,24,TATA
1 Perfect,24,TATC
3 Perfect,24,TATT
1 Perfect,24,TCAA
2 Perfect,24,TCAT
2 Perfect,24,TCCA
2 Perfect,24,TCCT
3 Perfect,24,TCTC
2 Perfect,24,TCTT
3 Perfect,24,TGGA
14 Perfect,24,TGTG
1 Perfect,24,TTAT
3 Perfect,24,TTCA
3 Perfect,24,TTCC
2 Perfect,24,TTCT
3 Perfect,24,TTTA
2 Perfect,24,TTTC
8 Perfect,24,TTTG
191 Perfect,24,TTTT
139 Perfect,25,AAAA
3 Perfect,25,AAAC
4 Perfect,25,AAAG
7 Perfect,25,AAAT
1 Perfect,25,AACA
1 Perfect,25,AACC
1 Perfect,25,AAGA
1 Perfect,25,AAGG
1 Perfect,25,AATA
1 Perfect,25,ACAA
25 Perfect,25,ACAC
2 Perfect,25,AGAA
2 Perfect,25,AGAC
6 Perfect,25,AGAG
3 Perfect,25,AGGA
2 Perfect,25,AGGG
6 Perfect,25,ATAA
1 Perfect,25,ATAG
5 Perfect,25,ATAT
2 Perfect,25,ATCC
1 Perfect,25,ATGG
1 Perfect,25,ATTA
1 Perfect,25,ATTG
5 Perfect,25,ATTT
1 Perfect,25,CAAA
12 Perfect,25,CACA
3 Perfect,25,CATC
2 Perfect,25,CATT
1 Perfect,25,CTCT
1 Perfect,25,CTTC
1 Perfect,25,CTTT
1 Perfect,25,GAAA
1 Perfect,25,GAAG
3 Perfect,25,GAGA
1 Perfect,25,GAGG
2 Perfect,25,GATG
1 Perfect,25,GGAG
2 Perfect,25,GGAT
1 Perfect,25,GGGA
11 Perfect,25,GTGT
1 Perfect,25,GTTT
14 Perfect,25,TATA
7 Perfect,25,TATT
1 Perfect,25,TCCC
1 Perfect,25,TCCT
5 Perfect,25,TCTC
2 Perfect,25,TCTT
2 Perfect,25,TGAA
2 Perfect,25,TGGA
1 Perfect,25,TGTC
25 Perfect,25,TGTG
3 Perfect,25,TGTT
1 Perfect,25,TTAT
1 Perfect,25,TTCA
1 Perfect,25,TTCC
1 Perfect,25,TTTA
5 Perfect,25,TTTC
1 Perfect,25,TTTG
167 Perfect,25,TTTT
108 Perfect,26,AAAA
1 Perfect,26,AAAC
1 Perfect,26,AAAG
9 Perfect,26,AAAT
2 Perfect,26,AACA
3 Perfect,26,AAGG
3 Perfect,26,AATA
1 Perfect,26,AATG
15 Perfect,26,ACAC
2 Perfect,26,ACAG
1 Perfect,26,AGAA
2 Perfect,26,AGAG
2 Perfect,26,AGGA
1 Perfect,26,AGGC
1 Perfect,26,AGTA
2 Perfect,26,ATAA
1 Perfect,26,ATAC
12 Perfect,26,ATAT
1 Perfect,26,ATCC
1 Perfect,26,ATGA
3 Perfect,26,ATGG
1 Perfect,26,CAAA
7 Perfect,26,CACA
3 Perfect,26,CATT
4 Perfect,26,CTCT
1 Perfect,26,CTGC
1 Perfect,26,CTTC
2 Perfect,26,CTTT
1 Perfect,26,GAAG
2 Perfect,26,GAAT
2 Perfect,26,GAGA
1 Perfect,26,GAGT
3 Perfect,26,GATG
1 Perfect,26,GGAA
14 Perfect,26,GTGT
2 Perfect,26,TAAA
1 Perfect,26,TAGA
5 Perfect,26,TATA
5 Perfect,26,TATT
1 Perfect,26,TCAT
2 Perfect,26,TCCA
1 Perfect,26,TCTA
7 Perfect,26,TCTC
1 Perfect,26,TGAA
4 Perfect,26,TGGA
13 Perfect,26,TGTG
2 Perfect,26,TGTT
7 Perfect,26,TTAT
2 Perfect,26,TTCC
3 Perfect,26,TTCT
2 Perfect,26,TTGA
6 Perfect,26,TTGT
2 Perfect,26,TTTA
2 Perfect,26,TTTG
159 Perfect,26,TTTT
74 Perfect,27,AAAA
17 Perfect,27,AAAC
6 Perfect,27,AAAG
21 Perfect,27,AAAT
1 Perfect,27,AAGG
1 Perfect,27,AATA
2 Perfect,27,AATT
24 Perfect,27,ACAC
3 Perfect,27,AGAA
1 Perfect,27,AGAC
4 Perfect,27,AGAG
2 Perfect,27,AGGG
2 Perfect,27,ATAC
2 Perfect,27,ATAG
2 Perfect,27,ATAT
2 Perfect,27,ATGA
1 Perfect,27,ATTC
1 Perfect,27,ATTT
2 Perfect,27,CAAA
1 Perfect,27,CAAG
3 Perfect,27,CACA
2 Perfect,27,CATT
1 Perfect,27,CCAC
6 Perfect,27,CCTC
1 Perfect,27,CCTT
2 Perfect,27,CTCT
1 Perfect,27,CTTC
1 Perfect,27,CTTT
3 Perfect,27,GAAG
3 Perfect,27,GAGA
1 Perfect,27,GATA
3 Perfect,27,GATG
1 Perfect,27,GGAG
11 Perfect,27,GTGT
6 Perfect,27,TATA
1 Perfect,27,TATC
1 Perfect,27,TATT
3 Perfect,27,TCAT
1 Perfect,27,TCCA
1 Perfect,27,TCCC
2 Perfect,27,TCTC
3 Perfect,27,TCTG
1 Perfect,27,TCTT
1 Perfect,27,TGAA
1 Perfect,27,TGCG
25 Perfect,27,TGTG
1 Perfect,27,TTAA
2 Perfect,27,TTAT
2 Perfect,27,TTCC
18 Perfect,27,TTTA
6 Perfect,27,TTTC
26 Perfect,27,TTTG
89 Perfect,27,TTTT
56 Perfect,28,AAAA
3 Perfect,28,AAAC
2 Perfect,28,AAAG
3 Perfect,28,AAAT
1 Perfect,28,AAGA
1 Perfect,28,AAGG
17 Perfect,28,ACAC
1 Perfect,28,ACAT
4 Perfect,28,AGAG
1 Perfect,28,ATAA
8 Perfect,28,ATAT
2 Perfect,28,ATTC
3 Perfect,28,ATTT
5 Perfect,28,CAAA
12 Perfect,28,CACA
1 Perfect,28,CATA
1 Perfect,28,CCAT
1 Perfect,28,CCCT
1 Perfect,28,CCTT
1 Perfect,28,CTTT
2 Perfect,28,GAGA
1 Perfect,28,GAGG
1 Perfect,28,GGAA
1 Perfect,28,GTAG
16 Perfect,28,GTGT
5 Perfect,28,GTTT
3 Perfect,28,TAAA
6 Perfect,28,TATA
1 Perfect,28,TATT
1 Perfect,28,TCCA
1 Perfect,28,TCCT
1 Perfect,28,TCTA
3 Perfect,28,TCTC
12 Perfect,28,TGTG
1 Perfect,28,TTAT
1 Perfect,28,TTCA
1 Perfect,28,TTCC
2 Perfect,28,TTCT
1 Perfect,28,TTGT
2 Perfect,28,TTTA
1 Perfect,28,TTTC
3 Perfect,28,TTTG
69 Perfect,28,TTTT
49 Perfect,29,AAAA
2 Perfect,29,AAAC
4 Perfect,29,AAAT
1 Perfect,29,AAGA
2 Perfect,29,AAGG
2 Perfect,29,AATA
3 Perfect,29,AATC
25 Perfect,29,ACAC
1 Perfect,29,ACAT
1 Perfect,29,AGAA
5 Perfect,29,AGAG
3 Perfect,29,ATAT
1 Perfect,29,ATCT
1 Perfect,29,ATGA
1 Perfect,29,ATTC
1 Perfect,29,ATTG
2 Perfect,29,CAAA
5 Perfect,29,CACA
1 Perfect,29,CATT
3 Perfect,29,CCTT
2 Perfect,29,CTTC
1 Perfect,29,GAAA
1 Perfect,29,GAAG
1 Perfect,29,GGAA
1 Perfect,29,GGAT
1 Perfect,29,GTAT
6 Perfect,29,GTGT
2 Perfect,29,GTTT
1 Perfect,29,TAAA
1 Perfect,29,TAGA
7 Perfect,29,TATA
4 Perfect,29,TATT
1 Perfect,29,TCCA
3 Perfect,29,TCCC
2 Perfect,29,TCTC
4 Perfect,29,TGGA
26 Perfect,29,TGTG
4 Perfect,29,TGTT
3 Perfect,29,TTAT
2 Perfect,29,TTTC
2 Perfect,29,TTTG
55 Perfect,29,TTTT
39 Perfect,30,AAAA
3 Perfect,30,AAAC
1 Perfect,30,AAAG
4 Perfect,30,AAAT
1 Perfect,30,AACA
2 Perfect,30,AAGG
1 Perfect,30,AATA
1 Perfect,30,AATG
1 Perfect,30,AATT
20 Perfect,30,ACAC
1 Perfect,30,ACAG
3 Perfect,30,AGAG
1 Perfect,30,ATAA
8 Perfect,30,ATAT
1 Perfect,30,ATCC
1 Perfect,30,ATCT
1 Perfect,30,ATGG
11 Perfect,30,CACA
1 Perfect,30,CATC
1 Perfect,30,CCAT
4 Perfect,30,CTCT
1 Perfect,30,GAGA
1 Perfect,30,GGAT
18 Perfect,30,GTGT
1 Perfect,30,TAAA
7 Perfect,30,TATA
2 Perfect,30,TCCT
4 Perfect,30,TCTC
1 Perfect,30,TCTT
1 Perfect,30,TGGA
4 Perfect,30,TGTG
1 Perfect,30,TGTT
1 Perfect,30,TTAA
3 Perfect,30,TTAT
2 Perfect,30,TTCA
1 Perfect,30,TTCC
1 Perfect,30,TTCT
1 Perfect,30,TTGT
2 Perfect,30,TTTA
40 Perfect,30,TTTT
27 Perfect,31,AAAA
9 Perfect,31,AAAC
2 Perfect,31,AAAG
8 Perfect,31,AAAT
2 Perfect,31,AAGG
1 Perfect,31,AATA
24 Perfect,31,ACAC
1 Perfect,31,AGAG
5 Perfect,31,ATAT
1 Perfect,31,ATGA
1 Perfect,31,ATGG
1 Perfect,31,ATTC
4 Perfect,31,CACA
2 Perfect,31,CATC
1 Perfect,31,CCAT
1 Perfect,31,CTAC
2 Perfect,31,GAGA
1 Perfect,31,GATA
1 Perfect,31,GGGA
7 Perfect,31,GTGT
1 Perfect,31,TAAA
10 Perfect,31,TATA
1 Perfect,31,TATT
1 Perfect,31,TCAT
3 Perfect,31,TCCA
4 Perfect,31,TCTC
1 Perfect,31,TCTG
2 Perfect,31,TGAA
1 Perfect,31,TGAC
4 Perfect,31,TGGA
1 Perfect,31,TGGG
26 Perfect,31,TGTG
11 Perfect,31,TTTA
1 Perfect,31,TTTC
10 Perfect,31,TTTG
39 Perfect,31,TTTT
27 Perfect,32,AAAA
1 Perfect,32,AAAC
1 Perfect,32,AAAG
1 Perfect,32,AAGA
1 Perfect,32,AAGG
2 Perfect,32,AATA
1 Perfect,32,AATG
12 Perfect,32,ACAC
3 Perfect,32,AGAG
7 Perfect,32,ATAT
1 Perfect,32,ATGT
1 Perfect,32,ATTG
2 Perfect,32,ATTT
2 Perfect,32,CAAA
6 Perfect,32,CACA
1 Perfect,32,CATC
1 Perfect,32,CCTT
1 Perfect,32,CTCT
5 Perfect,32,GAGA
2 Perfect,32,GAGG
1 Perfect,32,GATG
1 Perfect,32,GGAT
20 Perfect,32,GTGT
1 Perfect,32,TAAA
3 Perfect,32,TATA
1 Perfect,32,TCTC
1 Perfect,32,TCTT
1 Perfect,32,TGAA
18 Perfect,32,TGTG
1 Perfect,32,TTGG
1 Perfect,32,TTTG
19 Perfect,32,TTTT
12 Perfect,33,AAAA
3 Perfect,33,AAAC
3 Perfect,33,AAAT
1 Perfect,33,AAGG
13 Perfect,33,ACAC
2 Perfect,33,AGAG
1 Perfect,33,AGGC
1 Perfect,33,ATAA
4 Perfect,33,ATAT
1 Perfect,33,ATCC
1 Perfect,33,ATTC
1 Perfect,33,ATTT
4 Perfect,33,CACA
1 Perfect,33,CCAT
1 Perfect,33,CCTT
1 Perfect,33,GATG
10 Perfect,33,GTGT
7 Perfect,33,TATA
4 Perfect,33,TATT
5 Perfect,33,TCTC
1 Perfect,33,TGGA
16 Perfect,33,TGTG
1 Perfect,33,TGTT
1 Perfect,33,TTTA
1 Perfect,33,TTTC
15 Perfect,33,TTTT
6 Perfect,34,AAAA
1 Perfect,34,AAAC
1 Perfect,34,AAAT
2 Perfect,34,AAGG
3 Perfect,34,AATA
21 Perfect,34,ACAC
2 Perfect,34,AGAG
1 Perfect,34,AGAT
1 Perfect,34,AGGG
1 Perfect,34,ATAA
4 Perfect,34,ATAT
1 Perfect,34,ATGG
1 Perfect,34,ATTC
7 Perfect,34,CACA
1 Perfect,34,CCAT
2 Perfect,34,GAGA
1 Perfect,34,GATA
2 Perfect,34,GATG
12 Perfect,34,GTGT
1 Perfect,34,TAAA
2 Perfect,34,TATA
1 Perfect,34,TCTC
1 Perfect,34,TCTT
8 Perfect,34,TGTG
2 Perfect,34,TTAT
2 Perfect,34,TTCC
1 Perfect,34,TTGT
2 Perfect,34,TTTA
15 Perfect,34,TTTT
8 Perfect,35,AAAA
4 Perfect,35,AAAC
1 Perfect,35,AAAG
10 Perfect,35,AAAT
20 Perfect,35,ACAC
1 Perfect,35,ACAT
2 Perfect,35,AGAG
1 Perfect,35,AGGC
2 Perfect,35,ATAT
1 Perfect,35,ATGG
1 Perfect,35,ATTT
4 Perfect,35,CACA
1 Perfect,35,CATT
2 Perfect,35,CCAT
3 Perfect,35,CCTC
2 Perfect,35,CTTC
1 Perfect,35,GAGA
1 Perfect,35,GGAA
7 Perfect,35,GTGT
1 Perfect,35,TAAA
2 Perfect,35,TATA
1 Perfect,35,TATC
1 Perfect,35,TCAT
1 Perfect,35,TCTC
1 Perfect,35,TCTG
1 Perfect,35,TCTT
1 Perfect,35,TGAA
1 Perfect,35,TGTA
23 Perfect,35,TGTG
1 Perfect,35,TTCC
3 Perfect,35,TTTA
1 Perfect,35,TTTG
6 Perfect,35,TTTT
4 Perfect,36,AAAA
2 Perfect,36,AAAT
2 Perfect,36,ACAC
3 Perfect,36,AGAG
1 Perfect,36,AGGG
1 Perfect,36,ATAG
4 Perfect,36,ATAT
1 Perfect,36,ATGG
2 Perfect,36,ATTT
1 Perfect,36,CAAA
7 Perfect,36,CACA
1 Perfect,36,CATC
1 Perfect,36,CTCT
1 Perfect,36,CTTC
24 Perfect,36,GTGT
1 Perfect,36,TAAA
1 Perfect,36,TATA
1 Perfect,36,TATC
2 Perfect,36,TCAT
6 Perfect,36,TGTG
1 Perfect,36,TGTT
1 Perfect,36,TTAT
1 Perfect,36,TTGT
1 Perfect,36,TTTA
1 Perfect,36,TTTG
5 Perfect,36,TTTT
8 Perfect,37,AAAA
2 Perfect,37,AAAT
1 Perfect,37,AAGA
24 Perfect,37,ACAC
1 Perfect,37,ACAT
2 Perfect,37,AGAG
1 Perfect,37,ATAA
5 Perfect,37,ATAT
1 Perfect,37,ATGA
1 Perfect,37,ATTC
8 Perfect,37,CACA
1 Perfect,37,CTCT
2 Perfect,37,GAGA
1 Perfect,37,GATG
1 Perfect,37,GGAT
7 Perfect,37,GTGT
1 Perfect,37,TAAA
1 Perfect,37,TATA
1 Perfect,37,TCCT
4 Perfect,37,TCTC
1 Perfect,37,TCTT
2 Perfect,37,TGGA
1 Perfect,37,TGTA
24 Perfect,37,TGTG
1 Perfect,37,TTAT
2 Perfect,37,TTCC
9 Perfect,37,TTTT
6 Perfect,38,AAAA
1 Perfect,38,AAAT
1 Perfect,38,AATA
12 Perfect,38,ACAC
1 Perfect,38,ATCC
9 Perfect,38,CACA
5 Perfect,38,CTCT
1 Perfect,38,GAGA
1 Perfect,38,GATA
2 Perfect,38,GATG
1 Perfect,38,GGAT
16 Perfect,38,GTGT
5 Perfect,38,TATA
2 Perfect,38,TCCA
2 Perfect,38,TCTA
1 Perfect,38,TCTC
6 Perfect,38,TGTG
3 Perfect,38,TTAT
1 Perfect,38,TTTA
7 Perfect,38,TTTT
6 Perfect,39,AAAA
2 Perfect,39,AAAC
6 Perfect,39,AAAT
17 Perfect,39,ACAC
1 Perfect,39,AGAC
1 Perfect,39,AGAG
1 Perfect,39,AGGG
3 Perfect,39,ATAT
1 Perfect,39,ATCT
1 Perfect,39,ATTT
4 Perfect,39,CACA
1 Perfect,39,CATC
1 Perfect,39,CCAT
1 Perfect,39,CCTT
1 Perfect,39,CTCT
2 Perfect,39,CTTC
1 Perfect,39,GAAT
1 Perfect,39,GAGA
1 Perfect,39,GATA
2 Perfect,39,GGAG
6 Perfect,39,GTGT
1 Perfect,39,TAAA
5 Perfect,39,TATA
1 Perfect,39,TATC
1 Perfect,39,TCAA
1 Perfect,39,TCCA
1 Perfect,39,TCTA
1 Perfect,39,TCTC
1 Perfect,39,TGGA
1 Perfect,39,TGTA
17 Perfect,39,TGTG
1 Perfect,39,TTCC
8 Perfect,39,TTTA
2 Perfect,39,TTTG
6 Perfect,39,TTTT
3 Perfect,40,AAAA
3 Perfect,40,AAAT
1 Perfect,40,AATA
16 Perfect,40,ACAC
1 Perfect,40,AGAT
4 Perfect,40,ATAT
2 Perfect,40,ATGG
1 Perfect,40,ATTT
3 Perfect,40,CACA
1 Perfect,40,CCAT
1 Perfect,40,CTAT
1 Perfect,40,CTCC
2 Perfect,40,CTTC
1 Perfect,40,GAGG
2 Perfect,40,GATA
1 Perfect,40,GGAA
15 Perfect,40,GTGT
4 Perfect,40,TATA
1 Perfect,40,TCCA
2 Perfect,40,TGGA
3 Perfect,40,TGTG
1 Perfect,40,TTAT
2 Perfect,40,TTTA
6 Perfect,40,TTTT
3 Perfect,41,AAAA
2 Perfect,41,AATA
20 Perfect,41,ACAC
1 Perfect,41,AGAG
1 Perfect,41,ATAT
1 Perfect,41,ATTT
5 Perfect,41,CACA
1 Perfect,41,CATT
1 Perfect,41,CTAT
1 Perfect,41,GAAG
1 Perfect,41,GAGA
4 Perfect,41,GATG
1 Perfect,41,GGAT
9 Perfect,41,GTGT
4 Perfect,41,TATA
5 Perfect,41,TATT
1 Perfect,41,TCCA
2 Perfect,41,TCCC
1 Perfect,41,TCTA
2 Perfect,41,TGGA
12 Perfect,41,TGTG
1 Perfect,41,TGTT
4 Perfect,41,TTAT
2 Perfect,41,TTCC
1 Perfect,41,TTCT
1 Perfect,41,TTTC
7 Perfect,41,TTTT
5 Perfect,42,AAAA
3 Perfect,42,AAAT
3 Perfect,42,AATA
1 Perfect,42,AATG
9 Perfect,42,ACAC
1 Perfect,42,AGAG
1 Perfect,42,AGGA
5 Perfect,42,ATAT
2 Perfect,42,ATCT
3 Perfect,42,CACA
1 Perfect,42,CTAT
1 Perfect,42,CTCT
1 Perfect,42,CTTT
1 Perfect,42,GATA
1 Perfect,42,GATG
2 Perfect,42,GGAT
16 Perfect,42,GTGT
1 Perfect,42,TAAA
3 Perfect,42,TATA
1 Perfect,42,TATT
1 Perfect,42,TCTA
1 Perfect,42,TCTC
1 Perfect,42,TCTT
3 Perfect,42,TGGA
5 Perfect,42,TGTG
2 Perfect,42,TTAT
2 Perfect,42,TTCC
3 Perfect,42,TTCT
1 Perfect,42,TTGT
4 Perfect,42,TTTA
5 Perfect,42,TTTT
2 Perfect,43,AAAA
8 Perfect,43,AAAT
1 Perfect,43,AATA
12 Perfect,43,ACAC
1 Perfect,43,AGAC
1 Perfect,43,AGAG
1 Perfect,43,AGAT
1 Perfect,43,AGGA
4 Perfect,43,ATAT
1 Perfect,43,ATGG
2 Perfect,43,CACA
1 Perfect,43,CATC
1 Perfect,43,CCTT
1 Perfect,43,GAAG
2 Perfect,43,GATA
1 Perfect,43,GGAA
3 Perfect,43,GTGT
1 Perfect,43,TAGG
2 Perfect,43,TATA
1 Perfect,43,TATC
1 Perfect,43,TATT
1 Perfect,43,TCCT
1 Perfect,43,TCTA
3 Perfect,43,TCTC
1 Perfect,43,TGGA
14 Perfect,43,TGTG
2 Perfect,43,TTCC
6 Perfect,43,TTTA
1 Perfect,43,TTTT
2 Perfect,44,AAAA
2 Perfect,44,AAAT
1 Perfect,44,ACAA
12 Perfect,44,ACAC
1 Perfect,44,AGAG
1 Perfect,44,ATAT
3 Perfect,44,ATCT
3 Perfect,44,CACA
1 Perfect,44,CCAT
1 Perfect,44,CCTT
2 Perfect,44,GAGA
2 Perfect,44,GATA
1 Perfect,44,GGAT
15 Perfect,44,GTGT
1 Perfect,44,TAAA
2 Perfect,44,TAGA
3 Perfect,44,TATA
3 Perfect,44,TATC
2 Perfect,44,TATT
2 Perfect,44,TCTC
1 Perfect,44,TGGA
4 Perfect,44,TGTG
1 Perfect,44,TTAT
1 Perfect,44,TTTA
4 Perfect,44,TTTT
4 Perfect,45,AAAA
1 Perfect,45,AAAG
15 Perfect,45,ACAC
1 Perfect,45,AGAG
2 Perfect,45,AGAT
3 Perfect,45,AGGA
4 Perfect,45,ATAT
1 Perfect,45,ATGG
5 Perfect,45,CACA
1 Perfect,45,CCAT
1 Perfect,45,CTTT
1 Perfect,45,GAAG
1 Perfect,45,GAGA
4 Perfect,45,GTGT
1 Perfect,45,TAAA
1 Perfect,45,TAGA
2 Perfect,45,TATA
1 Perfect,45,TATC
2 Perfect,45,TATT
1 Perfect,45,TCCT
2 Perfect,45,TCTC
2 Perfect,45,TGGA
1 Perfect,45,TGGT
7 Perfect,45,TGTG
2 Perfect,45,TTTA
1 Perfect,46,AAAG
3 Perfect,46,AAAT
1 Perfect,46,AACC
1 Perfect,46,AAGA
1 Perfect,46,AAGC
1 Perfect,46,AAGG
1 Perfect,46,AATA
5 Perfect,46,ACAC
1 Perfect,46,AGAA
6 Perfect,46,ATAT
1 Perfect,46,ATCC
1 Perfect,46,ATCT
3 Perfect,46,CACA
1 Perfect,46,CATC
1 Perfect,46,CCAT
1 Perfect,46,CCTT
1 Perfect,46,CTAT
1 Perfect,46,CTCT
1 Perfect,46,GAAA
1 Perfect,46,GAAG
1 Perfect,46,GATA
1 Perfect,46,GATG
1 Perfect,46,GGAA
7 Perfect,46,GTGT
2 Perfect,46,TAGA
2 Perfect,46,TATA
1 Perfect,46,TCCT
1 Perfect,46,TCTA
1 Perfect,46,TCTT
1 Perfect,46,TGGA
1 Perfect,46,TGTA
3 Perfect,46,TGTG
4 Perfect,46,TTAT
4 Perfect,46,TTCC
3 Perfect,46,TTCT
2 Perfect,46,TTTA
2 Perfect,46,TTTT
1 Perfect,47,AAAG
4 Perfect,47,AAAT
1 Perfect,47,AAGG
15 Perfect,47,ACAC
1 Perfect,47,AGAG
2 Perfect,47,ATAC
1 Perfect,47,ATAG
4 Perfect,47,ATAT
1 Perfect,47,ATCT
3 Perfect,47,CACA
2 Perfect,47,CATC
1 Perfect,47,CCAT
1 Perfect,47,CTAC
2 Perfect,47,CTCT
2 Perfect,47,CTTC
1 Perfect,47,GAAG
1 Perfect,47,GAGA
1 Perfect,47,GATG
4 Perfect,47,GTGT
1 Perfect,47,TAGA
1 Perfect,47,TATA
1 Perfect,47,TATG
1 Perfect,47,TCTC
1 Perfect,47,TCTT
1 Perfect,47,TGGA
5 Perfect,47,TGTG
2 Perfect,47,TTAT
2 Perfect,47,TTCC
8 Perfect,47,TTTA
2 Perfect,47,TTTT
1 Perfect,48,AAAA
1 Perfect,48,AAAC
1 Perfect,48,AAAG
1 Perfect,48,AAAT
10 Perfect,48,ACAC
1 Perfect,48,AGAT
3 Perfect,48,ATCT
2 Perfect,48,ATGG
1 Perfect,48,CACA
1 Perfect,48,CCAT
2 Perfect,48,GAAA
1 Perfect,48,GAAG
1 Perfect,48,GGAT
6 Perfect,48,GTGT
1 Perfect,48,TATA
3 Perfect,48,TATC
1 Perfect,48,TCTC
1 Perfect,48,TGGA
4 Perfect,48,TGTG
1 Perfect,48,TTCC
2 Perfect,48,TTCT
1 Perfect,48,TTTA
2 Perfect,48,TTTT
1 Perfect,49,AAAA
2 Perfect,49,AAAT
7 Perfect,49,ACAC
1 Perfect,49,AGAG
1 Perfect,49,AGGA
1 Perfect,49,ATAT
1 Perfect,49,ATCC
1 Perfect,49,ATTT
4 Perfect,49,CACA
1 Perfect,49,GAAA
1 Perfect,49,GAAG
2 Perfect,49,GTGT
1 Perfect,49,TAGA
2 Perfect,49,TATA
3 Perfect,49,TATT
1 Perfect,49,TCCT
2 Perfect,49,TCTC
3 Perfect,49,TCTT
1 Perfect,49,TGGA
8 Perfect,49,TGTG
2 Perfect,49,TTTT
1 Perfect,50,AAAA
2 Perfect,50,AAAT
1 Perfect,50,AAGA
3 Perfect,50,ACAC
1 Perfect,50,AGAG
1 Perfect,50,AGGA
2 Perfect,50,ATAG
3 Perfect,50,ATAT
2 Perfect,50,ATCT
2 Perfect,50,CACA
1 Perfect,50,CTTT
1 Perfect,50,GAGG
1 Perfect,50,GATA
1 Perfect,50,GATG
3 Perfect,50,GTGT
2 Perfect,50,TATA
2 Perfect,50,TATC
1 Perfect,50,TGAA
2 Perfect,50,TGTG
1 Perfect,50,TTCC
1 Perfect,50,TTCT
2 Perfect,50,TTTA
1 Perfect,51,AAAA
2 Perfect,51,AAAG
4 Perfect,51,AAAT
1 Perfect,51,AATA
5 Perfect,51,ACAC
1 Perfect,51,AGAA
3 Perfect,51,AGAG
1 Perfect,51,ATCT
2 Perfect,51,CACA
1 Perfect,51,CATC
1 Perfect,51,CTCT
1 Perfect,51,GAAG
1 Perfect,51,GATA
3 Perfect,51,TATA
1 Perfect,51,TATG
1 Perfect,51,TCTC
3 Perfect,51,TCTT
5 Perfect,51,TGTG
2 Perfect,51,TTCC
1 Perfect,51,TTTA
2 Perfect,51,TTTC
1 Perfect,52,AAGG
3 Perfect,52,ACAC
1 Perfect,52,AGGA
3 Perfect,52,ATAT
1 Perfect,52,CACA
1 Perfect,52,GAAG
1 Perfect,52,GATA
1 Perfect,52,GATG
1 Perfect,52,GGAA
1 Perfect,52,GTGT
1 Perfect,52,TATA
1 Perfect,52,TCTC
1 Perfect,52,TCTT
1 Perfect,52,TGTG
1 Perfect,52,TTCC
1 Perfect,53,AAAA
1 Perfect,53,AAAT
4 Perfect,53,ACAC
2 Perfect,53,AGAA
1 Perfect,53,AGAT
1 Perfect,53,AGGA
1 Perfect,53,CACA
1 Perfect,53,CTTT
1 Perfect,53,GGAT
1 Perfect,53,GGTA
3 Perfect,53,TATA
2 Perfect,53,TCTT
2 Perfect,53,TGTG
1 Perfect,54,AAAG
1 Perfect,54,AAGG
1 Perfect,54,ACAC
1 Perfect,54,ATAT
1 Perfect,54,CACA
1 Perfect,54,CTAT
1 Perfect,54,GATA
2 Perfect,54,TATA
1 Perfect,54,TCCT
1 Perfect,54,TCTT
1 Perfect,54,TGTG
1 Perfect,54,TTAT
1 Perfect,54,TTTC
1 Perfect,55,AAAG
2 Perfect,55,AAAT
2 Perfect,55,AAGA
3 Perfect,55,ACAC
2 Perfect,55,CCTT
1 Perfect,55,CTTC
1 Perfect,55,GTGT
2 Perfect,55,TCTT
1 Perfect,55,TTCT
2 Perfect,55,TTTC
1 Perfect,56,AAAG
1 Perfect,56,AAGA
1 Perfect,56,AGAT
1 Perfect,56,AGGA
1 Perfect,56,ATAG
1 Perfect,56,CACA
1 Perfect,56,CTTT
1 Perfect,56,GAAA
1 Perfect,56,GTGT
1 Perfect,56,TATA
2 Perfect,56,TCTT
1 Perfect,56,TTCC
1 Perfect,56,TTTT
1 Perfect,57,AAAG
1 Perfect,57,AAGA
1 Perfect,57,AGAA
2 Perfect,57,CCTT
1 Perfect,57,CTCT
1 Perfect,57,TAAA
1 Perfect,57,TATA
1 Perfect,57,TATC
1 Perfect,57,TCTA
1 Perfect,57,TGTG
1 Perfect,57,TTCT
3 Perfect,57,TTTC
1 Perfect,57,TTTT
2 Perfect,58,AAAG
2 Perfect,58,AAGA
1 Perfect,58,AGAA
1 Perfect,58,AGAG
1 Perfect,58,ATAG
3 Perfect,58,ATAT
1 Perfect,58,GAAG
1 Perfect,58,TTCC
1 Perfect,58,TTTC
1 Perfect,59,AAAG
1 Perfect,59,AAGG
2 Perfect,59,AGAA
1 Perfect,59,AGAG
1 Perfect,59,AGAT
1 Perfect,59,ATCC
1 Perfect,59,ATCT
1 Perfect,59,CTCT
1 Perfect,59,CTTC
1 Perfect,59,GAAG
1 Perfect,59,TGTG
3 Perfect,59,TTCC
1 Perfect,60,ACAC
5 Perfect,60,ATAT
1 Perfect,60,CCTT
1 Perfect,60,GATA
1 Perfect,60,TATA
2 Perfect,60,TCTT
1 Perfect,60,TTCT
1 Perfect,60,TTTT
2 Perfect,61,AAAG
1 Perfect,61,AAGA
1 Perfect,61,AAGG
2 Perfect,61,ACAC
3 Perfect,61,CTTT
1 Perfect,61,TATA
1 Perfect,61,TATC
1 Perfect,61,TGTG
4 Perfect,61,TTTC
1 Perfect,62,AAGG
1 Perfect,62,AGAA
1 Perfect,62,ATAT
1 Perfect,62,TCCT
3 Perfect,62,TCTT
1 Perfect,62,TTCC
1 Perfect,63,AAGG
1 Perfect,63,ATAT
1 Perfect,63,ATCT
1 Perfect,63,GAAA
1 Perfect,63,GAAG
1 Perfect,63,TTCT
2 Perfect,63,TTTC
1 Perfect,64,AAAG
1 Perfect,64,AAGA
1 Perfect,64,AAGG
1 Perfect,64,ATAT
1 Perfect,64,CTTC
1 Perfect,64,GAAA
1 Perfect,64,TATA
1 Perfect,64,TATC
1 Perfect,65,AGAA
1 Perfect,65,AGGA
1 Perfect,65,TATA
1 Perfect,65,TCTT
1 Perfect,65,TTTC
1 Perfect,66,AAGA
1 Perfect,66,AGAA
1 Perfect,66,GGAA
1 Perfect,66,TCTT
1 Perfect,66,TTCC
3 Perfect,66,TTTC
2 Perfect,67,AAAG
1 Perfect,67,CTTT
1 Perfect,67,GAAG
1 Perfect,67,TCTT
1 Perfect,67,TTCC
1 Perfect,67,TTTC
2 Perfect,68,AGAA
2 Perfect,68,CTTT
1 Perfect,68,TTCT
1 Perfect,68,TTTC
1 Perfect,69,AAGG
1 Perfect,69,AGGA
1 Perfect,69,TTCT
1 Perfect,70,AAAG
1 Perfect,70,AAGA
1 Perfect,70,ACAC
1 Perfect,70,ATAT
1 Perfect,70,CTTT
1 Perfect,70,GAAA
2 Perfect,70,TCTT
1 Perfect,71,AGAG
1 Perfect,71,GAAG
1 Perfect,71,TTTC
1 Perfect,72,AAAG
1 Perfect,72,AGGA
2 Perfect,72,CTTT
1 Perfect,72,GGAA
1 Perfect,73,CTTT
1 Perfect,73,GAAA
1 Perfect,73,TCTT
2 Perfect,73,TTTC
1 Perfect,74,AAGA
1 Perfect,74,GAAA
2 Perfect,75,AGAA
1 Perfect,75,GAAG
1 Perfect,75,TTTC
1 Perfect,76,GAAG
1 Perfect,77,GAAA
1 Perfect,78,GAAA
1 Perfect,78,TCTT
1 Perfect,79,AAAG
1 Perfect,79,TTTC
1 Perfect,83,AAGA
1 Perfect,83,CCTT
1 Perfect,83,TCCT
1 Perfect,88,TCTT
4885 Perfect,8,AAAA
1004 Perfect,8,AAAC
2046 Perfect,8,AAAG
3186 Perfect,8,AAAT
1123 Perfect,8,AACA
581 Perfect,8,AACC
21 Perfect,8,AACG
427 Perfect,8,AACT
1389 Perfect,8,AAGA
483 Perfect,8,AAGC
1275 Perfect,8,AAGG
570 Perfect,8,AAGT
1841 Perfect,8,AATA
382 Perfect,8,AATC
1127 Perfect,8,AATG
1580 Perfect,8,AATT
731 Perfect,8,ACAA
938 Perfect,8,ACAC
882 Perfect,8,ACAG
805 Perfect,8,ACAT
449 Perfect,8,ACCA
550 Perfect,8,ACCC
17 Perfect,8,ACCG
525 Perfect,8,ACCT
9 Perfect,8,ACGA
33 Perfect,8,ACGC
37 Perfect,8,ACGG
21 Perfect,8,ACGT
239 Perfect,8,ACTA
490 Perfect,8,ACTC
538 Perfect,8,ACTG
595 Perfect,8,ACTT
1757 Perfect,8,AGAA
544 Perfect,8,AGAC
1517 Perfect,8,AGAG
504 Perfect,8,AGAT
728 Perfect,8,AGCA
711 Perfect,8,AGCC
41 Perfect,8,AGCG
351 Perfect,8,AGCT
1594 Perfect,8,AGGA
1293 Perfect,8,AGGC
1532 Perfect,8,AGGG
514 Perfect,8,AGGT
430 Perfect,8,AGTA
358 Perfect,8,AGTC
738 Perfect,8,AGTG
408 Perfect,8,AGTT
1238 Perfect,8,ATAA
442 Perfect,8,ATAC
358 Perfect,8,ATAG
2226 Perfect,8,ATAT
387 Perfect,8,ATCA
452 Perfect,8,ATCC
11 Perfect,8,ATCG
522 Perfect,8,ATCT
796 Perfect,8,ATGA
451 Perfect,8,ATGC
665 Perfect,8,ATGG
936 Perfect,8,ATGT
834 Perfect,8,ATTA
852 Perfect,8,ATTC
504 Perfect,8,ATTG
3416 Perfect,8,ATTT
1437 Perfect,8,CAAA
377 Perfect,8,CAAC
676 Perfect,8,CAAG
527 Perfect,8,CAAT
1673 Perfect,8,CACA
1056 Perfect,8,CACC
53 Perfect,8,CACG
793 Perfect,8,CACT
1102 Perfect,8,CAGA
925 Perfect,8,CAGC
1816 Perfect,8,CAGG
550 Perfect,8,CAGT
543 Perfect,8,CATA
595 Perfect,8,CATC
843 Perfect,8,CATG
1085 Perfect,8,CATT
510 Perfect,8,CCAA
857 Perfect,8,CCAC
1611 Perfect,8,CCAG
605 Perfect,8,CCAT
1472 Perfect,8,CCCA
201 Perfect,8,CCCC
207 Perfect,8,CCCG
1481 Perfect,8,CCCT
18 Perfect,8,CCGA
123 Perfect,8,CCGC
167 Perfect,8,CCGG
26 Perfect,8,CCGT
310 Perfect,8,CCTA
1406 Perfect,8,CCTC
1889 Perfect,8,CCTG
1228 Perfect,8,CCTT
13 Perfect,8,CGAA
10 Perfect,8,CGAC
34 Perfect,8,CGAG
21 Perfect,8,CGAT
30 Perfect,8,CGCA
598 Perfect,8,CGCC
38 Perfect,8,CGCG
44 Perfect,8,CGCT
43 Perfect,8,CGGA
98 Perfect,8,CGGC
225 Perfect,8,CGGG
8 Perfect,8,CGGT
12 Perfect,8,CGTA
18 Perfect,8,CGTC
70 Perfect,8,CGTG
18 Perfect,8,CGTT
312 Perfect,8,CTAA
243 Perfect,8,CTAC
337 Perfect,8,CTAG
359 Perfect,8,CTAT
1169 Perfect,8,CTCA
1371 Perfect,8,CTCC
31 Perfect,8,CTCG
1511 Perfect,8,CTCT
647 Perfect,8,CTGA
1104 Perfect,8,CTGC
1674 Perfect,8,CTGG
948 Perfect,8,CTGT
454 Perfect,8,CTTA
1422 Perfect,8,CTTC
712 Perfect,8,CTTG
2215 Perfect,8,CTTT
2031 Perfect,8,GAAA
82 Perfect,8,GAAC
1360 Perfect,8,GAAG
737 Perfect,8,GAAT
600 Perfect,8,GACA
71 Perfect,8,GACC
18 Perfect,8,GACG
314 Perfect,8,GACT
1368 Perfect,8,GAGA
146 Perfect,8,GAGC
1398 Perfect,8,GAGG
433 Perfect,8,GAGT
353 Perfect,8,GATA
50 Perfect,8,GATC
601 Perfect,8,GATG
399 Perfect,8,GATT
368 Perfect,8,GCAA
439 Perfect,8,GCAC
1025 Perfect,8,GCAG
447 Perfect,8,GCAT
673 Perfect,8,GCCA
297 Perfect,8,GCCC
91 Perfect,8,GCCG
1255 Perfect,8,GCCT
16 Perfect,8,GCGA
149 Perfect,8,GCGC
127 Perfect,8,GCGG
20 Perfect,8,GCGT
144 Perfect,8,GCTA
160 Perfect,8,GCTC
947 Perfect,8,GCTG
495 Perfect,8,GCTT
1253 Perfect,8,GGAA
117 Perfect,8,GGAC
1292 Perfect,8,GGAG
464 Perfect,8,GGAT
1000 Perfect,8,GGCA
277 Perfect,8,GGCC
578 Perfect,8,GGCG
678 Perfect,8,GGCT
1361 Perfect,8,GGGA
300 Perfect,8,GGGC
230 Perfect,8,GGGG
543 Perfect,8,GGGT
258 Perfect,8,GGTA
68 Perfect,8,GGTC
1084 Perfect,8,GGTG
587 Perfect,8,GGTT
362 Perfect,8,GTAA
62 Perfect,8,GTAC
257 Perfect,8,GTAG
430 Perfect,8,GTAT
336 Perfect,8,GTCA
99 Perfect,8,GTCC
10 Perfect,8,GTCG
573 Perfect,8,GTCT
530 Perfect,8,GTGA
442 Perfect,8,GTGC
748 Perfect,8,GTGG
1016 Perfect,8,GTGT
359 Perfect,8,GTTA
85 Perfect,8,GTTC
386 Perfect,8,GTTG
1130 Perfect,8,GTTT
2052 Perfect,8,TAAA
353 Perfect,8,TAAC
435 Perfect,8,TAAG
905 Perfect,8,TAAT
567 Perfect,8,TACA
238 Perfect,8,TACC
9 Perfect,8,TACG
433 Perfect,8,TACT
367 Perfect,8,TAGA
153 Perfect,8,TAGC
284 Perfect,8,TAGG
227 Perfect,8,TAGT
1779 Perfect,8,TATA
362 Perfect,8,TATC
522 Perfect,8,TATG
1992 Perfect,8,TATT
441 Perfect,8,TCAA
570 Perfect,8,TCAC
600 Perfect,8,TCAG
753 Perfect,8,TCAT
883 Perfect,8,TCCA
1385 Perfect,8,TCCC
45 Perfect,8,TCCG
1626 Perfect,8,TCCT
9 Perfect,8,TCGA
14 Perfect,8,TCGC
19 Perfect,8,TCGG
14 Perfect,8,TCGT
352 Perfect,8,TCTA
1371 Perfect,8,TCTC
1138 Perfect,8,TCTG
1488 Perfect,8,TCTT
1034 Perfect,8,TGAA
363 Perfect,8,TGAC
1150 Perfect,8,TGAG
433 Perfect,8,TGAT
760 Perfect,8,TGCA
1016 Perfect,8,TGCC
40 Perfect,8,TGCG
700 Perfect,8,TGCT
909 Perfect,8,TGGA
686 Perfect,8,TGGC
1503 Perfect,8,TGGG
476 Perfect,8,TGGT
566 Perfect,8,TGTA
559 Perfect,8,TGTC
1818 Perfect,8,TGTG
1142 Perfect,8,TGTT
1293 Perfect,8,TTAA
412 Perfect,8,TTAC
372 Perfect,8,TTAG
1271 Perfect,8,TTAT
1150 Perfect,8,TTCA
1270 Perfect,8,TTCC
16 Perfect,8,TTCG
1794 Perfect,8,TTCT
485 Perfect,8,TTGA
362 Perfect,8,TTGC
525 Perfect,8,TTGG
797 Perfect,8,TTGT
2073 Perfect,8,TTTA
2107 Perfect,8,TTTC
1533 Perfect,8,TTTG
5242 Perfect,8,TTTT
2954 Perfect,9,AAAA
603 Perfect,9,AAAC
787 Perfect,9,AAAG
931 Perfect,9,AAAT
222 Perfect,9,AACA
135 Perfect,9,AACC
1 Perfect,9,AACG
58 Perfect,9,AACT
539 Perfect,9,AAGA
267 Perfect,9,AAGC
419 Perfect,9,AAGG
126 Perfect,9,AAGT
514 Perfect,9,AATA
186 Perfect,9,AATC
421 Perfect,9,AATG
288 Perfect,9,AATT
520 Perfect,9,ACAA
947 Perfect,9,ACAC
340 Perfect,9,ACAG
341 Perfect,9,ACAT
183 Perfect,9,ACCA
200 Perfect,9,ACCC
2 Perfect,9,ACCG
84 Perfect,9,ACCT
1 Perfect,9,ACGA
3 Perfect,9,ACGC
5 Perfect,9,ACGG
6 Perfect,9,ACGT
52 Perfect,9,ACTA
252 Perfect,9,ACTC
142 Perfect,9,ACTG
126 Perfect,9,ACTT
1155 Perfect,9,AGAA
414 Perfect,9,AGAC
959 Perfect,9,AGAG
176 Perfect,9,AGAT
166 Perfect,9,AGCA
243 Perfect,9,AGCC
6 Perfect,9,AGCG
71 Perfect,9,AGCT
516 Perfect,9,AGGA
318 Perfect,9,AGGC
418 Perfect,9,AGGG
134 Perfect,9,AGGT
132 Perfect,9,AGTA
139 Perfect,9,AGTC
227 Perfect,9,AGTG
123 Perfect,9,AGTT
689 Perfect,9,ATAA
407 Perfect,9,ATAC
129 Perfect,9,ATAG
867 Perfect,9,ATAT
109 Perfect,9,ATCA
205 Perfect,9,ATCC
6 Perfect,9,ATCG
84 Perfect,9,ATCT
314 Perfect,9,ATGA
222 Perfect,9,ATGC
298 Perfect,9,ATGG
210 Perfect,9,ATGT
235 Perfect,9,ATTA
392 Perfect,9,ATTC
209 Perfect,9,ATTG
657 Perfect,9,ATTT
137 Perfect,9,CAAA
77 Perfect,9,CAAC
115 Perfect,9,CAAG
44 Perfect,9,CAAT
573 Perfect,9,CACA
261 Perfect,9,CACC
19 Perfect,9,CACG
192 Perfect,9,CACT
171 Perfect,9,CAGA
283 Perfect,9,CAGC
327 Perfect,9,CAGG
103 Perfect,9,CAGT
65 Perfect,9,CATA
163 Perfect,9,CATC
143 Perfect,9,CATG
253 Perfect,9,CATT
94 Perfect,9,CCAA
1110 Perfect,9,CCAC
338 Perfect,9,CCAG
210 Perfect,9,CCAT
371 Perfect,9,CCCA
82 Perfect,9,CCCC
45 Perfect,9,CCCG
421 Perfect,9,CCCT
3 Perfect,9,CCGA
596 Perfect,9,CCGC
36 Perfect,9,CCGG
11 Perfect,9,CCGT
72 Perfect,9,CCTA
602 Perfect,9,CCTC
384 Perfect,9,CCTG
360 Perfect,9,CCTT
4 Perfect,9,CGAA
3 Perfect,9,CGAC
6 Perfect,9,CGAG
1 Perfect,9,CGAT
22 Perfect,9,CGCA
41 Perfect,9,CGCC
27 Perfect,9,CGCG
15 Perfect,9,CGCT
9 Perfect,9,CGGA
35 Perfect,9,CGGC
30 Perfect,9,CGGG
4 Perfect,9,CGGT
1 Perfect,9,CGTA
8 Perfect,9,CGTC
17 Perfect,9,CGTG
6 Perfect,9,CGTT
41 Perfect,9,CTAA
59 Perfect,9,CTAC
46 Perfect,9,CTAG
38 Perfect,9,CTAT
242 Perfect,9,CTCA
548 Perfect,9,CTCC
7 Perfect,9,CTCG
446 Perfect,9,CTCT
110 Perfect,9,CTGA
364 Perfect,9,CTGC
253 Perfect,9,CTGG
164 Perfect,9,CTGT
64 Perfect,9,CTTA
468 Perfect,9,CTTC
97 Perfect,9,CTTG
413 Perfect,9,CTTT
368 Perfect,9,GAAA
4 Perfect,9,GAAC
351 Perfect,9,GAAG
253 Perfect,9,GAAT
157 Perfect,9,GACA
6 Perfect,9,GACC
14 Perfect,9,GACG
105 Perfect,9,GACT
408 Perfect,9,GAGA
27 Perfect,9,GAGC
399 Perfect,9,GAGG
201 Perfect,9,GAGT
55 Perfect,9,GATA
6 Perfect,9,GATC
222 Perfect,9,GATG
72 Perfect,9,GATT
90 Perfect,9,GCAA
21 Perfect,9,GCAC
400 Perfect,9,GCAG
145 Perfect,9,GCAT
267 Perfect,9,GCCA
28 Perfect,9,GCCC
39 Perfect,9,GCCG
341 Perfect,9,GCCT
13 Perfect,9,GCGA
33 Perfect,9,GCGC
61 Perfect,9,GCGG
16 Perfect,9,GCGT
39 Perfect,9,GCTA
6 Perfect,9,GCTC
365 Perfect,9,GCTG
104 Perfect,9,GCTT
480 Perfect,9,GGAA
14 Perfect,9,GGAC
615 Perfect,9,GGAG
144 Perfect,9,GGAT
357 Perfect,9,GGCA
38 Perfect,9,GGCC
538 Perfect,9,GGCG
257 Perfect,9,GGCT
535 Perfect,9,GGGA
51 Perfect,9,GGGC
99 Perfect,9,GGGG
259 Perfect,9,GGGT
67 Perfect,9,GGTA
4 Perfect,9,GGTC
1199 Perfect,9,GGTG
61 Perfect,9,GGTT
81 Perfect,9,GTAA
4 Perfect,9,GTAC
58 Perfect,9,GTAG
57 Perfect,9,GTAT
114 Perfect,9,GTCA
7 Perfect,9,GTCC
4 Perfect,9,GTCG
181 Perfect,9,GTCT
225 Perfect,9,GTGA
23 Perfect,9,GTGC
427 Perfect,9,GTGG
486 Perfect,9,GTGT
46 Perfect,9,GTTA
2 Perfect,9,GTTC
103 Perfect,9,GTTG
180 Perfect,9,GTTT
699 Perfect,9,TAAA
116 Perfect,9,TAAC
124 Perfect,9,TAAG
287 Perfect,9,TAAT
178 Perfect,9,TACA
151 Perfect,9,TACC
6 Perfect,9,TACG
140 Perfect,9,TACT
95 Perfect,9,TAGA
62 Perfect,9,TAGC
63 Perfect,9,TAGG
63 Perfect,9,TAGT
903 Perfect,9,TATA
177 Perfect,9,TATC
385 Perfect,9,TATG
958 Perfect,9,TATT
188 Perfect,9,TCAA
227 Perfect,9,TCAC
166 Perfect,9,TCAG
407 Perfect,9,TCAT
305 Perfect,9,TCCA
453 Perfect,9,TCCC
9 Perfect,9,TCCG
460 Perfect,9,TCCT
1 Perfect,9,TCGA
7 Perfect,9,TCGC
1 Perfect,9,TCGG
3 Perfect,9,TCGT
136 Perfect,9,TCTA
954 Perfect,9,TCTC
364 Perfect,9,TCTG
831 Perfect,9,TCTT
385 Perfect,9,TGAA
150 Perfect,9,TGAC
234 Perfect,9,TGAG
192 Perfect,9,TGAT
201 Perfect,9,TGCA
354 Perfect,9,TGCC
5 Perfect,9,TGCG
242 Perfect,9,TGCT
236 Perfect,9,TGGA
226 Perfect,9,TGGC
205 Perfect,9,TGGG
153 Perfect,9,TGGT
401 Perfect,9,TGTA
391 Perfect,9,TGTC
998 Perfect,9,TGTG
597 Perfect,9,TGTT
259 Perfect,9,TTAA
140 Perfect,9,TTAC
74 Perfect,9,TTAG
599 Perfect,9,TTAT
328 Perfect,9,TTCA
527 Perfect,9,TTCC
4 Perfect,9,TTCG
670 Perfect,9,TTCT
132 Perfect,9,TTGA
133 Perfect,9,TTGC
177 Perfect,9,TTGG
252 Perfect,9,TTGT
729 Perfect,9,TTTA
1198 Perfect,9,TTTC
587 Perfect,9,TTTG
3059 Perfect,9,TTTT
