1543829 Imperfect,4,AAA
773496 Imperfect,4,AAC
753480 Imperfect,4,AAG
902150 Imperfect,4,AAT
889417 Imperfect,4,ACA
575787 Imperfect,4,ACC
85090 Imperfect,4,ACG
495163 Imperfect,4,ACT
1144862 Imperfect,4,AGA
647752 Imperfect,4,AGC
692797 Imperfect,4,AGG
545171 Imperfect,4,AGT
910135 Imperfect,4,ATA
610810 Imperfect,4,ATC
715782 Imperfect,4,ATG
742654 Imperfect,4,ATT
311433 Imperfect,4,CAA
401046 Imperfect,4,CAC
518575 Imperfect,4,CAG
422045 Imperfect,4,CAT
453302 Imperfect,4,CCA
395623 Imperfect,4,CCC
57656 Imperfect,4,CCG
519383 Imperfect,4,CCT
50404 Imperfect,4,CGA
128303 Imperfect,4,CGC
92079 Imperfect,4,CGG
78449 Imperfect,4,CGT
305505 Imperfect,4,CTA
525193 Imperfect,4,CTC
503605 Imperfect,4,CTG
497660 Imperfect,4,CTT
538131 Imperfect,4,GAA
66011 Imperfect,4,GAC
551776 Imperfect,4,GAG
439912 Imperfect,4,GAT
572144 Imperfect,4,GCA
83607 Imperfect,4,GCC
83567 Imperfect,4,GCG
620239 Imperfect,4,GCT
544738 Imperfect,4,GGA
94003 Imperfect,4,GGC
396927 Imperfect,4,GGG
414109 Imperfect,4,GGT
352732 Imperfect,4,GTA
41883 Imperfect,4,GTC
480005 Imperfect,4,GTG
388947 Imperfect,4,GTT
770994 Imperfect,4,TAA
553033 Imperfect,4,TAC
457260 Imperfect,4,TAG
1087133 Imperfect,4,TAT
777829 Imperfect,4,TCA
746180 Imperfect,4,TCC
80497 Imperfect,4,TCG
976098 Imperfect,4,TCT
653684 Imperfect,4,TGA
615033 Imperfect,4,TGC
536004 Imperfect,4,TGG
915012 Imperfect,4,TGT
756252 Imperfect,4,TTA
961437 Imperfect,4,TTC
675206 Imperfect,4,TTG
1547713 Imperfect,4,TTT
419305 Imperfect,5,AAA
271894 Imperfect,5,AAC
334534 Imperfect,5,AAG
318728 Imperfect,5,AAT
60948 Imperfect,5,ACA
88068 Imperfect,5,ACC
11080 Imperfect,5,ACG
69772 Imperfect,5,ACT
154219 Imperfect,5,AGA
139562 Imperfect,5,AGC
173689 Imperfect,5,AGG
117611 Imperfect,5,AGT
171472 Imperfect,5,ATA
162616 Imperfect,5,ATC
162505 Imperfect,5,ATG
171086 Imperfect,5,ATT
137681 Imperfect,5,CAA
128076 Imperfect,5,CAC
170711 Imperfect,5,CAG
119764 Imperfect,5,CAT
116171 Imperfect,5,CCA
74452 Imperfect,5,CCC
37948 Imperfect,5,CCG
153502 Imperfect,5,CCT
2224 Imperfect,5,CGA
3785 Imperfect,5,CGC
3732 Imperfect,5,CGG
2186 Imperfect,5,CGT
117099 Imperfect,5,CTA
173857 Imperfect,5,CTC
139267 Imperfect,5,CTG
154401 Imperfect,5,CTT
115632 Imperfect,5,GAA
15374 Imperfect,5,GAC
119613 Imperfect,5,GAG
101856 Imperfect,5,GAT
70375 Imperfect,5,GCA
11700 Imperfect,5,GCC
11855 Imperfect,5,GCG
70056 Imperfect,5,GCT
152826 Imperfect,5,GGA
37848 Imperfect,5,GGC
73944 Imperfect,5,GGG
115233 Imperfect,5,GGT
70080 Imperfect,5,GTA
11004 Imperfect,5,GTC
88975 Imperfect,5,GTG
61339 Imperfect,5,GTT
144709 Imperfect,5,TAA
108511 Imperfect,5,TAC
109284 Imperfect,5,TAG
145323 Imperfect,5,TAT
101976 Imperfect,5,TCA
119615 Imperfect,5,TCC
15413 Imperfect,5,TCG
115465 Imperfect,5,TCT
119521 Imperfect,5,TGA
170110 Imperfect,5,TGC
128658 Imperfect,5,TGG
138202 Imperfect,5,TGT
320998 Imperfect,5,TTA
334610 Imperfect,5,TTC
273896 Imperfect,5,TTG
420245 Imperfect,5,TTT
6942 Perfect,10,AAA
327 Perfect,10,AAC
348 Perfect,10,AAG
931 Perfect,10,AAT
332 Perfect,10,ACA
247 Perfect,10,ACC
2 Perfect,10,ACG
109 Perfect,10,ACT
591 Perfect,10,AGA
370 Perfect,10,AGC
396 Perfect,10,AGG
139 Perfect,10,AGT
878 Perfect,10,ATA
218 Perfect,10,ATC
278 Perfect,10,ATG
709 Perfect,10,ATT
100 Perfect,10,CAA
190 Perfect,10,CAC
256 Perfect,10,CAG
155 Perfect,10,CAT
1277 Perfect,10,CCA
94 Perfect,10,CCC
27 Perfect,10,CCG
391 Perfect,10,CCT
1 Perfect,10,CGA
40 Perfect,10,CGC
19 Perfect,10,CGG
3 Perfect,10,CGT
63 Perfect,10,CTA
563 Perfect,10,CTC
284 Perfect,10,CTG
213 Perfect,10,CTT
202 Perfect,10,GAA
384 Perfect,10,GAG
139 Perfect,10,GAT
251 Perfect,10,GCA
19 Perfect,10,GCC
18 Perfect,10,GCG
295 Perfect,10,GCT
552 Perfect,10,GGA
37 Perfect,10,GGC
90 Perfect,10,GGG
230 Perfect,10,GGT
49 Perfect,10,GTA
1 Perfect,10,GTC
1317 Perfect,10,GTG
102 Perfect,10,GTT
664 Perfect,10,TAA
124 Perfect,10,TAC
97 Perfect,10,TAG
1008 Perfect,10,TAT
280 Perfect,10,TCA
424 Perfect,10,TCC
383 Perfect,10,TCT
216 Perfect,10,TGA
360 Perfect,10,TGC
250 Perfect,10,TGG
351 Perfect,10,TGT
921 Perfect,10,TTA
589 Perfect,10,TTC
322 Perfect,10,TTG
6992 Perfect,10,TTT
4167 Perfect,11,AAA
710 Perfect,11,AAC
395 Perfect,11,AAG
672 Perfect,11,AAT
25 Perfect,11,ACA
120 Perfect,11,ACC
20 Perfect,11,ACT
86 Perfect,11,AGA
160 Perfect,11,AGC
136 Perfect,11,AGG
26 Perfect,11,AGT
340 Perfect,11,ATA
126 Perfect,11,ATC
98 Perfect,11,ATG
327 Perfect,11,ATT
77 Perfect,11,CAA
122 Perfect,11,CAC
157 Perfect,11,CAG
100 Perfect,11,CAT
158 Perfect,11,CCA
60 Perfect,11,CCC
38 Perfect,11,CCG
267 Perfect,11,CCT
3 Perfect,11,CGA
13 Perfect,11,CGC
4 Perfect,11,CGG
1 Perfect,11,CGT
30 Perfect,11,CTA
177 Perfect,11,CTC
134 Perfect,11,CTG
95 Perfect,11,CTT
108 Perfect,11,GAA
127 Perfect,11,GAG
58 Perfect,11,GAT
67 Perfect,11,GCA
14 Perfect,11,GCC
25 Perfect,11,GCG
69 Perfect,11,GCT
242 Perfect,11,GGA
23 Perfect,11,GGC
52 Perfect,11,GGG
113 Perfect,11,GGT
17 Perfect,11,GTA
3 Perfect,11,GTC
103 Perfect,11,GTG
25 Perfect,11,GTT
284 Perfect,11,TAA
45 Perfect,11,TAC
58 Perfect,11,TAG
309 Perfect,11,TAT
67 Perfect,11,TCA
185 Perfect,11,TCC
1 Perfect,11,TCG
97 Perfect,11,TCT
81 Perfect,11,TGA
183 Perfect,11,TGC
112 Perfect,11,TGG
71 Perfect,11,TGT
673 Perfect,11,TTA
395 Perfect,11,TTC
755 Perfect,11,TTG
4075 Perfect,11,TTT
1 Perfect,122,TCT
3145 Perfect,12,AAA
54 Perfect,12,AAC
55 Perfect,12,AAG
274 Perfect,12,AAT
30 Perfect,12,ACA
34 Perfect,12,ACC
6 Perfect,12,ACT
27 Perfect,12,AGA
37 Perfect,12,AGC
91 Perfect,12,AGG
14 Perfect,12,AGT
115 Perfect,12,ATA
24 Perfect,12,ATC
30 Perfect,12,ATG
262 Perfect,12,ATT
189 Perfect,12,CAA
45 Perfect,12,CAC
48 Perfect,12,CAG
34 Perfect,12,CAT
54 Perfect,12,CCA
39 Perfect,12,CCC
3 Perfect,12,CCG
103 Perfect,12,CCT
7 Perfect,12,CGC
3 Perfect,12,CGG
9 Perfect,12,CTA
68 Perfect,12,CTC
56 Perfect,12,CTG
58 Perfect,12,CTT
89 Perfect,12,GAA
54 Perfect,12,GAG
30 Perfect,12,GAT
31 Perfect,12,GCA
20 Perfect,12,GCC
13 Perfect,12,GCG
37 Perfect,12,GCT
61 Perfect,12,GGA
19 Perfect,12,GGC
36 Perfect,12,GGG
27 Perfect,12,GGT
7 Perfect,12,GTA
57 Perfect,12,GTG
56 Perfect,12,GTT
154 Perfect,12,TAA
16 Perfect,12,TAC
14 Perfect,12,TAG
135 Perfect,12,TAT
33 Perfect,12,TCA
71 Perfect,12,TCC
37 Perfect,12,TCT
21 Perfect,12,TGA
29 Perfect,12,TGC
55 Perfect,12,TGG
18 Perfect,12,TGT
148 Perfect,12,TTA
81 Perfect,12,TTC
197 Perfect,12,TTG
3206 Perfect,12,TTT
2748 Perfect,13,AAA
46 Perfect,13,AAC
27 Perfect,13,AAG
153 Perfect,13,AAT
62 Perfect,13,ACA
33 Perfect,13,ACC
1 Perfect,13,ACG
6 Perfect,13,ACT
32 Perfect,13,AGA
28 Perfect,13,AGC
31 Perfect,13,AGG
7 Perfect,13,AGT
341 Perfect,13,ATA
21 Perfect,13,ATC
23 Perfect,13,ATG
73 Perfect,13,ATT
11 Perfect,13,CAA
18 Perfect,13,CAC
27 Perfect,13,CAG
15 Perfect,13,CAT
38 Perfect,13,CCA
25 Perfect,13,CCC
5 Perfect,13,CCG
40 Perfect,13,CCT
10 Perfect,13,CGC
4 Perfect,13,CGG
5 Perfect,13,CTA
31 Perfect,13,CTC
20 Perfect,13,CTG
26 Perfect,13,CTT
18 Perfect,13,GAA
37 Perfect,13,GAG
15 Perfect,13,GAT
15 Perfect,13,GCA
8 Perfect,13,GCC
7 Perfect,13,GCG
15 Perfect,13,GCT
25 Perfect,13,GGA
13 Perfect,13,GGC
21 Perfect,13,GGG
18 Perfect,13,GGT
3 Perfect,13,GTA
29 Perfect,13,GTG
15 Perfect,13,GTT
71 Perfect,13,TAA
7 Perfect,13,TAC
7 Perfect,13,TAG
139 Perfect,13,TAT
17 Perfect,13,TCA
43 Perfect,13,TCC
47 Perfect,13,TCT
19 Perfect,13,TGA
21 Perfect,13,TGC
27 Perfect,13,TGG
45 Perfect,13,TGT
327 Perfect,13,TTA
27 Perfect,13,TTC
80 Perfect,13,TTG
2702 Perfect,13,TTT
2353 Perfect,14,AAA
391 Perfect,14,AAC
69 Perfect,14,AAG
237 Perfect,14,AAT
2 Perfect,14,ACA
19 Perfect,14,ACC
1 Perfect,14,ACG
3 Perfect,14,ACT
7 Perfect,14,AGA
12 Perfect,14,AGC
26 Perfect,14,AGG
4 Perfect,14,AGT
38 Perfect,14,ATA
24 Perfect,14,ATC
21 Perfect,14,ATG
37 Perfect,14,ATT
15 Perfect,14,CAA
26 Perfect,14,CAC
22 Perfect,14,CAG
17 Perfect,14,CAT
16 Perfect,14,CCA
12 Perfect,14,CCC
8 Perfect,14,CCG
35 Perfect,14,CCT
2 Perfect,14,CGC
1 Perfect,14,CGG
2 Perfect,14,CTA
33 Perfect,14,CTC
7 Perfect,14,CTG
10 Perfect,14,CTT
15 Perfect,14,GAA
43 Perfect,14,GAG
7 Perfect,14,GAT
12 Perfect,14,GCA
8 Perfect,14,GCC
5 Perfect,14,GCG
7 Perfect,14,GCT
10 Perfect,14,GGA
8 Perfect,14,GGC
18 Perfect,14,GGG
14 Perfect,14,GGT
6 Perfect,14,GTA
15 Perfect,14,GTG
5 Perfect,14,GTT
31 Perfect,14,TAA
10 Perfect,14,TAC
6 Perfect,14,TAG
43 Perfect,14,TAT
5 Perfect,14,TCA
50 Perfect,14,TCC
11 Perfect,14,TCT
16 Perfect,14,TGA
17 Perfect,14,TGC
31 Perfect,14,TGG
18 Perfect,14,TGT
208 Perfect,14,TTA
96 Perfect,14,TTC
390 Perfect,14,TTG
2417 Perfect,14,TTT
2091 Perfect,15,AAA
25 Perfect,15,AAC
25 Perfect,15,AAG
99 Perfect,15,AAT
5 Perfect,15,ACA
4 Perfect,15,ACC
1 Perfect,15,ACT
4 Perfect,15,AGA
8 Perfect,15,AGC
13 Perfect,15,AGG
2 Perfect,15,AGT
21 Perfect,15,ATA
6 Perfect,15,ATC
10 Perfect,15,ATG
88 Perfect,15,ATT
82 Perfect,15,CAA
13 Perfect,15,CAC
6 Perfect,15,CAG
7 Perfect,15,CAT
8 Perfect,15,CCA
6 Perfect,15,CCC
3 Perfect,15,CCG
10 Perfect,15,CCT
3 Perfect,15,CGC
1 Perfect,15,CGG
2 Perfect,15,CTA
20 Perfect,15,CTC
11 Perfect,15,CTG
19 Perfect,15,CTT
18 Perfect,15,GAA
14 Perfect,15,GAG
12 Perfect,15,GAT
5 Perfect,15,GCA
6 Perfect,15,GCC
8 Perfect,15,GCT
8 Perfect,15,GGA
3 Perfect,15,GGC
4 Perfect,15,GGG
6 Perfect,15,GGT
13 Perfect,15,GTG
25 Perfect,15,GTT
32 Perfect,15,TAA
1 Perfect,15,TAC
6 Perfect,15,TAG
24 Perfect,15,TAT
2 Perfect,15,TCA
21 Perfect,15,TCC
1 Perfect,15,TCG
6 Perfect,15,TCT
5 Perfect,15,TGA
6 Perfect,15,TGC
7 Perfect,15,TGG
2 Perfect,15,TGT
44 Perfect,15,TTA
11 Perfect,15,TTC
86 Perfect,15,TTG
2132 Perfect,15,TTT
1802 Perfect,16,AAA
18 Perfect,16,AAC
10 Perfect,16,AAG
36 Perfect,16,AAT
35 Perfect,16,ACA
10 Perfect,16,ACC
5 Perfect,16,ACT
5 Perfect,16,AGA
9 Perfect,16,AGC
14 Perfect,16,AGG
1 Perfect,16,AGT
48 Perfect,16,ATA
9 Perfect,16,ATC
2 Perfect,16,ATG
25 Perfect,16,ATT
6 Perfect,16,CAA
5 Perfect,16,CAC
4 Perfect,16,CAG
2 Perfect,16,CAT
5 Perfect,16,CCA
6 Perfect,16,CCC
3 Perfect,16,CCG
14 Perfect,16,CCT
1 Perfect,16,CGA
4 Perfect,16,CGC
1 Perfect,16,CGG
6 Perfect,16,CTC
2 Perfect,16,CTG
2 Perfect,16,CTT
7 Perfect,16,GAA
9 Perfect,16,GAG
3 Perfect,16,GAT
3 Perfect,16,GCA
3 Perfect,16,GCC
5 Perfect,16,GCG
2 Perfect,16,GCT
6 Perfect,16,GGA
3 Perfect,16,GGC
5 Perfect,16,GGG
5 Perfect,16,GGT
2 Perfect,16,GTA
8 Perfect,16,GTG
4 Perfect,16,GTT
23 Perfect,16,TAA
2 Perfect,16,TAC
2 Perfect,16,TAG
51 Perfect,16,TAT
3 Perfect,16,TCA
16 Perfect,16,TCC
10 Perfect,16,TCT
12 Perfect,16,TGA
7 Perfect,16,TGC
9 Perfect,16,TGG
24 Perfect,16,TGT
60 Perfect,16,TTA
5 Perfect,16,TTC
27 Perfect,16,TTG
1803 Perfect,16,TTT
1390 Perfect,17,AAA
181 Perfect,17,AAC
23 Perfect,17,AAG
96 Perfect,17,AAT
1 Perfect,17,ACA
6 Perfect,17,ACC
5 Perfect,17,AGA
3 Perfect,17,AGC
7 Perfect,17,AGG
1 Perfect,17,AGT
16 Perfect,17,ATA
10 Perfect,17,ATC
3 Perfect,17,ATG
12 Perfect,17,ATT
4 Perfect,17,CAA
7 Perfect,17,CAC
6 Perfect,17,CAG
11 Perfect,17,CAT
4 Perfect,17,CCA
4 Perfect,17,CCC
2 Perfect,17,CCG
14 Perfect,17,CCT
1 Perfect,17,CGC
2 Perfect,17,CGG
10 Perfect,17,CTC
3 Perfect,17,CTG
5 Perfect,17,GAA
10 Perfect,17,GAG
6 Perfect,17,GAT
2 Perfect,17,GCA
2 Perfect,17,GCC
1 Perfect,17,GCG
4 Perfect,17,GCT
3 Perfect,17,GGA
2 Perfect,17,GGC
2 Perfect,17,GGG
1 Perfect,17,GGT
1 Perfect,17,GTC
2 Perfect,17,GTG
1 Perfect,17,GTT
17 Perfect,17,TAA
6 Perfect,17,TAC
3 Perfect,17,TAG
10 Perfect,17,TAT
1 Perfect,17,TCA
24 Perfect,17,TCC
3 Perfect,17,TCT
4 Perfect,17,TGA
6 Perfect,17,TGC
10 Perfect,17,TGG
5 Perfect,17,TGT
111 Perfect,17,TTA
24 Perfect,17,TTC
207 Perfect,17,TTG
1527 Perfect,17,TTT
1165 Perfect,18,AAA
12 Perfect,18,AAC
11 Perfect,18,AAG
54 Perfect,18,AAT
3 Perfect,18,ACA
2 Perfect,18,ACC
2 Perfect,18,AGA
1 Perfect,18,AGC
6 Perfect,18,AGG
8 Perfect,18,ATA
3 Perfect,18,ATC
2 Perfect,18,ATG
41 Perfect,18,ATT
37 Perfect,18,CAA
1 Perfect,18,CAC
1 Perfect,18,CAG
4 Perfect,18,CCA
3 Perfect,18,CCC
1 Perfect,18,CCG
6 Perfect,18,CCT
1 Perfect,18,CTA
4 Perfect,18,CTC
4 Perfect,18,CTG
4 Perfect,18,CTT
4 Perfect,18,GAA
3 Perfect,18,GAG
2 Perfect,18,GAT
1 Perfect,18,GCA
3 Perfect,18,GCC
1 Perfect,18,GCG
2 Perfect,18,GCT
2 Perfect,18,GGA
3 Perfect,18,GGC
1 Perfect,18,GGG
7 Perfect,18,GTG
12 Perfect,18,GTT
7 Perfect,18,TAA
1 Perfect,18,TAC
11 Perfect,18,TAT
2 Perfect,18,TCA
8 Perfect,18,TCC
2 Perfect,18,TCT
4 Perfect,18,TGA
2 Perfect,18,TGC
5 Perfect,18,TGG
3 Perfect,18,TGT
14 Perfect,18,TTA
2 Perfect,18,TTC
33 Perfect,18,TTG
1194 Perfect,18,TTT
1011 Perfect,19,AAA
13 Perfect,19,AAC
2 Perfect,19,AAG
18 Perfect,19,AAT
12 Perfect,19,ACA
10 Perfect,19,ACC
1 Perfect,19,ACT
3 Perfect,19,AGC
4 Perfect,19,AGG
21 Perfect,19,ATA
2 Perfect,19,ATC
3 Perfect,19,ATG
6 Perfect,19,ATT
4 Perfect,19,CAG
3 Perfect,19,CCA
4 Perfect,19,CCT
1 Perfect,19,CGC
1 Perfect,19,CGG
2 Perfect,19,CTC
1 Perfect,19,CTG
3 Perfect,19,CTT
2 Perfect,19,GAA
2 Perfect,19,GAG
4 Perfect,19,GAT
3 Perfect,19,GCC
1 Perfect,19,GCG
1 Perfect,19,GCT
3 Perfect,19,GGA
2 Perfect,19,GGG
3 Perfect,19,GGT
1 Perfect,19,GTG
2 Perfect,19,GTT
6 Perfect,19,TAA
1 Perfect,19,TAC
1 Perfect,19,TAG
26 Perfect,19,TAT
4 Perfect,19,TCA
3 Perfect,19,TCC
3 Perfect,19,TCT
9 Perfect,19,TGA
5 Perfect,19,TGC
2 Perfect,19,TGG
2 Perfect,19,TGT
29 Perfect,19,TTA
1 Perfect,19,TTC
16 Perfect,19,TTG
997 Perfect,19,TTT
785 Perfect,20,AAA
106 Perfect,20,AAC
21 Perfect,20,AAG
36 Perfect,20,AAT
4 Perfect,20,ACC
1 Perfect,20,ACT
3 Perfect,20,AGA
4 Perfect,20,AGG
5 Perfect,20,ATA
7 Perfect,20,ATC
1 Perfect,20,ATG
3 Perfect,20,ATT
5 Perfect,20,CAA
2 Perfect,20,CAC
1 Perfect,20,CAG
1 Perfect,20,CAT
1 Perfect,20,CCA
1 Perfect,20,CCC
3 Perfect,20,CCT
5 Perfect,20,CTC
1 Perfect,20,CTG
1 Perfect,20,CTT
2 Perfect,20,GAA
2 Perfect,20,GAG
1 Perfect,20,GCA
2 Perfect,20,GCC
4 Perfect,20,GCG
1 Perfect,20,GCT
3 Perfect,20,GGA
1 Perfect,20,GGT
4 Perfect,20,GTG
9 Perfect,20,TAA
2 Perfect,20,TAC
1 Perfect,20,TAG
4 Perfect,20,TAT
4 Perfect,20,TCA
10 Perfect,20,TCC
1 Perfect,20,TCT
5 Perfect,20,TGA
3 Perfect,20,TGC
3 Perfect,20,TGG
3 Perfect,20,TGT
37 Perfect,20,TTA
10 Perfect,20,TTC
90 Perfect,20,TTG
803 Perfect,20,TTT
724 Perfect,21,AAA
11 Perfect,21,AAC
6 Perfect,21,AAG
31 Perfect,21,AAT
1 Perfect,21,AGA
1 Perfect,21,AGC
1 Perfect,21,AGG
1 Perfect,21,ATA
1 Perfect,21,ATC
1 Perfect,21,ATG
25 Perfect,21,ATT
15 Perfect,21,CAA
1 Perfect,21,CAG
1 Perfect,21,CAT
4 Perfect,21,CCA
1 Perfect,21,CCT
1 Perfect,21,CGG
6 Perfect,21,CTC
1 Perfect,21,CTG
2 Perfect,21,CTT
1 Perfect,21,GAA
3 Perfect,21,GAG
1 Perfect,21,GCG
1 Perfect,21,GCT
1 Perfect,21,GGC
1 Perfect,21,GGG
5 Perfect,21,GTG
6 Perfect,21,GTT
9 Perfect,21,TAA
1 Perfect,21,TAC
2 Perfect,21,TAT
2 Perfect,21,TCA
2 Perfect,21,TCC
1 Perfect,21,TCT
1 Perfect,21,TGA
1 Perfect,21,TGC
1 Perfect,21,TGG
1 Perfect,21,TGT
9 Perfect,21,TTA
2 Perfect,21,TTC
20 Perfect,21,TTG
775 Perfect,21,TTT
658 Perfect,22,AAA
1 Perfect,22,AAC
3 Perfect,22,AAG
10 Perfect,22,AAT
6 Perfect,22,ACA
1 Perfect,22,ACC
1 Perfect,22,ACT
2 Perfect,22,AGC
10 Perfect,22,ATA
1 Perfect,22,ATC
4 Perfect,22,ATG
3 Perfect,22,ATT
2 Perfect,22,CAA
2 Perfect,22,CAG
1 Perfect,22,CCC
1 Perfect,22,CTC
1 Perfect,22,CTG
3 Perfect,22,CTT
3 Perfect,22,GAA
2 Perfect,22,GAG
1 Perfect,22,GAT
1 Perfect,22,GCA
1 Perfect,22,GCT
1 Perfect,22,GGA
1 Perfect,22,GGT
1 Perfect,22,GTG
4 Perfect,22,GTT
9 Perfect,22,TAT
1 Perfect,22,TCA
4 Perfect,22,TCC
1 Perfect,22,TCT
2 Perfect,22,TGA
1 Perfect,22,TGC
4 Perfect,22,TGT
22 Perfect,22,TTA
11 Perfect,22,TTG
657 Perfect,22,TTT
601 Perfect,23,AAA
38 Perfect,23,AAC
6 Perfect,23,AAG
22 Perfect,23,AAT
3 Perfect,23,ACA
1 Perfect,23,ACC
1 Perfect,23,AGA
3 Perfect,23,AGC
4 Perfect,23,AGG
4 Perfect,23,ATA
3 Perfect,23,ATC
2 Perfect,23,ATG
3 Perfect,23,ATT
1 Perfect,23,CAA
1 Perfect,23,CAC
1 Perfect,23,CAT
1 Perfect,23,CCC
1 Perfect,23,CCG
1 Perfect,23,CTA
4 Perfect,23,CTC
1 Perfect,23,CTT
1 Perfect,23,GAG
1 Perfect,23,GAT
3 Perfect,23,GCG
2 Perfect,23,GGA
4 Perfect,23,GGC
1 Perfect,23,GTG
2 Perfect,23,TAA
1 Perfect,23,TAT
1 Perfect,23,TCA
2 Perfect,23,TCC
2 Perfect,23,TGA
2 Perfect,23,TGC
1 Perfect,23,TGG
1 Perfect,23,TGT
19 Perfect,23,TTA
4 Perfect,23,TTC
41 Perfect,23,TTG
609 Perfect,23,TTT
552 Perfect,24,AAA
3 Perfect,24,AAC
1 Perfect,24,AAG
21 Perfect,24,AAT
3 Perfect,24,ACA
1 Perfect,24,AGC
1 Perfect,24,ATA
2 Perfect,24,ATG
18 Perfect,24,ATT
14 Perfect,24,CAA
1 Perfect,24,CAT
1 Perfect,24,CCT
1 Perfect,24,CTT
1 Perfect,24,GAG
2 Perfect,24,GAT
1 Perfect,24,GCA
1 Perfect,24,GGC
1 Perfect,24,GGT
1 Perfect,24,GTG
2 Perfect,24,TAA
1 Perfect,24,TAG
4 Perfect,24,TAT
2 Perfect,24,TCC
2 Perfect,24,TGA
1 Perfect,24,TGT
2 Perfect,24,TTA
1 Perfect,24,TTC
7 Perfect,24,TTG
507 Perfect,24,TTT
426 Perfect,25,AAA
5 Perfect,25,AAC
2 Perfect,25,AAG
9 Perfect,25,AAT
4 Perfect,25,ATA
1 Perfect,25,ATG
2 Perfect,25,ATT
1 Perfect,25,CCT
1 Perfect,25,CTC
1 Perfect,25,GAG
1 Perfect,25,GCA
1 Perfect,25,GGA
1 Perfect,25,GTT
2 Perfect,25,TAA
3 Perfect,25,TAT
1 Perfect,25,TCT
1 Perfect,25,TGA
7 Perfect,25,TTA
2 Perfect,25,TTG
470 Perfect,25,TTT
288 Perfect,26,AAA
22 Perfect,26,AAC
1 Perfect,26,AAG
10 Perfect,26,AAT
1 Perfect,26,ACC
1 Perfect,26,ATC
1 Perfect,26,ATG
3 Perfect,26,ATT
1 Perfect,26,CAA
2 Perfect,26,CAG
1 Perfect,26,CCA
1 Perfect,26,CTC
1 Perfect,26,CTG
1 Perfect,26,GAA
1 Perfect,26,GAT
1 Perfect,26,GTT
1 Perfect,26,TAA
1 Perfect,26,TAC
1 Perfect,26,TCA
1 Perfect,26,TGC
14 Perfect,26,TTA
1 Perfect,26,TTC
31 Perfect,26,TTG
326 Perfect,26,TTT
267 Perfect,27,AAA
3 Perfect,27,AAC
1 Perfect,27,AAG
5 Perfect,27,AAT
2 Perfect,27,ACA
1 Perfect,27,ATA
1 Perfect,27,ATG
6 Perfect,27,ATT
3 Perfect,27,CAA
1 Perfect,27,CAG
1 Perfect,27,CCA
1 Perfect,27,CCC
1 Perfect,27,CGC
1 Perfect,27,CTC
1 Perfect,27,CTT
1 Perfect,27,GAT
1 Perfect,27,GCC
1 Perfect,27,GCG
1 Perfect,27,GGA
1 Perfect,27,GGT
1 Perfect,27,GTT
1 Perfect,27,TAA
1 Perfect,27,TCA
4 Perfect,27,TTA
1 Perfect,27,TTC
5 Perfect,27,TTG
258 Perfect,27,TTT
184 Perfect,28,AAA
1 Perfect,28,AAG
4 Perfect,28,AAT
1 Perfect,28,ACA
1 Perfect,28,ACC
1 Perfect,28,AGG
2 Perfect,28,ATA
2 Perfect,28,ATC
2 Perfect,28,ATT
1 Perfect,28,CAT
1 Perfect,28,CCT
1 Perfect,28,CTT
1 Perfect,28,GTT
1 Perfect,28,TAA
1 Perfect,28,TAT
1 Perfect,28,TCA
1 Perfect,28,TGT
7 Perfect,28,TTA
3 Perfect,28,TTG
229 Perfect,28,TTT
178 Perfect,29,AAA
12 Perfect,29,AAC
6 Perfect,29,AAT
1 Perfect,29,ACA
1 Perfect,29,ACC
1 Perfect,29,ATA
1 Perfect,29,ATG
1 Perfect,29,CAC
1 Perfect,29,CAT
1 Perfect,29,CCA
1 Perfect,29,CCG
1 Perfect,29,CGC
1 Perfect,29,CTT
2 Perfect,29,GAG
1 Perfect,29,GCG
1 Perfect,29,GGA
1 Perfect,29,TAT
1 Perfect,29,TCA
1 Perfect,29,TCC
2 Perfect,29,TGC
8 Perfect,29,TTA
1 Perfect,29,TTC
10 Perfect,29,TTG
177 Perfect,29,TTT
115 Perfect,30,AAA
5 Perfect,30,AAT
1 Perfect,30,AGA
1 Perfect,30,AGT
1 Perfect,30,ATA
8 Perfect,30,ATT
2 Perfect,30,CAA
1 Perfect,30,CCG
1 Perfect,30,CTG
1 Perfect,30,GAG
1 Perfect,30,GTT
2 Perfect,30,TAA
2 Perfect,30,TCA
1 Perfect,30,TCC
2 Perfect,30,TTA
2 Perfect,30,TTG
137 Perfect,30,TTT
89 Perfect,31,AAA
2 Perfect,31,AAC
1 Perfect,31,AAT
5 Perfect,31,ATA
1 Perfect,31,ATC
1 Perfect,31,CAT
1 Perfect,31,CGC
1 Perfect,31,GTG
2 Perfect,31,TAA
3 Perfect,31,TAT
1 Perfect,31,TCC
1 Perfect,31,TCT
1 Perfect,31,TGA
1 Perfect,31,TGT
1 Perfect,31,TTA
1 Perfect,31,TTC
1 Perfect,31,TTG
70 Perfect,31,TTT
58 Perfect,32,AAA
8 Perfect,32,AAC
2 Perfect,32,AAG
4 Perfect,32,AAT
1 Perfect,32,AGG
1 Perfect,32,ATA
1 Perfect,32,ATG
1 Perfect,32,CAC
1 Perfect,32,CAT
1 Perfect,32,CTG
1 Perfect,32,GAT
1 Perfect,32,GCA
1 Perfect,32,GCG
1 Perfect,32,GGA
1 Perfect,32,GTA
1 Perfect,32,TAT
1 Perfect,32,TCT
1 Perfect,32,TGC
5 Perfect,32,TTA
7 Perfect,32,TTG
54 Perfect,32,TTT
46 Perfect,33,AAA
4 Perfect,33,AAT
1 Perfect,33,ATA
3 Perfect,33,ATT
1 Perfect,33,CAC
1 Perfect,33,CTG
1 Perfect,33,GAA
1 Perfect,33,GAT
1 Perfect,33,GGA
1 Perfect,33,TAA
1 Perfect,33,TAT
1 Perfect,33,TGA
1 Perfect,33,TTA
2 Perfect,33,TTG
38 Perfect,33,TTT
23 Perfect,34,AAA
2 Perfect,34,AAC
4 Perfect,34,AAT
2 Perfect,34,ACA
3 Perfect,34,ATA
1 Perfect,34,CAA
1 Perfect,34,TAA
4 Perfect,34,TAT
2 Perfect,34,TGT
2 Perfect,34,TTA
1 Perfect,34,TTG
31 Perfect,34,TTT
34 Perfect,35,AAA
2 Perfect,35,AAC
7 Perfect,35,AAT
1 Perfect,35,ATT
1 Perfect,35,GCC
1 Perfect,35,TCT
1 Perfect,35,TGT
8 Perfect,35,TTA
5 Perfect,35,TTG
30 Perfect,35,TTT
28 Perfect,36,AAA
3 Perfect,36,AAT
4 Perfect,36,ATT
1 Perfect,36,CAA
1 Perfect,36,TAA
1 Perfect,36,TGT
1 Perfect,36,TTA
1 Perfect,36,TTG
41 Perfect,36,TTT
26 Perfect,37,AAA
3 Perfect,37,AAT
1 Perfect,37,ATA
1 Perfect,37,ATT
1 Perfect,37,CTT
1 Perfect,37,GTT
2 Perfect,37,TAA
4 Perfect,37,TAT
1 Perfect,37,TGC
1 Perfect,37,TGG
4 Perfect,37,TTA
21 Perfect,37,TTT
33 Perfect,38,AAA
2 Perfect,38,AAC
5 Perfect,38,AAT
1 Perfect,38,ATT
2 Perfect,38,TAA
2 Perfect,38,TAT
5 Perfect,38,TTA
2 Perfect,38,TTC
5 Perfect,38,TTG
24 Perfect,38,TTT
19 Perfect,39,AAA
1 Perfect,39,AAT
1 Perfect,39,AGA
5 Perfect,39,ATT
1 Perfect,39,CAT
1 Perfect,39,GAT
2 Perfect,39,TAT
1 Perfect,39,TCA
29 Perfect,39,TTT
15 Perfect,40,AAA
1 Perfect,40,AAC
4 Perfect,40,AAT
2 Perfect,40,ACA
1 Perfect,40,ATT
2 Perfect,40,TAT
1 Perfect,40,TGA
3 Perfect,40,TTA
2 Perfect,40,TTG
18 Perfect,40,TTT
20 Perfect,41,AAA
6 Perfect,41,AAC
4 Perfect,41,AAT
1 Perfect,41,AGC
1 Perfect,41,ATA
2 Perfect,41,ATT
1 Perfect,41,GAG
1 Perfect,41,TGT
5 Perfect,41,TTA
14 Perfect,41,TTT
6 Perfect,42,AAA
7 Perfect,42,AAT
1 Perfect,42,ATC
3 Perfect,42,ATT
2 Perfect,42,GAT
1 Perfect,42,GCA
1 Perfect,42,TAA
2 Perfect,42,TTA
6 Perfect,42,TTT
5 Perfect,43,AAA
1 Perfect,43,AAC
6 Perfect,43,AAT
2 Perfect,43,ATA
1 Perfect,43,ATC
2 Perfect,43,TAT
1 Perfect,43,TCT
1 Perfect,43,TTA
7 Perfect,43,TTT
4 Perfect,44,AAA
3 Perfect,44,AAT
1 Perfect,44,CAT
2 Perfect,44,GAA
4 Perfect,44,TTA
9 Perfect,44,TTT
3 Perfect,45,AAA
2 Perfect,45,AAT
5 Perfect,45,ATT
1 Perfect,45,GAA
1 Perfect,45,TAC
2 Perfect,45,TTA
3 Perfect,45,TTT
6 Perfect,46,AAA
1 Perfect,46,AAT
1 Perfect,46,ATA
1 Perfect,46,GAG
4 Perfect,46,TAT
1 Perfect,46,TGT
1 Perfect,46,TTA
5 Perfect,46,TTT
8 Perfect,47,AAA
1 Perfect,47,AAC
4 Perfect,47,AAT
1 Perfect,47,ATA
1 Perfect,47,TCA
2 Perfect,47,TTA
1 Perfect,47,TTG
4 Perfect,47,TTT
4 Perfect,48,AAA
2 Perfect,48,AAT
3 Perfect,48,ATT
1 Perfect,48,CTT
7 Perfect,48,TTT
1 Perfect,49,AAA
1 Perfect,49,AAG
1 Perfect,49,AAT
1 Perfect,49,ATA
1 Perfect,49,ATT
1 Perfect,49,CAT
2 Perfect,49,TAT
1 Perfect,49,TGC
1 Perfect,49,TTA
2 Perfect,49,TTT
2 Perfect,50,AAT
5 Perfect,50,TTA
1 Perfect,50,TTG
5 Perfect,50,TTT
3 Perfect,51,AAA
2 Perfect,51,ATT
1 Perfect,51,GTT
2 Perfect,51,TTT
1 Perfect,52,TAT
2 Perfect,52,TTT
1 Perfect,53,AAA
1 Perfect,53,AAT
1 Perfect,53,TAC
2 Perfect,53,TTA
1 Perfect,53,TTG
2 Perfect,54,AAA
1 Perfect,54,AAT
1 Perfect,54,GGT
1 Perfect,55,TCT
1 Perfect,56,AAA
1 Perfect,56,AAC
1 Perfect,56,GAA
1 Perfect,56,TTT
1 Perfect,57,AGA
1 Perfect,57,CTC
1 Perfect,58,AAA
1 Perfect,58,AAG
1 Perfect,59,AGA
1 Perfect,59,TCT
1 Perfect,60,AAA
1 Perfect,60,AGA
1 Perfect,61,AGA
1 Perfect,61,AGG
1 Perfect,61,GAA
1 Perfect,63,CTT
1 Perfect,64,AGA
1 Perfect,64,AGC
1 Perfect,65,TGG
1 Perfect,67,AAG
1 Perfect,67,GAA
2 Perfect,69,TTC
128914 Perfect,6,AAA
25866 Perfect,6,AAC
50858 Perfect,6,AAG
75856 Perfect,6,AAT
30215 Perfect,6,ACA
14954 Perfect,6,ACC
556 Perfect,6,ACG
23571 Perfect,6,ACT
47267 Perfect,6,AGA
22091 Perfect,6,AGC
46260 Perfect,6,AGG
23413 Perfect,6,AGT
46095 Perfect,6,ATA
21893 Perfect,6,ATC
35114 Perfect,6,ATG
75923 Perfect,6,ATT
43378 Perfect,6,CAA
30319 Perfect,6,CAC
41013 Perfect,6,CAG
35067 Perfect,6,CAT
40747 Perfect,6,CCA
14147 Perfect,6,CCC
1039 Perfect,6,CCG
46589 Perfect,6,CCT
380 Perfect,6,CGA
1215 Perfect,6,CGC
1102 Perfect,6,CGG
559 Perfect,6,CGT
35339 Perfect,6,CTA
30900 Perfect,6,CTC
41661 Perfect,6,CTG
50552 Perfect,6,CTT
54284 Perfect,6,GAA
2729 Perfect,6,GAC
29999 Perfect,6,GAG
21894 Perfect,6,GAT
24115 Perfect,6,GCA
5502 Perfect,6,GCC
1070 Perfect,6,GCG
22307 Perfect,6,GCT
31687 Perfect,6,GGA
5751 Perfect,6,GGC
14425 Perfect,6,GGG
15153 Perfect,6,GGT
15281 Perfect,6,GTA
2606 Perfect,6,GTC
30155 Perfect,6,GTG
25732 Perfect,6,GTT
52842 Perfect,6,TAA
15159 Perfect,6,TAC
35682 Perfect,6,TAG
45679 Perfect,6,TAT
34286 Perfect,6,TCA
31645 Perfect,6,TCC
377 Perfect,6,TCG
47444 Perfect,6,TCT
34174 Perfect,6,TGA
23948 Perfect,6,TGC
40238 Perfect,6,TGG
30253 Perfect,6,TGT
52900 Perfect,6,TTA
54096 Perfect,6,TTC
43386 Perfect,6,TTG
129496 Perfect,6,TTT
1 Perfect,71,TTC
1 Perfect,73,AGA
1 Perfect,75,AAG
1 Perfect,75,GAA
1 Perfect,77,CTT
1 Perfect,78,TTC
53585 Perfect,7,AAA
13342 Perfect,7,AAC
18528 Perfect,7,AAG
21920 Perfect,7,AAT
10213 Perfect,7,ACA
8180 Perfect,7,ACC
123 Perfect,7,ACG
5423 Perfect,7,ACT
24924 Perfect,7,AGA
9779 Perfect,7,AGC
14274 Perfect,7,AGG
6063 Perfect,7,AGT
17308 Perfect,7,ATA
9022 Perfect,7,ATC
12027 Perfect,7,ATG
15017 Perfect,7,ATT
4516 Perfect,7,CAA
5120 Perfect,7,CAC
8366 Perfect,7,CAG
6511 Perfect,7,CAT
17229 Perfect,7,CCA
2260 Perfect,7,CCC
442 Perfect,7,CCG
9158 Perfect,7,CCT
99 Perfect,7,CGA
594 Perfect,7,CGC
448 Perfect,7,CGG
171 Perfect,7,CGT
3003 Perfect,7,CTA
8487 Perfect,7,CTC
8325 Perfect,7,CTG
10433 Perfect,7,CTT
10509 Perfect,7,GAA
159 Perfect,7,GAC
9311 Perfect,7,GAG
6609 Perfect,7,GAT
8341 Perfect,7,GCA
415 Perfect,7,GCC
475 Perfect,7,GCG
8252 Perfect,7,GCT
8390 Perfect,7,GGA
587 Perfect,7,GGC
2081 Perfect,7,GGG
5117 Perfect,7,GGT
3070 Perfect,7,GTA
91 Perfect,7,GTC
17283 Perfect,7,GTG
4430 Perfect,7,GTT
15095 Perfect,7,TAA
6115 Perfect,7,TAC
5283 Perfect,7,TAG
22007 Perfect,7,TAT
11936 Perfect,7,TCA
14401 Perfect,7,TCC
130 Perfect,7,TCG
18605 Perfect,7,TCT
8950 Perfect,7,TGA
9920 Perfect,7,TGC
8071 Perfect,7,TGG
13465 Perfect,7,TGT
17080 Perfect,7,TTA
25115 Perfect,7,TTC
10376 Perfect,7,TTG
53739 Perfect,7,TTT
1 Perfect,84,AAG
1 Perfect,85,AGA
19146 Perfect,8,AAA
5308 Perfect,8,AAC
9871 Perfect,8,AAG
10438 Perfect,8,AAT
1129 Perfect,8,ACA
2010 Perfect,8,ACC
27 Perfect,8,ACG
816 Perfect,8,ACT
3522 Perfect,8,AGA
3123 Perfect,8,AGC
3230 Perfect,8,AGG
1298 Perfect,8,AGT
5025 Perfect,8,ATA
2963 Perfect,8,ATC
2925 Perfect,8,ATG
4977 Perfect,8,ATT
2593 Perfect,8,CAA
4204 Perfect,8,CAC
4178 Perfect,8,CAG
2541 Perfect,8,CAT
2388 Perfect,8,CCA
475 Perfect,8,CCC
357 Perfect,8,CCG
3488 Perfect,8,CCT
14 Perfect,8,CGA
83 Perfect,8,CGC
90 Perfect,8,CGG
18 Perfect,8,CGT
1282 Perfect,8,CTA
3246 Perfect,8,CTC
3116 Perfect,8,CTG
3419 Perfect,8,CTT
3384 Perfect,8,GAA
46 Perfect,8,GAC
2944 Perfect,8,GAG
1976 Perfect,8,GAT
1796 Perfect,8,GCA
235 Perfect,8,GCC
205 Perfect,8,GCG
1819 Perfect,8,GCT
3446 Perfect,8,GGA
399 Perfect,8,GGC
385 Perfect,8,GGG
2398 Perfect,8,GGT
838 Perfect,8,GTA
37 Perfect,8,GTC
2097 Perfect,8,GTG
1117 Perfect,8,GTT
4981 Perfect,8,TAA
1511 Perfect,8,TAC
1559 Perfect,8,TAG
4910 Perfect,8,TAT
2055 Perfect,8,TCA
2997 Perfect,8,TCC
44 Perfect,8,TCG
3284 Perfect,8,TCT
2473 Perfect,8,TGA
4208 Perfect,8,TGC
4289 Perfect,8,TGG
2485 Perfect,8,TGT
10524 Perfect,8,TTA
9947 Perfect,8,TTC
5527 Perfect,8,TTG
19276 Perfect,8,TTT
1 Perfect,90,GAA
1 Perfect,99,TCT
10856 Perfect,9,AAA
486 Perfect,9,AAC
1074 Perfect,9,AAG
2966 Perfect,9,AAT
471 Perfect,9,ACA
437 Perfect,9,ACC
4 Perfect,9,ACG
321 Perfect,9,ACT
1233 Perfect,9,AGA
679 Perfect,9,AGC
988 Perfect,9,AGG
367 Perfect,9,AGT
1797 Perfect,9,ATA
422 Perfect,9,ATC
739 Perfect,9,ATG
2865 Perfect,9,ATT
981 Perfect,9,CAA
2535 Perfect,9,CAC
1098 Perfect,9,CAG
741 Perfect,9,CAT
1465 Perfect,9,CCA
175 Perfect,9,CCC
36 Perfect,9,CCG
1023 Perfect,9,CCT
3 Perfect,9,CGA
61 Perfect,9,CGC
44 Perfect,9,CGG
4 Perfect,9,CGT
304 Perfect,9,CTA
959 Perfect,9,CTC
1193 Perfect,9,CTG
1128 Perfect,9,CTT
1672 Perfect,9,GAA
14 Perfect,9,GAC
919 Perfect,9,GAG
480 Perfect,9,GAT
698 Perfect,9,GCA
104 Perfect,9,GCC
51 Perfect,9,GCG
676 Perfect,9,GCT
859 Perfect,9,GGA
124 Perfect,9,GGC
169 Perfect,9,GGG
460 Perfect,9,GGT
260 Perfect,9,GTA
13 Perfect,9,GTC
2648 Perfect,9,GTG
543 Perfect,9,GTT
1879 Perfect,9,TAA
222 Perfect,9,TAC
306 Perfect,9,TAG
1776 Perfect,9,TAT
1284 Perfect,9,TCA
855 Perfect,9,TCC
3 Perfect,9,TCG
1278 Perfect,9,TCT
1291 Perfect,9,TGA
674 Perfect,9,TGC
1476 Perfect,9,TGG
469 Perfect,9,TGT
1882 Perfect,9,TTA
1646 Perfect,9,TTC
1015 Perfect,9,TTG
11075 Perfect,9,TTT
