1058025 Imperfect,3,AA
878452 Imperfect,3,AC
887518 Imperfect,3,AG
748548 Imperfect,3,AT
480931 Imperfect,3,CA
509733 Imperfect,3,CC
106849 Imperfect,3,CG
494167 Imperfect,3,CT
494927 Imperfect,3,GA
107647 Imperfect,3,GC
510900 Imperfect,3,GG
484869 Imperfect,3,GT
745892 Imperfect,3,TA
887495 Imperfect,3,TC
879052 Imperfect,3,TG
1059241 Imperfect,3,TT
2501 Perfect,10,AA
264 Perfect,10,AC
253 Perfect,10,AG
831 Perfect,10,AT
473 Perfect,10,CA
41 Perfect,10,CC
6 Perfect,10,CG
247 Perfect,10,CT
239 Perfect,10,GA
17 Perfect,10,GC
36 Perfect,10,GG
307 Perfect,10,GT
707 Perfect,10,TA
281 Perfect,10,TC
493 Perfect,10,TG
2646 Perfect,10,TT
1519 Perfect,11,AA
528 Perfect,11,AC
243 Perfect,11,AG
419 Perfect,11,AT
155 Perfect,11,CA
23 Perfect,11,CC
11 Perfect,11,CG
109 Perfect,11,CT
109 Perfect,11,GA
10 Perfect,11,GC
27 Perfect,11,GG
161 Perfect,11,GT
447 Perfect,11,TA
297 Perfect,11,TC
473 Perfect,11,TG
1488 Perfect,11,TT
1125 Perfect,12,AA
108 Perfect,12,AC
76 Perfect,12,AG
250 Perfect,12,AT
171 Perfect,12,CA
18 Perfect,12,CC
1 Perfect,12,CG
75 Perfect,12,CT
107 Perfect,12,GA
5 Perfect,12,GC
16 Perfect,12,GG
127 Perfect,12,GT
295 Perfect,12,TA
93 Perfect,12,TC
187 Perfect,12,TG
1169 Perfect,12,TT
993 Perfect,13,AA
246 Perfect,13,AC
129 Perfect,13,AG
199 Perfect,13,AT
71 Perfect,13,CA
15 Perfect,13,CC
1 Perfect,13,CG
41 Perfect,13,CT
46 Perfect,13,GA
1 Perfect,13,GC
6 Perfect,13,GG
85 Perfect,13,GT
202 Perfect,13,TA
155 Perfect,13,TC
243 Perfect,13,TG
989 Perfect,13,TT
845 Perfect,14,AA
74 Perfect,14,AC
29 Perfect,14,AG
154 Perfect,14,AT
78 Perfect,14,CA
6 Perfect,14,CC
40 Perfect,14,CT
44 Perfect,14,GA
2 Perfect,14,GC
3 Perfect,14,GG
82 Perfect,14,GT
154 Perfect,14,TA
46 Perfect,14,TC
92 Perfect,14,TG
872 Perfect,14,TT
804 Perfect,15,AA
131 Perfect,15,AC
73 Perfect,15,AG
102 Perfect,15,AT
36 Perfect,15,CA
2 Perfect,15,CC
3 Perfect,15,CG
13 Perfect,15,CT
30 Perfect,15,GA
1 Perfect,15,GC
3 Perfect,15,GG
41 Perfect,15,GT
102 Perfect,15,TA
93 Perfect,15,TC
138 Perfect,15,TG
776 Perfect,15,TT
653 Perfect,16,AA
36 Perfect,16,AC
29 Perfect,16,AG
68 Perfect,16,AT
43 Perfect,16,CA
1 Perfect,16,CC
1 Perfect,16,CG
28 Perfect,16,CT
39 Perfect,16,GA
1 Perfect,16,GC
38 Perfect,16,GT
68 Perfect,16,TA
33 Perfect,16,TC
42 Perfect,16,TG
655 Perfect,16,TT
517 Perfect,17,AA
91 Perfect,17,AC
51 Perfect,17,AG
49 Perfect,17,AT
22 Perfect,17,CA
1 Perfect,17,CC
2 Perfect,17,CG
8 Perfect,17,CT
15 Perfect,17,GA
30 Perfect,17,GT
40 Perfect,17,TA
65 Perfect,17,TC
86 Perfect,17,TG
503 Perfect,17,TT
410 Perfect,18,AA
26 Perfect,18,AC
13 Perfect,18,AG
45 Perfect,18,AT
31 Perfect,18,CA
1 Perfect,18,CC
17 Perfect,18,CT
21 Perfect,18,GA
1 Perfect,18,GC
18 Perfect,18,GT
47 Perfect,18,TA
27 Perfect,18,TC
37 Perfect,18,TG
429 Perfect,18,TT
335 Perfect,19,AA
49 Perfect,19,AC
29 Perfect,19,AG
39 Perfect,19,AT
11 Perfect,19,CA
7 Perfect,19,CT
6 Perfect,19,GA
12 Perfect,19,GT
35 Perfect,19,TA
26 Perfect,19,TC
58 Perfect,19,TG
334 Perfect,19,TT
287 Perfect,20,AA
23 Perfect,20,AC
7 Perfect,20,AG
35 Perfect,20,AT
26 Perfect,20,CA
1 Perfect,20,CC
15 Perfect,20,CT
10 Perfect,20,GA
23 Perfect,20,GT
28 Perfect,20,TA
18 Perfect,20,TC
20 Perfect,20,TG
298 Perfect,20,TT
272 Perfect,21,AA
38 Perfect,21,AC
13 Perfect,21,AG
20 Perfect,21,AT
10 Perfect,21,CA
8 Perfect,21,CT
7 Perfect,21,GA
1 Perfect,21,GC
15 Perfect,21,GT
23 Perfect,21,TA
16 Perfect,21,TC
44 Perfect,21,TG
249 Perfect,21,TT
234 Perfect,22,AA
26 Perfect,22,AC
4 Perfect,22,AG
22 Perfect,22,AT
16 Perfect,22,CA
5 Perfect,22,CT
4 Perfect,22,GA
28 Perfect,22,GT
14 Perfect,22,TA
13 Perfect,22,TC
17 Perfect,22,TG
250 Perfect,22,TT
218 Perfect,23,AA
39 Perfect,23,AC
8 Perfect,23,AG
24 Perfect,23,AT
9 Perfect,23,CA
4 Perfect,23,CT
5 Perfect,23,GA
14 Perfect,23,GT
12 Perfect,23,TA
15 Perfect,23,TC
46 Perfect,23,TG
192 Perfect,23,TT
185 Perfect,24,AA
24 Perfect,24,AC
5 Perfect,24,AG
22 Perfect,24,AT
18 Perfect,24,CA
4 Perfect,24,CT
9 Perfect,24,GA
22 Perfect,24,GT
12 Perfect,24,TA
9 Perfect,24,TC
17 Perfect,24,TG
181 Perfect,24,TT
143 Perfect,25,AA
38 Perfect,25,AC
6 Perfect,25,AG
12 Perfect,25,AT
8 Perfect,25,CA
4 Perfect,25,CT
5 Perfect,25,GA
15 Perfect,25,GT
10 Perfect,25,TA
10 Perfect,25,TC
37 Perfect,25,TG
149 Perfect,25,TT
131 Perfect,26,AA
29 Perfect,26,AC
10 Perfect,26,AT
10 Perfect,26,CA
2 Perfect,26,CT
4 Perfect,26,GA
22 Perfect,26,GT
13 Perfect,26,TA
7 Perfect,26,TC
19 Perfect,26,TG
123 Perfect,26,TT
87 Perfect,27,AA
40 Perfect,27,AC
7 Perfect,27,AG
8 Perfect,27,AT
14 Perfect,27,CA
2 Perfect,27,CT
2 Perfect,27,GA
5 Perfect,27,GT
10 Perfect,27,TA
8 Perfect,27,TC
36 Perfect,27,TG
93 Perfect,27,TT
88 Perfect,28,AA
21 Perfect,28,AC
4 Perfect,28,AG
13 Perfect,28,AT
19 Perfect,28,CA
5 Perfect,28,CT
4 Perfect,28,GA
24 Perfect,28,GT
11 Perfect,28,TA
8 Perfect,28,TC
13 Perfect,28,TG
74 Perfect,28,TT
57 Perfect,29,AA
27 Perfect,29,AC
6 Perfect,29,AG
7 Perfect,29,AT
7 Perfect,29,CA
3 Perfect,29,CT
3 Perfect,29,GA
9 Perfect,29,GT
6 Perfect,29,TA
8 Perfect,29,TC
30 Perfect,29,TG
56 Perfect,29,TT
42 Perfect,30,AA
19 Perfect,30,AC
3 Perfect,30,AG
9 Perfect,30,AT
15 Perfect,30,CA
3 Perfect,30,CT
4 Perfect,30,GA
25 Perfect,30,GT
9 Perfect,30,TA
4 Perfect,30,TC
10 Perfect,30,TG
43 Perfect,30,TT
31 Perfect,31,AA
34 Perfect,31,AC
3 Perfect,31,AG
10 Perfect,31,AT
8 Perfect,31,CA
1 Perfect,31,CT
2 Perfect,31,GA
6 Perfect,31,GT
6 Perfect,31,TA
2 Perfect,31,TC
32 Perfect,31,TG
22 Perfect,31,TT
26 Perfect,32,AA
17 Perfect,32,AC
1 Perfect,32,AG
11 Perfect,32,AT
18 Perfect,32,CA
1 Perfect,32,CT
1 Perfect,32,GA
27 Perfect,32,GT
3 Perfect,32,TA
3 Perfect,32,TC
8 Perfect,32,TG
12 Perfect,32,TT
17 Perfect,33,AA
28 Perfect,33,AC
3 Perfect,33,AG
10 Perfect,33,AT
9 Perfect,33,CA
3 Perfect,33,CT
10 Perfect,33,GT
10 Perfect,33,TA
3 Perfect,33,TC
23 Perfect,33,TG
14 Perfect,33,TT
12 Perfect,34,AA
28 Perfect,34,AC
3 Perfect,34,AG
9 Perfect,34,AT
15 Perfect,34,CA
1 Perfect,34,CT
1 Perfect,34,GA
24 Perfect,34,GT
10 Perfect,34,TA
1 Perfect,34,TC
15 Perfect,34,TG
10 Perfect,34,TT
13 Perfect,35,AA
29 Perfect,35,AC
2 Perfect,35,AG
9 Perfect,35,AT
15 Perfect,35,CA
9 Perfect,35,GT
2 Perfect,35,TA
3 Perfect,35,TC
31 Perfect,35,TG
9 Perfect,35,TT
8 Perfect,36,AA
22 Perfect,36,AC
5 Perfect,36,AT
8 Perfect,36,CA
1 Perfect,36,CT
2 Perfect,36,GA
14 Perfect,36,GT
3 Perfect,36,TA
2 Perfect,36,TC
15 Perfect,36,TG
7 Perfect,36,TT
15 Perfect,37,AA
31 Perfect,37,AC
4 Perfect,37,AG
3 Perfect,37,AT
5 Perfect,37,CA
1 Perfect,37,CT
1 Perfect,37,GA
9 Perfect,37,GT
7 Perfect,37,TA
2 Perfect,37,TC
29 Perfect,37,TG
16 Perfect,37,TT
5 Perfect,38,AA
10 Perfect,38,AC
2 Perfect,38,AG
4 Perfect,38,AT
12 Perfect,38,CA
2 Perfect,38,CT
2 Perfect,38,GA
12 Perfect,38,GT
4 Perfect,38,TA
13 Perfect,38,TG
5 Perfect,38,TT
9 Perfect,39,AA
24 Perfect,39,AC
4 Perfect,39,AG
2 Perfect,39,AT
3 Perfect,39,CA
3 Perfect,39,CT
1 Perfect,39,GA
2 Perfect,39,GT
5 Perfect,39,TA
2 Perfect,39,TC
37 Perfect,39,TG
8 Perfect,39,TT
9 Perfect,40,AA
15 Perfect,40,AC
5 Perfect,40,AT
9 Perfect,40,CA
1 Perfect,40,CT
15 Perfect,40,GT
4 Perfect,40,TA
1 Perfect,40,TC
6 Perfect,40,TG
8 Perfect,40,TT
6 Perfect,41,AA
26 Perfect,41,AC
2 Perfect,41,AG
2 Perfect,41,AT
8 Perfect,41,CA
6 Perfect,41,GT
4 Perfect,41,TA
22 Perfect,41,TG
2 Perfect,41,TT
2 Perfect,42,AA
17 Perfect,42,AC
5 Perfect,42,AT
4 Perfect,42,CA
3 Perfect,42,GA
8 Perfect,42,GT
1 Perfect,42,TA
5 Perfect,42,TG
2 Perfect,42,TT
19 Perfect,43,AC
1 Perfect,43,AG
3 Perfect,43,AT
4 Perfect,43,CA
3 Perfect,43,GT
5 Perfect,43,TA
3 Perfect,43,TC
22 Perfect,43,TG
1 Perfect,43,TT
2 Perfect,44,AA
15 Perfect,44,AC
5 Perfect,44,AT
4 Perfect,44,CA
2 Perfect,44,GA
8 Perfect,44,GT
6 Perfect,44,TA
8 Perfect,44,TG
1 Perfect,44,TT
10 Perfect,45,AC
4 Perfect,45,AT
4 Perfect,45,CA
7 Perfect,45,GT
7 Perfect,45,TA
12 Perfect,45,TG
4 Perfect,45,TT
3 Perfect,46,AA
17 Perfect,46,AC
9 Perfect,46,AT
11 Perfect,46,CA
11 Perfect,46,GT
7 Perfect,46,TA
2 Perfect,46,TC
2 Perfect,46,TG
1 Perfect,46,TT
1 Perfect,47,AA
15 Perfect,47,AC
2 Perfect,47,AG
5 Perfect,47,AT
2 Perfect,47,CA
1 Perfect,47,CT
2 Perfect,47,GT
3 Perfect,47,TA
2 Perfect,47,TC
18 Perfect,47,TG
1 Perfect,47,TT
1 Perfect,48,AA
4 Perfect,48,AC
4 Perfect,48,AT
5 Perfect,48,CA
12 Perfect,48,GT
3 Perfect,48,TA
3 Perfect,48,TG
12 Perfect,49,AC
2 Perfect,49,AG
2 Perfect,49,AT
2 Perfect,49,CA
4 Perfect,49,TA
1 Perfect,49,TC
8 Perfect,49,TG
420447 Perfect,4,AA
104825 Perfect,4,AC
194779 Perfect,4,AG
256505 Perfect,4,AT
212483 Perfect,4,CA
122695 Perfect,4,CC
5862 Perfect,4,CG
193995 Perfect,4,CT
192641 Perfect,4,GA
25578 Perfect,4,GC
123258 Perfect,4,GG
105084 Perfect,4,GT
180199 Perfect,4,TA
192849 Perfect,4,TC
214304 Perfect,4,TG
422320 Perfect,4,TT
1 Perfect,50,AC
4 Perfect,50,AT
4 Perfect,50,CA
1 Perfect,50,CT
1 Perfect,50,GA
1 Perfect,50,GT
1 Perfect,50,TA
2 Perfect,50,TT
9 Perfect,51,AC
1 Perfect,51,AT
1 Perfect,51,CA
2 Perfect,51,TA
1 Perfect,51,TC
10 Perfect,51,TG
3 Perfect,52,AC
5 Perfect,52,AT
3 Perfect,52,CA
1 Perfect,52,CT
2 Perfect,52,GA
4 Perfect,52,GT
3 Perfect,52,TA
3 Perfect,52,TG
3 Perfect,53,AC
3 Perfect,53,AT
2 Perfect,53,TA
5 Perfect,53,TG
1 Perfect,54,AA
2 Perfect,54,AC
2 Perfect,54,AT
3 Perfect,54,GT
1 Perfect,54,TA
1 Perfect,54,TC
6 Perfect,55,AT
1 Perfect,55,CT
1 Perfect,55,GA
1 Perfect,55,TA
3 Perfect,55,TG
1 Perfect,55,TT
4 Perfect,56,AT
1 Perfect,56,CA
1 Perfect,56,GT
1 Perfect,56,TA
2 Perfect,57,AC
1 Perfect,57,AT
1 Perfect,58,AG
1 Perfect,58,AT
1 Perfect,58,TA
1 Perfect,58,TG
1 Perfect,59,AC
1 Perfect,59,AT
2 Perfect,59,TA
159701 Perfect,5,AA
68586 Perfect,5,AC
87641 Perfect,5,AG
65409 Perfect,5,AT
36264 Perfect,5,CA
28260 Perfect,5,CC
3761 Perfect,5,CG
35394 Perfect,5,CT
35419 Perfect,5,GA
3586 Perfect,5,GC
28312 Perfect,5,GG
36463 Perfect,5,GT
65115 Perfect,5,TA
87395 Perfect,5,TC
69655 Perfect,5,TG
158736 Perfect,5,TT
1 Perfect,60,AT
1 Perfect,61,AA
1 Perfect,61,TG
1 Perfect,62,AC
1 Perfect,63,AT
2 Perfect,63,TA
1 Perfect,65,TT
1 Perfect,66,GT
1 Perfect,66,TA
1 Perfect,67,AT
1 Perfect,68,AT
1 Perfect,68,CT
48291 Perfect,6,AA
8112 Perfect,6,AC
15506 Perfect,6,AG
25935 Perfect,6,AT
15707 Perfect,6,CA
5515 Perfect,6,CC
278 Perfect,6,CG
15630 Perfect,6,CT
13126 Perfect,6,GA
760 Perfect,6,GC
5582 Perfect,6,GG
8125 Perfect,6,GT
18545 Perfect,6,TA
12862 Perfect,6,TC
16186 Perfect,6,TG
47886 Perfect,6,TT
19935 Perfect,7,AA
6322 Perfect,7,AC
7497 Perfect,7,AG
9155 Perfect,7,AT
3429 Perfect,7,CA
850 Perfect,7,CC
181 Perfect,7,CG
3548 Perfect,7,CT
3463 Perfect,7,GA
176 Perfect,7,GC
739 Perfect,7,GG
3437 Perfect,7,GT
8983 Perfect,7,TA
7491 Perfect,7,TC
6401 Perfect,7,TG
19871 Perfect,7,TT
7056 Perfect,8,AA
1071 Perfect,8,AC
1592 Perfect,8,AG
4226 Perfect,8,AT
1888 Perfect,8,CA
173 Perfect,8,CC
29 Perfect,8,CG
1557 Perfect,8,CT
1616 Perfect,8,GA
106 Perfect,8,GC
167 Perfect,8,GG
1088 Perfect,8,GT
3351 Perfect,8,TA
1619 Perfect,8,TC
1917 Perfect,8,TG
7132 Perfect,8,TT
4074 Perfect,9,AA
1257 Perfect,9,AC
1114 Perfect,9,AG
1506 Perfect,9,AT
467 Perfect,9,CA
63 Perfect,9,CC
26 Perfect,9,CG
428 Perfect,9,CT
393 Perfect,9,GA
25 Perfect,9,GC
72 Perfect,9,GG
467 Perfect,9,GT
1505 Perfect,9,TA
1118 Perfect,9,TC
1343 Perfect,9,TG
4102 Perfect,9,TT
