2507275 Imperfect,3,AA
2068001 Imperfect,3,AC
2106372 Imperfect,3,AG
1781048 Imperfect,3,AT
1109009 Imperfect,3,CA
1191498 Imperfect,3,CC
235342 Imperfect,3,CG
1146014 Imperfect,3,CT
1146132 Imperfect,3,GA
236445 Imperfect,3,GC
1192156 Imperfect,3,GG
1111455 Imperfect,3,GT
1784567 Imperfect,3,TA
2109813 Imperfect,3,TC
2080428 Imperfect,3,TG
2516052 Imperfect,3,TT
6234 Perfect,10,AA
571 Perfect,10,AC
638 Perfect,10,AG
1827 Perfect,10,AT
938 Perfect,10,CA
81 Perfect,10,CC
5 Perfect,10,CG
594 Perfect,10,CT
615 Perfect,10,GA
30 Perfect,10,GC
87 Perfect,10,GG
561 Perfect,10,GT
1770 Perfect,10,TA
590 Perfect,10,TC
899 Perfect,10,TG
6140 Perfect,10,TT
3611 Perfect,11,AA
1129 Perfect,11,AC
604 Perfect,11,AG
1013 Perfect,11,AT
343 Perfect,11,CA
61 Perfect,11,CC
12 Perfect,11,CG
203 Perfect,11,CT
246 Perfect,11,GA
14 Perfect,11,GC
56 Perfect,11,GG
321 Perfect,11,GT
1006 Perfect,11,TA
623 Perfect,11,TC
1118 Perfect,11,TG
3669 Perfect,11,TT
2733 Perfect,12,AA
268 Perfect,12,AC
225 Perfect,12,AG
728 Perfect,12,AT
399 Perfect,12,CA
36 Perfect,12,CC
2 Perfect,12,CG
189 Perfect,12,CT
242 Perfect,12,GA
17 Perfect,12,GC
30 Perfect,12,GG
280 Perfect,12,GT
647 Perfect,12,TA
207 Perfect,12,TC
392 Perfect,12,TG
2820 Perfect,12,TT
2374 Perfect,13,AA
517 Perfect,13,AC
355 Perfect,13,AG
489 Perfect,13,AT
153 Perfect,13,CA
18 Perfect,13,CC
6 Perfect,13,CG
93 Perfect,13,CT
102 Perfect,13,GA
5 Perfect,13,GC
13 Perfect,13,GG
144 Perfect,13,GT
452 Perfect,13,TA
314 Perfect,13,TC
597 Perfect,13,TG
2421 Perfect,13,TT
2067 Perfect,14,AA
167 Perfect,14,AC
92 Perfect,14,AG
352 Perfect,14,AT
171 Perfect,14,CA
6 Perfect,14,CC
90 Perfect,14,CT
113 Perfect,14,GA
4 Perfect,14,GC
14 Perfect,14,GG
187 Perfect,14,GT
361 Perfect,14,TA
117 Perfect,14,TC
171 Perfect,14,TG
2127 Perfect,14,TT
1805 Perfect,15,AA
321 Perfect,15,AC
196 Perfect,15,AG
227 Perfect,15,AT
90 Perfect,15,CA
5 Perfect,15,CC
2 Perfect,15,CG
46 Perfect,15,CT
52 Perfect,15,GA
1 Perfect,15,GC
6 Perfect,15,GG
78 Perfect,15,GT
233 Perfect,15,TA
186 Perfect,15,TC
301 Perfect,15,TG
1869 Perfect,15,TT
1600 Perfect,16,AA
108 Perfect,16,AC
46 Perfect,16,AG
212 Perfect,16,AT
117 Perfect,16,CA
4 Perfect,16,CC
2 Perfect,16,CG
51 Perfect,16,CT
83 Perfect,16,GA
6 Perfect,16,GC
4 Perfect,16,GG
102 Perfect,16,GT
169 Perfect,16,TA
77 Perfect,16,TC
88 Perfect,16,TG
1609 Perfect,16,TT
1275 Perfect,17,AA
170 Perfect,17,AC
114 Perfect,17,AG
131 Perfect,17,AT
48 Perfect,17,CA
3 Perfect,17,CC
2 Perfect,17,CG
31 Perfect,17,CT
43 Perfect,17,GA
4 Perfect,17,GC
1 Perfect,17,GG
58 Perfect,17,GT
133 Perfect,17,TA
115 Perfect,17,TC
186 Perfect,17,TG
1219 Perfect,17,TT
983 Perfect,18,AA
63 Perfect,18,AC
29 Perfect,18,AG
119 Perfect,18,AT
64 Perfect,18,CA
24 Perfect,18,CT
58 Perfect,18,GA
5 Perfect,18,GC
73 Perfect,18,GT
96 Perfect,18,TA
55 Perfect,18,TC
57 Perfect,18,TG
1006 Perfect,18,TT
850 Perfect,19,AA
131 Perfect,19,AC
53 Perfect,19,AG
74 Perfect,19,AT
29 Perfect,19,CA
1 Perfect,19,CC
2 Perfect,19,CG
20 Perfect,19,CT
22 Perfect,19,GA
1 Perfect,19,GC
32 Perfect,19,GT
83 Perfect,19,TA
69 Perfect,19,TC
135 Perfect,19,TG
823 Perfect,19,TT
703 Perfect,20,AA
57 Perfect,20,AC
14 Perfect,20,AG
68 Perfect,20,AT
46 Perfect,20,CA
19 Perfect,20,CT
35 Perfect,20,GA
2 Perfect,20,GC
61 Perfect,20,GT
69 Perfect,20,TA
32 Perfect,20,TC
46 Perfect,20,TG
672 Perfect,20,TT
631 Perfect,21,AA
114 Perfect,21,AC
27 Perfect,21,AG
54 Perfect,21,AT
21 Perfect,21,CA
11 Perfect,21,CT
13 Perfect,21,GA
25 Perfect,21,GT
69 Perfect,21,TA
32 Perfect,21,TC
87 Perfect,21,TG
612 Perfect,21,TT
570 Perfect,22,AA
54 Perfect,22,AC
18 Perfect,22,AG
56 Perfect,22,AT
34 Perfect,22,CA
16 Perfect,22,CT
31 Perfect,22,GA
57 Perfect,22,GT
47 Perfect,22,TA
31 Perfect,22,TC
52 Perfect,22,TG
581 Perfect,22,TT
505 Perfect,23,AA
91 Perfect,23,AC
27 Perfect,23,AG
44 Perfect,23,AT
26 Perfect,23,CA
6 Perfect,23,CT
11 Perfect,23,GA
2 Perfect,23,GG
21 Perfect,23,GT
57 Perfect,23,TA
22 Perfect,23,TC
92 Perfect,23,TG
541 Perfect,23,TT
464 Perfect,24,AA
47 Perfect,24,AC
10 Perfect,24,AG
44 Perfect,24,AT
30 Perfect,24,CA
7 Perfect,24,CT
22 Perfect,24,GA
52 Perfect,24,GT
36 Perfect,24,TA
11 Perfect,24,TC
47 Perfect,24,TG
480 Perfect,24,TT
384 Perfect,25,AA
91 Perfect,25,AC
21 Perfect,25,AG
35 Perfect,25,AT
20 Perfect,25,CA
5 Perfect,25,CT
5 Perfect,25,GA
1 Perfect,25,GC
18 Perfect,25,GT
30 Perfect,25,TA
18 Perfect,25,TC
84 Perfect,25,TG
363 Perfect,25,TT
333 Perfect,26,AA
46 Perfect,26,AC
5 Perfect,26,AG
31 Perfect,26,AT
29 Perfect,26,CA
5 Perfect,26,CT
9 Perfect,26,GA
44 Perfect,26,GT
33 Perfect,26,TA
10 Perfect,26,TC
33 Perfect,26,TG
282 Perfect,26,TT
252 Perfect,27,AA
76 Perfect,27,AC
15 Perfect,27,AG
26 Perfect,27,AT
19 Perfect,27,CA
4 Perfect,27,CT
9 Perfect,27,GA
13 Perfect,27,GT
33 Perfect,27,TA
13 Perfect,27,TC
95 Perfect,27,TG
236 Perfect,27,TT
166 Perfect,28,AA
41 Perfect,28,AC
12 Perfect,28,AG
18 Perfect,28,AT
32 Perfect,28,CA
3 Perfect,28,CT
14 Perfect,28,GA
60 Perfect,28,GT
28 Perfect,28,TA
13 Perfect,28,TC
30 Perfect,28,TG
197 Perfect,28,TT
126 Perfect,29,AA
71 Perfect,29,AC
10 Perfect,29,AG
20 Perfect,29,AT
22 Perfect,29,CA
2 Perfect,29,CT
6 Perfect,29,GA
29 Perfect,29,GT
24 Perfect,29,TA
8 Perfect,29,TC
74 Perfect,29,TG
160 Perfect,29,TT
121 Perfect,30,AA
67 Perfect,30,AC
9 Perfect,30,AG
29 Perfect,30,AT
29 Perfect,30,CA
3 Perfect,30,CT
3 Perfect,30,GA
46 Perfect,30,GT
18 Perfect,30,TA
8 Perfect,30,TC
19 Perfect,30,TG
106 Perfect,30,TT
57 Perfect,31,AA
66 Perfect,31,AC
8 Perfect,31,AG
13 Perfect,31,AT
13 Perfect,31,CA
4 Perfect,31,CT
2 Perfect,31,GA
31 Perfect,31,GT
20 Perfect,31,TA
12 Perfect,31,TC
86 Perfect,31,TG
73 Perfect,31,TT
41 Perfect,32,AA
54 Perfect,32,AC
5 Perfect,32,AG
15 Perfect,32,AT
25 Perfect,32,CA
2 Perfect,32,CT
6 Perfect,32,GA
40 Perfect,32,GT
15 Perfect,32,TA
3 Perfect,32,TC
30 Perfect,32,TG
69 Perfect,32,TT
27 Perfect,33,AA
61 Perfect,33,AC
8 Perfect,33,AG
13 Perfect,33,AT
24 Perfect,33,CA
4 Perfect,33,CT
1 Perfect,33,GA
19 Perfect,33,GT
10 Perfect,33,TA
9 Perfect,33,TC
84 Perfect,33,TG
43 Perfect,33,TT
22 Perfect,34,AA
43 Perfect,34,AC
6 Perfect,34,AG
25 Perfect,34,AT
28 Perfect,34,CA
2 Perfect,34,CT
5 Perfect,34,GA
40 Perfect,34,GT
14 Perfect,34,TA
5 Perfect,34,TC
23 Perfect,34,TG
29 Perfect,34,TT
21 Perfect,35,AA
69 Perfect,35,AC
5 Perfect,35,AG
14 Perfect,35,AT
22 Perfect,35,CA
4 Perfect,35,CT
25 Perfect,35,GT
9 Perfect,35,TA
6 Perfect,35,TC
71 Perfect,35,TG
31 Perfect,35,TT
18 Perfect,36,AA
56 Perfect,36,AC
5 Perfect,36,AG
11 Perfect,36,AT
21 Perfect,36,CA
6 Perfect,36,CT
6 Perfect,36,GA
41 Perfect,36,GT
13 Perfect,36,TA
3 Perfect,36,TC
27 Perfect,36,TG
26 Perfect,36,TT
16 Perfect,37,AA
52 Perfect,37,AC
6 Perfect,37,AG
9 Perfect,37,AT
17 Perfect,37,CA
2 Perfect,37,CT
2 Perfect,37,GA
25 Perfect,37,GT
12 Perfect,37,TA
4 Perfect,37,TC
62 Perfect,37,TG
23 Perfect,37,TT
23 Perfect,38,AA
47 Perfect,38,AC
1 Perfect,38,AG
16 Perfect,38,AT
15 Perfect,38,CA
1 Perfect,38,CT
3 Perfect,38,GA
37 Perfect,38,GT
12 Perfect,38,TA
1 Perfect,38,TC
17 Perfect,38,TG
26 Perfect,38,TT
23 Perfect,39,AA
52 Perfect,39,AC
7 Perfect,39,AG
13 Perfect,39,AT
13 Perfect,39,CA
3 Perfect,39,GA
20 Perfect,39,GT
13 Perfect,39,TA
9 Perfect,39,TC
59 Perfect,39,TG
21 Perfect,39,TT
16 Perfect,40,AA
32 Perfect,40,AC
4 Perfect,40,AG
11 Perfect,40,AT
11 Perfect,40,CA
6 Perfect,40,CT
2 Perfect,40,GA
34 Perfect,40,GT
11 Perfect,40,TA
1 Perfect,40,TC
18 Perfect,40,TG
18 Perfect,40,TT
13 Perfect,41,AA
48 Perfect,41,AC
4 Perfect,41,AG
17 Perfect,41,AT
9 Perfect,41,CA
2 Perfect,41,CT
13 Perfect,41,GT
13 Perfect,41,TA
3 Perfect,41,TC
46 Perfect,41,TG
7 Perfect,41,TT
6 Perfect,42,AA
42 Perfect,42,AC
1 Perfect,42,AG
19 Perfect,42,AT
12 Perfect,42,CA
3 Perfect,42,CT
1 Perfect,42,GA
28 Perfect,42,GT
16 Perfect,42,TA
1 Perfect,42,TC
15 Perfect,42,TG
8 Perfect,42,TT
4 Perfect,43,AA
30 Perfect,43,AC
3 Perfect,43,AG
12 Perfect,43,AT
12 Perfect,43,CA
1 Perfect,43,CT
1 Perfect,43,GA
13 Perfect,43,GT
7 Perfect,43,TA
3 Perfect,43,TC
35 Perfect,43,TG
3 Perfect,43,TT
2 Perfect,44,AA
20 Perfect,44,AC
13 Perfect,44,AT
18 Perfect,44,CA
1 Perfect,44,CT
1 Perfect,44,GA
35 Perfect,44,GT
12 Perfect,44,TA
1 Perfect,44,TC
5 Perfect,44,TG
6 Perfect,44,TT
2 Perfect,45,AA
31 Perfect,45,AC
2 Perfect,45,AG
15 Perfect,45,AT
7 Perfect,45,CA
1 Perfect,45,CT
1 Perfect,45,GA
11 Perfect,45,GT
19 Perfect,45,TA
1 Perfect,45,TC
34 Perfect,45,TG
2 Perfect,45,TT
5 Perfect,46,AA
26 Perfect,46,AC
1 Perfect,46,AG
16 Perfect,46,AT
16 Perfect,46,CA
1 Perfect,46,CT
2 Perfect,46,GA
24 Perfect,46,GT
5 Perfect,46,TA
1 Perfect,46,TC
16 Perfect,46,TG
5 Perfect,46,TT
1 Perfect,47,AA
39 Perfect,47,AC
4 Perfect,47,AG
8 Perfect,47,AT
10 Perfect,47,CA
1 Perfect,47,CT
9 Perfect,47,GT
10 Perfect,47,TA
4 Perfect,47,TC
31 Perfect,47,TG
5 Perfect,47,TT
6 Perfect,48,AA
12 Perfect,48,AC
7 Perfect,48,AT
4 Perfect,48,CA
1 Perfect,48,CT
1 Perfect,48,GA
13 Perfect,48,GT
10 Perfect,48,TA
3 Perfect,48,TG
1 Perfect,48,TT
6 Perfect,49,AA
20 Perfect,49,AC
2 Perfect,49,AG
11 Perfect,49,AT
3 Perfect,49,CA
1 Perfect,49,CT
1 Perfect,49,GA
1 Perfect,49,GT
3 Perfect,49,TA
1 Perfect,49,TC
21 Perfect,49,TG
1 Perfect,49,TT
991835 Perfect,4,AA
241988 Perfect,4,AC
457510 Perfect,4,AG
614475 Perfect,4,AT
497618 Perfect,4,CA
284751 Perfect,4,CC
12124 Perfect,4,CG
457888 Perfect,4,CT
454504 Perfect,4,GA
57007 Perfect,4,GC
284893 Perfect,4,GG
243289 Perfect,4,GT
436892 Perfect,4,TA
455763 Perfect,4,TC
501881 Perfect,4,TG
997212 Perfect,4,TT
5 Perfect,50,AA
10 Perfect,50,AC
2 Perfect,50,AG
8 Perfect,50,AT
4 Perfect,50,CA
1 Perfect,50,GA
11 Perfect,50,GT
14 Perfect,50,TA
1 Perfect,50,TC
6 Perfect,50,TG
2 Perfect,50,TT
3 Perfect,51,AA
14 Perfect,51,AC
2 Perfect,51,AG
4 Perfect,51,AT
2 Perfect,51,CA
1 Perfect,51,CT
4 Perfect,51,GT
7 Perfect,51,TA
15 Perfect,51,TG
1 Perfect,51,TT
2 Perfect,52,AA
8 Perfect,52,AC
5 Perfect,52,AT
3 Perfect,52,CA
4 Perfect,52,CT
5 Perfect,52,GT
3 Perfect,52,TA
2 Perfect,52,TC
1 Perfect,52,TG
1 Perfect,53,AA
14 Perfect,53,AC
2 Perfect,53,AG
3 Perfect,53,AT
1 Perfect,53,CA
1 Perfect,53,GT
7 Perfect,53,TA
1 Perfect,53,TC
2 Perfect,53,TG
1 Perfect,54,AA
2 Perfect,54,AC
7 Perfect,54,AT
3 Perfect,54,GA
5 Perfect,54,GT
5 Perfect,54,TA
1 Perfect,55,AA
4 Perfect,55,AC
1 Perfect,55,AG
4 Perfect,55,AT
3 Perfect,55,TA
4 Perfect,55,TG
1 Perfect,56,AA
1 Perfect,56,AC
1 Perfect,56,AG
4 Perfect,56,AT
2 Perfect,56,CA
2 Perfect,56,GA
2 Perfect,56,GT
4 Perfect,56,TA
1 Perfect,56,TC
1 Perfect,56,TG
1 Perfect,56,TT
1 Perfect,57,AA
2 Perfect,57,AC
3 Perfect,57,AT
2 Perfect,57,CA
1 Perfect,57,GA
1 Perfect,57,GT
1 Perfect,57,TA
2 Perfect,57,TG
1 Perfect,58,AA
1 Perfect,58,AC
2 Perfect,58,AT
2 Perfect,58,TA
1 Perfect,58,TC
2 Perfect,58,TT
1 Perfect,59,AG
3 Perfect,59,AT
3 Perfect,59,TA
2 Perfect,59,TG
378867 Perfect,5,AA
160172 Perfect,5,AC
208428 Perfect,5,AG
157366 Perfect,5,AT
80888 Perfect,5,CA
65037 Perfect,5,CC
8201 Perfect,5,CG
80918 Perfect,5,CT
80683 Perfect,5,GA
8117 Perfect,5,GC
65009 Perfect,5,GG
80994 Perfect,5,GT
157856 Perfect,5,TA
208663 Perfect,5,TC
161399 Perfect,5,TG
380502 Perfect,5,TT
1 Perfect,60,AA
4 Perfect,60,AT
1 Perfect,60,CA
2 Perfect,60,GT
1 Perfect,60,TA
1 Perfect,62,AC
1 Perfect,62,AG
2 Perfect,62,AT
1 Perfect,62,CA
1 Perfect,62,GA
1 Perfect,62,TA
1 Perfect,62,TC
1 Perfect,63,AC
1 Perfect,63,AT
1 Perfect,63,TG
1 Perfect,64,AC
1 Perfect,65,AT
1 Perfect,65,CA
1 Perfect,65,CT
1 Perfect,65,TC
2 Perfect,66,AC
1 Perfect,66,TC
1 Perfect,67,AT
1 Perfect,67,TC
1 Perfect,68,AC
1 Perfect,68,CT
1 Perfect,69,TG
115651 Perfect,6,AA
17771 Perfect,6,AC
36975 Perfect,6,AG
60737 Perfect,6,AT
36433 Perfect,6,CA
13066 Perfect,6,CC
559 Perfect,6,CG
37461 Perfect,6,CT
30727 Perfect,6,GA
1536 Perfect,6,GC
12904 Perfect,6,GG
17953 Perfect,6,GT
45277 Perfect,6,TA
30630 Perfect,6,TC
36927 Perfect,6,TG
117051 Perfect,6,TT
1 Perfect,71,AC
1 Perfect,73,TA
1 Perfect,74,GT
48014 Perfect,7,AA
13904 Perfect,7,AC
17438 Perfect,7,AG
21276 Perfect,7,AT
7632 Perfect,7,CA
1863 Perfect,7,CC
325 Perfect,7,CG
7985 Perfect,7,CT
8247 Perfect,7,GA
324 Perfect,7,GC
1885 Perfect,7,GG
7876 Perfect,7,GT
21314 Perfect,7,TA
17494 Perfect,7,TC
14565 Perfect,7,TG
49006 Perfect,7,TT
1 Perfect,81,AT
1 Perfect,81,TG
1 Perfect,83,AG
17297 Perfect,8,AA
2207 Perfect,8,AC
3615 Perfect,8,AG
10639 Perfect,8,AT
3892 Perfect,8,CA
367 Perfect,8,CC
46 Perfect,8,CG
3688 Perfect,8,CT
3772 Perfect,8,GA
223 Perfect,8,GC
363 Perfect,8,GG
2330 Perfect,8,GT
8095 Perfect,8,TA
3768 Perfect,8,TC
3940 Perfect,8,TG
17309 Perfect,8,TT
9638 Perfect,9,AA
2734 Perfect,9,AC
2499 Perfect,9,AG
3659 Perfect,9,AT
973 Perfect,9,CA
166 Perfect,9,CC
42 Perfect,9,CG
1041 Perfect,9,CT
976 Perfect,9,GA
66 Perfect,9,GC
136 Perfect,9,GG
831 Perfect,9,GT
3649 Perfect,9,TA
2651 Perfect,9,TC
2846 Perfect,9,TG
9661 Perfect,9,TT
