229126 Imperfect,3,AA
195879 Imperfect,3,AC
197182 Imperfect,3,AG
166004 Imperfect,3,AT
96569 Imperfect,3,CA
102249 Imperfect,3,CC
15874 Imperfect,3,CG
96793 Imperfect,3,CT
99164 Imperfect,3,GA
16199 Imperfect,3,GC
103835 Imperfect,3,GG
98883 Imperfect,3,GT
166550 Imperfect,3,TA
195256 Imperfect,3,TC
199492 Imperfect,3,TG
232559 Imperfect,3,TT
577 Perfect,10,AA
45 Perfect,10,AC
58 Perfect,10,AG
176 Perfect,10,AT
109 Perfect,10,CA
4 Perfect,10,CC
50 Perfect,10,CT
62 Perfect,10,GA
1 Perfect,10,GC
6 Perfect,10,GG
46 Perfect,10,GT
193 Perfect,10,TA
59 Perfect,10,TC
82 Perfect,10,TG
593 Perfect,10,TT
329 Perfect,11,AA
139 Perfect,11,AC
66 Perfect,11,AG
116 Perfect,11,AT
22 Perfect,11,CA
1 Perfect,11,CC
11 Perfect,11,CT
21 Perfect,11,GA
4 Perfect,11,GG
24 Perfect,11,GT
157 Perfect,11,TA
76 Perfect,11,TC
119 Perfect,11,TG
326 Perfect,11,TT
211 Perfect,12,AA
27 Perfect,12,AC
14 Perfect,12,AG
58 Perfect,12,AT
46 Perfect,12,CA
2 Perfect,12,CC
27 Perfect,12,CT
16 Perfect,12,GA
1 Perfect,12,GC
7 Perfect,12,GG
26 Perfect,12,GT
87 Perfect,12,TA
27 Perfect,12,TC
43 Perfect,12,TG
214 Perfect,12,TT
182 Perfect,13,AA
67 Perfect,13,AC
37 Perfect,13,AG
66 Perfect,13,AT
10 Perfect,13,CA
1 Perfect,13,CC
4 Perfect,13,CT
9 Perfect,13,GA
2 Perfect,13,GG
13 Perfect,13,GT
58 Perfect,13,TA
39 Perfect,13,TC
76 Perfect,13,TG
190 Perfect,13,TT
165 Perfect,14,AA
13 Perfect,14,AC
12 Perfect,14,AG
21 Perfect,14,AT
21 Perfect,14,CA
3 Perfect,14,CC
5 Perfect,14,CT
7 Perfect,14,GA
1 Perfect,14,GG
14 Perfect,14,GT
43 Perfect,14,TA
19 Perfect,14,TC
23 Perfect,14,TG
186 Perfect,14,TT
132 Perfect,15,AA
37 Perfect,15,AC
20 Perfect,15,AG
27 Perfect,15,AT
4 Perfect,15,CA
1 Perfect,15,CG
2 Perfect,15,CT
3 Perfect,15,GA
1 Perfect,15,GC
4 Perfect,15,GT
18 Perfect,15,TA
23 Perfect,15,TC
48 Perfect,15,TG
144 Perfect,15,TT
108 Perfect,16,AA
6 Perfect,16,AC
3 Perfect,16,AG
11 Perfect,16,AT
13 Perfect,16,CA
5 Perfect,16,CT
6 Perfect,16,GA
7 Perfect,16,GT
20 Perfect,16,TA
3 Perfect,16,TC
16 Perfect,16,TG
105 Perfect,16,TT
96 Perfect,17,AA
13 Perfect,17,AC
7 Perfect,17,AG
13 Perfect,17,AT
1 Perfect,17,CA
1 Perfect,17,CT
2 Perfect,17,GT
12 Perfect,17,TA
12 Perfect,17,TC
15 Perfect,17,TG
103 Perfect,17,TT
78 Perfect,18,AA
9 Perfect,18,AC
3 Perfect,18,AG
13 Perfect,18,AT
6 Perfect,18,CA
3 Perfect,18,CT
4 Perfect,18,GA
4 Perfect,18,GT
7 Perfect,18,TA
6 Perfect,18,TC
2 Perfect,18,TG
64 Perfect,18,TT
55 Perfect,19,AA
14 Perfect,19,AC
4 Perfect,19,AG
10 Perfect,19,AT
2 Perfect,19,CA
2 Perfect,19,CT
1 Perfect,19,GA
3 Perfect,19,GT
12 Perfect,19,TA
5 Perfect,19,TC
10 Perfect,19,TG
63 Perfect,19,TT
45 Perfect,20,AA
2 Perfect,20,AC
2 Perfect,20,AG
6 Perfect,20,AT
6 Perfect,20,CA
2 Perfect,20,CT
6 Perfect,20,GA
3 Perfect,20,GT
11 Perfect,20,TA
5 Perfect,20,TG
45 Perfect,20,TT
38 Perfect,21,AA
9 Perfect,21,AC
4 Perfect,21,AG
7 Perfect,21,AT
3 Perfect,21,CA
1 Perfect,21,CT
3 Perfect,21,GT
12 Perfect,21,TA
2 Perfect,21,TC
15 Perfect,21,TG
46 Perfect,21,TT
41 Perfect,22,AA
1 Perfect,22,AC
1 Perfect,22,AG
8 Perfect,22,AT
6 Perfect,22,CA
1 Perfect,22,CT
2 Perfect,22,GA
5 Perfect,22,GT
5 Perfect,22,TA
2 Perfect,22,TG
48 Perfect,22,TT
40 Perfect,23,AA
16 Perfect,23,AC
1 Perfect,23,AG
4 Perfect,23,AT
1 Perfect,23,CA
1 Perfect,23,GT
5 Perfect,23,TA
5 Perfect,23,TC
12 Perfect,23,TG
35 Perfect,23,TT
42 Perfect,24,AA
9 Perfect,24,AC
5 Perfect,24,AT
2 Perfect,24,CA
1 Perfect,24,CT
3 Perfect,24,GA
3 Perfect,24,GT
5 Perfect,24,TA
1 Perfect,24,TC
7 Perfect,24,TG
34 Perfect,24,TT
35 Perfect,25,AA
15 Perfect,25,AC
1 Perfect,25,AG
4 Perfect,25,AT
4 Perfect,25,CA
1 Perfect,25,CT
2 Perfect,25,GA
1 Perfect,25,GT
5 Perfect,25,TA
1 Perfect,25,TC
10 Perfect,25,TG
46 Perfect,25,TT
29 Perfect,26,AA
5 Perfect,26,AC
1 Perfect,26,AG
2 Perfect,26,AT
1 Perfect,26,CA
1 Perfect,26,CT
1 Perfect,26,GA
5 Perfect,26,GT
2 Perfect,26,TA
1 Perfect,26,TC
4 Perfect,26,TG
26 Perfect,26,TT
22 Perfect,27,AA
10 Perfect,27,AC
2 Perfect,27,AG
3 Perfect,27,AT
1 Perfect,27,CA
2 Perfect,27,GT
1 Perfect,27,TC
7 Perfect,27,TG
20 Perfect,27,TT
26 Perfect,28,AA
4 Perfect,28,AC
1 Perfect,28,CA
1 Perfect,28,GA
7 Perfect,28,GT
3 Perfect,28,TA
1 Perfect,28,TC
1 Perfect,28,TG
19 Perfect,28,TT
13 Perfect,29,AA
3 Perfect,29,AC
2 Perfect,29,AG
5 Perfect,29,AT
2 Perfect,29,CA
1 Perfect,29,CT
2 Perfect,29,TA
1 Perfect,29,TC
15 Perfect,29,TG
20 Perfect,29,TT
22 Perfect,30,AA
3 Perfect,30,AC
2 Perfect,30,AT
2 Perfect,30,CA
2 Perfect,30,CT
2 Perfect,30,GT
1 Perfect,30,TA
3 Perfect,30,TG
11 Perfect,30,TT
12 Perfect,31,AA
8 Perfect,31,AC
1 Perfect,31,AG
3 Perfect,31,AT
2 Perfect,31,CA
5 Perfect,31,TA
1 Perfect,31,TC
13 Perfect,31,TG
12 Perfect,31,TT
6 Perfect,32,AA
4 Perfect,32,AC
2 Perfect,32,AG
2 Perfect,32,AT
2 Perfect,32,CA
8 Perfect,32,GT
3 Perfect,32,TA
2 Perfect,32,TG
9 Perfect,32,TT
5 Perfect,33,AA
10 Perfect,33,AC
1 Perfect,33,AT
1 Perfect,33,CT
1 Perfect,33,GT
2 Perfect,33,TA
1 Perfect,33,TC
10 Perfect,33,TG
5 Perfect,33,TT
4 Perfect,34,AA
8 Perfect,34,AC
1 Perfect,34,AG
1 Perfect,34,CA
4 Perfect,34,GT
3 Perfect,34,TA
1 Perfect,34,TC
7 Perfect,34,TG
7 Perfect,34,TT
5 Perfect,35,AA
11 Perfect,35,AC
1 Perfect,35,AG
6 Perfect,35,AT
2 Perfect,35,GT
5 Perfect,35,TA
1 Perfect,35,TC
11 Perfect,35,TG
4 Perfect,35,TT
1 Perfect,36,AA
4 Perfect,36,AC
1 Perfect,36,AG
1 Perfect,36,AT
3 Perfect,36,CA
2 Perfect,36,GA
2 Perfect,36,GT
1 Perfect,36,TA
2 Perfect,36,TG
3 Perfect,36,TT
3 Perfect,37,AA
8 Perfect,37,AC
1 Perfect,37,AG
1 Perfect,37,CA
3 Perfect,37,TA
10 Perfect,37,TG
5 Perfect,37,TT
5 Perfect,38,AA
2 Perfect,38,AC
6 Perfect,38,AT
3 Perfect,38,CA
4 Perfect,38,GT
4 Perfect,38,TA
1 Perfect,38,TC
5 Perfect,38,TG
1 Perfect,38,TT
5 Perfect,39,AA
5 Perfect,39,AC
3 Perfect,39,AG
3 Perfect,39,AT
2 Perfect,39,GT
1 Perfect,39,TA
4 Perfect,39,TT
1 Perfect,40,AA
2 Perfect,40,AC
6 Perfect,40,AT
4 Perfect,40,CA
1 Perfect,40,CT
1 Perfect,40,GA
3 Perfect,40,GT
1 Perfect,40,TA
2 Perfect,40,TG
1 Perfect,40,TT
1 Perfect,41,AA
8 Perfect,41,AC
1 Perfect,41,AT
1 Perfect,41,GT
2 Perfect,41,TA
3 Perfect,41,TG
2 Perfect,41,TT
1 Perfect,42,AA
2 Perfect,42,AC
5 Perfect,42,AT
3 Perfect,42,GT
4 Perfect,42,TA
1 Perfect,42,TT
3 Perfect,43,AA
6 Perfect,43,AC
1 Perfect,43,AG
1 Perfect,43,AT
1 Perfect,43,GT
5 Perfect,43,TA
3 Perfect,43,TG
1 Perfect,43,TT
5 Perfect,44,AT
1 Perfect,44,GA
1 Perfect,44,GT
1 Perfect,44,TA
3 Perfect,44,TG
3 Perfect,45,AA
13 Perfect,45,AC
3 Perfect,45,AT
1 Perfect,45,GA
4 Perfect,45,TG
3 Perfect,45,TT
2 Perfect,46,AA
1 Perfect,46,AC
3 Perfect,46,CA
1 Perfect,46,GA
2 Perfect,46,GT
1 Perfect,46,TG
4 Perfect,47,AC
1 Perfect,47,AG
1 Perfect,47,TA
1 Perfect,47,TC
3 Perfect,47,TG
2 Perfect,48,AA
1 Perfect,48,AC
2 Perfect,48,TA
1 Perfect,48,TT
2 Perfect,49,AC
1 Perfect,49,AT
1 Perfect,49,GT
2 Perfect,49,TA
1 Perfect,49,TT
90723 Perfect,4,AA
23487 Perfect,4,AC
40588 Perfect,4,AG
58462 Perfect,4,AT
47671 Perfect,4,CA
23007 Perfect,4,CC
672 Perfect,4,CG
39093 Perfect,4,CT
40678 Perfect,4,GA
3594 Perfect,4,GC
22875 Perfect,4,GG
25289 Perfect,4,GT
38978 Perfect,4,TA
40844 Perfect,4,TC
48212 Perfect,4,TG
90970 Perfect,4,TT
1 Perfect,50,AA
1 Perfect,50,AC
1 Perfect,50,AT
1 Perfect,51,AA
1 Perfect,51,AC
1 Perfect,51,CT
1 Perfect,52,AA
1 Perfect,52,AG
1 Perfect,52,AT
1 Perfect,52,GT
1 Perfect,52,TG
2 Perfect,53,AA
1 Perfect,53,AT
1 Perfect,53,TT
2 Perfect,54,AT
2 Perfect,54,TA
1 Perfect,54,TC
2 Perfect,55,AT
1 Perfect,55,TC
1 Perfect,55,TG
1 Perfect,56,TT
1 Perfect,57,AA
2 Perfect,57,TA
1 Perfect,58,AT
1 Perfect,59,TA
33878 Perfect,5,AA
15852 Perfect,5,AC
18612 Perfect,5,AG
14483 Perfect,5,AT
7335 Perfect,5,CA
4863 Perfect,5,CC
385 Perfect,5,CG
6682 Perfect,5,CT
7267 Perfect,5,GA
376 Perfect,5,GC
4908 Perfect,5,GG
7493 Perfect,5,GT
14855 Perfect,5,TA
18902 Perfect,5,TC
16932 Perfect,5,TG
34501 Perfect,5,TT
1 Perfect,63,TA
11023 Perfect,6,AA
1868 Perfect,6,AC
3352 Perfect,6,AG
5944 Perfect,6,AT
3561 Perfect,6,CA
927 Perfect,6,CC
13 Perfect,6,CG
3294 Perfect,6,CT
2731 Perfect,6,GA
68 Perfect,6,GC
972 Perfect,6,GG
1839 Perfect,6,GT
4138 Perfect,6,TA
2637 Perfect,6,TC
3587 Perfect,6,TG
11248 Perfect,6,TT
4484 Perfect,7,AA
1478 Perfect,7,AC
1687 Perfect,7,AG
2149 Perfect,7,AT
663 Perfect,7,CA
103 Perfect,7,CC
24 Perfect,7,CG
659 Perfect,7,CT
682 Perfect,7,GA
11 Perfect,7,GC
108 Perfect,7,GG
652 Perfect,7,GT
2198 Perfect,7,TA
1710 Perfect,7,TC
1475 Perfect,7,TG
4708 Perfect,7,TT
1611 Perfect,8,AA
199 Perfect,8,AC
269 Perfect,8,AG
1196 Perfect,8,AT
336 Perfect,8,CA
16 Perfect,8,CC
3 Perfect,8,CG
277 Perfect,8,CT
269 Perfect,8,GA
14 Perfect,8,GC
25 Perfect,8,GG
203 Perfect,8,GT
916 Perfect,8,TA
282 Perfect,8,TC
345 Perfect,8,TG
1626 Perfect,8,TT
956 Perfect,9,AA
300 Perfect,9,AC
262 Perfect,9,AG
343 Perfect,9,AT
66 Perfect,9,CA
14 Perfect,9,CC
1 Perfect,9,CG
74 Perfect,9,CT
86 Perfect,9,GA
2 Perfect,9,GC
5 Perfect,9,GG
69 Perfect,9,GT
424 Perfect,9,TA
271 Perfect,9,TC
286 Perfect,9,TG
946 Perfect,9,TT
