177788 Imperfect,4,AAA
109435 Imperfect,4,AAC
107992 Imperfect,4,AAG
90379 Imperfect,4,AAT
117011 Imperfect,4,ACA
98596 Imperfect,4,ACC
19588 Imperfect,4,ACG
53105 Imperfect,4,ACT
146292 Imperfect,4,AGA
107144 Imperfect,4,AGC
118337 Imperfect,4,AGG
59616 Imperfect,4,AGT
93501 Imperfect,4,ATA
86606 Imperfect,4,ATC
97223 Imperfect,4,ATG
86849 Imperfect,4,ATT
55320 Imperfect,4,CAA
121107 Imperfect,4,CAC
154393 Imperfect,4,CAG
87838 Imperfect,4,CAT
104569 Imperfect,4,CCA
128545 Imperfect,4,CCC
25202 Imperfect,4,CCG
130513 Imperfect,4,CCT
15968 Imperfect,4,CGA
54065 Imperfect,4,CGC
39963 Imperfect,4,CGG
27225 Imperfect,4,CGT
49928 Imperfect,4,CTA
148278 Imperfect,4,CTC
142970 Imperfect,4,CTG
94393 Imperfect,4,CTT
102120 Imperfect,4,GAA
24751 Imperfect,4,GAC
162627 Imperfect,4,GAG
89115 Imperfect,4,GAT
147510 Imperfect,4,GCA
35999 Imperfect,4,GCC
36592 Imperfect,4,GCG
166497 Imperfect,4,GCT
135972 Imperfect,4,GGA
39567 Imperfect,4,GGC
128854 Imperfect,4,GGG
107304 Imperfect,4,GGT
59228 Imperfect,4,GTA
14699 Imperfect,4,GTC
131584 Imperfect,4,GTG
71391 Imperfect,4,GTT
89898 Imperfect,4,TAA
70292 Imperfect,4,TAC
54477 Imperfect,4,TAG
111458 Imperfect,4,TAT
96446 Imperfect,4,TCA
135831 Imperfect,4,TCC
18092 Imperfect,4,TCG
126850 Imperfect,4,TCT
83666 Imperfect,4,TGA
98553 Imperfect,4,TGC
85332 Imperfect,4,TGG
115701 Imperfect,4,TGT
73511 Imperfect,4,TTA
133707 Imperfect,4,TTC
92606 Imperfect,4,TTG
175543 Imperfect,4,TTT
51441 Imperfect,5,AAA
32338 Imperfect,5,AAC
39252 Imperfect,5,AAG
34981 Imperfect,5,AAT
9531 Imperfect,5,ACA
14920 Imperfect,5,ACC
2682 Imperfect,5,ACG
11933 Imperfect,5,ACT
27498 Imperfect,5,AGA
27692 Imperfect,5,AGC
40737 Imperfect,5,AGG
20948 Imperfect,5,AGT
16240 Imperfect,5,ATA
17542 Imperfect,5,ATC
17718 Imperfect,5,ATG
16361 Imperfect,5,ATT
26004 Imperfect,5,CAA
26966 Imperfect,5,CAC
35719 Imperfect,5,CAG
20082 Imperfect,5,CAT
41139 Imperfect,5,CCA
26635 Imperfect,5,CCC
16898 Imperfect,5,CCG
53419 Imperfect,5,CCT
1191 Imperfect,5,CGA
2077 Imperfect,5,CGC
2182 Imperfect,5,CGG
1254 Imperfect,5,CGT
20736 Imperfect,5,CTA
40802 Imperfect,5,CTC
27309 Imperfect,5,CTG
27463 Imperfect,5,CTT
19448 Imperfect,5,GAA
4013 Imperfect,5,GAC
22312 Imperfect,5,GAG
18484 Imperfect,5,GAT
23313 Imperfect,5,GCA
5798 Imperfect,5,GCC
5712 Imperfect,5,GCG
23201 Imperfect,5,GCT
53210 Imperfect,5,GGA
16967 Imperfect,5,GGC
26422 Imperfect,5,GGG
40741 Imperfect,5,GGT
11782 Imperfect,5,GTA
2699 Imperfect,5,GTC
14962 Imperfect,5,GTG
9424 Imperfect,5,GTT
13031 Imperfect,5,TAA
9963 Imperfect,5,TAC
10073 Imperfect,5,TAG
12735 Imperfect,5,TAT
18819 Imperfect,5,TCA
22369 Imperfect,5,TCC
3892 Imperfect,5,TCG
19483 Imperfect,5,TCT
20205 Imperfect,5,TGA
35557 Imperfect,5,TGC
27324 Imperfect,5,TGG
25759 Imperfect,5,TGT
34388 Imperfect,5,TTA
38555 Imperfect,5,TTC
32146 Imperfect,5,TTG
50529 Imperfect,5,TTT
1220 Perfect,10,AAA
45 Perfect,10,AAC
66 Perfect,10,AAG
101 Perfect,10,AAT
37 Perfect,10,ACA
54 Perfect,10,ACC
11 Perfect,10,ACT
83 Perfect,10,AGA
67 Perfect,10,AGC
90 Perfect,10,AGG
16 Perfect,10,AGT
76 Perfect,10,ATA
106 Perfect,10,ATC
31 Perfect,10,ATG
70 Perfect,10,ATT
22 Perfect,10,CAA
74 Perfect,10,CAC
126 Perfect,10,CAG
48 Perfect,10,CAT
492 Perfect,10,CCA
38 Perfect,10,CCC
20 Perfect,10,CCG
114 Perfect,10,CCT
23 Perfect,10,CGC
15 Perfect,10,CGG
1 Perfect,10,CGT
6 Perfect,10,CTA
170 Perfect,10,CTC
117 Perfect,10,CTG
55 Perfect,10,CTT
52 Perfect,10,GAA
143 Perfect,10,GAG
31 Perfect,10,GAT
97 Perfect,10,GCA
14 Perfect,10,GCC
23 Perfect,10,GCG
119 Perfect,10,GCT
147 Perfect,10,GGA
21 Perfect,10,GGC
42 Perfect,10,GGG
91 Perfect,10,GGT
7 Perfect,10,GTA
489 Perfect,10,GTG
13 Perfect,10,GTT
55 Perfect,10,TAA
16 Perfect,10,TAC
10 Perfect,10,TAG
113 Perfect,10,TAT
45 Perfect,10,TCA
104 Perfect,10,TCC
1 Perfect,10,TCG
57 Perfect,10,TCT
38 Perfect,10,TGA
82 Perfect,10,TGC
51 Perfect,10,TGG
56 Perfect,10,TGT
76 Perfect,10,TTA
84 Perfect,10,TTC
40 Perfect,10,TTG
1172 Perfect,10,TTT
819 Perfect,11,AAA
124 Perfect,11,AAC
50 Perfect,11,AAG
117 Perfect,11,AAT
2 Perfect,11,ACA
14 Perfect,11,ACC
2 Perfect,11,ACT
13 Perfect,11,AGA
25 Perfect,11,AGC
56 Perfect,11,AGG
2 Perfect,11,AGT
27 Perfect,11,ATA
12 Perfect,11,ATC
16 Perfect,11,ATG
29 Perfect,11,ATT
8 Perfect,11,CAA
55 Perfect,11,CAC
61 Perfect,11,CAG
59 Perfect,11,CAT
48 Perfect,11,CCA
22 Perfect,11,CCC
16 Perfect,11,CCG
98 Perfect,11,CCT
1 Perfect,11,CGA
4 Perfect,11,CGC
11 Perfect,11,CGG
1 Perfect,11,CGT
6 Perfect,11,CTA
64 Perfect,11,CTC
38 Perfect,11,CTG
22 Perfect,11,CTT
17 Perfect,11,GAA
2 Perfect,11,GAC
49 Perfect,11,GAG
19 Perfect,11,GAT
30 Perfect,11,GCA
10 Perfect,11,GCC
11 Perfect,11,GCG
23 Perfect,11,GCT
114 Perfect,11,GGA
18 Perfect,11,GGC
16 Perfect,11,GGG
66 Perfect,11,GGT
2 Perfect,11,GTA
22 Perfect,11,GTG
1 Perfect,11,GTT
30 Perfect,11,TAA
6 Perfect,11,TAC
5 Perfect,11,TAG
33 Perfect,11,TAT
13 Perfect,11,TCA
56 Perfect,11,TCC
1 Perfect,11,TCG
19 Perfect,11,TCT
47 Perfect,11,TGA
38 Perfect,11,TGC
60 Perfect,11,TGG
6 Perfect,11,TGT
102 Perfect,11,TTA
66 Perfect,11,TTC
115 Perfect,11,TTG
830 Perfect,11,TTT
711 Perfect,12,AAA
11 Perfect,12,AAC
13 Perfect,12,AAG
40 Perfect,12,AAT
3 Perfect,12,ACC
1 Perfect,12,ACT
4 Perfect,12,AGA
12 Perfect,12,AGC
46 Perfect,12,AGG
16 Perfect,12,ATA
7 Perfect,12,ATC
8 Perfect,12,ATG
48 Perfect,12,ATT
37 Perfect,12,CAA
14 Perfect,12,CAC
19 Perfect,12,CAG
8 Perfect,12,CAT
11 Perfect,12,CCA
13 Perfect,12,CCC
3 Perfect,12,CCG
42 Perfect,12,CCT
4 Perfect,12,CGC
3 Perfect,12,CGG
41 Perfect,12,CTC
16 Perfect,12,CTG
13 Perfect,12,CTT
13 Perfect,12,GAA
25 Perfect,12,GAG
8 Perfect,12,GAT
15 Perfect,12,GCA
10 Perfect,12,GCC
2 Perfect,12,GCG
14 Perfect,12,GCT
26 Perfect,12,GGA
11 Perfect,12,GGC
14 Perfect,12,GGG
13 Perfect,12,GGT
15 Perfect,12,GTG
11 Perfect,12,GTT
21 Perfect,12,TAA
1 Perfect,12,TAG
13 Perfect,12,TAT
8 Perfect,12,TCA
22 Perfect,12,TCC
5 Perfect,12,TCT
10 Perfect,12,TGA
12 Perfect,12,TGC
41 Perfect,12,TGG
5 Perfect,12,TGT
10 Perfect,12,TTA
8 Perfect,12,TTC
44 Perfect,12,TTG
665 Perfect,12,TTT
635 Perfect,13,AAA
10 Perfect,13,AAC
5 Perfect,13,AAG
24 Perfect,13,AAT
4 Perfect,13,ACA
15 Perfect,13,ACC
1 Perfect,13,ACG
7 Perfect,13,AGA
4 Perfect,13,AGC
9 Perfect,13,AGG
22 Perfect,13,ATA
7 Perfect,13,ATC
8 Perfect,13,ATG
10 Perfect,13,ATT
2 Perfect,13,CAA
4 Perfect,13,CAC
9 Perfect,13,CAG
6 Perfect,13,CAT
10 Perfect,13,CCA
7 Perfect,13,CCC
3 Perfect,13,CCG
14 Perfect,13,CCT
7 Perfect,13,CGC
13 Perfect,13,CTC
7 Perfect,13,CTG
4 Perfect,13,CTT
4 Perfect,13,GAA
12 Perfect,13,GAG
3 Perfect,13,GAT
9 Perfect,13,GCA
2 Perfect,13,GCC
2 Perfect,13,GCG
4 Perfect,13,GCT
12 Perfect,13,GGA
5 Perfect,13,GGC
7 Perfect,13,GGG
21 Perfect,13,GGT
7 Perfect,13,GTG
3 Perfect,13,GTT
12 Perfect,13,TAA
1 Perfect,13,TAG
23 Perfect,13,TAT
4 Perfect,13,TCA
8 Perfect,13,TCC
5 Perfect,13,TCT
4 Perfect,13,TGA
3 Perfect,13,TGC
8 Perfect,13,TGG
6 Perfect,13,TGT
17 Perfect,13,TTA
10 Perfect,13,TTC
16 Perfect,13,TTG
636 Perfect,13,TTT
654 Perfect,14,AAA
51 Perfect,14,AAC
23 Perfect,14,AAG
63 Perfect,14,AAT
1 Perfect,14,ACA
1 Perfect,14,ACC
1 Perfect,14,AGA
3 Perfect,14,AGC
7 Perfect,14,AGG
3 Perfect,14,ATA
6 Perfect,14,ATC
3 Perfect,14,ATG
3 Perfect,14,ATT
2 Perfect,14,CAA
17 Perfect,14,CAC
1 Perfect,14,CAG
18 Perfect,14,CAT
5 Perfect,14,CCA
7 Perfect,14,CCC
4 Perfect,14,CCG
11 Perfect,14,CCT
10 Perfect,14,CTC
6 Perfect,14,CTG
1 Perfect,14,CTT
1 Perfect,14,GAA
11 Perfect,14,GAG
1 Perfect,14,GAT
7 Perfect,14,GCA
3 Perfect,14,GCC
2 Perfect,14,GCG
4 Perfect,14,GCT
12 Perfect,14,GGA
7 Perfect,14,GGC
5 Perfect,14,GGG
32 Perfect,14,GGT
3 Perfect,14,GTG
10 Perfect,14,TAA
1 Perfect,14,TAC
2 Perfect,14,TAG
11 Perfect,14,TAT
3 Perfect,14,TCA
16 Perfect,14,TCC
6 Perfect,14,TCT
17 Perfect,14,TGA
5 Perfect,14,TGC
19 Perfect,14,TGG
4 Perfect,14,TGT
51 Perfect,14,TTA
13 Perfect,14,TTC
65 Perfect,14,TTG
637 Perfect,14,TTT
569 Perfect,15,AAA
4 Perfect,15,AAC
3 Perfect,15,AAG
27 Perfect,15,AAT
1 Perfect,15,ACA
3 Perfect,15,ACC
9 Perfect,15,AGG
1 Perfect,15,ATA
3 Perfect,15,ATC
2 Perfect,15,ATG
18 Perfect,15,ATT
11 Perfect,15,CAA
2 Perfect,15,CAG
3 Perfect,15,CAT
7 Perfect,15,CCA
3 Perfect,15,CCC
1 Perfect,15,CCG
5 Perfect,15,CCT
6 Perfect,15,CTC
5 Perfect,15,CTG
9 Perfect,15,CTT
5 Perfect,15,GAG
2 Perfect,15,GAT
2 Perfect,15,GCA
2 Perfect,15,GCC
2 Perfect,15,GCG
2 Perfect,15,GCT
2 Perfect,15,GGA
4 Perfect,15,GGC
2 Perfect,15,GGG
4 Perfect,15,GGT
5 Perfect,15,GTT
9 Perfect,15,TAA
1 Perfect,15,TAT
3 Perfect,15,TCA
8 Perfect,15,TCC
2 Perfect,15,TCT
5 Perfect,15,TGA
2 Perfect,15,TGC
5 Perfect,15,TGG
1 Perfect,15,TGT
8 Perfect,15,TTA
25 Perfect,15,TTG
573 Perfect,15,TTT
471 Perfect,16,AAA
8 Perfect,16,AAC
7 Perfect,16,AAG
8 Perfect,16,AAT
7 Perfect,16,ACA
19 Perfect,16,ACC
2 Perfect,16,AGA
1 Perfect,16,AGC
8 Perfect,16,AGG
5 Perfect,16,ATA
1 Perfect,16,ATC
3 Perfect,16,ATG
1 Perfect,16,ATT
2 Perfect,16,CAC
2 Perfect,16,CAG
1 Perfect,16,CAT
3 Perfect,16,CCC
4 Perfect,16,CCG
2 Perfect,16,CCT
1 Perfect,16,CGC
2 Perfect,16,CGG
2 Perfect,16,CTC
1 Perfect,16,CTG
1 Perfect,16,CTT
1 Perfect,16,GAA
1 Perfect,16,GAG
1 Perfect,16,GAT
2 Perfect,16,GCA
2 Perfect,16,GCC
4 Perfect,16,GCT
1 Perfect,16,GGC
10 Perfect,16,GGT
1 Perfect,16,GTT
6 Perfect,16,TAA
13 Perfect,16,TAT
6 Perfect,16,TCC
4 Perfect,16,TCT
4 Perfect,16,TGA
3 Perfect,16,TGC
7 Perfect,16,TGT
4 Perfect,16,TTA
2 Perfect,16,TTC
4 Perfect,16,TTG
538 Perfect,16,TTT
462 Perfect,17,AAA
36 Perfect,17,AAC
12 Perfect,17,AAG
18 Perfect,17,AAT
1 Perfect,17,ACC
3 Perfect,17,AGC
2 Perfect,17,AGG
4 Perfect,17,ATA
1 Perfect,17,ATG
1 Perfect,17,ATT
12 Perfect,17,CAC
4 Perfect,17,CAT
1 Perfect,17,CCC
2 Perfect,17,CCG
1 Perfect,17,CCT
5 Perfect,17,CTC
2 Perfect,17,CTG
1 Perfect,17,GAA
2 Perfect,17,GAG
1 Perfect,17,GAT
2 Perfect,17,GCA
3 Perfect,17,GCC
3 Perfect,17,GCG
1 Perfect,17,GCT
4 Perfect,17,GGA
5 Perfect,17,GGC
1 Perfect,17,GGG
2 Perfect,17,GGT
1 Perfect,17,GTT
5 Perfect,17,TAA
1 Perfect,17,TAG
3 Perfect,17,TAT
1 Perfect,17,TCA
8 Perfect,17,TCC
1 Perfect,17,TCT
5 Perfect,17,TGA
2 Perfect,17,TGC
7 Perfect,17,TGG
1 Perfect,17,TGT
20 Perfect,17,TTA
3 Perfect,17,TTC
39 Perfect,17,TTG
423 Perfect,17,TTT
325 Perfect,18,AAA
2 Perfect,18,AAC
2 Perfect,18,AAG
12 Perfect,18,AAT
2 Perfect,18,ACC
2 Perfect,18,AGG
3 Perfect,18,ATA
1 Perfect,18,ATG
14 Perfect,18,ATT
9 Perfect,18,CAA
1 Perfect,18,CAC
1 Perfect,18,CAG
3 Perfect,18,CAT
2 Perfect,18,CCC
2 Perfect,18,CCT
1 Perfect,18,CGC
3 Perfect,18,CTC
1 Perfect,18,CTT
1 Perfect,18,GAA
1 Perfect,18,GAC
3 Perfect,18,GAG
1 Perfect,18,GAT
1 Perfect,18,GCA
3 Perfect,18,GCC
2 Perfect,18,GGC
2 Perfect,18,GTG
3 Perfect,18,GTT
5 Perfect,18,TAA
3 Perfect,18,TCC
1 Perfect,18,TGC
7 Perfect,18,TGG
3 Perfect,18,TTA
2 Perfect,18,TTC
5 Perfect,18,TTG
365 Perfect,18,TTT
331 Perfect,19,AAA
2 Perfect,19,AAC
2 Perfect,19,AAG
3 Perfect,19,AAT
3 Perfect,19,ACA
15 Perfect,19,ACC
1 Perfect,19,ATA
1 Perfect,19,ATC
1 Perfect,19,ATG
1 Perfect,19,CAG
1 Perfect,19,CAT
1 Perfect,19,CCA
1 Perfect,19,CCC
1 Perfect,19,CCG
1 Perfect,19,CCT
1 Perfect,19,CGC
1 Perfect,19,CTC
1 Perfect,19,CTT
1 Perfect,19,GAA
2 Perfect,19,GAG
1 Perfect,19,GAT
1 Perfect,19,GCC
1 Perfect,19,GCG
1 Perfect,19,GCT
1 Perfect,19,GGA
1 Perfect,19,GGC
1 Perfect,19,GGT
2 Perfect,19,TAA
8 Perfect,19,TAT
3 Perfect,19,TCC
2 Perfect,19,TCT
2 Perfect,19,TGA
2 Perfect,19,TGG
2 Perfect,19,TGT
3 Perfect,19,TTA
279 Perfect,19,TTT
291 Perfect,20,AAA
17 Perfect,20,AAC
2 Perfect,20,AAG
15 Perfect,20,AAT
1 Perfect,20,ACA
3 Perfect,20,AGG
1 Perfect,20,ATG
2 Perfect,20,ATT
4 Perfect,20,CAC
1 Perfect,20,CAG
1 Perfect,20,CAT
1 Perfect,20,CCA
2 Perfect,20,CCG
1 Perfect,20,CGC
2 Perfect,20,CTC
1 Perfect,20,GAA
2 Perfect,20,GAG
1 Perfect,20,GCA
1 Perfect,20,GGT
1 Perfect,20,GTG
1 Perfect,20,TAA
1 Perfect,20,TCA
1 Perfect,20,TCC
1 Perfect,20,TCG
1 Perfect,20,TGA
2 Perfect,20,TGC
3 Perfect,20,TGG
12 Perfect,20,TTA
4 Perfect,20,TTC
22 Perfect,20,TTG
259 Perfect,20,TTT
232 Perfect,21,AAA
1 Perfect,21,AAG
6 Perfect,21,AAT
1 Perfect,21,AGC
1 Perfect,21,ATA
8 Perfect,21,ATT
5 Perfect,21,CAA
1 Perfect,21,CAT
5 Perfect,21,CCA
1 Perfect,21,CTG
2 Perfect,21,CTT
1 Perfect,21,GAA
1 Perfect,21,GAT
1 Perfect,21,GCA
1 Perfect,21,GCT
2 Perfect,21,GGA
1 Perfect,21,GGC
3 Perfect,21,GTG
2 Perfect,21,GTT
2 Perfect,21,TAA
1 Perfect,21,TAC
2 Perfect,21,TCC
1 Perfect,21,TGA
1 Perfect,21,TTC
3 Perfect,21,TTG
236 Perfect,21,TTT
179 Perfect,22,AAA
4 Perfect,22,AAT
1 Perfect,22,ACA
6 Perfect,22,ACC
1 Perfect,22,AGC
1 Perfect,22,AGG
1 Perfect,22,CAG
1 Perfect,22,CCT
1 Perfect,22,CTC
1 Perfect,22,GAG
1 Perfect,22,GCA
1 Perfect,22,TAA
1 Perfect,22,TAC
5 Perfect,22,TAT
2 Perfect,22,TCC
1 Perfect,22,TCT
1 Perfect,22,TGA
1 Perfect,22,TGG
222 Perfect,22,TTT
192 Perfect,23,AAA
6 Perfect,23,AAC
1 Perfect,23,AAG
7 Perfect,23,AAT
1 Perfect,23,AGC
2 Perfect,23,CAC
1 Perfect,23,CAG
2 Perfect,23,CAT
1 Perfect,23,GGC
1 Perfect,23,GTG
1 Perfect,23,TAA
1 Perfect,23,TAT
1 Perfect,23,TCA
1 Perfect,23,TCC
1 Perfect,23,TGA
2 Perfect,23,TGG
7 Perfect,23,TTA
1 Perfect,23,TTC
2 Perfect,23,TTG
193 Perfect,23,TTT
146 Perfect,24,AAA
2 Perfect,24,AAC
2 Perfect,24,AAT
2 Perfect,24,ATT
1 Perfect,24,CAA
1 Perfect,24,GCC
1 Perfect,24,TAA
1 Perfect,24,TGG
1 Perfect,24,TTC
3 Perfect,24,TTG
143 Perfect,24,TTT
113 Perfect,25,AAA
2 Perfect,25,ACC
1 Perfect,25,ATA
1 Perfect,25,ATT
1 Perfect,25,CCG
1 Perfect,25,CCT
1 Perfect,25,CGC
1 Perfect,25,CTG
1 Perfect,25,GCA
1 Perfect,25,GCC
1 Perfect,25,GGA
1 Perfect,25,TAT
1 Perfect,25,TGA
1 Perfect,25,TGT
2 Perfect,25,TTA
116 Perfect,25,TTT
75 Perfect,26,AAA
3 Perfect,26,AAC
1 Perfect,26,AAG
5 Perfect,26,AAT
1 Perfect,26,AGG
1 Perfect,26,CAC
1 Perfect,26,CAG
1 Perfect,26,CCT
1 Perfect,26,GAG
1 Perfect,26,GCC
1 Perfect,26,GCG
1 Perfect,26,TCC
1 Perfect,26,TCT
1 Perfect,26,TGA
2 Perfect,26,TGG
5 Perfect,26,TTA
2 Perfect,26,TTG
87 Perfect,26,TTT
66 Perfect,27,AAA
2 Perfect,27,AAT
1 Perfect,27,ATA
4 Perfect,27,ATT
1 Perfect,27,CAA
1 Perfect,27,CAC
1 Perfect,27,CAT
1 Perfect,27,CGC
1 Perfect,27,CTT
1 Perfect,27,TAA
1 Perfect,27,TTA
88 Perfect,27,TTT
53 Perfect,28,AAA
1 Perfect,28,AAC
1 Perfect,28,AAG
1 Perfect,28,AAT
1 Perfect,28,CGC
1 Perfect,28,TAT
1 Perfect,28,TCC
2 Perfect,28,TGA
1 Perfect,28,TTC
47 Perfect,28,TTT
44 Perfect,29,AAA
4 Perfect,29,AAT
1 Perfect,29,AGT
1 Perfect,29,ATG
1 Perfect,29,GCG
1 Perfect,29,GCT
1 Perfect,29,TGC
1 Perfect,29,TTA
2 Perfect,29,TTG
45 Perfect,29,TTT
32 Perfect,30,AAA
1 Perfect,30,AAC
1 Perfect,30,AAT
1 Perfect,30,CTC
1 Perfect,30,GTG
2 Perfect,30,TAA
1 Perfect,30,TTA
1 Perfect,30,TTG
30 Perfect,30,TTT
20 Perfect,31,AAA
1 Perfect,31,AAG
1 Perfect,31,TAT
1 Perfect,31,TGT
23 Perfect,31,TTT
11 Perfect,32,AAA
2 Perfect,32,AAT
1 Perfect,32,CAT
1 Perfect,32,GAG
3 Perfect,32,TTA
1 Perfect,32,TTG
15 Perfect,32,TTT
6 Perfect,33,AAA
2 Perfect,33,ATT
1 Perfect,33,CAT
2 Perfect,33,TAA
1 Perfect,33,TAT
1 Perfect,33,TTG
14 Perfect,33,TTT
4 Perfect,34,AAA
1 Perfect,34,AAT
1 Perfect,34,CCT
1 Perfect,34,TAT
6 Perfect,34,TTT
5 Perfect,35,AAA
2 Perfect,35,AAC
1 Perfect,35,AAG
1 Perfect,35,AAT
1 Perfect,35,TAT
1 Perfect,35,TCT
2 Perfect,35,TTA
8 Perfect,35,TTT
9 Perfect,36,AAA
1 Perfect,36,AAT
2 Perfect,36,ATT
1 Perfect,36,CAG
1 Perfect,36,TTA
4 Perfect,36,TTT
6 Perfect,37,AAA
1 Perfect,37,AAT
1 Perfect,37,ATC
1 Perfect,37,TCT
5 Perfect,37,TTT
7 Perfect,38,AAA
1 Perfect,38,AGG
1 Perfect,38,CAT
1 Perfect,38,GGA
2 Perfect,38,TAT
6 Perfect,38,TTT
7 Perfect,39,AAA
1 Perfect,39,CTG
5 Perfect,39,TTT
7 Perfect,40,AAA
1 Perfect,40,AAG
1 Perfect,40,ATT
1 Perfect,40,TCT
1 Perfect,40,TGG
3 Perfect,40,TTT
2 Perfect,41,AAA
1 Perfect,41,AAC
3 Perfect,41,AAT
1 Perfect,41,TAT
1 Perfect,41,TGT
1 Perfect,41,TTA
1 Perfect,41,TTT
3 Perfect,42,ATT
1 Perfect,42,CTC
1 Perfect,42,TAA
2 Perfect,42,TTT
2 Perfect,43,AAA
2 Perfect,43,AAT
1 Perfect,43,ATA
1 Perfect,43,ATT
1 Perfect,43,TTA
1 Perfect,43,TTT
1 Perfect,44,AAA
1 Perfect,44,TTA
1 Perfect,44,TTT
2 Perfect,45,AAA
1 Perfect,45,AAT
2 Perfect,45,ATT
1 Perfect,46,AAT
1 Perfect,46,CAC
1 Perfect,46,TAT
3 Perfect,46,TTT
1 Perfect,47,AAT
1 Perfect,47,TGG
2 Perfect,47,TTA
1 Perfect,48,AAT
1 Perfect,48,TTT
1 Perfect,49,AAA
1 Perfect,49,AAT
1 Perfect,49,ATT
1 Perfect,49,TTC
1 Perfect,50,TCT
1 Perfect,51,AAT
1 Perfect,58,TTC
1 Perfect,61,CTT
1 Perfect,64,CTT
1 Perfect,69,GAA
15867 Perfect,6,AAA
3044 Perfect,6,AAC
6846 Perfect,6,AAG
6558 Perfect,6,AAT
4735 Perfect,6,ACA
3630 Perfect,6,ACC
232 Perfect,6,ACG
2822 Perfect,6,ACT
7205 Perfect,6,AGA
5843 Perfect,6,AGC
14599 Perfect,6,AGG
2836 Perfect,6,AGT
4094 Perfect,6,ATA
3020 Perfect,6,ATC
4749 Perfect,6,ATG
6442 Perfect,6,ATT
5870 Perfect,6,CAA
7567 Perfect,6,CAC
10563 Perfect,6,CAG
4690 Perfect,6,CAT
10556 Perfect,6,CCA
5277 Perfect,6,CCC
654 Perfect,6,CCG
14641 Perfect,6,CCT
173 Perfect,6,CGA
670 Perfect,6,CGC
655 Perfect,6,CGG
231 Perfect,6,CGT
7890 Perfect,6,CTA
7001 Perfect,6,CTC
10530 Perfect,6,CTG
6843 Perfect,6,CTT
6545 Perfect,6,GAA
796 Perfect,6,GAC
7006 Perfect,6,GAG
2976 Perfect,6,GAT
5248 Perfect,6,GCA
3009 Perfect,6,GCC
666 Perfect,6,GCG
5759 Perfect,6,GCT
8364 Perfect,6,GGA
2931 Perfect,6,GGC
5222 Perfect,6,GGG
3504 Perfect,6,GGT
1535 Perfect,6,GTA
777 Perfect,6,GTC
7154 Perfect,6,GTG
2946 Perfect,6,GTT
4738 Perfect,6,TAA
1504 Perfect,6,TAC
7915 Perfect,6,TAG
4104 Perfect,6,TAT
5112 Perfect,6,TCA
8450 Perfect,6,TCC
167 Perfect,6,TCG
7108 Perfect,6,TCT
5226 Perfect,6,TGA
5250 Perfect,6,TGC
10434 Perfect,6,TGG
4747 Perfect,6,TGT
4741 Perfect,6,TTA
6324 Perfect,6,TTC
5672 Perfect,6,TTG
15803 Perfect,6,TTT
1 Perfect,76,AAG
6930 Perfect,7,AAA
1618 Perfect,7,AAC
2166 Perfect,7,AAG
1812 Perfect,7,AAT
1122 Perfect,7,ACA
1482 Perfect,7,ACC
37 Perfect,7,ACG
483 Perfect,7,ACT
2991 Perfect,7,AGA
1703 Perfect,7,AGC
3413 Perfect,7,AGG
503 Perfect,7,AGT
1505 Perfect,7,ATA
1100 Perfect,7,ATC
1516 Perfect,7,ATG
1248 Perfect,7,ATT
669 Perfect,7,CAA
1571 Perfect,7,CAC
3019 Perfect,7,CAG
1160 Perfect,7,CAT
5578 Perfect,7,CCA
823 Perfect,7,CCC
261 Perfect,7,CCG
3002 Perfect,7,CCT
51 Perfect,7,CGA
482 Perfect,7,CGC
305 Perfect,7,CGG
104 Perfect,7,CGT
430 Perfect,7,CTA
2747 Perfect,7,CTC
2666 Perfect,7,CTG
1796 Perfect,7,CTT
1834 Perfect,7,GAA
99 Perfect,7,GAC
2962 Perfect,7,GAG
1290 Perfect,7,GAT
2628 Perfect,7,GCA
240 Perfect,7,GCC
257 Perfect,7,GCG
2891 Perfect,7,GCT
2671 Perfect,7,GGA
381 Perfect,7,GGC
806 Perfect,7,GGG
1583 Perfect,7,GGT
443 Perfect,7,GTA
65 Perfect,7,GTC
5567 Perfect,7,GTG
676 Perfect,7,GTT
1195 Perfect,7,TAA
562 Perfect,7,TAC
516 Perfect,7,TAG
1719 Perfect,7,TAT
1513 Perfect,7,TCA
3591 Perfect,7,TCC
38 Perfect,7,TCG
2055 Perfect,7,TCT
1019 Perfect,7,TGA
1629 Perfect,7,TGC
1470 Perfect,7,TGG
1569 Perfect,7,TGT
1428 Perfect,7,TTA
2979 Perfect,7,TTC
1124 Perfect,7,TTG
6658 Perfect,7,TTT
2637 Perfect,8,AAA
628 Perfect,8,AAC
1115 Perfect,8,AAG
1013 Perfect,8,AAT
159 Perfect,8,ACA
492 Perfect,8,ACC
12 Perfect,8,ACG
87 Perfect,8,ACT
500 Perfect,8,AGA
773 Perfect,8,AGC
884 Perfect,8,AGG
132 Perfect,8,AGT
403 Perfect,8,ATA
342 Perfect,8,ATC
270 Perfect,8,ATG
391 Perfect,8,ATT
354 Perfect,8,CAA
1167 Perfect,8,CAC
936 Perfect,8,CAG
466 Perfect,8,CAT
924 Perfect,8,CCA
164 Perfect,8,CCC
223 Perfect,8,CCG
1484 Perfect,8,CCT
11 Perfect,8,CGA
43 Perfect,8,CGC
62 Perfect,8,CGG
16 Perfect,8,CGT
140 Perfect,8,CTA
827 Perfect,8,CTC
794 Perfect,8,CTG
512 Perfect,8,CTT
557 Perfect,8,GAA
34 Perfect,8,GAC
642 Perfect,8,GAG
351 Perfect,8,GAT
764 Perfect,8,GCA
142 Perfect,8,GCC
133 Perfect,8,GCG
726 Perfect,8,GCT
1529 Perfect,8,GGA
239 Perfect,8,GGC
178 Perfect,8,GGG
903 Perfect,8,GGT
94 Perfect,8,GTA
11 Perfect,8,GTC
505 Perfect,8,GTG
177 Perfect,8,GTT
424 Perfect,8,TAA
111 Perfect,8,TAC
126 Perfect,8,TAG
441 Perfect,8,TAT
364 Perfect,8,TCA
758 Perfect,8,TCC
26 Perfect,8,TCG
503 Perfect,8,TCT
534 Perfect,8,TGA
856 Perfect,8,TGC
1214 Perfect,8,TGG
307 Perfect,8,TGT
991 Perfect,8,TTA
1059 Perfect,8,TTC
606 Perfect,8,TTG
2692 Perfect,8,TTT
1670 Perfect,9,AAA
58 Perfect,9,AAC
154 Perfect,9,AAG
212 Perfect,9,AAT
58 Perfect,9,ACA
122 Perfect,9,ACC
1 Perfect,9,ACG
40 Perfect,9,ACT
161 Perfect,9,AGA
219 Perfect,9,AGC
387 Perfect,9,AGG
32 Perfect,9,AGT
220 Perfect,9,ATA
159 Perfect,9,ATC
128 Perfect,9,ATG
237 Perfect,9,ATT
125 Perfect,9,CAA
885 Perfect,9,CAC
475 Perfect,9,CAG
119 Perfect,9,CAT
500 Perfect,9,CCA
54 Perfect,9,CCC
21 Perfect,9,CCG
398 Perfect,9,CCT
21 Perfect,9,CGC
31 Perfect,9,CGG
3 Perfect,9,CGT
28 Perfect,9,CTA
294 Perfect,9,CTC
483 Perfect,9,CTG
146 Perfect,9,CTT
205 Perfect,9,GAA
7 Perfect,9,GAC
276 Perfect,9,GAG
66 Perfect,9,GAT
167 Perfect,9,GCA
77 Perfect,9,GCC
35 Perfect,9,GCG
210 Perfect,9,GCT
297 Perfect,9,GGA
77 Perfect,9,GGC
67 Perfect,9,GGG
137 Perfect,9,GGT
18 Perfect,9,GTA
12 Perfect,9,GTC
888 Perfect,9,GTG
70 Perfect,9,GTT
154 Perfect,9,TAA
23 Perfect,9,TAC
31 Perfect,9,TAG
142 Perfect,9,TAT
163 Perfect,9,TCA
276 Perfect,9,TCC
152 Perfect,9,TCT
141 Perfect,9,TGA
199 Perfect,9,TGC
493 Perfect,9,TGG
64 Perfect,9,TGT
173 Perfect,9,TTA
216 Perfect,9,TTC
120 Perfect,9,TTG
1647 Perfect,9,TTT
