78623 Imperfect,5,AAAA
37863 Imperfect,5,AAAC
35669 Imperfect,5,AAAG
43309 Imperfect,5,AAAT
24748 Imperfect,5,AACA
24344 Imperfect,5,AACC
3980 Imperfect,5,AACG
14767 Imperfect,5,AACT
33181 Imperfect,5,AAGA
29987 Imperfect,5,AAGC
29906 Imperfect,5,AAGG
19476 Imperfect,5,AAGT
26867 Imperfect,5,AATA
25641 Imperfect,5,AATC
27032 Imperfect,5,AATG
30592 Imperfect,5,AATT
51106 Imperfect,5,ACAA
38279 Imperfect,5,ACAC
49078 Imperfect,5,ACAG
24093 Imperfect,5,ACAT
23484 Imperfect,5,ACCA
35829 Imperfect,5,ACCC
4202 Imperfect,5,ACCG
14700 Imperfect,5,ACCT
4607 Imperfect,5,ACGA
5519 Imperfect,5,ACGC
7659 Imperfect,5,ACGG
3868 Imperfect,5,ACGT
22667 Imperfect,5,ACTA
28079 Imperfect,5,ACTC
28728 Imperfect,5,ACTG
17510 Imperfect,5,ACTT
56565 Imperfect,5,AGAA
30154 Imperfect,5,AGAC
47275 Imperfect,5,AGAG
20929 Imperfect,5,AGAT
29265 Imperfect,5,AGCA
41655 Imperfect,5,AGCC
6564 Imperfect,5,AGCG
26743 Imperfect,5,AGCT
38452 Imperfect,5,AGGA
36985 Imperfect,5,AGGC
33289 Imperfect,5,AGGG
16688 Imperfect,5,AGGT
20108 Imperfect,5,AGTA
21769 Imperfect,5,AGTC
31114 Imperfect,5,AGTG
16901 Imperfect,5,AGTT
39518 Imperfect,5,ATAA
28444 Imperfect,5,ATAC
19468 Imperfect,5,ATAG
21614 Imperfect,5,ATAT
20456 Imperfect,5,ATCA
25831 Imperfect,5,ATCC
4046 Imperfect,5,ATCG
14632 Imperfect,5,ATCT
30975 Imperfect,5,ATGA
26046 Imperfect,5,ATGC
31524 Imperfect,5,ATGG
18700 Imperfect,5,ATGT
25628 Imperfect,5,ATTA
25969 Imperfect,5,ATTC
18029 Imperfect,5,ATTG
26672 Imperfect,5,ATTT
19911 Imperfect,5,CAAA
21216 Imperfect,5,CAAC
22322 Imperfect,5,CAAG
14726 Imperfect,5,CAAT
31233 Imperfect,5,CACA
32228 Imperfect,5,CACC
14717 Imperfect,5,CACG
31636 Imperfect,5,CACT
21560 Imperfect,5,CAGA
67116 Imperfect,5,CAGC
57739 Imperfect,5,CAGG
21485 Imperfect,5,CAGT
10014 Imperfect,5,CATA
26659 Imperfect,5,CATC
28882 Imperfect,5,CATG
23885 Imperfect,5,CATT
22351 Imperfect,5,CCAA
47821 Imperfect,5,CCAC
53971 Imperfect,5,CCAG
30654 Imperfect,5,CCAT
31912 Imperfect,5,CCCA
32772 Imperfect,5,CCCC
8281 Imperfect,5,CCCG
31129 Imperfect,5,CCCT
3749 Imperfect,5,CCGA
14108 Imperfect,5,CCGC
9722 Imperfect,5,CCGG
9143 Imperfect,5,CCGT
12490 Imperfect,5,CCTA
48899 Imperfect,5,CCTC
36180 Imperfect,5,CCTG
27386 Imperfect,5,CCTT
5177 Imperfect,5,CGAA
5028 Imperfect,5,CGAC
6236 Imperfect,5,CGAG
7022 Imperfect,5,CGAT
7737 Imperfect,5,CGCA
15341 Imperfect,5,CGCC
5177 Imperfect,5,CGCG
9493 Imperfect,5,CGCT
4343 Imperfect,5,CGGA
15799 Imperfect,5,CGGC
12975 Imperfect,5,CGGG
5144 Imperfect,5,CGGT
2726 Imperfect,5,CGTA
8010 Imperfect,5,CGTC
10625 Imperfect,5,CGTG
5306 Imperfect,5,CGTT
11590 Imperfect,5,CTAA
12814 Imperfect,5,CTAC
11584 Imperfect,5,CTAG
9490 Imperfect,5,CTAT
33174 Imperfect,5,CTCA
57836 Imperfect,5,CTCC
5606 Imperfect,5,CTCG
30455 Imperfect,5,CTCT
26808 Imperfect,5,CTGA
40420 Imperfect,5,CTGC
40558 Imperfect,5,CTGG
29004 Imperfect,5,CTGT
11937 Imperfect,5,CTTA
33936 Imperfect,5,CTTC
19562 Imperfect,5,CTTG
24839 Imperfect,5,CTTT
28081 Imperfect,5,GAAA
4433 Imperfect,5,GAAC
31213 Imperfect,5,GAAG
24637 Imperfect,5,GAAT
30772 Imperfect,5,GACA
4373 Imperfect,5,GACC
8638 Imperfect,5,GACG
22611 Imperfect,5,GACT
33056 Imperfect,5,GAGA
6736 Imperfect,5,GAGC
36167 Imperfect,5,GAGG
30787 Imperfect,5,GAGT
10111 Imperfect,5,GATA
5339 Imperfect,5,GATC
31708 Imperfect,5,GATG
16470 Imperfect,5,GATT
25454 Imperfect,5,GCAA
8891 Imperfect,5,GCAC
51249 Imperfect,5,GCAG
31161 Imperfect,5,GCAT
48522 Imperfect,5,GCCA
12296 Imperfect,5,GCCC
12976 Imperfect,5,GCCG
67952 Imperfect,5,GCCT
8177 Imperfect,5,GCGA
5094 Imperfect,5,GCGC
12603 Imperfect,5,GCGG
15644 Imperfect,5,GCGT
14306 Imperfect,5,GCTA
5484 Imperfect,5,GCTC
75461 Imperfect,5,GCTG
26349 Imperfect,5,GCTT
35627 Imperfect,5,GGAA
6046 Imperfect,5,GGAC
68030 Imperfect,5,GGAG
23455 Imperfect,5,GGAT
42591 Imperfect,5,GGCA
11382 Imperfect,5,GGCC
12083 Imperfect,5,GGCG
50665 Imperfect,5,GGCT
37465 Imperfect,5,GGGA
12526 Imperfect,5,GGGC
32470 Imperfect,5,GGGG
31703 Imperfect,5,GGGT
13236 Imperfect,5,GGTA
3430 Imperfect,5,GGTC
45216 Imperfect,5,GGTG
20479 Imperfect,5,GGTT
13570 Imperfect,5,GTAA
1788 Imperfect,5,GTAC
14308 Imperfect,5,GTAG
10935 Imperfect,5,GTAT
30468 Imperfect,5,GTCA
3934 Imperfect,5,GTCC
4935 Imperfect,5,GTCG
25080 Imperfect,5,GTCT
45881 Imperfect,5,GTGA
6436 Imperfect,5,GTGC
43064 Imperfect,5,GTGG
36299 Imperfect,5,GTGT
12857 Imperfect,5,GTTA
4513 Imperfect,5,GTTC
23985 Imperfect,5,GTTG
22384 Imperfect,5,GTTT
27903 Imperfect,5,TAAA
17512 Imperfect,5,TAAC
16562 Imperfect,5,TAAG
33940 Imperfect,5,TAAT
19383 Imperfect,5,TACA
18978 Imperfect,5,TACC
3694 Imperfect,5,TACG
22316 Imperfect,5,TACT
15565 Imperfect,5,TAGA
27018 Imperfect,5,TAGC
14626 Imperfect,5,TAGG
16747 Imperfect,5,TAGT
22571 Imperfect,5,TATA
21682 Imperfect,5,TATC
22186 Imperfect,5,TATG
53660 Imperfect,5,TATT
19463 Imperfect,5,TCAA
40387 Imperfect,5,TCAC
27242 Imperfect,5,TCAG
31278 Imperfect,5,TCAT
26707 Imperfect,5,TCCA
37512 Imperfect,5,TCCC
5355 Imperfect,5,TCCG
32998 Imperfect,5,TCCT
2729 Imperfect,5,TCGA
7493 Imperfect,5,TCGC
3922 Imperfect,5,TCGG
4043 Imperfect,5,TCGT
20341 Imperfect,5,TCTA
49111 Imperfect,5,TCTC
40743 Imperfect,5,TCTG
46368 Imperfect,5,TCTT
25200 Imperfect,5,TGAA
22384 Imperfect,5,TGAC
25302 Imperfect,5,TGAG
27396 Imperfect,5,TGAT
23328 Imperfect,5,TGCA
42962 Imperfect,5,TGCC
4245 Imperfect,5,TGCG
31483 Imperfect,5,TGCT
23255 Imperfect,5,TGGA
43788 Imperfect,5,TGGC
27879 Imperfect,5,TGGG
25621 Imperfect,5,TGGT
29247 Imperfect,5,TGTA
36300 Imperfect,5,TGTC
32941 Imperfect,5,TGTG
45689 Imperfect,5,TGTT
21823 Imperfect,5,TTAA
17898 Imperfect,5,TTAC
19512 Imperfect,5,TTAG
26018 Imperfect,5,TTAT
27068 Imperfect,5,TTCA
40365 Imperfect,5,TTCC
3897 Imperfect,5,TTCG
33969 Imperfect,5,TTCT
17444 Imperfect,5,TTGA
28289 Imperfect,5,TTGC
20881 Imperfect,5,TTGG
24492 Imperfect,5,TTGT
30359 Imperfect,5,TTTA
47076 Imperfect,5,TTTC
39543 Imperfect,5,TTTG
77399 Imperfect,5,TTTT
24856 Imperfect,6,AAAA
9263 Imperfect,6,AAAC
11566 Imperfect,6,AAAG
11653 Imperfect,6,AAAT
16277 Imperfect,6,AACA
6917 Imperfect,6,AACC
1336 Imperfect,6,AACG
5242 Imperfect,6,AACT
20198 Imperfect,6,AAGA
10186 Imperfect,6,AAGC
11216 Imperfect,6,AAGG
6672 Imperfect,6,AAGT
16649 Imperfect,6,AATA
6371 Imperfect,6,AATC
9984 Imperfect,6,AATG
8866 Imperfect,6,AATT
4192 Imperfect,6,ACAA
6582 Imperfect,6,ACAC
5133 Imperfect,6,ACAG
3105 Imperfect,6,ACAT
4606 Imperfect,6,ACCA
5997 Imperfect,6,ACCC
663 Imperfect,6,ACCG
3145 Imperfect,6,ACCT
804 Imperfect,6,ACGA
1666 Imperfect,6,ACGC
998 Imperfect,6,ACGG
904 Imperfect,6,ACGT
2141 Imperfect,6,ACTA
5292 Imperfect,6,ACTC
3836 Imperfect,6,ACTG
2998 Imperfect,6,ACTT
10112 Imperfect,6,AGAA
12425 Imperfect,6,AGAC
10506 Imperfect,6,AGAG
3737 Imperfect,6,AGAT
10149 Imperfect,6,AGCA
16026 Imperfect,6,AGCC
3736 Imperfect,6,AGCG
4578 Imperfect,6,AGCT
12697 Imperfect,6,AGGA
15537 Imperfect,6,AGGC
10915 Imperfect,6,AGGG
4328 Imperfect,6,AGGT
4427 Imperfect,6,AGTA
7632 Imperfect,6,AGTC
18248 Imperfect,6,AGTG
3595 Imperfect,6,AGTT
8210 Imperfect,6,ATAA
5561 Imperfect,6,ATAC
4228 Imperfect,6,ATAG
7705 Imperfect,6,ATAT
4810 Imperfect,6,ATCA
5286 Imperfect,6,ATCC
675 Imperfect,6,ATCG
4851 Imperfect,6,ATCT
6332 Imperfect,6,ATGA
5186 Imperfect,6,ATGC
4844 Imperfect,6,ATGG
6555 Imperfect,6,ATGT
5524 Imperfect,6,ATTA
6018 Imperfect,6,ATTC
3717 Imperfect,6,ATTG
7618 Imperfect,6,ATTT
7857 Imperfect,6,CAAA
5326 Imperfect,6,CAAC
6927 Imperfect,6,CAAG
4751 Imperfect,6,CAAT
11813 Imperfect,6,CACA
13337 Imperfect,6,CACC
2161 Imperfect,6,CACG
7550 Imperfect,6,CACT
8809 Imperfect,6,CAGA
11762 Imperfect,6,CAGC
16657 Imperfect,6,CAGG
6405 Imperfect,6,CAGT
5248 Imperfect,6,CATA
7326 Imperfect,6,CATC
7734 Imperfect,6,CATG
6844 Imperfect,6,CATT
5700 Imperfect,6,CCAA
12615 Imperfect,6,CCAC
28035 Imperfect,6,CCAG
9991 Imperfect,6,CCAT
13455 Imperfect,6,CCCA
6141 Imperfect,6,CCCC
5569 Imperfect,6,CCCG
11050 Imperfect,6,CCCT
1899 Imperfect,6,CCGA
5329 Imperfect,6,CCGC
5693 Imperfect,6,CCGG
2714 Imperfect,6,CCGT
3745 Imperfect,6,CCTA
31343 Imperfect,6,CCTC
13914 Imperfect,6,CCTG
10752 Imperfect,6,CCTT
232 Imperfect,6,CGAA
336 Imperfect,6,CGAC
625 Imperfect,6,CGAG
199 Imperfect,6,CGAT
445 Imperfect,6,CGCA
2480 Imperfect,6,CGCC
566 Imperfect,6,CGCG
539 Imperfect,6,CGCT
499 Imperfect,6,CGGA
1286 Imperfect,6,CGGC
2520 Imperfect,6,CGGG
270 Imperfect,6,CGGT
152 Imperfect,6,CGTA
601 Imperfect,6,CGTC
703 Imperfect,6,CGTG
194 Imperfect,6,CGTT
3759 Imperfect,6,CTAA
5459 Imperfect,6,CTAC
3942 Imperfect,6,CTAG
4634 Imperfect,6,CTAT
15842 Imperfect,6,CTCA
11826 Imperfect,6,CTCC
2085 Imperfect,6,CTCG
11091 Imperfect,6,CTCT
7036 Imperfect,6,CTGA
22267 Imperfect,6,CTGC
14188 Imperfect,6,CTGG
15497 Imperfect,6,CTGT
4302 Imperfect,6,CTTA
13232 Imperfect,6,CTTC
9237 Imperfect,6,CTTG
10686 Imperfect,6,CTTT
7876 Imperfect,6,GAAA
966 Imperfect,6,GAAC
8025 Imperfect,6,GAAG
6032 Imperfect,6,GAAT
15070 Imperfect,6,GACA
1015 Imperfect,6,GACC
3112 Imperfect,6,GACG
5829 Imperfect,6,GACT
9030 Imperfect,6,GAGA
1336 Imperfect,6,GAGC
8011 Imperfect,6,GAGG
5986 Imperfect,6,GAGT
3815 Imperfect,6,GATA
1595 Imperfect,6,GATC
9526 Imperfect,6,GATG
3208 Imperfect,6,GATT
4423 Imperfect,6,GCAA
1845 Imperfect,6,GCAC
8139 Imperfect,6,GCAG
5129 Imperfect,6,GCAT
7537 Imperfect,6,GCCA
1864 Imperfect,6,GCCC
2089 Imperfect,6,GCCG
7520 Imperfect,6,GCCT
1362 Imperfect,6,GCGA
957 Imperfect,6,GCGC
3097 Imperfect,6,GCGG
2131 Imperfect,6,GCGT
1813 Imperfect,6,GCTA
1228 Imperfect,6,GCTC
8159 Imperfect,6,GCTG
4381 Imperfect,6,GCTT
11522 Imperfect,6,GGAA
2203 Imperfect,6,GGAC
13205 Imperfect,6,GGAG
9655 Imperfect,6,GGAT
22356 Imperfect,6,GGCA
5326 Imperfect,6,GGCC
6193 Imperfect,6,GGCG
29325 Imperfect,6,GGCT
30545 Imperfect,6,GGGA
3531 Imperfect,6,GGGC
6051 Imperfect,6,GGGG
10334 Imperfect,6,GGGT
4683 Imperfect,6,GGTA
1775 Imperfect,6,GGTC
16879 Imperfect,6,GGTG
6009 Imperfect,6,GGTT
3436 Imperfect,6,GTAA
806 Imperfect,6,GTAC
3352 Imperfect,6,GTAG
4395 Imperfect,6,GTAT
4452 Imperfect,6,GTCA
993 Imperfect,6,GTCC
748 Imperfect,6,GTCG
7018 Imperfect,6,GTCT
4763 Imperfect,6,GTGA
888 Imperfect,6,GTGC
5266 Imperfect,6,GTGG
6742 Imperfect,6,GTGT
2251 Imperfect,6,GTTA
662 Imperfect,6,GTTC
4454 Imperfect,6,GTTG
5341 Imperfect,6,GTTT
7337 Imperfect,6,TAAA
2879 Imperfect,6,TAAC
3381 Imperfect,6,TAAG
5458 Imperfect,6,TAAT
5922 Imperfect,6,TACA
3215 Imperfect,6,TACC
923 Imperfect,6,TACG
4145 Imperfect,6,TACT
3833 Imperfect,6,TAGA
3533 Imperfect,6,TAGC
3175 Imperfect,6,TAGG
3234 Imperfect,6,TAGT
6612 Imperfect,6,TATA
3323 Imperfect,6,TATC
4467 Imperfect,6,TATG
6993 Imperfect,6,TATT
2983 Imperfect,6,TCAA
8238 Imperfect,6,TCAC
5196 Imperfect,6,TCAG
6336 Imperfect,6,TCAT
8512 Imperfect,6,TCCA
8314 Imperfect,6,TCCC
2806 Imperfect,6,TCCG
8073 Imperfect,6,TCCT
1730 Imperfect,6,TCGA
3251 Imperfect,6,TCGC
1167 Imperfect,6,TCGG
1164 Imperfect,6,TCGT
3070 Imperfect,6,TCTA
8092 Imperfect,6,TCTC
10402 Imperfect,6,TCTG
7058 Imperfect,6,TCTT
6945 Imperfect,6,TGAA
6525 Imperfect,6,TGAC
7366 Imperfect,6,TGAG
4736 Imperfect,6,TGAT
7419 Imperfect,6,TGCA
18512 Imperfect,6,TGCC
2538 Imperfect,6,TGCG
9139 Imperfect,6,TGCT
7015 Imperfect,6,TGGA
11440 Imperfect,6,TGGC
12225 Imperfect,6,TGGG
4938 Imperfect,6,TGGT
3970 Imperfect,6,TGTA
8378 Imperfect,6,TGTC
11433 Imperfect,6,TGTG
6978 Imperfect,6,TGTT
8970 Imperfect,6,TTAA
6273 Imperfect,6,TTAC
4862 Imperfect,6,TTAG
17968 Imperfect,6,TTAT
9994 Imperfect,6,TTCA
11199 Imperfect,6,TTCC
1203 Imperfect,6,TTCG
18751 Imperfect,6,TTCT
6862 Imperfect,6,TTGA
8603 Imperfect,6,TTGC
6789 Imperfect,6,TTGG
15731 Imperfect,6,TTGT
10628 Imperfect,6,TTTA
12602 Imperfect,6,TTTC
9250 Imperfect,6,TTTG
24502 Imperfect,6,TTTT
6933 Imperfect,7,AAAA
7206 Imperfect,7,AAAC
8634 Imperfect,7,AAAG
7729 Imperfect,7,AAAT
1007 Imperfect,7,AACA
862 Imperfect,7,AACC
203 Imperfect,7,AACG
559 Imperfect,7,AACT
2054 Imperfect,7,AAGA
1965 Imperfect,7,AAGC
2404 Imperfect,7,AAGG
964 Imperfect,7,AAGT
2359 Imperfect,7,AATA
1460 Imperfect,7,AATC
1787 Imperfect,7,AATG
1541 Imperfect,7,AATT
2114 Imperfect,7,ACAA
2631 Imperfect,7,ACAC
2675 Imperfect,7,ACAG
1956 Imperfect,7,ACAT
944 Imperfect,7,ACCA
1192 Imperfect,7,ACCC
204 Imperfect,7,ACCG
654 Imperfect,7,ACCT
41 Imperfect,7,ACGA
58 Imperfect,7,ACGC
87 Imperfect,7,ACGG
39 Imperfect,7,ACGT
528 Imperfect,7,ACTA
1341 Imperfect,7,ACTC
1186 Imperfect,7,ACTG
983 Imperfect,7,ACTT
2640 Imperfect,7,AGAA
5449 Imperfect,7,AGAC
2909 Imperfect,7,AGAG
1308 Imperfect,7,AGAT
931 Imperfect,7,AGCA
1665 Imperfect,7,AGCC
413 Imperfect,7,AGCG
519 Imperfect,7,AGCT
3229 Imperfect,7,AGGA
10299 Imperfect,7,AGGC
3623 Imperfect,7,AGGG
1669 Imperfect,7,AGGT
947 Imperfect,7,AGTA
1166 Imperfect,7,AGTC
1348 Imperfect,7,AGTG
518 Imperfect,7,AGTT
1905 Imperfect,7,ATAA
2132 Imperfect,7,ATAC
1106 Imperfect,7,ATAG
2247 Imperfect,7,ATAT
418 Imperfect,7,ATCA
921 Imperfect,7,ATCC
121 Imperfect,7,ATCG
668 Imperfect,7,ATCT
1421 Imperfect,7,ATGA
1310 Imperfect,7,ATGC
1507 Imperfect,7,ATGG
756 Imperfect,7,ATGT
1516 Imperfect,7,ATTA
1740 Imperfect,7,ATTC
1493 Imperfect,7,ATTG
2286 Imperfect,7,ATTT
1242 Imperfect,7,CAAA
1000 Imperfect,7,CAAC
3414 Imperfect,7,CAAG
870 Imperfect,7,CAAT
2477 Imperfect,7,CACA
1875 Imperfect,7,CACC
779 Imperfect,7,CACG
1734 Imperfect,7,CACT
2059 Imperfect,7,CAGA
3305 Imperfect,7,CAGC
3601 Imperfect,7,CAGG
1701 Imperfect,7,CAGT
859 Imperfect,7,CATA
1441 Imperfect,7,CATC
1210 Imperfect,7,CATG
1506 Imperfect,7,CATT
1250 Imperfect,7,CCAA
2483 Imperfect,7,CCAC
3461 Imperfect,7,CCAG
1662 Imperfect,7,CCAT
4615 Imperfect,7,CCCA
825 Imperfect,7,CCCC
1977 Imperfect,7,CCCG
4296 Imperfect,7,CCCT
110 Imperfect,7,CCGA
288 Imperfect,7,CCGC
460 Imperfect,7,CCGG
186 Imperfect,7,CCGT
1638 Imperfect,7,CCTA
3597 Imperfect,7,CCTC
10317 Imperfect,7,CCTG
3130 Imperfect,7,CCTT
54 Imperfect,7,CGAA
32 Imperfect,7,CGAC
67 Imperfect,7,CGAG
27 Imperfect,7,CGAT
266 Imperfect,7,CGCA
216 Imperfect,7,CGCC
170 Imperfect,7,CGCG
194 Imperfect,7,CGCT
230 Imperfect,7,CGGA
457 Imperfect,7,CGGC
311 Imperfect,7,CGGG
108 Imperfect,7,CGGT
39 Imperfect,7,CGTA
81 Imperfect,7,CGTC
67 Imperfect,7,CGTG
46 Imperfect,7,CGTT
441 Imperfect,7,CTAA
503 Imperfect,7,CTAC
1082 Imperfect,7,CTAG
422 Imperfect,7,CTAT
3945 Imperfect,7,CTCA
2370 Imperfect,7,CTCC
2025 Imperfect,7,CTCG
2173 Imperfect,7,CTCT
1697 Imperfect,7,CTGA
3444 Imperfect,7,CTGC
3268 Imperfect,7,CTGG
2202 Imperfect,7,CTGT
917 Imperfect,7,CTTA
2455 Imperfect,7,CTTC
1958 Imperfect,7,CTTG
2080 Imperfect,7,CTTT
1849 Imperfect,7,GAAA
308 Imperfect,7,GAAC
2232 Imperfect,7,GAAG
1708 Imperfect,7,GAAT
766 Imperfect,7,GACA
152 Imperfect,7,GACC
172 Imperfect,7,GACG
591 Imperfect,7,GACT
2206 Imperfect,7,GAGA
2022 Imperfect,7,GAGC
2487 Imperfect,7,GAGG
3861 Imperfect,7,GAGT
583 Imperfect,7,GATA
136 Imperfect,7,GATC
951 Imperfect,7,GATG
391 Imperfect,7,GATT
877 Imperfect,7,GCAA
403 Imperfect,7,GCAC
1729 Imperfect,7,GCAG
1738 Imperfect,7,GCAT
2467 Imperfect,7,GCCA
1336 Imperfect,7,GCCC
738 Imperfect,7,GCCG
2161 Imperfect,7,GCCT
190 Imperfect,7,GCGA
204 Imperfect,7,GCGC
265 Imperfect,7,GCGG
300 Imperfect,7,GCGT
511 Imperfect,7,GCTA
412 Imperfect,7,GCTC
1572 Imperfect,7,GCTG
972 Imperfect,7,GCTT
2387 Imperfect,7,GGAA
495 Imperfect,7,GGAC
2035 Imperfect,7,GGAG
1900 Imperfect,7,GGAT
2285 Imperfect,7,GGCA
714 Imperfect,7,GGCC
1381 Imperfect,7,GGCG
2445 Imperfect,7,GGCT
4226 Imperfect,7,GGGA
1908 Imperfect,7,GGGC
806 Imperfect,7,GGGG
4713 Imperfect,7,GGGT
667 Imperfect,7,GGTA
223 Imperfect,7,GGTC
1140 Imperfect,7,GGTG
880 Imperfect,7,GGTT
477 Imperfect,7,GTAA
158 Imperfect,7,GTAC
525 Imperfect,7,GTAG
523 Imperfect,7,GTAT
569 Imperfect,7,GTCA
191 Imperfect,7,GTCC
142 Imperfect,7,GTCG
718 Imperfect,7,GTCT
1668 Imperfect,7,GTGA
839 Imperfect,7,GTGC
1870 Imperfect,7,GTGG
2591 Imperfect,7,GTGT
586 Imperfect,7,GTTA
174 Imperfect,7,GTTC
933 Imperfect,7,GTTG
984 Imperfect,7,GTTT
1590 Imperfect,7,TAAA
936 Imperfect,7,TAAC
1313 Imperfect,7,TAAG
1421 Imperfect,7,TAAT
524 Imperfect,7,TACA
536 Imperfect,7,TACC
153 Imperfect,7,TACG
490 Imperfect,7,TACT
405 Imperfect,7,TAGA
1054 Imperfect,7,TAGC
521 Imperfect,7,TAGG
409 Imperfect,7,TAGT
2074 Imperfect,7,TATA
1228 Imperfect,7,TATC
1896 Imperfect,7,TATG
1841 Imperfect,7,TATT
817 Imperfect,7,TCAA
1618 Imperfect,7,TCAC
1276 Imperfect,7,TCAG
1398 Imperfect,7,TCAT
1998 Imperfect,7,TCCA
2118 Imperfect,7,TCCC
505 Imperfect,7,TCCG
2432 Imperfect,7,TCCT
15 Imperfect,7,TCGA
76 Imperfect,7,TCGC
25 Imperfect,7,TCGG
34 Imperfect,7,TCGT
1336 Imperfect,7,TCTA
2798 Imperfect,7,TCTC
5249 Imperfect,7,TCTG
2649 Imperfect,7,TCTT
1369 Imperfect,7,TGAA
1257 Imperfect,7,TGAC
1624 Imperfect,7,TGAG
711 Imperfect,7,TGAT
1850 Imperfect,7,TGCA
1713 Imperfect,7,TGCC
468 Imperfect,7,TGCG
844 Imperfect,7,TGCT
1681 Imperfect,7,TGGA
3393 Imperfect,7,TGGC
2359 Imperfect,7,TGGG
1207 Imperfect,7,TGGT
1782 Imperfect,7,TGTA
2643 Imperfect,7,TGTC
2662 Imperfect,7,TGTG
2096 Imperfect,7,TGTT
1427 Imperfect,7,TTAA
1262 Imperfect,7,TTAC
922 Imperfect,7,TTAG
1563 Imperfect,7,TTAT
1798 Imperfect,7,TTCA
2255 Imperfect,7,TTCC
288 Imperfect,7,TTCG
1791 Imperfect,7,TTCT
843 Imperfect,7,TTGA
3390 Imperfect,7,TTGC
1012 Imperfect,7,TTGG
1188 Imperfect,7,TTGT
7721 Imperfect,7,TTTA
8558 Imperfect,7,TTTC
7457 Imperfect,7,TTTG
6668 Imperfect,7,TTTT
1221 Perfect,10,AAAA
149 Perfect,10,AAAC
150 Perfect,10,AAAG
171 Perfect,10,AAAT
79 Perfect,10,AACA
35 Perfect,10,AACC
1 Perfect,10,AACG
9 Perfect,10,AACT
212 Perfect,10,AAGA
30 Perfect,10,AAGC
109 Perfect,10,AAGG
19 Perfect,10,AAGT
155 Perfect,10,AATA
23 Perfect,10,AATC
103 Perfect,10,AATG
62 Perfect,10,AATT
19 Perfect,10,ACAA
177 Perfect,10,ACAC
33 Perfect,10,ACAG
18 Perfect,10,ACAT
12 Perfect,10,ACCA
46 Perfect,10,ACCC
2 Perfect,10,ACCG
6 Perfect,10,ACCT
1 Perfect,10,ACGA
1 Perfect,10,ACGC
3 Perfect,10,ACGG
2 Perfect,10,ACGT
4 Perfect,10,ACTA
25 Perfect,10,ACTC
18 Perfect,10,ACTG
5 Perfect,10,ACTT
98 Perfect,10,AGAA
53 Perfect,10,AGAC
117 Perfect,10,AGAG
16 Perfect,10,AGAT
27 Perfect,10,AGCA
99 Perfect,10,AGCC
4 Perfect,10,AGCG
7 Perfect,10,AGCT
106 Perfect,10,AGGA
572 Perfect,10,AGGC
123 Perfect,10,AGGG
19 Perfect,10,AGGT
13 Perfect,10,AGTA
16 Perfect,10,AGTC
59 Perfect,10,AGTG
5 Perfect,10,AGTT
95 Perfect,10,ATAA
41 Perfect,10,ATAC
11 Perfect,10,ATAG
210 Perfect,10,ATAT
34 Perfect,10,ATCA
47 Perfect,10,ATCC
25 Perfect,10,ATCT
54 Perfect,10,ATGA
32 Perfect,10,ATGC
40 Perfect,10,ATGG
51 Perfect,10,ATGT
29 Perfect,10,ATTA
84 Perfect,10,ATTC
27 Perfect,10,ATTG
76 Perfect,10,ATTT
32 Perfect,10,CAAA
22 Perfect,10,CAAC
31 Perfect,10,CAAG
18 Perfect,10,CAAT
283 Perfect,10,CACA
86 Perfect,10,CACC
5 Perfect,10,CACG
50 Perfect,10,CACT
51 Perfect,10,CAGA
62 Perfect,10,CAGC
86 Perfect,10,CAGG
28 Perfect,10,CAGT
35 Perfect,10,CATA
78 Perfect,10,CATC
70 Perfect,10,CATG
77 Perfect,10,CATT
17 Perfect,10,CCAA
131 Perfect,10,CCAC
138 Perfect,10,CCAG
79 Perfect,10,CCAT
116 Perfect,10,CCCA
38 Perfect,10,CCCC
39 Perfect,10,CCCG
177 Perfect,10,CCCT
1 Perfect,10,CCGA
38 Perfect,10,CCGC
13 Perfect,10,CCGG
5 Perfect,10,CCGT
13 Perfect,10,CCTA
288 Perfect,10,CCTC
144 Perfect,10,CCTG
109 Perfect,10,CCTT
1 Perfect,10,CGAG
1 Perfect,10,CGAT
4 Perfect,10,CGCA
13 Perfect,10,CGCC
4 Perfect,10,CGCG
2 Perfect,10,CGCT
1 Perfect,10,CGGA
9 Perfect,10,CGGC
4 Perfect,10,CGGG
1 Perfect,10,CGGT
2 Perfect,10,CGTC
1 Perfect,10,CGTT
7 Perfect,10,CTAA
20 Perfect,10,CTAC
9 Perfect,10,CTAG
14 Perfect,10,CTAT
48 Perfect,10,CTCA
128 Perfect,10,CTCC
3 Perfect,10,CTCG
152 Perfect,10,CTCT
25 Perfect,10,CTGA
585 Perfect,10,CTGC
63 Perfect,10,CTGG
52 Perfect,10,CTGT
11 Perfect,10,CTTA
117 Perfect,10,CTTC
17 Perfect,10,CTTG
80 Perfect,10,CTTT
62 Perfect,10,GAAA
2 Perfect,10,GAAC
71 Perfect,10,GAAG
67 Perfect,10,GAAT
65 Perfect,10,GACA
1 Perfect,10,GACC
4 Perfect,10,GACG
13 Perfect,10,GACT
133 Perfect,10,GAGA
75 Perfect,10,GAGG
32 Perfect,10,GAGT
14 Perfect,10,GATA
48 Perfect,10,GATG
16 Perfect,10,GATT
13 Perfect,10,GCAA
6 Perfect,10,GCAC
48 Perfect,10,GCAG
17 Perfect,10,GCAT
48 Perfect,10,GCCA
16 Perfect,10,GCCC
8 Perfect,10,GCCG
50 Perfect,10,GCCT
2 Perfect,10,GCGA
11 Perfect,10,GCGC
13 Perfect,10,GCGG
6 Perfect,10,GCGT
3 Perfect,10,GCTA
1 Perfect,10,GCTC
52 Perfect,10,GCTG
7 Perfect,10,GCTT
95 Perfect,10,GGAA
5 Perfect,10,GGAC
157 Perfect,10,GGAG
38 Perfect,10,GGAT
146 Perfect,10,GGCA
16 Perfect,10,GGCC
37 Perfect,10,GGCG
126 Perfect,10,GGCT
247 Perfect,10,GGGA
37 Perfect,10,GGGC
42 Perfect,10,GGGG
108 Perfect,10,GGGT
12 Perfect,10,GGTA
3 Perfect,10,GGTC
137 Perfect,10,GGTG
15 Perfect,10,GGTT
10 Perfect,10,GTAA
3 Perfect,10,GTAC
14 Perfect,10,GTAG
17 Perfect,10,GTAT
9 Perfect,10,GTCA
35 Perfect,10,GTCT
27 Perfect,10,GTGA
3 Perfect,10,GTGC
46 Perfect,10,GTGG
168 Perfect,10,GTGT
5 Perfect,10,GTTA
17 Perfect,10,GTTG
22 Perfect,10,GTTT
94 Perfect,10,TAAA
6 Perfect,10,TAAC
10 Perfect,10,TAAG
31 Perfect,10,TAAT
35 Perfect,10,TACA
11 Perfect,10,TACC
1 Perfect,10,TACG
9 Perfect,10,TACT
17 Perfect,10,TAGA
3 Perfect,10,TAGC
7 Perfect,10,TAGG
9 Perfect,10,TAGT
210 Perfect,10,TATA
20 Perfect,10,TATC
38 Perfect,10,TATG
78 Perfect,10,TATT
20 Perfect,10,TCAA
31 Perfect,10,TCAC
20 Perfect,10,TCAG
53 Perfect,10,TCAT
61 Perfect,10,TCCA
104 Perfect,10,TCCC
4 Perfect,10,TCCG
102 Perfect,10,TCCT
2 Perfect,10,TCGC
2 Perfect,10,TCGG
1 Perfect,10,TCGT
13 Perfect,10,TCTA
107 Perfect,10,TCTC
54 Perfect,10,TCTG
79 Perfect,10,TCTT
76 Perfect,10,TGAA
24 Perfect,10,TGAC
41 Perfect,10,TGAG
12 Perfect,10,TGAT
85 Perfect,10,TGCA
86 Perfect,10,TGCC
5 Perfect,10,TGCG
31 Perfect,10,TGCT
63 Perfect,10,TGGA
54 Perfect,10,TGGC
79 Perfect,10,TGGG
24 Perfect,10,TGGT
36 Perfect,10,TGTA
56 Perfect,10,TGTC
285 Perfect,10,TGTG
39 Perfect,10,TGTT
71 Perfect,10,TTAA
29 Perfect,10,TTAC
15 Perfect,10,TTAG
178 Perfect,10,TTAT
105 Perfect,10,TTCA
113 Perfect,10,TTCC
150 Perfect,10,TTCT
40 Perfect,10,TTGA
25 Perfect,10,TTGC
46 Perfect,10,TTGG
109 Perfect,10,TTGT
130 Perfect,10,TTTA
170 Perfect,10,TTTC
65 Perfect,10,TTTG
1174 Perfect,10,TTTT
1 Perfect,112,CTTT
819 Perfect,11,AAAA
278 Perfect,11,AAAC
324 Perfect,11,AAAG
256 Perfect,11,AAAT
11 Perfect,11,AACA
3 Perfect,11,AACC
1 Perfect,11,AACT
39 Perfect,11,AAGA
12 Perfect,11,AAGC
41 Perfect,11,AAGG
4 Perfect,11,AAGT
41 Perfect,11,AATA
17 Perfect,11,AATC
39 Perfect,11,AATG
22 Perfect,11,AATT
15 Perfect,11,ACAA
175 Perfect,11,ACAC
21 Perfect,11,ACAG
42 Perfect,11,ACAT
3 Perfect,11,ACCA
45 Perfect,11,ACCC
4 Perfect,11,ACCT
1 Perfect,11,ACGC
4 Perfect,11,ACTA
34 Perfect,11,ACTC
10 Perfect,11,ACTG
3 Perfect,11,ACTT
51 Perfect,11,AGAA
52 Perfect,11,AGAC
107 Perfect,11,AGAG
8 Perfect,11,AGAT
5 Perfect,11,AGCA
22 Perfect,11,AGCC
2 Perfect,11,AGCG
46 Perfect,11,AGGA
67 Perfect,11,AGGC
89 Perfect,11,AGGG
5 Perfect,11,AGGT
2 Perfect,11,AGTA
8 Perfect,11,AGTC
39 Perfect,11,AGTG
3 Perfect,11,AGTT
38 Perfect,11,ATAA
50 Perfect,11,ATAC
28 Perfect,11,ATAG
118 Perfect,11,ATAT
5 Perfect,11,ATCA
28 Perfect,11,ATCC
10 Perfect,11,ATCT
44 Perfect,11,ATGA
22 Perfect,11,ATGC
44 Perfect,11,ATGG
4 Perfect,11,ATGT
10 Perfect,11,ATTA
49 Perfect,11,ATTC
14 Perfect,11,ATTG
49 Perfect,11,ATTT
17 Perfect,11,CAAA
8 Perfect,11,CAAC
8 Perfect,11,CAAG
5 Perfect,11,CAAT
130 Perfect,11,CACA
36 Perfect,11,CACC
10 Perfect,11,CACG
20 Perfect,11,CACT
17 Perfect,11,CAGA
26 Perfect,11,CAGC
59 Perfect,11,CAGG
8 Perfect,11,CAGT
7 Perfect,11,CATA
41 Perfect,11,CATC
23 Perfect,11,CATG
39 Perfect,11,CATT
6 Perfect,11,CCAA
71 Perfect,11,CCAC
80 Perfect,11,CCAG
45 Perfect,11,CCAT
79 Perfect,11,CCCA
22 Perfect,11,CCCC
23 Perfect,11,CCCG
88 Perfect,11,CCCT
2 Perfect,11,CCGA
7 Perfect,11,CCGC
6 Perfect,11,CCGG
1 Perfect,11,CCGT
3 Perfect,11,CCTA
69 Perfect,11,CCTC
78 Perfect,11,CCTG
52 Perfect,11,CCTT
3 Perfect,11,CGCA
3 Perfect,11,CGCC
5 Perfect,11,CGCG
1 Perfect,11,CGCT
5 Perfect,11,CGGC
7 Perfect,11,CGGG
1 Perfect,11,CGGT
1 Perfect,11,CGTC
3 Perfect,11,CGTG
1 Perfect,11,CTAA
2 Perfect,11,CTAC
3 Perfect,11,CTAG
4 Perfect,11,CTAT
23 Perfect,11,CTCA
51 Perfect,11,CTCC
5 Perfect,11,CTCG
63 Perfect,11,CTCT
10 Perfect,11,CTGA
47 Perfect,11,CTGC
33 Perfect,11,CTGG
15 Perfect,11,CTGT
3 Perfect,11,CTTA
44 Perfect,11,CTTC
18 Perfect,11,CTTG
26 Perfect,11,CTTT
35 Perfect,11,GAAA
1 Perfect,11,GAAC
41 Perfect,11,GAAG
33 Perfect,11,GAAT
11 Perfect,11,GACA
2 Perfect,11,GACT
60 Perfect,11,GAGA
9 Perfect,11,GAGC
60 Perfect,11,GAGG
21 Perfect,11,GAGT
27 Perfect,11,GATA
36 Perfect,11,GATG
4 Perfect,11,GATT
7 Perfect,11,GCAA
3 Perfect,11,GCAC
15 Perfect,11,GCAG
10 Perfect,11,GCAT
28 Perfect,11,GCCA
3 Perfect,11,GCCC
3 Perfect,11,GCCG
20 Perfect,11,GCCT
3 Perfect,11,GCGA
7 Perfect,11,GCGC
5 Perfect,11,GCGG
2 Perfect,11,GCGT
4 Perfect,11,GCTA
13 Perfect,11,GCTG
5 Perfect,11,GCTT
54 Perfect,11,GGAA
6 Perfect,11,GGAC
48 Perfect,11,GGAG
16 Perfect,11,GGAT
21 Perfect,11,GGCA
5 Perfect,11,GGCC
7 Perfect,11,GGCG
21 Perfect,11,GGCT
82 Perfect,11,GGGA
20 Perfect,11,GGGC
16 Perfect,11,GGGG
62 Perfect,11,GGGT
6 Perfect,11,GGTA
16 Perfect,11,GGTG
2 Perfect,11,GGTT
2 Perfect,11,GTAA
1 Perfect,11,GTAG
9 Perfect,11,GTAT
3 Perfect,11,GTCA
2 Perfect,11,GTCC
12 Perfect,11,GTCT
11 Perfect,11,GTGA
12 Perfect,11,GTGC
25 Perfect,11,GTGG
160 Perfect,11,GTGT
3 Perfect,11,GTTA
1 Perfect,11,GTTC
6 Perfect,11,GTTG
7 Perfect,11,GTTT
36 Perfect,11,TAAA
4 Perfect,11,TAAG
8 Perfect,11,TAAT
4 Perfect,11,TACA
3 Perfect,11,TACC
1 Perfect,11,TACG
2 Perfect,11,TACT
6 Perfect,11,TAGA
4 Perfect,11,TAGC
4 Perfect,11,TAGG
1 Perfect,11,TAGT
121 Perfect,11,TATA
13 Perfect,11,TATC
52 Perfect,11,TATG
33 Perfect,11,TATT
6 Perfect,11,TCAA
21 Perfect,11,TCAC
13 Perfect,11,TCAG
56 Perfect,11,TCAT
38 Perfect,11,TCCA
69 Perfect,11,TCCC
6 Perfect,11,TCCG
55 Perfect,11,TCCT
1 Perfect,11,TCGG
11 Perfect,11,TCTA
112 Perfect,11,TCTC
39 Perfect,11,TCTG
46 Perfect,11,TCTT
36 Perfect,11,TGAA
6 Perfect,11,TGAC
26 Perfect,11,TGAG
5 Perfect,11,TGAT
12 Perfect,11,TGCA
18 Perfect,11,TGCC
2 Perfect,11,TGCG
6 Perfect,11,TGCT
58 Perfect,11,TGGA
16 Perfect,11,TGGC
46 Perfect,11,TGGG
9 Perfect,11,TGGT
52 Perfect,11,TGTA
21 Perfect,11,TGTC
174 Perfect,11,TGTG
16 Perfect,11,TGTT
5 Perfect,11,TTAA
10 Perfect,11,TTAC
5 Perfect,11,TTAG
34 Perfect,11,TTAT
36 Perfect,11,TTCA
39 Perfect,11,TTCC
1 Perfect,11,TTCG
36 Perfect,11,TTCT
6 Perfect,11,TTGA
5 Perfect,11,TTGC
11 Perfect,11,TTGG
15 Perfect,11,TTGT
239 Perfect,11,TTTA
329 Perfect,11,TTTC
290 Perfect,11,TTTG
830 Perfect,11,TTTT
711 Perfect,12,AAAA
35 Perfect,12,AAAC
45 Perfect,12,AAAG
60 Perfect,12,AAAT
10 Perfect,12,AACA
2 Perfect,12,AACC
10 Perfect,12,AAGA
2 Perfect,12,AAGC
17 Perfect,12,AAGG
5 Perfect,12,AAGT
17 Perfect,12,AATA
2 Perfect,12,AATC
17 Perfect,12,AATG
15 Perfect,12,AATT
2 Perfect,12,ACAA
68 Perfect,12,ACAC
7 Perfect,12,ACAG
9 Perfect,12,ACAT
2 Perfect,12,ACCA
8 Perfect,12,ACCC
2 Perfect,12,ACCT
1 Perfect,12,ACGC
1 Perfect,12,ACGT
2 Perfect,12,ACTC
4 Perfect,12,ACTG
3 Perfect,12,ACTT
22 Perfect,12,AGAA
5 Perfect,12,AGAC
42 Perfect,12,AGAG
8 Perfect,12,AGAT
7 Perfect,12,AGCA
8 Perfect,12,AGCC
1 Perfect,12,AGCG
2 Perfect,12,AGCT
22 Perfect,12,AGGA
19 Perfect,12,AGGC
26 Perfect,12,AGGG
2 Perfect,12,AGGT
2 Perfect,12,AGTC
5 Perfect,12,AGTG
19 Perfect,12,ATAA
4 Perfect,12,ATAC
2 Perfect,12,ATAG
78 Perfect,12,ATAT
18 Perfect,12,ATCC
6 Perfect,12,ATCT
24 Perfect,12,ATGA
2 Perfect,12,ATGC
32 Perfect,12,ATGG
16 Perfect,12,ATGT
3 Perfect,12,ATTA
9 Perfect,12,ATTC
56 Perfect,12,ATTT
38 Perfect,12,CAAA
2 Perfect,12,CAAC
3 Perfect,12,CAAG
1 Perfect,12,CAAT
111 Perfect,12,CACA
10 Perfect,12,CACC
16 Perfect,12,CACT
10 Perfect,12,CAGA
4 Perfect,12,CAGC
24 Perfect,12,CAGG
5 Perfect,12,CAGT
4 Perfect,12,CATA
34 Perfect,12,CATC
1 Perfect,12,CATG
15 Perfect,12,CATT
1 Perfect,12,CCAA
19 Perfect,12,CCAC
19 Perfect,12,CCAG
30 Perfect,12,CCAT
20 Perfect,12,CCCA
13 Perfect,12,CCCC
3 Perfect,12,CCCG
33 Perfect,12,CCCT
6 Perfect,12,CCGC
29 Perfect,12,CCTC
23 Perfect,12,CCTG
20 Perfect,12,CCTT
1 Perfect,12,CGAA
1 Perfect,12,CGCA
4 Perfect,12,CGCC
1 Perfect,12,CGCT
1 Perfect,12,CGGC
3 Perfect,12,CGGG
1 Perfect,12,CGGT
1 Perfect,12,CGTC
1 Perfect,12,CTAG
4 Perfect,12,CTAT
7 Perfect,12,CTCA
33 Perfect,12,CTCC
35 Perfect,12,CTCT
2 Perfect,12,CTGA
7 Perfect,12,CTGC
14 Perfect,12,CTGG
7 Perfect,12,CTGT
10 Perfect,12,CTTC
3 Perfect,12,CTTG
38 Perfect,12,CTTT
33 Perfect,12,GAAA
18 Perfect,12,GAAG
16 Perfect,12,GAAT
8 Perfect,12,GACA
1 Perfect,12,GACC
1 Perfect,12,GACT
54 Perfect,12,GAGA
1 Perfect,12,GAGC
39 Perfect,12,GAGG
8 Perfect,12,GAGT
17 Perfect,12,GATA
1 Perfect,12,GATC
40 Perfect,12,GATG
1 Perfect,12,GATT
2 Perfect,12,GCAC
5 Perfect,12,GCAG
4 Perfect,12,GCAT
16 Perfect,12,GCCA
7 Perfect,12,GCCC
1 Perfect,12,GCCG
20 Perfect,12,GCCT
2 Perfect,12,GCGC
6 Perfect,12,GCGG
2 Perfect,12,GCTA
2 Perfect,12,GCTC
10 Perfect,12,GCTG
3 Perfect,12,GCTT
22 Perfect,12,GGAA
2 Perfect,12,GGAC
37 Perfect,12,GGAG
7 Perfect,12,GGAT
6 Perfect,12,GGCA
5 Perfect,12,GGCC
2 Perfect,12,GGCG
7 Perfect,12,GGCT
23 Perfect,12,GGGA
3 Perfect,12,GGGC
14 Perfect,12,GGGG
7 Perfect,12,GGGT
8 Perfect,12,GGTG
2 Perfect,12,GGTT
1 Perfect,12,GTAA
1 Perfect,12,GTAG
5 Perfect,12,GTAT
2 Perfect,12,GTCA
6 Perfect,12,GTCT
3 Perfect,12,GTGA
3 Perfect,12,GTGC
16 Perfect,12,GTGG
67 Perfect,12,GTGT
2 Perfect,12,GTTC
26 Perfect,12,GTTT
46 Perfect,12,TAAA
2 Perfect,12,TAAC
1 Perfect,12,TAAG
8 Perfect,12,TAAT
2 Perfect,12,TACA
2 Perfect,12,TACT
1 Perfect,12,TAGC
1 Perfect,12,TAGG
84 Perfect,12,TATA
7 Perfect,12,TATC
6 Perfect,12,TATG
16 Perfect,12,TATT
3 Perfect,12,TCAA
1 Perfect,12,TCAC
2 Perfect,12,TCAG
22 Perfect,12,TCAT
25 Perfect,12,TCCA
33 Perfect,12,TCCC
25 Perfect,12,TCCT
1 Perfect,12,TCGC
3 Perfect,12,TCTA
54 Perfect,12,TCTC
7 Perfect,12,TCTG
15 Perfect,12,TCTT
38 Perfect,12,TGAA
2 Perfect,12,TGAC
8 Perfect,12,TGAG
2 Perfect,12,TGAT
5 Perfect,12,TGCA
5 Perfect,12,TGCC
2 Perfect,12,TGCG
4 Perfect,12,TGCT
13 Perfect,12,TGGA
5 Perfect,12,TGGC
24 Perfect,12,TGGG
2 Perfect,12,TGGT
8 Perfect,12,TGTA
7 Perfect,12,TGTC
97 Perfect,12,TGTG
4 Perfect,12,TGTT
10 Perfect,12,TTAA
1 Perfect,12,TTAC
1 Perfect,12,TTAG
12 Perfect,12,TTAT
33 Perfect,12,TTCA
16 Perfect,12,TTCC
24 Perfect,12,TTCT
8 Perfect,12,TTGA
3 Perfect,12,TTGG
2 Perfect,12,TTGT
48 Perfect,12,TTTA
32 Perfect,12,TTTC
39 Perfect,12,TTTG
665 Perfect,12,TTTT
635 Perfect,13,AAAA
25 Perfect,13,AAAC
50 Perfect,13,AAAG
48 Perfect,13,AAAT
4 Perfect,13,AACA
1 Perfect,13,AACC
16 Perfect,13,AAGA
2 Perfect,13,AAGC
6 Perfect,13,AAGG
1 Perfect,13,AAGT
15 Perfect,13,AATA
2 Perfect,13,AATC
20 Perfect,13,AATG
5 Perfect,13,AATT
13 Perfect,13,ACAA
79 Perfect,13,ACAC
2 Perfect,13,ACAG
3 Perfect,13,ACAT
3 Perfect,13,ACCC
4 Perfect,13,ACTC
2 Perfect,13,ACTT
34 Perfect,13,AGAA
5 Perfect,13,AGAC
64 Perfect,13,AGAG
1 Perfect,13,AGAT
22 Perfect,13,AGCC
13 Perfect,13,AGGA
1 Perfect,13,AGGC
26 Perfect,13,AGGG
1 Perfect,13,AGGT
1 Perfect,13,AGTA
1 Perfect,13,AGTC
1 Perfect,13,AGTG
16 Perfect,13,ATAA
11 Perfect,13,ATAC
1 Perfect,13,ATAG
40 Perfect,13,ATAT
20 Perfect,13,ATCC
1 Perfect,13,ATCT
13 Perfect,13,ATGA
1 Perfect,13,ATGC
7 Perfect,13,ATGG
2 Perfect,13,ATGT
2 Perfect,13,ATTA
21 Perfect,13,ATTC
3 Perfect,13,ATTG
19 Perfect,13,ATTT
7 Perfect,13,CAAA
2 Perfect,13,CAAC
39 Perfect,13,CACA
9 Perfect,13,CACC
1 Perfect,13,CACG
1 Perfect,13,CACT
4 Perfect,13,CAGC
4 Perfect,13,CAGG
20 Perfect,13,CATC
2 Perfect,13,CATG
8 Perfect,13,CATT
1 Perfect,13,CCAA
16 Perfect,13,CCAC
3 Perfect,13,CCAG
21 Perfect,13,CCAT
5 Perfect,13,CCCA
7 Perfect,13,CCCC
1 Perfect,13,CCCG
5 Perfect,13,CCCT
3 Perfect,13,CCGC
2 Perfect,13,CCGG
21 Perfect,13,CCTC
3 Perfect,13,CCTG
10 Perfect,13,CCTT
1 Perfect,13,CGCA
2 Perfect,13,CGCC
2 Perfect,13,CGCG
1 Perfect,13,CGGC
1 Perfect,13,CTAC
2 Perfect,13,CTAT
4 Perfect,13,CTCA
11 Perfect,13,CTCC
21 Perfect,13,CTCT
1 Perfect,13,CTGA
2 Perfect,13,CTGC
2 Perfect,13,CTGG
2 Perfect,13,CTGT
9 Perfect,13,CTTC
1 Perfect,13,CTTG
7 Perfect,13,CTTT
11 Perfect,13,GAAA
20 Perfect,13,GAAG
10 Perfect,13,GAAT
2 Perfect,13,GACA
4 Perfect,13,GACT
26 Perfect,13,GAGA
2 Perfect,13,GAGC
11 Perfect,13,GAGG
2 Perfect,13,GAGT
2 Perfect,13,GATA
10 Perfect,13,GATG
3 Perfect,13,GATT
5 Perfect,13,GCAG
1 Perfect,13,GCAT
1 Perfect,13,GCCA
3 Perfect,13,GCCC
3 Perfect,13,GCCT
1 Perfect,13,GCGC
2 Perfect,13,GCGG
1 Perfect,13,GCTA
2 Perfect,13,GCTG
1 Perfect,13,GCTT
7 Perfect,13,GGAA
16 Perfect,13,GGAG
8 Perfect,13,GGAT
2 Perfect,13,GGCA
3 Perfect,13,GGCG
1 Perfect,13,GGCT
12 Perfect,13,GGGA
1 Perfect,13,GGGC
7 Perfect,13,GGGG
2 Perfect,13,GGGT
8 Perfect,13,GGTG
1 Perfect,13,GTAG
3 Perfect,13,GTAT
1 Perfect,13,GTCT
4 Perfect,13,GTGA
1 Perfect,13,GTGC
5 Perfect,13,GTGG
57 Perfect,13,GTGT
2 Perfect,13,GTTT
15 Perfect,13,TAAA
1 Perfect,13,TAAC
1 Perfect,13,TAAG
5 Perfect,13,TAAT
1 Perfect,13,TACA
1 Perfect,13,TACC
2 Perfect,13,TAGA
1 Perfect,13,TAGG
62 Perfect,13,TATA
2 Perfect,13,TATC
10 Perfect,13,TATG
43 Perfect,13,TATT
1 Perfect,13,TCAC
16 Perfect,13,TCAT
4 Perfect,13,TCCA
20 Perfect,13,TCCC
11 Perfect,13,TCCT
1 Perfect,13,TCTA
70 Perfect,13,TCTC
4 Perfect,13,TCTG
39 Perfect,13,TCTT
20 Perfect,13,TGAA
1 Perfect,13,TGAC
1 Perfect,13,TGAG
1 Perfect,13,TGAT
4 Perfect,13,TGCA
1 Perfect,13,TGCC
2 Perfect,13,TGCT
11 Perfect,13,TGGA
2 Perfect,13,TGGC
6 Perfect,13,TGGG
2 Perfect,13,TGGT
7 Perfect,13,TGTA
3 Perfect,13,TGTC
89 Perfect,13,TGTG
23 Perfect,13,TGTT
2 Perfect,13,TTAA
16 Perfect,13,TTAT
10 Perfect,13,TTCA
13 Perfect,13,TTCC
10 Perfect,13,TTCT
6 Perfect,13,TTGT
19 Perfect,13,TTTA
40 Perfect,13,TTTC
14 Perfect,13,TTTG
636 Perfect,13,TTTT
654 Perfect,14,AAAA
25 Perfect,14,AAAC
19 Perfect,14,AAAG
52 Perfect,14,AAAT
17 Perfect,14,AACA
4 Perfect,14,AACC
16 Perfect,14,AAGA
1 Perfect,14,AAGC
13 Perfect,14,AAGG
19 Perfect,14,AATA
5 Perfect,14,AATG
11 Perfect,14,AATT
1 Perfect,14,ACAA
35 Perfect,14,ACAC
1 Perfect,14,ACAT
7 Perfect,14,AGAA
1 Perfect,14,AGAC
19 Perfect,14,AGAG
1 Perfect,14,AGAT
8 Perfect,14,AGCC
1 Perfect,14,AGCT
3 Perfect,14,AGGA
7 Perfect,14,AGGC
9 Perfect,14,AGGG
1 Perfect,14,AGTC
2 Perfect,14,AGTG
6 Perfect,14,ATAA
5 Perfect,14,ATAC
1 Perfect,14,ATAG
48 Perfect,14,ATAT
12 Perfect,14,ATCC
3 Perfect,14,ATCT
8 Perfect,14,ATGA
13 Perfect,14,ATGG
3 Perfect,14,ATGT
2 Perfect,14,ATTA
10 Perfect,14,ATTC
4 Perfect,14,ATTT
1 Perfect,14,CAAA
46 Perfect,14,CACA
6 Perfect,14,CACC
1 Perfect,14,CACG
1 Perfect,14,CACT
2 Perfect,14,CAGA
9 Perfect,14,CAGC
21 Perfect,14,CATC
2 Perfect,14,CATG
12 Perfect,14,CATT
5 Perfect,14,CCAC
8 Perfect,14,CCAT
4 Perfect,14,CCCA
7 Perfect,14,CCCC
3 Perfect,14,CCCG
5 Perfect,14,CCCT
1 Perfect,14,CCGC
1 Perfect,14,CCGG
6 Perfect,14,CCTC
7 Perfect,14,CCTG
9 Perfect,14,CCTT
1 Perfect,14,CGCA
1 Perfect,14,CGCC
1 Perfect,14,CTAC
8 Perfect,14,CTCC
25 Perfect,14,CTCT
4 Perfect,14,CTGC
12 Perfect,14,CTTC
4 Perfect,14,CTTT
8 Perfect,14,GAAA
9 Perfect,14,GAAG
9 Perfect,14,GAAT
2 Perfect,14,GACA
1 Perfect,14,GACT
30 Perfect,14,GAGA
6 Perfect,14,GAGG
3 Perfect,14,GAGT
2 Perfect,14,GATA
5 Perfect,14,GATG
1 Perfect,14,GATT
2 Perfect,14,GCAG
1 Perfect,14,GCCA
3 Perfect,14,GCCT
2 Perfect,14,GCGC
2 Perfect,14,GCTG
7 Perfect,14,GGAA
5 Perfect,14,GGAG
3 Perfect,14,GGAT
3 Perfect,14,GGCA
1 Perfect,14,GGCG
2 Perfect,14,GGCT
8 Perfect,14,GGGA
2 Perfect,14,GGGC
5 Perfect,14,GGGG
4 Perfect,14,GGGT
3 Perfect,14,GGTG
1 Perfect,14,GTGA
1 Perfect,14,GTGG
38 Perfect,14,GTGT
1 Perfect,14,GTTG
18 Perfect,14,TAAA
2 Perfect,14,TAAT
4 Perfect,14,TACA
3 Perfect,14,TACC
4 Perfect,14,TAGA
45 Perfect,14,TATA
3 Perfect,14,TATG
14 Perfect,14,TATT
3 Perfect,14,TCAC
4 Perfect,14,TCAT
10 Perfect,14,TCCA
9 Perfect,14,TCCC
8 Perfect,14,TCCT
1 Perfect,14,TCGC
25 Perfect,14,TCTC
4 Perfect,14,TCTG
10 Perfect,14,TCTT
8 Perfect,14,TGAA
2 Perfect,14,TGAG
4 Perfect,14,TGCA
1 Perfect,14,TGCC
27 Perfect,14,TGGA
1 Perfect,14,TGGG
2 Perfect,14,TGTA
4 Perfect,14,TGTC
39 Perfect,14,TGTG
6 Perfect,14,TGTT
13 Perfect,14,TTAA
1 Perfect,14,TTAC
39 Perfect,14,TTAT
10 Perfect,14,TTCA
16 Perfect,14,TTCC
25 Perfect,14,TTCT
2 Perfect,14,TTGA
2 Perfect,14,TTGC
2 Perfect,14,TTGG
23 Perfect,14,TTGT
22 Perfect,14,TTTA
20 Perfect,14,TTTC
9 Perfect,14,TTTG
637 Perfect,14,TTTT
569 Perfect,15,AAAA
158 Perfect,15,AAAC
129 Perfect,15,AAAG
130 Perfect,15,AAAT
2 Perfect,15,AACA
1 Perfect,15,AACC
2 Perfect,15,AAGA
2 Perfect,15,AAGC
9 Perfect,15,AAGG
16 Perfect,15,AATA
2 Perfect,15,AATC
5 Perfect,15,AATG
1 Perfect,15,AATT
2 Perfect,15,ACAA
54 Perfect,15,ACAC
3 Perfect,15,ACAT
1 Perfect,15,ACCC
1 Perfect,15,ACTC
14 Perfect,15,AGAA
4 Perfect,15,AGAC
49 Perfect,15,AGAG
1 Perfect,15,AGAT
1 Perfect,15,AGCA
8 Perfect,15,AGCC
7 Perfect,15,AGGA
1 Perfect,15,AGGC
9 Perfect,15,AGGG
1 Perfect,15,AGTG
4 Perfect,15,ATAA
17 Perfect,15,ATAC
7 Perfect,15,ATAG
18 Perfect,15,ATAT
9 Perfect,15,ATCC
2 Perfect,15,ATCT
5 Perfect,15,ATGA
1 Perfect,15,ATGC
12 Perfect,15,ATGG
2 Perfect,15,ATGT
1 Perfect,15,ATTA
3 Perfect,15,ATTC
1 Perfect,15,ATTG
8 Perfect,15,ATTT
7 Perfect,15,CAAA
3 Perfect,15,CAAC
1 Perfect,15,CAAG
1 Perfect,15,CAAT
31 Perfect,15,CACA
2 Perfect,15,CACC
2 Perfect,15,CACG
2 Perfect,15,CACT
1 Perfect,15,CAGA
1 Perfect,15,CAGC
1 Perfect,15,CAGG
2 Perfect,15,CATA
9 Perfect,15,CATC
2 Perfect,15,CATG
2 Perfect,15,CATT
14 Perfect,15,CCAC
4 Perfect,15,CCAG
25 Perfect,15,CCAT
5 Perfect,15,CCCA
3 Perfect,15,CCCC
3 Perfect,15,CCCT
12 Perfect,15,CCTC
1 Perfect,15,CCTG
4 Perfect,15,CCTT
1 Perfect,15,CGGG
4 Perfect,15,CTCA
4 Perfect,15,CTCC
6 Perfect,15,CTCT
3 Perfect,15,CTGC
10 Perfect,15,CTTC
4 Perfect,15,CTTG
2 Perfect,15,CTTT
8 Perfect,15,GAAA
6 Perfect,15,GAAG
2 Perfect,15,GAAT
10 Perfect,15,GAGA
6 Perfect,15,GAGG
5 Perfect,15,GATA
8 Perfect,15,GATG
1 Perfect,15,GCCA
2 Perfect,15,GCCG
3 Perfect,15,GCCT
1 Perfect,15,GCGA
1 Perfect,15,GCGC
11 Perfect,15,GGAA
7 Perfect,15,GGAG
5 Perfect,15,GGAT
1 Perfect,15,GGCC
1 Perfect,15,GGCG
3 Perfect,15,GGGA
1 Perfect,15,GGGC
2 Perfect,15,GGGG
1 Perfect,15,GGGT
2 Perfect,15,GTGG
25 Perfect,15,GTGT
1 Perfect,15,GTTT
10 Perfect,15,TAAA
1 Perfect,15,TAAC
1 Perfect,15,TAGA
34 Perfect,15,TATA
6 Perfect,15,TATC
17 Perfect,15,TATG
2 Perfect,15,TATT
1 Perfect,15,TCAA
3 Perfect,15,TCAC
1 Perfect,15,TCAG
18 Perfect,15,TCAT
11 Perfect,15,TCCA
12 Perfect,15,TCCC
1 Perfect,15,TCCG
8 Perfect,15,TCCT
41 Perfect,15,TCTC
5 Perfect,15,TCTG
8 Perfect,15,TCTT
14 Perfect,15,TGAA
7 Perfect,15,TGAG
1 Perfect,15,TGCC
21 Perfect,15,TGGA
1 Perfect,15,TGGC
8 Perfect,15,TGGG
4 Perfect,15,TGTA
1 Perfect,15,TGTC
55 Perfect,15,TGTG
1 Perfect,15,TGTT
9 Perfect,15,TTAT
5 Perfect,15,TTCA
13 Perfect,15,TTCC
3 Perfect,15,TTCT
3 Perfect,15,TTGC
2 Perfect,15,TTGT
133 Perfect,15,TTTA
120 Perfect,15,TTTC
167 Perfect,15,TTTG
573 Perfect,15,TTTT
471 Perfect,16,AAAA
7 Perfect,16,AAAC
18 Perfect,16,AAAG
24 Perfect,16,AAAT
1 Perfect,16,AACA
2 Perfect,16,AACC
2 Perfect,16,AAGA
2 Perfect,16,AAGC
9 Perfect,16,AAGG
8 Perfect,16,AATA
1 Perfect,16,AATC
5 Perfect,16,AATG
4 Perfect,16,AATT
19 Perfect,16,ACAC
1 Perfect,16,ACAT
9 Perfect,16,AGAA
2 Perfect,16,AGAC
14 Perfect,16,AGAG
1 Perfect,16,AGAT
2 Perfect,16,AGCC
2 Perfect,16,AGCT
2 Perfect,16,AGGA
2 Perfect,16,AGGG
1 Perfect,16,AGTG
3 Perfect,16,ATAA
2 Perfect,16,ATAC
1 Perfect,16,ATAG
23 Perfect,16,ATAT
3 Perfect,16,ATCC
2 Perfect,16,ATCT
4 Perfect,16,ATGA
6 Perfect,16,ATGG
1 Perfect,16,ATGT
5 Perfect,16,ATTC
1 Perfect,16,ATTG
23 Perfect,16,ATTT
26 Perfect,16,CAAA
1 Perfect,16,CAAG
23 Perfect,16,CACA
1 Perfect,16,CACT
1 Perfect,16,CAGC
1 Perfect,16,CAGG
1 Perfect,16,CATA
8 Perfect,16,CATC
4 Perfect,16,CATT
4 Perfect,16,CCAC
1 Perfect,16,CCAG
8 Perfect,16,CCAT
1 Perfect,16,CCCA
3 Perfect,16,CCCC
5 Perfect,16,CCCT
1 Perfect,16,CCGC
5 Perfect,16,CCTC
3 Perfect,16,CCTT
2 Perfect,16,CGCC
1 Perfect,16,CTAC
1 Perfect,16,CTAT
6 Perfect,16,CTCC
10 Perfect,16,CTCT
1 Perfect,16,CTGG
1 Perfect,16,CTGT
4 Perfect,16,CTTC
12 Perfect,16,CTTT
9 Perfect,16,GAAA
2 Perfect,16,GAAG
2 Perfect,16,GACA
1 Perfect,16,GACC
8 Perfect,16,GAGA
1 Perfect,16,GAGC
4 Perfect,16,GAGG
1 Perfect,16,GATA
22 Perfect,16,GATG
4 Perfect,16,GCCA
1 Perfect,16,GCCC
2 Perfect,16,GCCT
1 Perfect,16,GCGC
5 Perfect,16,GGAA
6 Perfect,16,GGAG
1 Perfect,16,GGAT
1 Perfect,16,GGCG
3 Perfect,16,GGGA
1 Perfect,16,GGTG
2 Perfect,16,GTAT
1 Perfect,16,GTCC
1 Perfect,16,GTCT
1 Perfect,16,GTGA
1 Perfect,16,GTGG
21 Perfect,16,GTGT
9 Perfect,16,GTTT
13 Perfect,16,TAAA
1 Perfect,16,TAGG
21 Perfect,16,TATA
9 Perfect,16,TATT
2 Perfect,16,TCAA
5 Perfect,16,TCAT
7 Perfect,16,TCCA
1 Perfect,16,TCCC
3 Perfect,16,TCCT
9 Perfect,16,TCTC
1 Perfect,16,TCTG
4 Perfect,16,TCTT
8 Perfect,16,TGAA
1 Perfect,16,TGAG
2 Perfect,16,TGCC
9 Perfect,16,TGGA
1 Perfect,16,TGGC
1 Perfect,16,TGGG
1 Perfect,16,TGTA
24 Perfect,16,TGTG
1 Perfect,16,TGTT
1 Perfect,16,TTAA
3 Perfect,16,TTAT
7 Perfect,16,TTCA
6 Perfect,16,TTCC
3 Perfect,16,TTCT
2 Perfect,16,TTGT
25 Perfect,16,TTTA
5 Perfect,16,TTTC
23 Perfect,16,TTTG
538 Perfect,16,TTTT
462 Perfect,17,AAAA
9 Perfect,17,AAAC
15 Perfect,17,AAAG
24 Perfect,17,AAAT
7 Perfect,17,AAGA
3 Perfect,17,AAGG
4 Perfect,17,AATA
2 Perfect,17,AATG
2 Perfect,17,AATT
7 Perfect,17,ACAA
32 Perfect,17,ACAC
1 Perfect,17,ACCA
6 Perfect,17,AGAA
3 Perfect,17,AGAC
20 Perfect,17,AGAG
34 Perfect,17,AGCC
2 Perfect,17,AGGA
1 Perfect,17,AGGC
11 Perfect,17,AGGG
6 Perfect,17,ATAA
1 Perfect,17,ATAC
1 Perfect,17,ATAG
10 Perfect,17,ATAT
5 Perfect,17,ATCC
1 Perfect,17,ATCT
1 Perfect,17,ATGA
2 Perfect,17,ATGG
5 Perfect,17,ATTC
1 Perfect,17,ATTG
2 Perfect,17,ATTT
2 Perfect,17,CAAA
12 Perfect,17,CACA
7 Perfect,17,CATC
1 Perfect,17,CCAC
1 Perfect,17,CCAG
4 Perfect,17,CCAT
1 Perfect,17,CCCC
1 Perfect,17,CCCT
3 Perfect,17,CCTC
4 Perfect,17,CCTT
1 Perfect,17,CTCC
9 Perfect,17,CTCT
4 Perfect,17,CTTC
1 Perfect,17,CTTT
2 Perfect,17,GAAA
6 Perfect,17,GAAG
1 Perfect,17,GAAT
4 Perfect,17,GAGA
1 Perfect,17,GAGG
1 Perfect,17,GATA
6 Perfect,17,GATG
1 Perfect,17,GCAT
1 Perfect,17,GCGC
1 Perfect,17,GGAA
3 Perfect,17,GGAG
4 Perfect,17,GGAT
1 Perfect,17,GGCA
2 Perfect,17,GGGA
1 Perfect,17,GGGG
1 Perfect,17,GGGT
1 Perfect,17,GGTG
1 Perfect,17,GTGC
9 Perfect,17,GTGT
1 Perfect,17,GTTT
12 Perfect,17,TAAA
1 Perfect,17,TAAT
1 Perfect,17,TAGA
17 Perfect,17,TATA
2 Perfect,17,TATG
25 Perfect,17,TATT
3 Perfect,17,TCAA
1 Perfect,17,TCAC
2 Perfect,17,TCAT
1 Perfect,17,TCCA
5 Perfect,17,TCCC
5 Perfect,17,TCCT
1 Perfect,17,TCTA
10 Perfect,17,TCTC
13 Perfect,17,TCTT
2 Perfect,17,TGAA
1 Perfect,17,TGCC
7 Perfect,17,TGGA
1 Perfect,17,TGTA
1 Perfect,17,TGTC
27 Perfect,17,TGTG
7 Perfect,17,TGTT
7 Perfect,17,TTAT
3 Perfect,17,TTCA
6 Perfect,17,TTCC
2 Perfect,17,TTCT
2 Perfect,17,TTGT
5 Perfect,17,TTTA
4 Perfect,17,TTTC
7 Perfect,17,TTTG
423 Perfect,17,TTTT
325 Perfect,18,AAAA
14 Perfect,18,AAAC
8 Perfect,18,AAAG
17 Perfect,18,AAAT
3 Perfect,18,AACA
1 Perfect,18,AACC
1 Perfect,18,AACG
4 Perfect,18,AAGA
1 Perfect,18,AAGC
3 Perfect,18,AAGG
12 Perfect,18,AATA
6 Perfect,18,AATT
19 Perfect,18,ACAC
4 Perfect,18,AGAA
8 Perfect,18,AGAG
1 Perfect,18,AGAT
1 Perfect,18,AGCA
1 Perfect,18,AGCC
2 Perfect,18,AGGA
1 Perfect,18,AGGC
1 Perfect,18,AGGG
1 Perfect,18,ATAA
1 Perfect,18,ATAC
1 Perfect,18,ATAG
17 Perfect,18,ATAT
1 Perfect,18,ATCA
6 Perfect,18,ATCC
1 Perfect,18,ATCT
1 Perfect,18,ATGT
1 Perfect,18,ATTT
3 Perfect,18,CAAA
8 Perfect,18,CACA
2 Perfect,18,CACC
1 Perfect,18,CATA
11 Perfect,18,CATC
2 Perfect,18,CATT
2 Perfect,18,CCAC
2 Perfect,18,CCAT
2 Perfect,18,CCCC
1 Perfect,18,CCCG
1 Perfect,18,CCCT
1 Perfect,18,CCTC
3 Perfect,18,CCTT
1 Perfect,18,CGAG
1 Perfect,18,CTAC
4 Perfect,18,CTCC
7 Perfect,18,CTCT
1 Perfect,18,CTGC
2 Perfect,18,CTGT
3 Perfect,18,CTTT
1 Perfect,18,GAAA
3 Perfect,18,GAAT
10 Perfect,18,GAGA
2 Perfect,18,GAGG
1 Perfect,18,GATA
3 Perfect,18,GATG
1 Perfect,18,GCCA
1 Perfect,18,GCCC
4 Perfect,18,GGAA
2 Perfect,18,GGAG
3 Perfect,18,GGAT
2 Perfect,18,GGGA
1 Perfect,18,GGGC
1 Perfect,18,GGGT
1 Perfect,18,GGTG
13 Perfect,18,GTGT
2 Perfect,18,GTTT
9 Perfect,18,TAAA
1 Perfect,18,TACC
3 Perfect,18,TAGA
10 Perfect,18,TATA
2 Perfect,18,TATC
1 Perfect,18,TATG
5 Perfect,18,TATT
1 Perfect,18,TCAC
1 Perfect,18,TCAT
2 Perfect,18,TCCA
2 Perfect,18,TCCC
5 Perfect,18,TCCT
7 Perfect,18,TCTC
1 Perfect,18,TCTG
4 Perfect,18,TCTT
1 Perfect,18,TGAA
7 Perfect,18,TGGA
2 Perfect,18,TGGG
1 Perfect,18,TGTC
16 Perfect,18,TGTG
2 Perfect,18,TGTT
2 Perfect,18,TTAA
22 Perfect,18,TTAT
3 Perfect,18,TTCC
11 Perfect,18,TTCT
2 Perfect,18,TTGG
9 Perfect,18,TTGT
13 Perfect,18,TTTA
3 Perfect,18,TTTC
7 Perfect,18,TTTG
365 Perfect,18,TTTT
331 Perfect,19,AAAA
85 Perfect,19,AAAC
40 Perfect,19,AAAG
72 Perfect,19,AAAT
1 Perfect,19,AACC
1 Perfect,19,AAGA
3 Perfect,19,AAGG
3 Perfect,19,AATA
3 Perfect,19,AATC
1 Perfect,19,AATG
24 Perfect,19,ACAC
4 Perfect,19,AGAA
5 Perfect,19,AGAC
8 Perfect,19,AGAG
3 Perfect,19,AGGA
5 Perfect,19,AGGG
3 Perfect,19,ATAA
3 Perfect,19,ATAC
4 Perfect,19,ATAG
11 Perfect,19,ATAT
2 Perfect,19,ATCC
1 Perfect,19,ATGA
6 Perfect,19,ATGG
1 Perfect,19,ATTC
2 Perfect,19,ATTG
4 Perfect,19,ATTT
2 Perfect,19,CAAA
7 Perfect,19,CACA
2 Perfect,19,CACC
1 Perfect,19,CATA
6 Perfect,19,CATC
1 Perfect,19,CATG
1 Perfect,19,CCAC
3 Perfect,19,CCAG
10 Perfect,19,CCAT
1 Perfect,19,CCCC
5 Perfect,19,CCTC
1 Perfect,19,CCTG
1 Perfect,19,CCTT
1 Perfect,19,CGCG
1 Perfect,19,CTCC
6 Perfect,19,CTCT
1 Perfect,19,CTGC
2 Perfect,19,CTTC
4 Perfect,19,CTTG
1 Perfect,19,CTTT
4 Perfect,19,GAAA
8 Perfect,19,GAAG
2 Perfect,19,GAAT
3 Perfect,19,GAGA
2 Perfect,19,GAGG
1 Perfect,19,GATA
1 Perfect,19,GATT
1 Perfect,19,GCGT
4 Perfect,19,GGAA
3 Perfect,19,GGAG
4 Perfect,19,GGAT
1 Perfect,19,GGGA
6 Perfect,19,GTGT
1 Perfect,19,GTTG
1 Perfect,19,TAAA
4 Perfect,19,TAAT
1 Perfect,19,TACC
15 Perfect,19,TATA
2 Perfect,19,TATC
2 Perfect,19,TATG
1 Perfect,19,TATT
3 Perfect,19,TCAT
3 Perfect,19,TCCA
3 Perfect,19,TCCC
1 Perfect,19,TCCT
9 Perfect,19,TCTC
4 Perfect,19,TCTG
1 Perfect,19,TCTT
2 Perfect,19,TGAA
1 Perfect,19,TGAG
1 Perfect,19,TGAT
12 Perfect,19,TGGA
2 Perfect,19,TGGC
1 Perfect,19,TGTA
11 Perfect,19,TGTG
1 Perfect,19,TGTT
1 Perfect,19,TTAA
1 Perfect,19,TTAC
3 Perfect,19,TTAT
1 Perfect,19,TTCA
11 Perfect,19,TTCC
1 Perfect,19,TTCT
2 Perfect,19,TTGT
81 Perfect,19,TTTA
40 Perfect,19,TTTC
72 Perfect,19,TTTG
279 Perfect,19,TTTT
291 Perfect,20,AAAA
2 Perfect,20,AAAC
2 Perfect,20,AAAG
10 Perfect,20,AAAT
1 Perfect,20,AAGA
2 Perfect,20,AAGG
2 Perfect,20,AATA
2 Perfect,20,AATG
3 Perfect,20,AATT
6 Perfect,20,ACAC
2 Perfect,20,AGAA
3 Perfect,20,AGAG
1 Perfect,20,AGCT
1 Perfect,20,AGGA
4 Perfect,20,AGGG
14 Perfect,20,ATAT
1 Perfect,20,ATGA
2 Perfect,20,ATGG
1 Perfect,20,ATTA
2 Perfect,20,ATTC
1 Perfect,20,ATTG
15 Perfect,20,ATTT
15 Perfect,20,CAAA
1 Perfect,20,CAAC
1 Perfect,20,CAAG
9 Perfect,20,CACA
1 Perfect,20,CAGG
4 Perfect,20,CATC
2 Perfect,20,CATT
1 Perfect,20,CCAC
1 Perfect,20,CCAT
3 Perfect,20,CCCT
1 Perfect,20,CCTC
3 Perfect,20,CCTT
5 Perfect,20,CTCT
2 Perfect,20,CTTC
6 Perfect,20,CTTT
4 Perfect,20,GAAA
3 Perfect,20,GAAG
8 Perfect,20,GAGA
2 Perfect,20,GAGG
2 Perfect,20,GATA
12 Perfect,20,GATG
1 Perfect,20,GCCA
2 Perfect,20,GGAG
1 Perfect,20,GGGA
1 Perfect,20,GGGC
1 Perfect,20,GTAT
1 Perfect,20,GTCT
8 Perfect,20,GTGT
4 Perfect,20,GTTT
13 Perfect,20,TAAA
1 Perfect,20,TAGA
4 Perfect,20,TATA
1 Perfect,20,TATT
1 Perfect,20,TCAA
1 Perfect,20,TCAT
1 Perfect,20,TCCA
3 Perfect,20,TCCT
1 Perfect,20,TCTA
5 Perfect,20,TCTC
2 Perfect,20,TCTG
2 Perfect,20,TCTT
3 Perfect,20,TGAA
2 Perfect,20,TGGA
7 Perfect,20,TGTG
2 Perfect,20,TTAT
3 Perfect,20,TTCA
3 Perfect,20,TTCC
1 Perfect,20,TTGA
8 Perfect,20,TTTA
3 Perfect,20,TTTC
10 Perfect,20,TTTG
259 Perfect,20,TTTT
232 Perfect,21,AAAA
5 Perfect,21,AAAC
5 Perfect,21,AAAG
8 Perfect,21,AAAT
1 Perfect,21,AAGA
4 Perfect,21,AAGG
4 Perfect,21,AATA
1 Perfect,21,AATC
2 Perfect,21,AATG
12 Perfect,21,ACAC
1 Perfect,21,ACCC
1 Perfect,21,ACCT
3 Perfect,21,AGAA
6 Perfect,21,AGAG
6 Perfect,21,AGCC
2 Perfect,21,AGGA
5 Perfect,21,AGGG
1 Perfect,21,ATAA
1 Perfect,21,ATAC
8 Perfect,21,ATAT
2 Perfect,21,ATCC
2 Perfect,21,ATGG
1 Perfect,21,ATTT
6 Perfect,21,CACA
1 Perfect,21,CACC
1 Perfect,21,CAGA
1 Perfect,21,CATC
2 Perfect,21,CCAC
3 Perfect,21,CCAT
1 Perfect,21,CCTC
5 Perfect,21,CCTT
1 Perfect,21,CGCG
1 Perfect,21,CTCC
3 Perfect,21,CTCT
1 Perfect,21,CTTC
1 Perfect,21,GAAG
3 Perfect,21,GAGA
1 Perfect,21,GAGG
3 Perfect,21,GATG
1 Perfect,21,GGAA
1 Perfect,21,GGCT
5 Perfect,21,GTGT
1 Perfect,21,GTTT
1 Perfect,21,TAAA
2 Perfect,21,TAGA
11 Perfect,21,TATA
5 Perfect,21,TATT
2 Perfect,21,TCAA
1 Perfect,21,TCAC
2 Perfect,21,TCAT
3 Perfect,21,TCCA
6 Perfect,21,TCCC
2 Perfect,21,TCCT
1 Perfect,21,TCTA
11 Perfect,21,TCTC
6 Perfect,21,TCTT
2 Perfect,21,TGCC
1 Perfect,21,TGCT
5 Perfect,21,TGGA
1 Perfect,21,TGTC
13 Perfect,21,TGTG
7 Perfect,21,TGTT
2 Perfect,21,TTAT
1 Perfect,21,TTCA
7 Perfect,21,TTCC
1 Perfect,21,TTCT
1 Perfect,21,TTTA
4 Perfect,21,TTTC
1 Perfect,21,TTTG
236 Perfect,21,TTTT
179 Perfect,22,AAAA
4 Perfect,22,AAAC
3 Perfect,22,AAAG
20 Perfect,22,AAAT
3 Perfect,22,AACA
3 Perfect,22,AAGA
2 Perfect,22,AAGG
4 Perfect,22,AATA
2 Perfect,22,AATT
1 Perfect,22,ACAA
12 Perfect,22,ACAC
3 Perfect,22,AGAG
1 Perfect,22,AGCC
9 Perfect,22,ATAT
3 Perfect,22,ATCC
1 Perfect,22,ATGA
1 Perfect,22,ATGG
1 Perfect,22,ATTG
1 Perfect,22,CAAA
13 Perfect,22,CACA
1 Perfect,22,CACC
1 Perfect,22,CAGA
3 Perfect,22,CATC
1 Perfect,22,CATT
1 Perfect,22,CCAT
1 Perfect,22,CCCT
1 Perfect,22,CCTT
1 Perfect,22,CGCA
1 Perfect,22,CTCC
1 Perfect,22,CTCT
2 Perfect,22,CTTC
1 Perfect,22,CTTT
2 Perfect,22,GAAA
3 Perfect,22,GAAG
1 Perfect,22,GAAT
1 Perfect,22,GAGA
1 Perfect,22,GAGG
2 Perfect,22,GGAT
1 Perfect,22,GGGA
3 Perfect,22,GTGT
3 Perfect,22,TAAA
2 Perfect,22,TATA
1 Perfect,22,TATG
3 Perfect,22,TATT
2 Perfect,22,TCCC
2 Perfect,22,TCCT
4 Perfect,22,TCTC
3 Perfect,22,TGAA
1 Perfect,22,TGCT
6 Perfect,22,TGGA
8 Perfect,22,TGTG
3 Perfect,22,TGTT
1 Perfect,22,TTAA
11 Perfect,22,TTAT
1 Perfect,22,TTCC
5 Perfect,22,TTCT
5 Perfect,22,TTGT
2 Perfect,22,TTTA
2 Perfect,22,TTTG
222 Perfect,22,TTTT
192 Perfect,23,AAAA
28 Perfect,23,AAAC
17 Perfect,23,AAAG
36 Perfect,23,AAAT
2 Perfect,23,AAGG
1 Perfect,23,AATA
1 Perfect,23,AATC
1 Perfect,23,AATT
15 Perfect,23,ACAC
4 Perfect,23,AGAA
2 Perfect,23,AGAC
6 Perfect,23,AGAG
1 Perfect,23,AGAT
1 Perfect,23,AGCC
1 Perfect,23,AGGA
1 Perfect,23,AGGC
2 Perfect,23,ATAG
5 Perfect,23,ATAT
4 Perfect,23,ATCC
2 Perfect,23,ATGA
2 Perfect,23,ATGG
2 Perfect,23,ATTT
1 Perfect,23,CAAA
5 Perfect,23,CACA
1 Perfect,23,CATC
1 Perfect,23,CCAG
5 Perfect,23,CCAT
1 Perfect,23,CCTC
1 Perfect,23,CCTT
1 Perfect,23,CTAG
4 Perfect,23,CTCT
2 Perfect,23,CTTC
3 Perfect,23,GAAG
1 Perfect,23,GAAT
2 Perfect,23,GAGA
2 Perfect,23,GATG
2 Perfect,23,GGAG
1 Perfect,23,GGGC
1 Perfect,23,GTAT
9 Perfect,23,GTGT
3 Perfect,23,TAAA
1 Perfect,23,TAGC
1 Perfect,23,TAGG
3 Perfect,23,TATA
2 Perfect,23,TATG
1 Perfect,23,TATT
2 Perfect,23,TCAT
2 Perfect,23,TCCA
1 Perfect,23,TCCC
4 Perfect,23,TCTC
2 Perfect,23,TCTG
2 Perfect,23,TCTT
1 Perfect,23,TGAG
1 Perfect,23,TGAT
7 Perfect,23,TGGA
11 Perfect,23,TGTG
1 Perfect,23,TTAT
3 Perfect,23,TTCC
2 Perfect,23,TTGT
26 Perfect,23,TTTA
20 Perfect,23,TTTC
26 Perfect,23,TTTG
193 Perfect,23,TTTT
146 Perfect,24,AAAA
1 Perfect,24,AAAC
2 Perfect,24,AAAG
6 Perfect,24,AAAT
1 Perfect,24,AAGA
3 Perfect,24,AATA
1 Perfect,24,AATT
13 Perfect,24,ACAC
1 Perfect,24,AGAG
1 Perfect,24,ATAA
1 Perfect,24,ATAC
8 Perfect,24,ATAT
1 Perfect,24,ATCC
1 Perfect,24,ATGA
1 Perfect,24,ATTG
4 Perfect,24,ATTT
6 Perfect,24,CAAA
9 Perfect,24,CACA
1 Perfect,24,CATC
2 Perfect,24,CCAC
4 Perfect,24,CCAT
1 Perfect,24,CCTC
1 Perfect,24,CCTT
1 Perfect,24,CTCA
1 Perfect,24,CTCT
1 Perfect,24,CTTT
1 Perfect,24,GAAA
1 Perfect,24,GAAG
5 Perfect,24,GAGA
1 Perfect,24,GATA
3 Perfect,24,GATG
2 Perfect,24,GGAA
1 Perfect,24,GGTT
1 Perfect,24,GTCC
2 Perfect,24,GTCT
6 Perfect,24,GTGT
4 Perfect,24,GTTT
3 Perfect,24,TAAA
6 Perfect,24,TATA
1 Perfect,24,TCCA
1 Perfect,24,TCCC
5 Perfect,24,TCTC
1 Perfect,24,TCTT
5 Perfect,24,TGAA
2 Perfect,24,TGGA
5 Perfect,24,TGTG
1 Perfect,24,TGTT
2 Perfect,24,TTAT
1 Perfect,24,TTCA
2 Perfect,24,TTTC
4 Perfect,24,TTTG
143 Perfect,24,TTTT
113 Perfect,25,AAAA
1 Perfect,25,AAAC
3 Perfect,25,AAAG
8 Perfect,25,AAAT
1 Perfect,25,AAGA
2 Perfect,25,AATT
11 Perfect,25,ACAC
1 Perfect,25,AGAA
1 Perfect,25,AGAC
4 Perfect,25,AGAG
4 Perfect,25,AGCC
1 Perfect,25,AGGA
2 Perfect,25,ATAA
3 Perfect,25,ATAT
4 Perfect,25,ATCC
1 Perfect,25,ATGA
1 Perfect,25,ATGG
1 Perfect,25,ATTC
2 Perfect,25,ATTG
2 Perfect,25,CAAA
4 Perfect,25,CACA
1 Perfect,25,CAGA
2 Perfect,25,CCAT
1 Perfect,25,CCCT
2 Perfect,25,CCTC
2 Perfect,25,CTCT
1 Perfect,25,CTTC
2 Perfect,25,GAGA
1 Perfect,25,GATA
9 Perfect,25,GTGT
4 Perfect,25,TAAA
1 Perfect,25,TAGA
6 Perfect,25,TATA
8 Perfect,25,TATT
1 Perfect,25,TCAA
1 Perfect,25,TCAT
2 Perfect,25,TCCC
4 Perfect,25,TCTT
2 Perfect,25,TGGA
1 Perfect,25,TGGT
13 Perfect,25,TGTG
4 Perfect,25,TGTT
1 Perfect,25,TTAT
1 Perfect,25,TTCA
1 Perfect,25,TTCC
1 Perfect,25,TTCT
3 Perfect,25,TTTC
116 Perfect,25,TTTT
75 Perfect,26,AAAA
3 Perfect,26,AAAG
5 Perfect,26,AAAT
1 Perfect,26,AACT
3 Perfect,26,AATA
2 Perfect,26,AATG
5 Perfect,26,ACAC
1 Perfect,26,AGGA
5 Perfect,26,ATAT
1 Perfect,26,ATCC
2 Perfect,26,ATGG
1 Perfect,26,ATTG
1 Perfect,26,ATTT
5 Perfect,26,CACA
5 Perfect,26,CATC
1 Perfect,26,CATT
1 Perfect,26,CCAT
2 Perfect,26,CCCT
3 Perfect,26,GAAG
2 Perfect,26,GAGA
1 Perfect,26,GATA
14 Perfect,26,GTGT
2 Perfect,26,TAAA
1 Perfect,26,TATT
1 Perfect,26,TCCA
4 Perfect,26,TCTC
1 Perfect,26,TCTT
3 Perfect,26,TGGA
12 Perfect,26,TTAT
1 Perfect,26,TTCA
1 Perfect,26,TTGG
4 Perfect,26,TTGT
4 Perfect,26,TTTA
87 Perfect,26,TTTT
66 Perfect,27,AAAA
10 Perfect,27,AAAC
9 Perfect,27,AAAG
12 Perfect,27,AAAT
1 Perfect,27,AATG
13 Perfect,27,ACAC
1 Perfect,27,ACAG
1 Perfect,27,AGAT
1 Perfect,27,AGGG
4 Perfect,27,ATAT
1 Perfect,27,ATGA
3 Perfect,27,ATGG
1 Perfect,27,ATTC
1 Perfect,27,CAAA
1 Perfect,27,CACA
3 Perfect,27,CATC
2 Perfect,27,CCAT
1 Perfect,27,CCTC
1 Perfect,27,CTAC
3 Perfect,27,CTCT
1 Perfect,27,GAAG
1 Perfect,27,GAAT
1 Perfect,27,GAGA
1 Perfect,27,GAGG
7 Perfect,27,GTGT
1 Perfect,27,TATA
1 Perfect,27,TCAT
1 Perfect,27,TCCA
1 Perfect,27,TCTC
2 Perfect,27,TGAA
3 Perfect,27,TGGA
11 Perfect,27,TGTG
1 Perfect,27,TTCA
1 Perfect,27,TTCC
12 Perfect,27,TTTA
4 Perfect,27,TTTC
20 Perfect,27,TTTG
88 Perfect,27,TTTT
53 Perfect,28,AAAA
1 Perfect,28,AAAC
2 Perfect,28,AAAG
2 Perfect,28,AAAT
1 Perfect,28,AAGG
7 Perfect,28,ACAC
3 Perfect,28,AGAG
1 Perfect,28,ATAG
1 Perfect,28,ATAT
4 Perfect,28,ATCC
1 Perfect,28,ATTA
4 Perfect,28,ATTT
3 Perfect,28,CAAA
5 Perfect,28,CACA
1 Perfect,28,CCCT
1 Perfect,28,CCTC
2 Perfect,28,CTCT
1 Perfect,28,GAAA
2 Perfect,28,GATG
7 Perfect,28,GTGT
3 Perfect,28,GTTT
1 Perfect,28,TAGA
2 Perfect,28,TATA
1 Perfect,28,TCAA
1 Perfect,28,TCAT
1 Perfect,28,TCCA
1 Perfect,28,TCTC
1 Perfect,28,TCTG
1 Perfect,28,TCTT
3 Perfect,28,TGGA
4 Perfect,28,TGTG
1 Perfect,28,TTCA
2 Perfect,28,TTCT
2 Perfect,28,TTTA
1 Perfect,28,TTTC
1 Perfect,28,TTTG
47 Perfect,28,TTTT
44 Perfect,29,AAAA
2 Perfect,29,AAAC
1 Perfect,29,AAAG
2 Perfect,29,AAAT
1 Perfect,29,AATA
14 Perfect,29,ACAC
1 Perfect,29,AGAA
3 Perfect,29,AGAG
2 Perfect,29,AGGG
4 Perfect,29,ATAT
2 Perfect,29,ATCC
1 Perfect,29,ATGG
1 Perfect,29,ATTC
7 Perfect,29,CACA
1 Perfect,29,CATC
1 Perfect,29,CCAT
1 Perfect,29,CTAT
1 Perfect,29,CTTC
1 Perfect,29,GAAG
1 Perfect,29,GAAT
1 Perfect,29,GAGA
1 Perfect,29,GAGG
1 Perfect,29,GGAA
1 Perfect,29,GGAG
4 Perfect,29,GTGT
1 Perfect,29,GTTT
1 Perfect,29,TAGG
2 Perfect,29,TATA
2 Perfect,29,TATT
1 Perfect,29,TCCA
3 Perfect,29,TCTC
1 Perfect,29,TGGA
16 Perfect,29,TGTG
4 Perfect,29,TGTT
2 Perfect,29,TTAT
45 Perfect,29,TTTT
32 Perfect,30,AAAA
1 Perfect,30,AAAC
4 Perfect,30,AAAT
1 Perfect,30,AACC
1 Perfect,30,AAGG
9 Perfect,30,ACAC
1 Perfect,30,AGAG
5 Perfect,30,ATAT
2 Perfect,30,ATCC
11 Perfect,30,CACA
1 Perfect,30,CATC
1 Perfect,30,CTCC
1 Perfect,30,CTCT
1 Perfect,30,CTGC
1 Perfect,30,GAAT
1 Perfect,30,GAGA
7 Perfect,30,GTGT
1 Perfect,30,TAAA
1 Perfect,30,TATC
1 Perfect,30,TATT
1 Perfect,30,TCAT
2 Perfect,30,TCTC
1 Perfect,30,TCTT
2 Perfect,30,TGAA
1 Perfect,30,TGTA
7 Perfect,30,TGTG
2 Perfect,30,TTAT
1 Perfect,30,TTCC
1 Perfect,30,TTTA
1 Perfect,30,TTTC
30 Perfect,30,TTTT
20 Perfect,31,AAAA
5 Perfect,31,AAAC
7 Perfect,31,AAAT
1 Perfect,31,AATA
9 Perfect,31,ACAC
2 Perfect,31,AGAG
1 Perfect,31,AGGA
1 Perfect,31,ATAA
2 Perfect,31,ATAT
1 Perfect,31,ATTT
3 Perfect,31,CACA
1 Perfect,31,CATC
2 Perfect,31,CCAT
1 Perfect,31,CTCC
1 Perfect,31,CTTT
2 Perfect,31,GAGA
2 Perfect,31,GTGT
1 Perfect,31,TAAA
1 Perfect,31,TACG
2 Perfect,31,TATA
1 Perfect,31,TATG
10 Perfect,31,TGTG
8 Perfect,31,TTTA
3 Perfect,31,TTTC
4 Perfect,31,TTTG
23 Perfect,31,TTTT
11 Perfect,32,AAAA
1 Perfect,32,AAAC
1 Perfect,32,AAGG
10 Perfect,32,ACAC
1 Perfect,32,AGCT
1 Perfect,32,AGGG
2 Perfect,32,ATAT
1 Perfect,32,ATGG
2 Perfect,32,ATTT
5 Perfect,32,CACA
1 Perfect,32,CCTC
1 Perfect,32,CTCT
1 Perfect,32,GAAT
1 Perfect,32,GATG
1 Perfect,32,GGAA
1 Perfect,32,GGAT
7 Perfect,32,GTGT
2 Perfect,32,TAAA
1 Perfect,32,TAAT
1 Perfect,32,TATA
1 Perfect,32,TCCA
1 Perfect,32,TCTC
3 Perfect,32,TGAA
3 Perfect,32,TGGA
4 Perfect,32,TGTG
2 Perfect,32,TTTA
15 Perfect,32,TTTT
6 Perfect,33,AAAA
2 Perfect,33,AAAC
1 Perfect,33,AATA
8 Perfect,33,ACAC
1 Perfect,33,ATAT
1 Perfect,33,ATGA
1 Perfect,33,ATGG
4 Perfect,33,CACA
1 Perfect,33,CATC
1 Perfect,33,CCTC
1 Perfect,33,CTAC
1 Perfect,33,CTCT
1 Perfect,33,CTTT
5 Perfect,33,GTGT
1 Perfect,33,TAAA
1 Perfect,33,TAGG
4 Perfect,33,TATA
2 Perfect,33,TATT
1 Perfect,33,TCCA
2 Perfect,33,TCTC
7 Perfect,33,TGTG
1 Perfect,33,TGTT
1 Perfect,33,TTTA
14 Perfect,33,TTTT
4 Perfect,34,AAAA
2 Perfect,34,AAAT
1 Perfect,34,AATA
8 Perfect,34,ACAC
3 Perfect,34,ATAT
1 Perfect,34,ATCC
1 Perfect,34,ATTT
4 Perfect,34,CACA
2 Perfect,34,CCAT
1 Perfect,34,CCTT
1 Perfect,34,CTTT
1 Perfect,34,GAGA
1 Perfect,34,GATG
1 Perfect,34,GGGA
7 Perfect,34,GTGT
2 Perfect,34,TATA
1 Perfect,34,TCCC
1 Perfect,34,TCTA
1 Perfect,34,TCTC
1 Perfect,34,TGGA
4 Perfect,34,TGTG
4 Perfect,34,TTAT
2 Perfect,34,TTTA
1 Perfect,34,TTTG
6 Perfect,34,TTTT
5 Perfect,35,AAAA
1 Perfect,35,AAAG
6 Perfect,35,AAAT
1 Perfect,35,AAGA
1 Perfect,35,AATC
9 Perfect,35,ACAC
1 Perfect,35,AGAA
1 Perfect,35,AGAC
1 Perfect,35,AGAG
1 Perfect,35,AGGG
3 Perfect,35,ATAT
2 Perfect,35,ATCC
1 Perfect,35,ATGA
3 Perfect,35,ATGG
2 Perfect,35,ATTT
3 Perfect,35,CACA
1 Perfect,35,CATC
1 Perfect,35,CATT
1 Perfect,35,CCAT
1 Perfect,35,CCTC
1 Perfect,35,CCTT
1 Perfect,35,CTCT
1 Perfect,35,GAGA
2 Perfect,35,GATG
1 Perfect,35,GGAG
1 Perfect,35,GGAT
2 Perfect,35,GTGT
1 Perfect,35,TAAA
1 Perfect,35,TATC
1 Perfect,35,TATT
2 Perfect,35,TCTC
13 Perfect,35,TGTG
5 Perfect,35,TTTA
3 Perfect,35,TTTG
8 Perfect,35,TTTT
9 Perfect,36,AAAA
1 Perfect,36,AATA
11 Perfect,36,ACAC
2 Perfect,36,ATAT
2 Perfect,36,ATGG
3 Perfect,36,CACA
2 Perfect,36,CATC
1 Perfect,36,CCAT
2 Perfect,36,CTCT
1 Perfect,36,GAAG
2 Perfect,36,GAGA
1 Perfect,36,GGAT
9 Perfect,36,GTGT
2 Perfect,36,TATA
1 Perfect,36,TATT
1 Perfect,36,TCAT
3 Perfect,36,TGTG
1 Perfect,36,TTTA
4 Perfect,36,TTTT
6 Perfect,37,AAAA
1 Perfect,37,AAAC
1 Perfect,37,AAAG
2 Perfect,37,AAAT
1 Perfect,37,AAGG
11 Perfect,37,ACAC
1 Perfect,37,ATAA
1 Perfect,37,ATAT
1 Perfect,37,ATGG
1 Perfect,37,ATTT
1 Perfect,37,CACA
1 Perfect,37,CCAT
1 Perfect,37,GATA
2 Perfect,37,GGAT
4 Perfect,37,GTGT
1 Perfect,37,TAAA
1 Perfect,37,TAGA
2 Perfect,37,TATA
3 Perfect,37,TATT
9 Perfect,37,TGTG
1 Perfect,37,TTAT
1 Perfect,37,TTTC
5 Perfect,37,TTTT
7 Perfect,38,AAAA
4 Perfect,38,AAAT
2 Perfect,38,AATA
7 Perfect,38,ACAC
3 Perfect,38,ATAT
1 Perfect,38,ATCC
3 Perfect,38,CACA
1 Perfect,38,CATC
1 Perfect,38,CCTT
1 Perfect,38,GGAG
1 Perfect,38,GGAT
6 Perfect,38,GTGT
1 Perfect,38,TATT
1 Perfect,38,TCCC
1 Perfect,38,TCTC
1 Perfect,38,TGGA
3 Perfect,38,TGTG
1 Perfect,38,TTAT
6 Perfect,38,TTTT
7 Perfect,39,AAAA
2 Perfect,39,AAAC
1 Perfect,39,AAAG
5 Perfect,39,AAAT
1 Perfect,39,AATA
12 Perfect,39,ACAC
1 Perfect,39,AGAG
1 Perfect,39,ATAG
2 Perfect,39,ATAT
2 Perfect,39,ATGG
4 Perfect,39,CACA
1 Perfect,39,CATC
1 Perfect,39,GAAT
3 Perfect,39,GGAT
1 Perfect,39,GTAG
1 Perfect,39,GTGT
1 Perfect,39,TAAA
3 Perfect,39,TATA
1 Perfect,39,TCTA
1 Perfect,39,TCTG
3 Perfect,39,TGGA
12 Perfect,39,TGTG
4 Perfect,39,TTTA
1 Perfect,39,TTTG
5 Perfect,39,TTTT
7 Perfect,40,AAAA
5 Perfect,40,ACAC
1 Perfect,40,AGAG
3 Perfect,40,ATAT
1 Perfect,40,ATCC
4 Perfect,40,CACA
1 Perfect,40,CCAT
1 Perfect,40,CCTT
1 Perfect,40,CTCT
4 Perfect,40,GTGT
1 Perfect,40,TAAA
1 Perfect,40,TATA
2 Perfect,40,TATT
1 Perfect,40,TCAT
4 Perfect,40,TGTG
2 Perfect,40,TTAT
2 Perfect,40,TTTA
3 Perfect,40,TTTT
2 Perfect,41,AAAA
1 Perfect,41,AAAG
2 Perfect,41,AAAT
7 Perfect,41,ACAC
1 Perfect,41,AGAA
1 Perfect,41,AGGA
2 Perfect,41,ATAT
2 Perfect,41,ATCC
1 Perfect,41,ATCT
1 Perfect,41,ATTT
4 Perfect,41,CACA
1 Perfect,41,GATG
2 Perfect,41,GTGT
2 Perfect,41,TATA
1 Perfect,41,TATC
1 Perfect,41,TATT
2 Perfect,41,TCCA
1 Perfect,41,TCTT
1 Perfect,41,TGAA
2 Perfect,41,TGGA
1 Perfect,41,TGTC
10 Perfect,41,TGTG
1 Perfect,41,TTTT
2 Perfect,42,AAAT
2 Perfect,42,AATA
6 Perfect,42,ACAC
1 Perfect,42,AGGA
1 Perfect,42,ATAC
1 Perfect,42,ATAG
2 Perfect,42,ATAT
1 Perfect,42,ATGG
1 Perfect,42,ATTT
1 Perfect,42,CATC
1 Perfect,42,CCTT
1 Perfect,42,GAAG
1 Perfect,42,GATA
9 Perfect,42,GTGT
2 Perfect,42,TATC
3 Perfect,42,TATT
3 Perfect,42,TGGA
5 Perfect,42,TTAT
1 Perfect,42,TTCC
1 Perfect,42,TTTA
2 Perfect,42,TTTT
2 Perfect,43,AAAA
1 Perfect,43,AAAG
5 Perfect,43,AAAT
1 Perfect,43,AATA
12 Perfect,43,ACAC
1 Perfect,43,AGGA
3 Perfect,43,ATAT
4 Perfect,43,ATGG
4 Perfect,43,CACA
3 Perfect,43,GATG
1 Perfect,43,GTGT
1 Perfect,43,TATC
1 Perfect,43,TCTA
2 Perfect,43,TCTC
2 Perfect,43,TGGA
8 Perfect,43,TGTG
5 Perfect,43,TTTA
1 Perfect,43,TTTG
1 Perfect,43,TTTT
1 Perfect,44,AAAA
2 Perfect,44,AAAT
6 Perfect,44,ACAC
1 Perfect,44,ATAC
1 Perfect,44,ATAG
3 Perfect,44,ATAT
1 Perfect,44,ATTT
2 Perfect,44,CACA
1 Perfect,44,GAAG
2 Perfect,44,GAGA
1 Perfect,44,GATG
2 Perfect,44,GGAT
1 Perfect,44,GTAT
1 Perfect,44,GTCT
5 Perfect,44,GTGT
1 Perfect,44,TAAA
1 Perfect,44,TATA
1 Perfect,44,TATT
3 Perfect,44,TCCA
3 Perfect,44,TGTG
1 Perfect,44,TTCC
1 Perfect,44,TTTA
1 Perfect,44,TTTT
2 Perfect,45,AAAA
1 Perfect,45,AAAG
2 Perfect,45,AAAT
5 Perfect,45,ACAC
2 Perfect,45,AGGA
3 Perfect,45,ATAT
1 Perfect,45,ATCC
1 Perfect,45,ATCT
1 Perfect,45,CAAA
4 Perfect,45,CACA
3 Perfect,45,CCAT
1 Perfect,45,CCTT
2 Perfect,45,GTGT
2 Perfect,45,TATA
1 Perfect,45,TATC
1 Perfect,45,TGGA
1 Perfect,45,TGTA
4 Perfect,45,TGTG
1 Perfect,46,AAAT
1 Perfect,46,AACC
1 Perfect,46,AATA
4 Perfect,46,ACAC
1 Perfect,46,ATAG
3 Perfect,46,CACA
1 Perfect,46,CATC
1 Perfect,46,GATA
1 Perfect,46,GGAT
5 Perfect,46,GTGT
1 Perfect,46,TAAA
1 Perfect,46,TAGG
2 Perfect,46,TGTG
3 Perfect,46,TTAT
1 Perfect,46,TTCT
1 Perfect,46,TTTA
3 Perfect,46,TTTT
3 Perfect,47,AAAT
5 Perfect,47,ACAC
1 Perfect,47,AGAC
1 Perfect,47,ATAG
1 Perfect,47,ATAT
1 Perfect,47,ATCT
1 Perfect,47,ATGG
1 Perfect,47,ATTT
2 Perfect,47,CACA
1 Perfect,47,CATC
1 Perfect,47,CCAC
2 Perfect,47,CCAT
2 Perfect,47,CTTC
1 Perfect,47,GAAG
1 Perfect,47,GTGT
1 Perfect,47,TAAA
1 Perfect,47,TATA
1 Perfect,47,TATC
1 Perfect,47,TCTA
1 Perfect,47,TGGA
6 Perfect,47,TGTG
1 Perfect,47,TTTA
3 Perfect,48,ACAC
1 Perfect,48,AGAG
1 Perfect,48,ATAT
1 Perfect,48,ATCT
2 Perfect,48,CACA
1 Perfect,48,GATA
2 Perfect,48,GATG
1 Perfect,48,GGAA
4 Perfect,48,GTGT
1 Perfect,48,TAAA
3 Perfect,48,TATA
2 Perfect,48,TATC
1 Perfect,48,TCTC
1 Perfect,48,TGGA
2 Perfect,48,TGTG
1 Perfect,48,TTCC
1 Perfect,48,TTTT
1 Perfect,49,AAAA
1 Perfect,49,AAAG
1 Perfect,49,AAAT
2 Perfect,49,ACAC
1 Perfect,49,AGGA
1 Perfect,49,ATAC
2 Perfect,49,ATAG
2 Perfect,49,ATAT
1 Perfect,49,ATCT
2 Perfect,49,CACA
1 Perfect,49,GAAG
2 Perfect,49,GTGT
1 Perfect,49,TATA
2 Perfect,49,TCTC
1 Perfect,49,TGGT
2 Perfect,49,TGTG
1 Perfect,49,TTCC
2 Perfect,50,AAAT
2 Perfect,50,AATA
4 Perfect,50,ACAC
2 Perfect,50,ATAT
3 Perfect,50,ATGG
1 Perfect,50,CACA
1 Perfect,50,CCAT
1 Perfect,50,GTAT
2 Perfect,50,GTGT
1 Perfect,50,TATA
1 Perfect,50,TCTA
1 Perfect,50,TGGA
1 Perfect,50,TTAT
1 Perfect,50,TTCT
1 Perfect,51,AAAG
3 Perfect,51,AAAT
1 Perfect,51,AAGA
5 Perfect,51,ACAC
1 Perfect,51,AGAA
1 Perfect,51,ATAG
1 Perfect,51,ATGG
2 Perfect,51,CCAT
1 Perfect,51,GAAA
1 Perfect,51,GTAT
1 Perfect,51,TATA
2 Perfect,51,TCTT
4 Perfect,51,TGTG
2 Perfect,51,TTTA
1 Perfect,52,AAAT
1 Perfect,52,AAGA
1 Perfect,52,AGAA
1 Perfect,52,ATCT
4 Perfect,52,CACA
1 Perfect,52,CATC
1 Perfect,52,GAGA
1 Perfect,52,TATA
1 Perfect,52,TGTG
1 Perfect,52,TTTC
1 Perfect,53,AAAG
1 Perfect,53,AAGG
1 Perfect,53,ACAC
1 Perfect,53,AGAA
1 Perfect,53,AGAT
1 Perfect,53,AGGA
1 Perfect,53,ATCC
1 Perfect,53,ATCT
2 Perfect,53,CCTT
1 Perfect,53,GAAA
1 Perfect,53,GAGA
1 Perfect,53,GATG
1 Perfect,53,GTGT
2 Perfect,53,TATA
1 Perfect,53,TATT
1 Perfect,53,TGTG
1 Perfect,53,TTTC
1 Perfect,54,AAGG
1 Perfect,54,ATAT
1 Perfect,54,CATC
1 Perfect,54,GAAA
1 Perfect,54,GATA
1 Perfect,54,GTGT
1 Perfect,55,AAAG
2 Perfect,55,AAAT
1 Perfect,55,ACAC
2 Perfect,55,ATAT
1 Perfect,55,CACA
1 Perfect,55,CTCT
1 Perfect,55,TATC
1 Perfect,55,TGTG
1 Perfect,55,TTCC
3 Perfect,56,ACAC
1 Perfect,56,ATAT
1 Perfect,56,CCTT
1 Perfect,56,GGAA
1 Perfect,56,TCTA
1 Perfect,57,AAAG
1 Perfect,57,ACAC
1 Perfect,57,AGAG
1 Perfect,57,ATCT
1 Perfect,57,GAAG
1 Perfect,57,TCCT
1 Perfect,57,TGTG
1 Perfect,58,AAAG
2 Perfect,58,AGAA
1 Perfect,58,CACA
1 Perfect,58,GAAA
1 Perfect,58,GGAA
1 Perfect,58,GTGT
1 Perfect,58,TTCC
1 Perfect,59,AAGA
1 Perfect,59,CCTT
1 Perfect,59,TCTC
1 Perfect,59,TCTT
1 Perfect,59,TTTC
2 Perfect,60,AAGA
2 Perfect,60,GTGT
1 Perfect,60,TAGA
1 Perfect,60,TCTT
1 Perfect,61,AAGG
1 Perfect,61,ACAC
1 Perfect,61,AGAA
1 Perfect,61,TGTG
1 Perfect,62,AAAG
1 Perfect,62,AAGA
1 Perfect,62,ATAC
1 Perfect,62,TCCA
1 Perfect,63,AAAG
1 Perfect,63,GAAA
1 Perfect,63,TTTC
1 Perfect,64,CCTT
1 Perfect,64,TCTT
1 Perfect,64,TTTC
1 Perfect,65,TTCC
1 Perfect,65,TTTC
1 Perfect,66,AAGA
2 Perfect,66,AAGG
1 Perfect,66,AGGA
1 Perfect,66,CACA
2 Perfect,66,TCTT
1 Perfect,67,AAAG
1 Perfect,67,TTCC
1 Perfect,68,CTTT
1 Perfect,68,GAGA
1 Perfect,68,TCTC
1 Perfect,68,TTCT
1 Perfect,69,AAAG
1 Perfect,69,AGAA
1 Perfect,69,GAAA
1 Perfect,69,TTTC
1 Perfect,70,AAGA
1 Perfect,70,GGAA
1 Perfect,70,TTTC
1 Perfect,71,TCTT
1 Perfect,71,TTTC
1 Perfect,73,AAAG
1 Perfect,73,TGTG
1 Perfect,75,ACAC
1 Perfect,78,AAGA
1 Perfect,84,AAGA
2637 Perfect,8,AAAA
489 Perfect,8,AAAC
977 Perfect,8,AAAG
1363 Perfect,8,AAAT
522 Perfect,8,AACA
261 Perfect,8,AACC
10 Perfect,8,AACG
186 Perfect,8,AACT
666 Perfect,8,AAGA
284 Perfect,8,AAGC
672 Perfect,8,AAGG
262 Perfect,8,AAGT
786 Perfect,8,AATA
164 Perfect,8,AATC
462 Perfect,8,AATG
629 Perfect,8,AATT
370 Perfect,8,ACAA
660 Perfect,8,ACAC
621 Perfect,8,ACAG
393 Perfect,8,ACAT
228 Perfect,8,ACCA
395 Perfect,8,ACCC
13 Perfect,8,ACCG
313 Perfect,8,ACCT
7 Perfect,8,ACGA
19 Perfect,8,ACGC
18 Perfect,8,ACGG
22 Perfect,8,ACGT
114 Perfect,8,ACTA
261 Perfect,8,ACTC
333 Perfect,8,ACTG
248 Perfect,8,ACTT
801 Perfect,8,AGAA
346 Perfect,8,AGAC
858 Perfect,8,AGAG
237 Perfect,8,AGAT
420 Perfect,8,AGCA
542 Perfect,8,AGCC
37 Perfect,8,AGCG
171 Perfect,8,AGCT
1082 Perfect,8,AGGA
989 Perfect,8,AGGC
1192 Perfect,8,AGGG
309 Perfect,8,AGGT
172 Perfect,8,AGTA
160 Perfect,8,AGTC
453 Perfect,8,AGTG
179 Perfect,8,AGTT
562 Perfect,8,ATAA
202 Perfect,8,ATAC
146 Perfect,8,ATAG
1080 Perfect,8,ATAT
189 Perfect,8,ATCA
287 Perfect,8,ATCC
11 Perfect,8,ATCG
231 Perfect,8,ATCT
380 Perfect,8,ATGA
227 Perfect,8,ATGC
337 Perfect,8,ATGG
382 Perfect,8,ATGT
341 Perfect,8,ATTA
345 Perfect,8,ATTC
204 Perfect,8,ATTG
1318 Perfect,8,ATTT
673 Perfect,8,CAAA
163 Perfect,8,CAAC
360 Perfect,8,CAAG
214 Perfect,8,CAAT
1217 Perfect,8,CACA
834 Perfect,8,CACC
47 Perfect,8,CACG
483 Perfect,8,CACT
727 Perfect,8,CAGA
668 Perfect,8,CAGC
1499 Perfect,8,CAGG
463 Perfect,8,CAGT
236 Perfect,8,CATA
370 Perfect,8,CATC
501 Perfect,8,CATG
532 Perfect,8,CATT
226 Perfect,8,CCAA
625 Perfect,8,CCAC
1234 Perfect,8,CCAG
389 Perfect,8,CCAT
1106 Perfect,8,CCCA
164 Perfect,8,CCCC
170 Perfect,8,CCCG
1180 Perfect,8,CCCT
12 Perfect,8,CCGA
137 Perfect,8,CCGC
151 Perfect,8,CCGG
22 Perfect,8,CCGT
157 Perfect,8,CCTA
1003 Perfect,8,CCTC
1500 Perfect,8,CCTG
669 Perfect,8,CCTT
4 Perfect,8,CGAA
6 Perfect,8,CGAC
23 Perfect,8,CGAG
6 Perfect,8,CGAT
33 Perfect,8,CGCA
555 Perfect,8,CGCC
34 Perfect,8,CGCG
33 Perfect,8,CGCT
33 Perfect,8,CGGA
89 Perfect,8,CGGC
146 Perfect,8,CGGG
13 Perfect,8,CGGT
4 Perfect,8,CGTA
17 Perfect,8,CGTC
60 Perfect,8,CGTG
8 Perfect,8,CGTT
142 Perfect,8,CTAA
106 Perfect,8,CTAC
172 Perfect,8,CTAG
141 Perfect,8,CTAT
655 Perfect,8,CTCA
926 Perfect,8,CTCC
38 Perfect,8,CTCG
854 Perfect,8,CTCT
325 Perfect,8,CTGA
802 Perfect,8,CTGC
1253 Perfect,8,CTGG
588 Perfect,8,CTGT
187 Perfect,8,CTTA
706 Perfect,8,CTTC
335 Perfect,8,CTTG
1013 Perfect,8,CTTT
969 Perfect,8,GAAA
65 Perfect,8,GAAC
733 Perfect,8,GAAG
356 Perfect,8,GAAT
330 Perfect,8,GACA
52 Perfect,8,GACC
17 Perfect,8,GACG
182 Perfect,8,GACT
791 Perfect,8,GAGA
116 Perfect,8,GAGC
1016 Perfect,8,GAGG
245 Perfect,8,GAGT
146 Perfect,8,GATA
44 Perfect,8,GATC
361 Perfect,8,GATG
153 Perfect,8,GATT
160 Perfect,8,GCAA
361 Perfect,8,GCAC
762 Perfect,8,GCAG
244 Perfect,8,GCAT
542 Perfect,8,GCCA
308 Perfect,8,GCCC
89 Perfect,8,GCCG
1063 Perfect,8,GCCT
10 Perfect,8,GCGA
138 Perfect,8,GCGC
101 Perfect,8,GCGG
16 Perfect,8,GCGT
63 Perfect,8,GCTA
129 Perfect,8,GCTC
649 Perfect,8,GCTG
249 Perfect,8,GCTT
634 Perfect,8,GGAA
105 Perfect,8,GGAC
932 Perfect,8,GGAG
244 Perfect,8,GGAT
750 Perfect,8,GGCA
291 Perfect,8,GGCC
600 Perfect,8,GGCG
505 Perfect,8,GGCT
871 Perfect,8,GGGA
335 Perfect,8,GGGC
178 Perfect,8,GGGG
395 Perfect,8,GGGT
131 Perfect,8,GGTA
41 Perfect,8,GGTC
863 Perfect,8,GGTG
269 Perfect,8,GGTT
182 Perfect,8,GTAA
42 Perfect,8,GTAC
91 Perfect,8,GTAG
180 Perfect,8,GTAT
212 Perfect,8,GTCA
119 Perfect,8,GTCC
9 Perfect,8,GTCG
367 Perfect,8,GTCT
370 Perfect,8,GTGA
345 Perfect,8,GTGC
592 Perfect,8,GTGG
615 Perfect,8,GTGT
151 Perfect,8,GTTA
60 Perfect,8,GTTC
181 Perfect,8,GTTG
529 Perfect,8,GTTT
858 Perfect,8,TAAA
198 Perfect,8,TAAC
240 Perfect,8,TAAG
331 Perfect,8,TAAT
253 Perfect,8,TACA
126 Perfect,8,TACC
6 Perfect,8,TACG
203 Perfect,8,TACT
165 Perfect,8,TAGA
55 Perfect,8,TAGC
132 Perfect,8,TAGG
85 Perfect,8,TAGT
945 Perfect,8,TATA
146 Perfect,8,TATC
236 Perfect,8,TATG
745 Perfect,8,TATT
200 Perfect,8,TCAA
364 Perfect,8,TCAC
351 Perfect,8,TCAG
383 Perfect,8,TCAT
497 Perfect,8,TCCA
895 Perfect,8,TCCC
45 Perfect,8,TCCG
1063 Perfect,8,TCCT
3 Perfect,8,TCGA
13 Perfect,8,TCGC
9 Perfect,8,TCGG
7 Perfect,8,TCGT
150 Perfect,8,TCTA
795 Perfect,8,TCTC
675 Perfect,8,TCTG
653 Perfect,8,TCTT
506 Perfect,8,TGAA
194 Perfect,8,TGAC
565 Perfect,8,TGAG
186 Perfect,8,TGAT
416 Perfect,8,TGCA
701 Perfect,8,TGCC
31 Perfect,8,TGCG
413 Perfect,8,TGCT
559 Perfect,8,TGGA
519 Perfect,8,TGGC
1072 Perfect,8,TGGG
273 Perfect,8,TGGT
285 Perfect,8,TGTA
354 Perfect,8,TGTC
1203 Perfect,8,TGTG
538 Perfect,8,TGTT
497 Perfect,8,TTAA
149 Perfect,8,TTAC
121 Perfect,8,TTAG
477 Perfect,8,TTAT
517 Perfect,8,TTCA
661 Perfect,8,TTCC
6 Perfect,8,TTCG
810 Perfect,8,TTCT
200 Perfect,8,TTGA
154 Perfect,8,TTGC
263 Perfect,8,TTGG
363 Perfect,8,TTGT
811 Perfect,8,TTTA
939 Perfect,8,TTTC
677 Perfect,8,TTTG
2692 Perfect,8,TTTT
1 Perfect,99,GGAT
1671 Perfect,9,AAAA
317 Perfect,9,AAAC
352 Perfect,9,AAAG
372 Perfect,9,AAAT
119 Perfect,9,AACA
76 Perfect,9,AACC
2 Perfect,9,AACG
33 Perfect,9,AACT
263 Perfect,9,AAGA
147 Perfect,9,AAGC
245 Perfect,9,AAGG
41 Perfect,9,AAGT
232 Perfect,9,AATA
93 Perfect,9,AATC
158 Perfect,9,AATG
114 Perfect,9,AATT
221 Perfect,9,ACAA
519 Perfect,9,ACAC
173 Perfect,9,ACAG
152 Perfect,9,ACAT
85 Perfect,9,ACCA
140 Perfect,9,ACCC
2 Perfect,9,ACCG
31 Perfect,9,ACCT
2 Perfect,9,ACGA
9 Perfect,9,ACGC
9 Perfect,9,ACGG
50 Perfect,9,ACTA
106 Perfect,9,ACTC
91 Perfect,9,ACTG
51 Perfect,9,ACTT
506 Perfect,9,AGAA
250 Perfect,9,AGAC
496 Perfect,9,AGAG
61 Perfect,9,AGAT
66 Perfect,9,AGCA
356 Perfect,9,AGCC
5 Perfect,9,AGCG
22 Perfect,9,AGCT
328 Perfect,9,AGGA
230 Perfect,9,AGGC
255 Perfect,9,AGGG
79 Perfect,9,AGGT
48 Perfect,9,AGTA
73 Perfect,9,AGTC
117 Perfect,9,AGTG
51 Perfect,9,AGTT
283 Perfect,9,ATAA
165 Perfect,9,ATAC
51 Perfect,9,ATAG
458 Perfect,9,ATAT
49 Perfect,9,ATCA
151 Perfect,9,ATCC
3 Perfect,9,ATCG
47 Perfect,9,ATCT
154 Perfect,9,ATGA
99 Perfect,9,ATGC
142 Perfect,9,ATGG
79 Perfect,9,ATGT
100 Perfect,9,ATTA
173 Perfect,9,ATTC
81 Perfect,9,ATTG
253 Perfect,9,ATTT
78 Perfect,9,CAAA
46 Perfect,9,CAAC
83 Perfect,9,CAAG
31 Perfect,9,CAAT
429 Perfect,9,CACA
230 Perfect,9,CACC
19 Perfect,9,CACG
127 Perfect,9,CACT
138 Perfect,9,CAGA
255 Perfect,9,CAGC
313 Perfect,9,CAGG
54 Perfect,9,CAGT
29 Perfect,9,CATA
114 Perfect,9,CATC
61 Perfect,9,CATG
162 Perfect,9,CATT
56 Perfect,9,CCAA
977 Perfect,9,CCAC
293 Perfect,9,CCAG
169 Perfect,9,CCAT
312 Perfect,9,CCCA
54 Perfect,9,CCCC
56 Perfect,9,CCCG
297 Perfect,9,CCCT
2 Perfect,9,CCGA
558 Perfect,9,CCGC
55 Perfect,9,CCGG
12 Perfect,9,CCGT
37 Perfect,9,CCTA
466 Perfect,9,CCTC
320 Perfect,9,CCTG
192 Perfect,9,CCTT
7 Perfect,9,CGAC
9 Perfect,9,CGAG
13 Perfect,9,CGCA
46 Perfect,9,CGCC
18 Perfect,9,CGCG
23 Perfect,9,CGCT
6 Perfect,9,CGGA
24 Perfect,9,CGGC
29 Perfect,9,CGGG
5 Perfect,9,CGGT
2 Perfect,9,CGTA
11 Perfect,9,CGTC
12 Perfect,9,CGTG
6 Perfect,9,CGTT
18 Perfect,9,CTAA
33 Perfect,9,CTAC
20 Perfect,9,CTAG
32 Perfect,9,CTAT
141 Perfect,9,CTCA
398 Perfect,9,CTCC
11 Perfect,9,CTCG
314 Perfect,9,CTCT
59 Perfect,9,CTGA
317 Perfect,9,CTGC
221 Perfect,9,CTGG
115 Perfect,9,CTGT
25 Perfect,9,CTTA
239 Perfect,9,CTTC
42 Perfect,9,CTTG
182 Perfect,9,CTTT
180 Perfect,9,GAAA
5 Perfect,9,GAAC
211 Perfect,9,GAAG
108 Perfect,9,GAAT
147 Perfect,9,GACA
7 Perfect,9,GACC
6 Perfect,9,GACG
66 Perfect,9,GACT
272 Perfect,9,GAGA
20 Perfect,9,GAGC
294 Perfect,9,GAGG
134 Perfect,9,GAGT
29 Perfect,9,GATA
8 Perfect,9,GATC
171 Perfect,9,GATG
33 Perfect,9,GATT
49 Perfect,9,GCAA
9 Perfect,9,GCAC
307 Perfect,9,GCAG
76 Perfect,9,GCAT
206 Perfect,9,GCCA
35 Perfect,9,GCCC
30 Perfect,9,GCCG
294 Perfect,9,GCCT
15 Perfect,9,GCGA
33 Perfect,9,GCGC
56 Perfect,9,GCGG
22 Perfect,9,GCGT
24 Perfect,9,GCTA
2 Perfect,9,GCTC
258 Perfect,9,GCTG
70 Perfect,9,GCTT
240 Perfect,9,GGAA
10 Perfect,9,GGAC
471 Perfect,9,GGAG
101 Perfect,9,GGAT
313 Perfect,9,GGCA
30 Perfect,9,GGCC
602 Perfect,9,GGCG
243 Perfect,9,GGCT
404 Perfect,9,GGGA
63 Perfect,9,GGGC
67 Perfect,9,GGGG
244 Perfect,9,GGGT
45 Perfect,9,GGTA
2 Perfect,9,GGTC
928 Perfect,9,GGTG
38 Perfect,9,GGTT
26 Perfect,9,GTAA
2 Perfect,9,GTAC
29 Perfect,9,GTAG
30 Perfect,9,GTAT
58 Perfect,9,GTCA
9 Perfect,9,GTCC
2 Perfect,9,GTCG
130 Perfect,9,GTCT
129 Perfect,9,GTGA
15 Perfect,9,GTGC
325 Perfect,9,GTGG
507 Perfect,9,GTGT
25 Perfect,9,GTTA
4 Perfect,9,GTTC
42 Perfect,9,GTTG
69 Perfect,9,GTTT
284 Perfect,9,TAAA
49 Perfect,9,TAAC
61 Perfect,9,TAAG
137 Perfect,9,TAAT
84 Perfect,9,TACA
56 Perfect,9,TACC
2 Perfect,9,TACG
55 Perfect,9,TACT
43 Perfect,9,TAGA
27 Perfect,9,TAGC
36 Perfect,9,TAGG
36 Perfect,9,TAGT
366 Perfect,9,TATA
77 Perfect,9,TATC
150 Perfect,9,TATG
399 Perfect,9,TATT
78 Perfect,9,TCAA
116 Perfect,9,TCAC
86 Perfect,9,TCAG
144 Perfect,9,TCAT
168 Perfect,9,TCCA
296 Perfect,9,TCCC
6 Perfect,9,TCCG
212 Perfect,9,TCCT
1 Perfect,9,TCGC
3 Perfect,9,TCGG
51 Perfect,9,TCTA
495 Perfect,9,TCTC
173 Perfect,9,TCTG
359 Perfect,9,TCTT
188 Perfect,9,TGAA
81 Perfect,9,TGAC
110 Perfect,9,TGAG
95 Perfect,9,TGAT
106 Perfect,9,TGCA
237 Perfect,9,TGCC
6 Perfect,9,TGCG
144 Perfect,9,TGCT
149 Perfect,9,TGGA
153 Perfect,9,TGGC
141 Perfect,9,TGGG
73 Perfect,9,TGGT
171 Perfect,9,TGTA
210 Perfect,9,TGTC
536 Perfect,9,TGTG
283 Perfect,9,TGTT
94 Perfect,9,TTAA
52 Perfect,9,TTAC
20 Perfect,9,TTAG
205 Perfect,9,TTAT
169 Perfect,9,TTCA
290 Perfect,9,TTCC
1 Perfect,9,TTCG
269 Perfect,9,TTCT
58 Perfect,9,TTGA
69 Perfect,9,TTGC
61 Perfect,9,TTGG
106 Perfect,9,TTGT
287 Perfect,9,TTTA
468 Perfect,9,TTTC
213 Perfect,9,TTTG
1648 Perfect,9,TTTT
