1138227 Imperfect,3,AA
1031206 Imperfect,3,AC
1091008 Imperfect,3,AG
791983 Imperfect,3,AT
563998 Imperfect,3,CA
675752 Imperfect,3,CC
123960 Imperfect,3,CG
646803 Imperfect,3,CT
645548 Imperfect,3,GA
124729 Imperfect,3,GC
675165 Imperfect,3,GG
564986 Imperfect,3,GT
793741 Imperfect,3,TA
1095595 Imperfect,3,TC
1034316 Imperfect,3,TG
1141387 Imperfect,3,TT
1 Perfect,106,TG
2898 Perfect,10,AA
607 Perfect,10,AC
456 Perfect,10,AG
558 Perfect,10,AT
1276 Perfect,10,CA
614 Perfect,10,CC
12 Perfect,10,CG
446 Perfect,10,CT
418 Perfect,10,GA
56 Perfect,10,GC
628 Perfect,10,GG
602 Perfect,10,GT
372 Perfect,10,TA
452 Perfect,10,TC
1229 Perfect,10,TG
2980 Perfect,10,TT
1584 Perfect,11,AA
1263 Perfect,11,AC
539 Perfect,11,AG
330 Perfect,11,AT
450 Perfect,11,CA
562 Perfect,11,CC
35 Perfect,11,CG
234 Perfect,11,CT
227 Perfect,11,GA
28 Perfect,11,GC
537 Perfect,11,GG
412 Perfect,11,GT
314 Perfect,11,TA
507 Perfect,11,TC
1261 Perfect,11,TG
1649 Perfect,11,TT
1144 Perfect,12,AA
335 Perfect,12,AC
174 Perfect,12,AG
269 Perfect,12,AT
526 Perfect,12,CA
335 Perfect,12,CC
3 Perfect,12,CG
167 Perfect,12,CT
174 Perfect,12,GA
34 Perfect,12,GC
314 Perfect,12,GG
286 Perfect,12,GT
156 Perfect,12,TA
195 Perfect,12,TC
535 Perfect,12,TG
1153 Perfect,12,TT
891 Perfect,13,AA
712 Perfect,13,AC
301 Perfect,13,AG
161 Perfect,13,AT
222 Perfect,13,CA
228 Perfect,13,CC
16 Perfect,13,CG
97 Perfect,13,CT
107 Perfect,13,GA
14 Perfect,13,GC
248 Perfect,13,GG
245 Perfect,13,GT
168 Perfect,13,TA
283 Perfect,13,TC
743 Perfect,13,TG
914 Perfect,13,TT
702 Perfect,14,AA
211 Perfect,14,AC
81 Perfect,14,AG
134 Perfect,14,AT
345 Perfect,14,CA
143 Perfect,14,CC
1 Perfect,14,CG
95 Perfect,14,CT
131 Perfect,14,GA
20 Perfect,14,GC
125 Perfect,14,GG
205 Perfect,14,GT
87 Perfect,14,TA
124 Perfect,14,TC
305 Perfect,14,TG
751 Perfect,14,TT
644 Perfect,15,AA
439 Perfect,15,AC
157 Perfect,15,AG
121 Perfect,15,AT
145 Perfect,15,CA
70 Perfect,15,CC
9 Perfect,15,CG
68 Perfect,15,CT
71 Perfect,15,GA
11 Perfect,15,GC
71 Perfect,15,GG
141 Perfect,15,GT
101 Perfect,15,TA
184 Perfect,15,TC
406 Perfect,15,TG
636 Perfect,15,TT
454 Perfect,16,AA
132 Perfect,16,AC
63 Perfect,16,AG
88 Perfect,16,AT
177 Perfect,16,CA
51 Perfect,16,CC
2 Perfect,16,CG
58 Perfect,16,CT
77 Perfect,16,GA
6 Perfect,16,GC
45 Perfect,16,GG
117 Perfect,16,GT
76 Perfect,16,TA
73 Perfect,16,TC
169 Perfect,16,TG
476 Perfect,16,TT
335 Perfect,17,AA
263 Perfect,17,AC
108 Perfect,17,AG
62 Perfect,17,AT
107 Perfect,17,CA
42 Perfect,17,CC
4 Perfect,17,CG
50 Perfect,17,CT
43 Perfect,17,GA
4 Perfect,17,GC
39 Perfect,17,GG
89 Perfect,17,GT
66 Perfect,17,TA
108 Perfect,17,TC
290 Perfect,17,TG
308 Perfect,17,TT
236 Perfect,18,AA
60 Perfect,18,AC
49 Perfect,18,AG
57 Perfect,18,AT
97 Perfect,18,CA
20 Perfect,18,CC
34 Perfect,18,CT
48 Perfect,18,GA
7 Perfect,18,GC
23 Perfect,18,GG
88 Perfect,18,GT
47 Perfect,18,TA
42 Perfect,18,TC
108 Perfect,18,TG
236 Perfect,18,TT
173 Perfect,19,AA
162 Perfect,19,AC
70 Perfect,19,AG
41 Perfect,19,AT
68 Perfect,19,CA
14 Perfect,19,CC
3 Perfect,19,CG
29 Perfect,19,CT
35 Perfect,19,GA
8 Perfect,19,GC
15 Perfect,19,GG
58 Perfect,19,GT
43 Perfect,19,TA
56 Perfect,19,TC
181 Perfect,19,TG
162 Perfect,19,TT
172 Perfect,20,AA
68 Perfect,20,AC
31 Perfect,20,AG
37 Perfect,20,AT
69 Perfect,20,CA
8 Perfect,20,CC
1 Perfect,20,CG
18 Perfect,20,CT
44 Perfect,20,GA
5 Perfect,20,GC
8 Perfect,20,GG
71 Perfect,20,GT
31 Perfect,20,TA
42 Perfect,20,TC
84 Perfect,20,TG
150 Perfect,20,TT
135 Perfect,21,AA
134 Perfect,21,AC
46 Perfect,21,AG
40 Perfect,21,AT
45 Perfect,21,CA
3 Perfect,21,CC
2 Perfect,21,CG
21 Perfect,21,CT
25 Perfect,21,GA
2 Perfect,21,GC
7 Perfect,21,GG
59 Perfect,21,GT
36 Perfect,21,TA
49 Perfect,21,TC
133 Perfect,21,TG
130 Perfect,21,TT
126 Perfect,22,AA
65 Perfect,22,AC
21 Perfect,22,AG
30 Perfect,22,AT
54 Perfect,22,CA
1 Perfect,22,CC
2 Perfect,22,CG
16 Perfect,22,CT
33 Perfect,22,GA
5 Perfect,22,GG
73 Perfect,22,GT
28 Perfect,22,TA
23 Perfect,22,TC
67 Perfect,22,TG
130 Perfect,22,TT
131 Perfect,23,AA
124 Perfect,23,AC
35 Perfect,23,AG
25 Perfect,23,AT
86 Perfect,23,CA
4 Perfect,23,CC
1 Perfect,23,CG
22 Perfect,23,CT
22 Perfect,23,GA
2 Perfect,23,GC
6 Perfect,23,GG
58 Perfect,23,GT
23 Perfect,23,TA
38 Perfect,23,TC
117 Perfect,23,TG
121 Perfect,23,TT
115 Perfect,24,AA
73 Perfect,24,AC
20 Perfect,24,AG
28 Perfect,24,AT
72 Perfect,24,CA
1 Perfect,24,CC
13 Perfect,24,CT
24 Perfect,24,GA
2 Perfect,24,GC
1 Perfect,24,GG
53 Perfect,24,GT
14 Perfect,24,TA
29 Perfect,24,TC
53 Perfect,24,TG
110 Perfect,24,TT
110 Perfect,25,AA
103 Perfect,25,AC
19 Perfect,25,AG
15 Perfect,25,AT
37 Perfect,25,CA
2 Perfect,25,CC
1 Perfect,25,CG
17 Perfect,25,CT
17 Perfect,25,GA
1 Perfect,25,GG
51 Perfect,25,GT
23 Perfect,25,TA
34 Perfect,25,TC
112 Perfect,25,TG
117 Perfect,25,TT
94 Perfect,26,AA
61 Perfect,26,AC
20 Perfect,26,AG
33 Perfect,26,AT
49 Perfect,26,CA
2 Perfect,26,CC
19 Perfect,26,CT
26 Perfect,26,GA
51 Perfect,26,GT
29 Perfect,26,TA
28 Perfect,26,TC
58 Perfect,26,TG
84 Perfect,26,TT
79 Perfect,27,AA
116 Perfect,27,AC
33 Perfect,27,AG
19 Perfect,27,AT
62 Perfect,27,CA
1 Perfect,27,CG
24 Perfect,27,CT
13 Perfect,27,GA
1 Perfect,27,GC
53 Perfect,27,GT
15 Perfect,27,TA
25 Perfect,27,TC
122 Perfect,27,TG
87 Perfect,27,TT
69 Perfect,28,AA
76 Perfect,28,AC
24 Perfect,28,AG
13 Perfect,28,AT
66 Perfect,28,CA
17 Perfect,28,CT
19 Perfect,28,GA
1 Perfect,28,GG
66 Perfect,28,GT
23 Perfect,28,TA
25 Perfect,28,TC
59 Perfect,28,TG
69 Perfect,28,TT
72 Perfect,29,AA
110 Perfect,29,AC
32 Perfect,29,AG
20 Perfect,29,AT
61 Perfect,29,CA
10 Perfect,29,CT
21 Perfect,29,GA
53 Perfect,29,GT
12 Perfect,29,TA
25 Perfect,29,TC
88 Perfect,29,TG
56 Perfect,29,TT
41 Perfect,30,AA
66 Perfect,30,AC
15 Perfect,30,AG
9 Perfect,30,AT
51 Perfect,30,CA
12 Perfect,30,CT
20 Perfect,30,GA
64 Perfect,30,GT
17 Perfect,30,TA
24 Perfect,30,TC
56 Perfect,30,TG
45 Perfect,30,TT
33 Perfect,31,AA
110 Perfect,31,AC
27 Perfect,31,AG
14 Perfect,31,AT
49 Perfect,31,CA
19 Perfect,31,CT
24 Perfect,31,GA
1 Perfect,31,GC
1 Perfect,31,GG
62 Perfect,31,GT
9 Perfect,31,TA
37 Perfect,31,TC
120 Perfect,31,TG
34 Perfect,31,TT
18 Perfect,32,AA
74 Perfect,32,AC
13 Perfect,32,AG
19 Perfect,32,AT
76 Perfect,32,CA
19 Perfect,32,CT
18 Perfect,32,GA
69 Perfect,32,GT
24 Perfect,32,TA
25 Perfect,32,TC
59 Perfect,32,TG
27 Perfect,32,TT
27 Perfect,33,AA
109 Perfect,33,AC
34 Perfect,33,AG
11 Perfect,33,AT
52 Perfect,33,CA
18 Perfect,33,CT
17 Perfect,33,GA
72 Perfect,33,GT
11 Perfect,33,TA
34 Perfect,33,TC
105 Perfect,33,TG
14 Perfect,33,TT
13 Perfect,34,AA
79 Perfect,34,AC
13 Perfect,34,AG
16 Perfect,34,AT
54 Perfect,34,CA
14 Perfect,34,CT
17 Perfect,34,GA
85 Perfect,34,GT
5 Perfect,34,TA
23 Perfect,34,TC
54 Perfect,34,TG
21 Perfect,34,TT
14 Perfect,35,AA
91 Perfect,35,AC
29 Perfect,35,AG
11 Perfect,35,AT
52 Perfect,35,CA
1 Perfect,35,CG
17 Perfect,35,CT
18 Perfect,35,GA
46 Perfect,35,GT
7 Perfect,35,TA
33 Perfect,35,TC
100 Perfect,35,TG
12 Perfect,35,TT
9 Perfect,36,AA
100 Perfect,36,AC
15 Perfect,36,AG
13 Perfect,36,AT
68 Perfect,36,CA
20 Perfect,36,CT
24 Perfect,36,GA
83 Perfect,36,GT
15 Perfect,36,TA
20 Perfect,36,TC
56 Perfect,36,TG
15 Perfect,36,TT
14 Perfect,37,AA
96 Perfect,37,AC
29 Perfect,37,AG
10 Perfect,37,AT
61 Perfect,37,CA
18 Perfect,37,CT
16 Perfect,37,GA
72 Perfect,37,GT
14 Perfect,37,TA
36 Perfect,37,TC
120 Perfect,37,TG
5 Perfect,37,TT
15 Perfect,38,AA
85 Perfect,38,AC
16 Perfect,38,AG
17 Perfect,38,AT
67 Perfect,38,CA
1 Perfect,38,CC
22 Perfect,38,CT
28 Perfect,38,GA
86 Perfect,38,GT
18 Perfect,38,TA
16 Perfect,38,TC
45 Perfect,38,TG
11 Perfect,38,TT
7 Perfect,39,AA
110 Perfect,39,AC
29 Perfect,39,AG
15 Perfect,39,AT
68 Perfect,39,CA
24 Perfect,39,CT
15 Perfect,39,GA
51 Perfect,39,GT
12 Perfect,39,TA
20 Perfect,39,TC
103 Perfect,39,TG
10 Perfect,39,TT
14 Perfect,40,AA
97 Perfect,40,AC
20 Perfect,40,AG
15 Perfect,40,AT
58 Perfect,40,CA
10 Perfect,40,CT
22 Perfect,40,GA
89 Perfect,40,GT
18 Perfect,40,TA
33 Perfect,40,TC
59 Perfect,40,TG
9 Perfect,40,TT
9 Perfect,41,AA
117 Perfect,41,AC
35 Perfect,41,AG
16 Perfect,41,AT
53 Perfect,41,CA
11 Perfect,41,CT
11 Perfect,41,GA
52 Perfect,41,GT
16 Perfect,41,TA
32 Perfect,41,TC
95 Perfect,41,TG
13 Perfect,41,TT
3 Perfect,42,AA
98 Perfect,42,AC
15 Perfect,42,AG
20 Perfect,42,AT
68 Perfect,42,CA
23 Perfect,42,CT
28 Perfect,42,GA
109 Perfect,42,GT
18 Perfect,42,TA
23 Perfect,42,TC
58 Perfect,42,TG
10 Perfect,42,TT
5 Perfect,43,AA
107 Perfect,43,AC
35 Perfect,43,AG
23 Perfect,43,AT
58 Perfect,43,CA
20 Perfect,43,CT
20 Perfect,43,GA
56 Perfect,43,GT
15 Perfect,43,TA
30 Perfect,43,TC
80 Perfect,43,TG
7 Perfect,43,TT
2 Perfect,44,AA
112 Perfect,44,AC
20 Perfect,44,AG
26 Perfect,44,AT
58 Perfect,44,CA
11 Perfect,44,CT
41 Perfect,44,GA
83 Perfect,44,GT
10 Perfect,44,TA
35 Perfect,44,TC
53 Perfect,44,TG
6 Perfect,44,TT
4 Perfect,45,AA
92 Perfect,45,AC
29 Perfect,45,AG
17 Perfect,45,AT
52 Perfect,45,CA
16 Perfect,45,CT
30 Perfect,45,GA
50 Perfect,45,GT
17 Perfect,45,TA
40 Perfect,45,TC
103 Perfect,45,TG
6 Perfect,45,TT
4 Perfect,46,AA
72 Perfect,46,AC
21 Perfect,46,AG
19 Perfect,46,AT
43 Perfect,46,CA
17 Perfect,46,CT
33 Perfect,46,GA
78 Perfect,46,GT
12 Perfect,46,TA
34 Perfect,46,TC
55 Perfect,46,TG
3 Perfect,46,TT
1 Perfect,47,AA
91 Perfect,47,AC
36 Perfect,47,AG
13 Perfect,47,AT
55 Perfect,47,CA
27 Perfect,47,CT
24 Perfect,47,GA
30 Perfect,47,GT
14 Perfect,47,TA
46 Perfect,47,TC
81 Perfect,47,TG
1 Perfect,47,TT
3 Perfect,48,AA
62 Perfect,48,AC
14 Perfect,48,AG
20 Perfect,48,AT
36 Perfect,48,CA
16 Perfect,48,CT
35 Perfect,48,GA
73 Perfect,48,GT
13 Perfect,48,TA
27 Perfect,48,TC
46 Perfect,48,TG
3 Perfect,48,TT
1 Perfect,49,AA
86 Perfect,49,AC
41 Perfect,49,AG
7 Perfect,49,AT
18 Perfect,49,CA
16 Perfect,49,CT
28 Perfect,49,GA
38 Perfect,49,GT
11 Perfect,49,TA
41 Perfect,49,TC
70 Perfect,49,TG
1 Perfect,49,TT
405633 Perfect,4,AA
141951 Perfect,4,AC
277522 Perfect,4,AG
249798 Perfect,4,AT
281741 Perfect,4,CA
179165 Perfect,4,CC
7391 Perfect,4,CG
278152 Perfect,4,CT
207997 Perfect,4,GA
33068 Perfect,4,GC
177948 Perfect,4,GG
143686 Perfect,4,GT
184442 Perfect,4,TA
208230 Perfect,4,TC
281399 Perfect,4,TG
405885 Perfect,4,TT
1 Perfect,50,AA
61 Perfect,50,AC
12 Perfect,50,AG
15 Perfect,50,AT
33 Perfect,50,CA
22 Perfect,50,CT
35 Perfect,50,GA
48 Perfect,50,GT
12 Perfect,50,TA
39 Perfect,50,TC
34 Perfect,50,TG
1 Perfect,51,AA
78 Perfect,51,AC
37 Perfect,51,AG
9 Perfect,51,AT
20 Perfect,51,CA
16 Perfect,51,CT
22 Perfect,51,GA
25 Perfect,51,GT
12 Perfect,51,TA
31 Perfect,51,TC
59 Perfect,51,TG
3 Perfect,51,TT
1 Perfect,52,AA
20 Perfect,52,AC
14 Perfect,52,AG
14 Perfect,52,AT
24 Perfect,52,CA
14 Perfect,52,CT
28 Perfect,52,GA
32 Perfect,52,GT
7 Perfect,52,TA
37 Perfect,52,TC
30 Perfect,52,TG
2 Perfect,52,TT
1 Perfect,53,AA
54 Perfect,53,AC
25 Perfect,53,AG
8 Perfect,53,AT
10 Perfect,53,CA
16 Perfect,53,CT
17 Perfect,53,GA
12 Perfect,53,GT
7 Perfect,53,TA
43 Perfect,53,TC
40 Perfect,53,TG
18 Perfect,54,AC
16 Perfect,54,AG
6 Perfect,54,AT
14 Perfect,54,CA
16 Perfect,54,CT
21 Perfect,54,GA
30 Perfect,54,GT
11 Perfect,54,TA
32 Perfect,54,TC
14 Perfect,54,TG
1 Perfect,54,TT
1 Perfect,55,AA
32 Perfect,55,AC
26 Perfect,55,AG
6 Perfect,55,AT
11 Perfect,55,CA
11 Perfect,55,CT
15 Perfect,55,GA
13 Perfect,55,GT
8 Perfect,55,TA
26 Perfect,55,TC
25 Perfect,55,TG
18 Perfect,56,AC
13 Perfect,56,AG
5 Perfect,56,AT
12 Perfect,56,CA
16 Perfect,56,CT
24 Perfect,56,GA
16 Perfect,56,GT
4 Perfect,56,TA
32 Perfect,56,TC
10 Perfect,56,TG
16 Perfect,57,AC
28 Perfect,57,AG
8 Perfect,57,AT
8 Perfect,57,CA
16 Perfect,57,CT
3 Perfect,57,GA
6 Perfect,57,GT
1 Perfect,57,TA
15 Perfect,57,TC
24 Perfect,57,TG
5 Perfect,58,AC
10 Perfect,58,AG
4 Perfect,58,AT
6 Perfect,58,CA
10 Perfect,58,CT
17 Perfect,58,GA
9 Perfect,58,GT
3 Perfect,58,TA
23 Perfect,58,TC
4 Perfect,58,TG
9 Perfect,59,AC
24 Perfect,59,AG
3 Perfect,59,AT
3 Perfect,59,CA
7 Perfect,59,CT
12 Perfect,59,GA
3 Perfect,59,GT
5 Perfect,59,TA
22 Perfect,59,TC
7 Perfect,59,TG
129357 Perfect,5,AA
96254 Perfect,5,AC
112995 Perfect,5,AG
67356 Perfect,5,AT
48505 Perfect,5,CA
46099 Perfect,5,CC
2669 Perfect,5,CG
55080 Perfect,5,CT
54674 Perfect,5,GA
2638 Perfect,5,GC
45653 Perfect,5,GG
48137 Perfect,5,GT
67740 Perfect,5,TA
114431 Perfect,5,TC
97159 Perfect,5,TG
128822 Perfect,5,TT
1 Perfect,60,AA
7 Perfect,60,AC
9 Perfect,60,AG
5 Perfect,60,AT
4 Perfect,60,CA
6 Perfect,60,CT
30 Perfect,60,GA
8 Perfect,60,GT
3 Perfect,60,TA
19 Perfect,60,TC
3 Perfect,60,TG
5 Perfect,61,AC
20 Perfect,61,AG
2 Perfect,61,CA
11 Perfect,61,CT
6 Perfect,61,GA
1 Perfect,61,GT
4 Perfect,61,TA
13 Perfect,61,TC
7 Perfect,61,TG
2 Perfect,62,AC
7 Perfect,62,AG
4 Perfect,62,AT
1 Perfect,62,CA
6 Perfect,62,CT
16 Perfect,62,GA
2 Perfect,62,GT
3 Perfect,62,TA
14 Perfect,62,TC
3 Perfect,62,TG
2 Perfect,63,AC
17 Perfect,63,AG
1 Perfect,63,AT
1 Perfect,63,CA
5 Perfect,63,CT
9 Perfect,63,GA
1 Perfect,63,GT
14 Perfect,63,TC
8 Perfect,63,TG
1 Perfect,64,AC
3 Perfect,64,AG
2 Perfect,64,AT
2 Perfect,64,CA
5 Perfect,64,CT
7 Perfect,64,GA
2 Perfect,64,GT
1 Perfect,64,TA
13 Perfect,64,TC
1 Perfect,64,TG
1 Perfect,65,AC
9 Perfect,65,AG
5 Perfect,65,CT
8 Perfect,65,GA
1 Perfect,65,GT
3 Perfect,65,TA
6 Perfect,65,TC
3 Perfect,65,TG
1 Perfect,66,AC
1 Perfect,66,AG
1 Perfect,66,AT
2 Perfect,66,CT
13 Perfect,66,GA
12 Perfect,66,TC
1 Perfect,67,AC
2 Perfect,67,AG
1 Perfect,67,AT
1 Perfect,67,CA
2 Perfect,67,GA
3 Perfect,67,GT
3 Perfect,67,TC
4 Perfect,68,AG
1 Perfect,68,CT
3 Perfect,68,GA
1 Perfect,68,GT
13 Perfect,68,TC
6 Perfect,69,AG
1 Perfect,69,AT
1 Perfect,69,CT
3 Perfect,69,GA
1 Perfect,69,GT
5 Perfect,69,TC
1 Perfect,69,TG
35125 Perfect,6,AA
14282 Perfect,6,AC
24046 Perfect,6,AG
23046 Perfect,6,AT
26740 Perfect,6,CA
8887 Perfect,6,CC
417 Perfect,6,CG
23810 Perfect,6,CT
20326 Perfect,6,GA
1000 Perfect,6,GC
8850 Perfect,6,GG
14348 Perfect,6,GT
17969 Perfect,6,TA
20351 Perfect,6,TC
26981 Perfect,6,TG
34924 Perfect,6,TT
1 Perfect,70,AC
2 Perfect,70,AG
2 Perfect,70,CT
10 Perfect,70,GA
1 Perfect,70,GT
4 Perfect,70,TC
1 Perfect,71,AC
2 Perfect,71,AG
4 Perfect,71,CT
4 Perfect,71,GA
1 Perfect,71,TA
2 Perfect,71,TC
1 Perfect,71,TG
2 Perfect,72,AG
5 Perfect,72,GA
3 Perfect,72,TC
2 Perfect,73,AG
1 Perfect,73,AT
1 Perfect,73,CT
5 Perfect,73,TC
1 Perfect,74,AC
1 Perfect,74,AT
1 Perfect,74,GA
4 Perfect,74,TC
3 Perfect,75,AG
1 Perfect,75,CT
1 Perfect,75,TG
3 Perfect,76,AG
1 Perfect,76,GA
3 Perfect,76,TC
2 Perfect,77,AG
1 Perfect,77,AT
1 Perfect,77,CT
1 Perfect,77,GA
2 Perfect,77,TC
2 Perfect,78,TC
2 Perfect,79,AG
2 Perfect,79,CT
3 Perfect,79,TA
1 Perfect,79,TC
15984 Perfect,7,AA
11997 Perfect,7,AC
10964 Perfect,7,AG
8167 Perfect,7,AT
6051 Perfect,7,CA
2141 Perfect,7,CC
255 Perfect,7,CG
6113 Perfect,7,CT
6121 Perfect,7,GA
305 Perfect,7,GC
2105 Perfect,7,GG
6226 Perfect,7,GT
8240 Perfect,7,TA
10968 Perfect,7,TC
12258 Perfect,7,TG
16004 Perfect,7,TT
2 Perfect,80,GA
1 Perfect,82,AG
1 Perfect,82,GA
1 Perfect,83,AG
1 Perfect,83,TC
1 Perfect,84,GA
1 Perfect,85,AG
1 Perfect,85,TC
1 Perfect,86,CT
1 Perfect,86,GA
1 Perfect,88,CT
1 Perfect,89,AT
6532 Perfect,8,AA
2005 Perfect,8,AC
2850 Perfect,8,AG
3312 Perfect,8,AT
4429 Perfect,8,CA
740 Perfect,8,CC
57 Perfect,8,CG
2925 Perfect,8,CT
2322 Perfect,8,GA
204 Perfect,8,GC
698 Perfect,8,GG
2118 Perfect,8,GT
2888 Perfect,8,TA
2263 Perfect,8,TC
4499 Perfect,8,TG
6405 Perfect,8,TT
1 Perfect,91,AG
1 Perfect,95,AG
1 Perfect,97,CT
4471 Perfect,9,AA
3021 Perfect,9,AC
1660 Perfect,9,AG
1201 Perfect,9,AT
1083 Perfect,9,CA
594 Perfect,9,CC
83 Perfect,9,CG
871 Perfect,9,CT
914 Perfect,9,GA
65 Perfect,9,GC
638 Perfect,9,GG
1093 Perfect,9,GT
1234 Perfect,9,TA
1764 Perfect,9,TC
2938 Perfect,9,TG
4483 Perfect,9,TT
