758412 Imperfect,4,AAA
468821 Imperfect,4,AAC
482680 Imperfect,4,AAG
433499 Imperfect,4,AAT
533483 Imperfect,4,ACA
380909 Imperfect,4,ACC
55837 Imperfect,4,ACG
289562 Imperfect,4,ACT
676930 Imperfect,4,AGA
434936 Imperfect,4,AGC
494821 Imperfect,4,AGG
309924 Imperfect,4,AGT
473017 Imperfect,4,ATA
355199 Imperfect,4,ATC
428369 Imperfect,4,ATG
349785 Imperfect,4,ATT
210392 Imperfect,4,CAA
262038 Imperfect,4,CAC
334017 Imperfect,4,CAG
311524 Imperfect,4,CAT
326311 Imperfect,4,CCA
300886 Imperfect,4,CCC
40505 Imperfect,4,CCG
356717 Imperfect,4,CCT
40275 Imperfect,4,CGA
60776 Imperfect,4,CGC
54360 Imperfect,4,CGG
53191 Imperfect,4,CGT
215344 Imperfect,4,CTA
347582 Imperfect,4,CTC
315857 Imperfect,4,CTG
367935 Imperfect,4,CTT
391697 Imperfect,4,GAA
43632 Imperfect,4,GAC
353780 Imperfect,4,GAG
327565 Imperfect,4,GAT
371370 Imperfect,4,GCA
48668 Imperfect,4,GCC
48235 Imperfect,4,GCG
400568 Imperfect,4,GCT
366306 Imperfect,4,GGA
47907 Imperfect,4,GGC
301055 Imperfect,4,GGG
273170 Imperfect,4,GGT
244602 Imperfect,4,GTA
33332 Imperfect,4,GTC
341102 Imperfect,4,GTG
240568 Imperfect,4,GTT
359962 Imperfect,4,TAA
319479 Imperfect,4,TAC
271612 Imperfect,4,TAG
519937 Imperfect,4,TAT
442615 Imperfect,4,TCA
510369 Imperfect,4,TCC
53685 Imperfect,4,TCG
587258 Imperfect,4,TCT
351573 Imperfect,4,TGA
419250 Imperfect,4,TGC
354319 Imperfect,4,TGG
562625 Imperfect,4,TGT
394440 Imperfect,4,TTA
589865 Imperfect,4,TTC
406326 Imperfect,4,TTG
756274 Imperfect,4,TTT
178514 Imperfect,5,AAA
166972 Imperfect,5,AAC
195810 Imperfect,5,AAG
155564 Imperfect,5,AAT
46622 Imperfect,5,ACA
61562 Imperfect,5,ACC
8897 Imperfect,5,ACG
37227 Imperfect,5,ACT
113153 Imperfect,5,AGA
102596 Imperfect,5,AGC
106061 Imperfect,5,AGG
64926 Imperfect,5,AGT
80081 Imperfect,5,ATA
78354 Imperfect,5,ATC
78900 Imperfect,5,ATG
79778 Imperfect,5,ATT
76936 Imperfect,5,CAA
85419 Imperfect,5,CAC
115902 Imperfect,5,CAG
81378 Imperfect,5,CAT
74243 Imperfect,5,CCA
60859 Imperfect,5,CCC
16391 Imperfect,5,CCG
87101 Imperfect,5,CCT
1747 Imperfect,5,CGA
2837 Imperfect,5,CGC
2769 Imperfect,5,CGG
1722 Imperfect,5,CGT
64242 Imperfect,5,CTA
106128 Imperfect,5,CTC
102491 Imperfect,5,CTG
113307 Imperfect,5,CTT
90491 Imperfect,5,GAA
11237 Imperfect,5,GAC
90917 Imperfect,5,GAG
65001 Imperfect,5,GAT
48754 Imperfect,5,GCA
9023 Imperfect,5,GCC
9127 Imperfect,5,GCG
48017 Imperfect,5,GCT
86115 Imperfect,5,GGA
16466 Imperfect,5,GGC
62189 Imperfect,5,GGG
73985 Imperfect,5,GGT
37434 Imperfect,5,GTA
8894 Imperfect,5,GTC
61777 Imperfect,5,GTG
46097 Imperfect,5,GTT
70787 Imperfect,5,TAA
55119 Imperfect,5,TAC
55603 Imperfect,5,TAG
70188 Imperfect,5,TAT
65367 Imperfect,5,TCA
89917 Imperfect,5,TCC
11227 Imperfect,5,TCG
90477 Imperfect,5,TCT
81461 Imperfect,5,TGA
115890 Imperfect,5,TGC
85408 Imperfect,5,TGG
76096 Imperfect,5,TGT
155469 Imperfect,5,TTA
194467 Imperfect,5,TTC
166693 Imperfect,5,TTG
177630 Imperfect,5,TTT
1 Perfect,100,AAG
1 Perfect,100,AGA
4 Perfect,100,CTT
1 Perfect,100,GAA
1 Perfect,100,TTC
1 Perfect,101,AGA
1 Perfect,101,CTT
1 Perfect,101,TCT
1 Perfect,102,AAG
1 Perfect,102,AGA
1 Perfect,102,GAA
1 Perfect,103,AGA
1 Perfect,103,CTT
1 Perfect,104,AAG
1 Perfect,104,CTT
2 Perfect,104,TTC
1 Perfect,105,CTT
1 Perfect,105,TTC
1 Perfect,106,AGA
1 Perfect,106,TCT
1 Perfect,107,AAG
1 Perfect,108,AGA
1 Perfect,108,CTT
1 Perfect,108,GAA
1 Perfect,109,AGA
1 Perfect,109,CTT
4258 Perfect,10,AAA
289 Perfect,10,AAC
233 Perfect,10,AAG
310 Perfect,10,AAT
210 Perfect,10,ACA
195 Perfect,10,ACC
8 Perfect,10,ACG
54 Perfect,10,ACT
369 Perfect,10,AGA
187 Perfect,10,AGC
400 Perfect,10,AGG
63 Perfect,10,AGT
546 Perfect,10,ATA
128 Perfect,10,ATC
122 Perfect,10,ATG
268 Perfect,10,ATT
98 Perfect,10,CAA
245 Perfect,10,CAC
352 Perfect,10,CAG
97 Perfect,10,CAT
170 Perfect,10,CCA
821 Perfect,10,CCC
18 Perfect,10,CCG
470 Perfect,10,CCT
2 Perfect,10,CGA
29 Perfect,10,CGC
24 Perfect,10,CGG
1 Perfect,10,CGT
34 Perfect,10,CTA
336 Perfect,10,CTC
205 Perfect,10,CTG
239 Perfect,10,CTT
286 Perfect,10,GAA
1 Perfect,10,GAC
475 Perfect,10,GAG
120 Perfect,10,GAT
269 Perfect,10,GCA
21 Perfect,10,GCC
19 Perfect,10,GCG
352 Perfect,10,GCT
330 Perfect,10,GGA
23 Perfect,10,GGC
890 Perfect,10,GGG
232 Perfect,10,GGT
30 Perfect,10,GTA
3 Perfect,10,GTC
199 Perfect,10,GTG
72 Perfect,10,GTT
237 Perfect,10,TAA
61 Perfect,10,TAC
54 Perfect,10,TAG
300 Perfect,10,TAT
131 Perfect,10,TCA
401 Perfect,10,TCC
5 Perfect,10,TCG
244 Perfect,10,TCT
116 Perfect,10,TGA
190 Perfect,10,TGC
189 Perfect,10,TGG
284 Perfect,10,TGT
608 Perfect,10,TTA
406 Perfect,10,TTC
179 Perfect,10,TTG
4119 Perfect,10,TTT
1 Perfect,110,TTC
1 Perfect,111,AAG
1 Perfect,112,AAG
1 Perfect,112,TTC
1 Perfect,113,TCT
1 Perfect,113,TTC
2 Perfect,116,AGA
1 Perfect,116,GAA
1 Perfect,117,TTC
1 Perfect,118,AGA
2255 Perfect,11,AAA
607 Perfect,11,AAC
280 Perfect,11,AAG
306 Perfect,11,AAT
23 Perfect,11,ACA
72 Perfect,11,ACC
2 Perfect,11,ACG
13 Perfect,11,ACT
102 Perfect,11,AGA
109 Perfect,11,AGC
238 Perfect,11,AGG
18 Perfect,11,AGT
121 Perfect,11,ATA
109 Perfect,11,ATC
121 Perfect,11,ATG
106 Perfect,11,ATT
80 Perfect,11,CAA
130 Perfect,11,CAC
142 Perfect,11,CAG
86 Perfect,11,CAT
204 Perfect,11,CCA
698 Perfect,11,CCC
29 Perfect,11,CCG
166 Perfect,11,CCT
2 Perfect,11,CGA
11 Perfect,11,CGC
5 Perfect,11,CGG
1 Perfect,11,CGT
22 Perfect,11,CTA
315 Perfect,11,CTC
128 Perfect,11,CTG
101 Perfect,11,CTT
160 Perfect,11,GAA
7 Perfect,11,GAC
328 Perfect,11,GAG
46 Perfect,11,GAT
60 Perfect,11,GCA
21 Perfect,11,GCC
17 Perfect,11,GCG
49 Perfect,11,GCT
212 Perfect,11,GGA
21 Perfect,11,GGC
678 Perfect,11,GGG
219 Perfect,11,GGT
14 Perfect,11,GTA
2 Perfect,11,GTC
62 Perfect,11,GTG
20 Perfect,11,GTT
111 Perfect,11,TAA
24 Perfect,11,TAC
22 Perfect,11,TAG
74 Perfect,11,TAT
46 Perfect,11,TCA
315 Perfect,11,TCC
6 Perfect,11,TCG
149 Perfect,11,TCT
89 Perfect,11,TGA
132 Perfect,11,TGC
143 Perfect,11,TGG
82 Perfect,11,TGT
270 Perfect,11,TTA
267 Perfect,11,TTC
642 Perfect,11,TTG
2184 Perfect,11,TTT
1 Perfect,120,GAA
1 Perfect,123,AAG
1482 Perfect,12,AAA
57 Perfect,12,AAC
60 Perfect,12,AAG
101 Perfect,12,AAT
24 Perfect,12,ACA
39 Perfect,12,ACC
1 Perfect,12,ACG
6 Perfect,12,ACT
40 Perfect,12,AGA
24 Perfect,12,AGC
88 Perfect,12,AGG
6 Perfect,12,AGT
35 Perfect,12,ATA
23 Perfect,12,ATC
44 Perfect,12,ATG
114 Perfect,12,ATT
135 Perfect,12,CAA
51 Perfect,12,CAC
65 Perfect,12,CAG
44 Perfect,12,CAT
52 Perfect,12,CCA
428 Perfect,12,CCC
3 Perfect,12,CCG
84 Perfect,12,CCT
2 Perfect,12,CGA
7 Perfect,12,CGC
5 Perfect,12,CGG
9 Perfect,12,CTA
139 Perfect,12,CTC
94 Perfect,12,CTG
51 Perfect,12,CTT
72 Perfect,12,GAA
7 Perfect,12,GAC
141 Perfect,12,GAG
13 Perfect,12,GAT
17 Perfect,12,GCA
16 Perfect,12,GCC
6 Perfect,12,GCG
33 Perfect,12,GCT
100 Perfect,12,GGA
11 Perfect,12,GGC
465 Perfect,12,GGG
41 Perfect,12,GGT
3 Perfect,12,GTA
2 Perfect,12,GTC
45 Perfect,12,GTG
51 Perfect,12,GTT
61 Perfect,12,TAA
3 Perfect,12,TAC
7 Perfect,12,TAG
37 Perfect,12,TAT
36 Perfect,12,TCA
93 Perfect,12,TCC
1 Perfect,12,TCG
31 Perfect,12,TCT
28 Perfect,12,TGA
17 Perfect,12,TGC
51 Perfect,12,TGG
19 Perfect,12,TGT
90 Perfect,12,TTA
60 Perfect,12,TTC
155 Perfect,12,TTG
1554 Perfect,12,TTT
1 Perfect,136,AGA
1 Perfect,137,AAG
1189 Perfect,13,AAA
49 Perfect,13,AAC
20 Perfect,13,AAG
35 Perfect,13,AAT
53 Perfect,13,ACA
43 Perfect,13,ACC
4 Perfect,13,ACG
1 Perfect,13,ACT
27 Perfect,13,AGA
25 Perfect,13,AGC
102 Perfect,13,AGG
6 Perfect,13,AGT
41 Perfect,13,ATA
13 Perfect,13,ATC
18 Perfect,13,ATG
42 Perfect,13,ATT
14 Perfect,13,CAA
45 Perfect,13,CAC
25 Perfect,13,CAG
18 Perfect,13,CAT
30 Perfect,13,CCA
248 Perfect,13,CCC
8 Perfect,13,CCG
79 Perfect,13,CCT
5 Perfect,13,CGC
3 Perfect,13,CGG
1 Perfect,13,CGT
4 Perfect,13,CTA
45 Perfect,13,CTC
19 Perfect,13,CTG
39 Perfect,13,CTT
35 Perfect,13,GAA
1 Perfect,13,GAC
72 Perfect,13,GAG
18 Perfect,13,GAT
13 Perfect,13,GCA
1 Perfect,13,GCC
3 Perfect,13,GCG
19 Perfect,13,GCT
40 Perfect,13,GGA
4 Perfect,13,GGC
283 Perfect,13,GGG
51 Perfect,13,GGT
6 Perfect,13,GTA
30 Perfect,13,GTG
19 Perfect,13,GTT
39 Perfect,13,TAA
4 Perfect,13,TAC
11 Perfect,13,TAG
44 Perfect,13,TAT
26 Perfect,13,TCA
113 Perfect,13,TCC
1 Perfect,13,TCG
38 Perfect,13,TCT
18 Perfect,13,TGA
26 Perfect,13,TGC
48 Perfect,13,TGG
57 Perfect,13,TGT
40 Perfect,13,TTA
26 Perfect,13,TTC
41 Perfect,13,TTG
1338 Perfect,13,TTT
1 Perfect,140,AAG
952 Perfect,14,AAA
363 Perfect,14,AAC
63 Perfect,14,AAG
90 Perfect,14,AAT
6 Perfect,14,ACA
17 Perfect,14,ACC
23 Perfect,14,AGA
22 Perfect,14,AGC
101 Perfect,14,AGG
3 Perfect,14,AGT
11 Perfect,14,ATA
12 Perfect,14,ATC
17 Perfect,14,ATG
15 Perfect,14,ATT
32 Perfect,14,CAA
40 Perfect,14,CAC
33 Perfect,14,CAG
23 Perfect,14,CAT
37 Perfect,14,CCA
157 Perfect,14,CCC
6 Perfect,14,CCG
40 Perfect,14,CCT
1 Perfect,14,CGC
1 Perfect,14,CGG
2 Perfect,14,CTA
74 Perfect,14,CTC
15 Perfect,14,CTG
24 Perfect,14,CTT
35 Perfect,14,GAA
4 Perfect,14,GAC
140 Perfect,14,GAG
17 Perfect,14,GAT
8 Perfect,14,GCA
6 Perfect,14,GCC
7 Perfect,14,GCG
7 Perfect,14,GCT
41 Perfect,14,GGA
1 Perfect,14,GGC
166 Perfect,14,GGG
27 Perfect,14,GGT
1 Perfect,14,GTA
2 Perfect,14,GTC
13 Perfect,14,GTG
8 Perfect,14,GTT
20 Perfect,14,TAA
4 Perfect,14,TAC
5 Perfect,14,TAG
26 Perfect,14,TAT
9 Perfect,14,TCA
121 Perfect,14,TCC
3 Perfect,14,TCG
21 Perfect,14,TCT
28 Perfect,14,TGA
34 Perfect,14,TGC
47 Perfect,14,TGG
20 Perfect,14,TGT
83 Perfect,14,TTA
59 Perfect,14,TTC
334 Perfect,14,TTG
950 Perfect,14,TTT
800 Perfect,15,AAA
23 Perfect,15,AAC
25 Perfect,15,AAG
37 Perfect,15,AAT
3 Perfect,15,ACA
9 Perfect,15,ACC
1 Perfect,15,ACT
8 Perfect,15,AGA
9 Perfect,15,AGC
38 Perfect,15,AGG
2 Perfect,15,AGT
10 Perfect,15,ATA
6 Perfect,15,ATC
12 Perfect,15,ATG
24 Perfect,15,ATT
79 Perfect,15,CAA
16 Perfect,15,CAC
9 Perfect,15,CAG
10 Perfect,15,CAT
25 Perfect,15,CCA
107 Perfect,15,CCC
19 Perfect,15,CCT
3 Perfect,15,CGA
1 Perfect,15,CGC
1 Perfect,15,CGG
52 Perfect,15,CTC
8 Perfect,15,CTG
27 Perfect,15,CTT
14 Perfect,15,GAA
4 Perfect,15,GAC
52 Perfect,15,GAG
7 Perfect,15,GAT
8 Perfect,15,GCA
3 Perfect,15,GCC
3 Perfect,15,GCG
8 Perfect,15,GCT
29 Perfect,15,GGA
4 Perfect,15,GGC
108 Perfect,15,GGG
8 Perfect,15,GGT
1 Perfect,15,GTC
7 Perfect,15,GTG
25 Perfect,15,GTT
32 Perfect,15,TAA
4 Perfect,15,TAC
2 Perfect,15,TAG
14 Perfect,15,TAT
8 Perfect,15,TCA
25 Perfect,15,TCC
11 Perfect,15,TCT
9 Perfect,15,TGA
4 Perfect,15,TGC
18 Perfect,15,TGG
10 Perfect,15,TGT
40 Perfect,15,TTA
20 Perfect,15,TTC
69 Perfect,15,TTG
812 Perfect,15,TTT
595 Perfect,16,AAA
38 Perfect,16,AAC
12 Perfect,16,AAG
11 Perfect,16,AAT
24 Perfect,16,ACA
17 Perfect,16,ACC
1 Perfect,16,ACG
2 Perfect,16,ACT
7 Perfect,16,AGA
10 Perfect,16,AGC
53 Perfect,16,AGG
3 Perfect,16,AGT
18 Perfect,16,ATA
10 Perfect,16,ATC
7 Perfect,16,ATG
20 Perfect,16,ATT
4 Perfect,16,CAA
12 Perfect,16,CAC
10 Perfect,16,CAG
7 Perfect,16,CAT
13 Perfect,16,CCA
75 Perfect,16,CCC
2 Perfect,16,CCG
35 Perfect,16,CCT
2 Perfect,16,CGG
14 Perfect,16,CTC
5 Perfect,16,CTG
14 Perfect,16,CTT
10 Perfect,16,GAA
1 Perfect,16,GAC
28 Perfect,16,GAG
6 Perfect,16,GAT
4 Perfect,16,GCA
2 Perfect,16,GCG
10 Perfect,16,GCT
14 Perfect,16,GGA
1 Perfect,16,GGC
43 Perfect,16,GGG
10 Perfect,16,GGT
1 Perfect,16,GTA
10 Perfect,16,GTG
6 Perfect,16,GTT
18 Perfect,16,TAA
2 Perfect,16,TAC
1 Perfect,16,TAG
10 Perfect,16,TAT
6 Perfect,16,TCA
34 Perfect,16,TCC
16 Perfect,16,TCT
8 Perfect,16,TGA
7 Perfect,16,TGC
17 Perfect,16,TGG
27 Perfect,16,TGT
14 Perfect,16,TTA
10 Perfect,16,TTC
20 Perfect,16,TTG
547 Perfect,16,TTT
1 Perfect,173,AAG
1 Perfect,177,GAA
401 Perfect,17,AAA
198 Perfect,17,AAC
29 Perfect,17,AAG
34 Perfect,17,AAT
1 Perfect,17,ACA
11 Perfect,17,ACC
1 Perfect,17,ACT
12 Perfect,17,AGA
3 Perfect,17,AGC
60 Perfect,17,AGG
10 Perfect,17,ATA
15 Perfect,17,ATC
7 Perfect,17,ATG
8 Perfect,17,ATT
6 Perfect,17,CAA
30 Perfect,17,CAC
13 Perfect,17,CAG
12 Perfect,17,CAT
10 Perfect,17,CCA
38 Perfect,17,CCC
5 Perfect,17,CCG
22 Perfect,17,CCT
1 Perfect,17,CTA
47 Perfect,17,CTC
7 Perfect,17,CTG
4 Perfect,17,CTT
13 Perfect,17,GAA
57 Perfect,17,GAG
4 Perfect,17,GAT
4 Perfect,17,GCA
5 Perfect,17,GCC
4 Perfect,17,GCG
2 Perfect,17,GCT
16 Perfect,17,GGA
3 Perfect,17,GGC
37 Perfect,17,GGG
10 Perfect,17,GGT
1 Perfect,17,GTA
2 Perfect,17,GTC
2 Perfect,17,GTG
2 Perfect,17,GTT
7 Perfect,17,TAA
2 Perfect,17,TAC
8 Perfect,17,TAG
9 Perfect,17,TAT
3 Perfect,17,TCA
52 Perfect,17,TCC
12 Perfect,17,TCT
15 Perfect,17,TGA
11 Perfect,17,TGC
36 Perfect,17,TGG
9 Perfect,17,TGT
44 Perfect,17,TTA
30 Perfect,17,TTC
210 Perfect,17,TTG
412 Perfect,17,TTT
283 Perfect,18,AAA
10 Perfect,18,AAC
6 Perfect,18,AAG
20 Perfect,18,AAT
5 Perfect,18,ACA
6 Perfect,18,ACC
3 Perfect,18,AGA
3 Perfect,18,AGC
12 Perfect,18,AGG
2 Perfect,18,AGT
5 Perfect,18,ATA
3 Perfect,18,ATC
4 Perfect,18,ATG
15 Perfect,18,ATT
25 Perfect,18,CAA
8 Perfect,18,CAC
5 Perfect,18,CAG
2 Perfect,18,CAT
7 Perfect,18,CCA
19 Perfect,18,CCC
1 Perfect,18,CCG
14 Perfect,18,CCT
2 Perfect,18,CGA
26 Perfect,18,CTC
4 Perfect,18,CTG
8 Perfect,18,CTT
7 Perfect,18,GAA
3 Perfect,18,GAC
29 Perfect,18,GAG
1 Perfect,18,GAT
4 Perfect,18,GCA
4 Perfect,18,GCC
1 Perfect,18,GCG
5 Perfect,18,GCT
10 Perfect,18,GGA
24 Perfect,18,GGG
3 Perfect,18,GGT
2 Perfect,18,GTA
6 Perfect,18,GTG
18 Perfect,18,GTT
16 Perfect,18,TAA
2 Perfect,18,TAC
2 Perfect,18,TAT
7 Perfect,18,TCA
10 Perfect,18,TCC
1 Perfect,18,TCG
5 Perfect,18,TCT
2 Perfect,18,TGC
11 Perfect,18,TGG
1 Perfect,18,TGT
22 Perfect,18,TTA
8 Perfect,18,TTC
33 Perfect,18,TTG
274 Perfect,18,TTT
197 Perfect,19,AAA
21 Perfect,19,AAC
8 Perfect,19,AAG
10 Perfect,19,AAT
12 Perfect,19,ACA
7 Perfect,19,ACC
2 Perfect,19,ACT
5 Perfect,19,AGA
4 Perfect,19,AGC
20 Perfect,19,AGG
8 Perfect,19,ATA
1 Perfect,19,ATC
6 Perfect,19,ATG
1 Perfect,19,ATT
5 Perfect,19,CAA
4 Perfect,19,CAC
1 Perfect,19,CAG
1 Perfect,19,CAT
4 Perfect,19,CCA
24 Perfect,19,CCC
10 Perfect,19,CCT
1 Perfect,19,CGG
12 Perfect,19,CTC
4 Perfect,19,CTT
5 Perfect,19,GAA
14 Perfect,19,GAG
4 Perfect,19,GAT
2 Perfect,19,GCA
2 Perfect,19,GCG
3 Perfect,19,GCT
11 Perfect,19,GGA
1 Perfect,19,GGC
13 Perfect,19,GGG
3 Perfect,19,GGT
8 Perfect,19,GTG
3 Perfect,19,GTT
3 Perfect,19,TAA
1 Perfect,19,TAC
1 Perfect,19,TAG
5 Perfect,19,TAT
1 Perfect,19,TCA
35 Perfect,19,TCC
2 Perfect,19,TCT
2 Perfect,19,TGA
7 Perfect,19,TGC
8 Perfect,19,TGG
19 Perfect,19,TGT
7 Perfect,19,TTA
5 Perfect,19,TTC
12 Perfect,19,TTG
213 Perfect,19,TTT
196 Perfect,20,AAA
103 Perfect,20,AAC
12 Perfect,20,AAG
17 Perfect,20,AAT
1 Perfect,20,ACC
1 Perfect,20,ACT
4 Perfect,20,AGA
4 Perfect,20,AGC
22 Perfect,20,AGG
3 Perfect,20,ATA
4 Perfect,20,ATC
7 Perfect,20,ATG
1 Perfect,20,ATT
1 Perfect,20,CAA
12 Perfect,20,CAC
6 Perfect,20,CAG
8 Perfect,20,CAT
7 Perfect,20,CCA
9 Perfect,20,CCC
3 Perfect,20,CCT
1 Perfect,20,CGC
22 Perfect,20,CTC
5 Perfect,20,CTG
5 Perfect,20,CTT
7 Perfect,20,GAA
1 Perfect,20,GAC
28 Perfect,20,GAG
1 Perfect,20,GAT
1 Perfect,20,GCG
2 Perfect,20,GCT
5 Perfect,20,GGA
11 Perfect,20,GGG
5 Perfect,20,GGT
1 Perfect,20,GTA
5 Perfect,20,GTG
1 Perfect,20,GTT
6 Perfect,20,TAA
1 Perfect,20,TAC
3 Perfect,20,TAG
2 Perfect,20,TAT
1 Perfect,20,TCA
25 Perfect,20,TCC
7 Perfect,20,TCT
9 Perfect,20,TGA
9 Perfect,20,TGC
20 Perfect,20,TGG
5 Perfect,20,TGT
14 Perfect,20,TTA
12 Perfect,20,TTC
111 Perfect,20,TTG
170 Perfect,20,TTT
182 Perfect,21,AAA
9 Perfect,21,AAC
2 Perfect,21,AAG
11 Perfect,21,AAT
2 Perfect,21,ACA
3 Perfect,21,ACC
6 Perfect,21,AGA
1 Perfect,21,AGC
7 Perfect,21,AGG
2 Perfect,21,ATA
2 Perfect,21,ATC
1 Perfect,21,ATG
4 Perfect,21,ATT
20 Perfect,21,CAA
4 Perfect,21,CAC
2 Perfect,21,CAG
1 Perfect,21,CAT
5 Perfect,21,CCA
8 Perfect,21,CCC
1 Perfect,21,CCG
6 Perfect,21,CCT
1 Perfect,21,CGG
20 Perfect,21,CTC
6 Perfect,21,CTG
9 Perfect,21,CTT
2 Perfect,21,GAA
16 Perfect,21,GAG
1 Perfect,21,GAT
2 Perfect,21,GCA
3 Perfect,21,GCC
1 Perfect,21,GCT
10 Perfect,21,GGA
1 Perfect,21,GGC
9 Perfect,21,GGG
3 Perfect,21,GGT
3 Perfect,21,GTG
5 Perfect,21,GTT
11 Perfect,21,TAA
1 Perfect,21,TAG
3 Perfect,21,TCA
6 Perfect,21,TCC
4 Perfect,21,TCT
2 Perfect,21,TGA
4 Perfect,21,TGC
1 Perfect,21,TGG
3 Perfect,21,TGT
8 Perfect,21,TTA
1 Perfect,21,TTC
17 Perfect,21,TTG
184 Perfect,21,TTT
157 Perfect,22,AAA
13 Perfect,22,AAC
2 Perfect,22,AAG
2 Perfect,22,AAT
8 Perfect,22,ACA
8 Perfect,22,ACC
1 Perfect,22,ACT
2 Perfect,22,AGA
3 Perfect,22,AGC
12 Perfect,22,AGG
3 Perfect,22,ATA
1 Perfect,22,ATC
1 Perfect,22,ATG
3 Perfect,22,ATT
3 Perfect,22,CAA
1 Perfect,22,CAC
1 Perfect,22,CAG
3 Perfect,22,CCA
6 Perfect,22,CCC
7 Perfect,22,CCT
1 Perfect,22,CGC
7 Perfect,22,CTC
1 Perfect,22,CTG
1 Perfect,22,CTT
2 Perfect,22,GAA
8 Perfect,22,GAG
1 Perfect,22,GCG
3 Perfect,22,GCT
3 Perfect,22,GGA
2 Perfect,22,GGG
2 Perfect,22,GGT
3 Perfect,22,GTG
2 Perfect,22,GTT
2 Perfect,22,TAA
3 Perfect,22,TAT
3 Perfect,22,TCA
9 Perfect,22,TCC
8 Perfect,22,TCT
1 Perfect,22,TGA
4 Perfect,22,TGC
8 Perfect,22,TGG
7 Perfect,22,TGT
1 Perfect,22,TTA
2 Perfect,22,TTC
8 Perfect,22,TTG
158 Perfect,22,TTT
159 Perfect,23,AAA
60 Perfect,23,AAC
2 Perfect,23,AAG
8 Perfect,23,AAT
1 Perfect,23,ACA
3 Perfect,23,ACC
5 Perfect,23,AGA
2 Perfect,23,AGC
24 Perfect,23,AGG
3 Perfect,23,ATA
3 Perfect,23,ATG
2 Perfect,23,ATT
3 Perfect,23,CAA
8 Perfect,23,CAC
7 Perfect,23,CAG
3 Perfect,23,CCA
6 Perfect,23,CCC
5 Perfect,23,CCT
1 Perfect,23,CGG
17 Perfect,23,CTC
1 Perfect,23,CTG
1 Perfect,23,CTT
2 Perfect,23,GAA
14 Perfect,23,GAG
3 Perfect,23,GGA
3 Perfect,23,GGT
1 Perfect,23,GTA
2 Perfect,23,GTG
3 Perfect,23,TAA
2 Perfect,23,TAC
1 Perfect,23,TAG
15 Perfect,23,TCC
1 Perfect,23,TCG
2 Perfect,23,TCT
1 Perfect,23,TGA
8 Perfect,23,TGC
6 Perfect,23,TGG
3 Perfect,23,TGT
6 Perfect,23,TTA
3 Perfect,23,TTC
57 Perfect,23,TTG
148 Perfect,23,TTT
141 Perfect,24,AAA
4 Perfect,24,AAC
5 Perfect,24,AAG
1 Perfect,24,AAT
2 Perfect,24,ACC
4 Perfect,24,AGA
2 Perfect,24,AGC
6 Perfect,24,AGG
2 Perfect,24,AGT
2 Perfect,24,ATA
1 Perfect,24,ATG
2 Perfect,24,ATT
10 Perfect,24,CAA
4 Perfect,24,CAC
1 Perfect,24,CAG
1 Perfect,24,CAT
2 Perfect,24,CCA
2 Perfect,24,CCC
3 Perfect,24,CCT
1 Perfect,24,CTA
9 Perfect,24,CTC
2 Perfect,24,CTG
1 Perfect,24,CTT
2 Perfect,24,GAA
10 Perfect,24,GAG
1 Perfect,24,GAT
4 Perfect,24,GCA
4 Perfect,24,GCT
8 Perfect,24,GGA
2 Perfect,24,GGG
4 Perfect,24,GGT
1 Perfect,24,GTG
4 Perfect,24,GTT
5 Perfect,24,TAA
1 Perfect,24,TAC
1 Perfect,24,TCA
4 Perfect,24,TCC
1 Perfect,24,TCT
6 Perfect,24,TGC
4 Perfect,24,TGG
2 Perfect,24,TGT
6 Perfect,24,TTA
1 Perfect,24,TTC
9 Perfect,24,TTG
153 Perfect,24,TTT
128 Perfect,25,AAA
3 Perfect,25,AAC
1 Perfect,25,AAG
3 Perfect,25,AAT
5 Perfect,25,ACA
1 Perfect,25,ACC
3 Perfect,25,AGA
10 Perfect,25,AGG
1 Perfect,25,AGT
5 Perfect,25,ATA
1 Perfect,25,ATC
1 Perfect,25,ATG
2 Perfect,25,ATT
2 Perfect,25,CAA
1 Perfect,25,CAC
1 Perfect,25,CAT
3 Perfect,25,CCA
2 Perfect,25,CCC
2 Perfect,25,CCG
4 Perfect,25,CCT
2 Perfect,25,CTT
3 Perfect,25,GAA
5 Perfect,25,GAG
1 Perfect,25,GCG
2 Perfect,25,GCT
1 Perfect,25,GGA
1 Perfect,25,GGG
2 Perfect,25,GGT
2 Perfect,25,GTG
1 Perfect,25,GTT
1 Perfect,25,TAA
2 Perfect,25,TAT
1 Perfect,25,TCA
13 Perfect,25,TCC
1 Perfect,25,TCT
1 Perfect,25,TGA
3 Perfect,25,TGC
6 Perfect,25,TGG
9 Perfect,25,TGT
1 Perfect,25,TTC
3 Perfect,25,TTG
147 Perfect,25,TTT
111 Perfect,26,AAA
25 Perfect,26,AAC
1 Perfect,26,AAG
3 Perfect,26,AAT
3 Perfect,26,ACC
3 Perfect,26,AGA
2 Perfect,26,AGC
18 Perfect,26,AGG
3 Perfect,26,ATA
1 Perfect,26,ATC
1 Perfect,26,ATT
3 Perfect,26,CAA
3 Perfect,26,CAC
1 Perfect,26,CAG
1 Perfect,26,CCC
8 Perfect,26,CTC
1 Perfect,26,GAA
6 Perfect,26,GAG
1 Perfect,26,GAT
3 Perfect,26,GCA
1 Perfect,26,GGA
3 Perfect,26,GGT
1 Perfect,26,GTT
3 Perfect,26,TAA
1 Perfect,26,TAC
1 Perfect,26,TAG
1 Perfect,26,TAT
4 Perfect,26,TCC
1 Perfect,26,TCT
2 Perfect,26,TGC
4 Perfect,26,TGG
4 Perfect,26,TGT
7 Perfect,26,TTA
1 Perfect,26,TTC
28 Perfect,26,TTG
108 Perfect,26,TTT
94 Perfect,27,AAA
9 Perfect,27,AAC
2 Perfect,27,AAG
2 Perfect,27,AAT
2 Perfect,27,ACA
1 Perfect,27,ACC
1 Perfect,27,ACT
2 Perfect,27,AGG
2 Perfect,27,ATA
2 Perfect,27,ATC
1 Perfect,27,ATG
5 Perfect,27,ATT
3 Perfect,27,CAA
4 Perfect,27,CAC
1 Perfect,27,CAT
1 Perfect,27,CCA
1 Perfect,27,CCC
1 Perfect,27,CCG
6 Perfect,27,CTC
3 Perfect,27,CTG
1 Perfect,27,CTT
5 Perfect,27,GAG
1 Perfect,27,GAT
1 Perfect,27,GCA
2 Perfect,27,GCT
3 Perfect,27,GGA
1 Perfect,27,GGC
1 Perfect,27,GGT
1 Perfect,27,GTC
2 Perfect,27,GTG
4 Perfect,27,GTT
2 Perfect,27,TAA
1 Perfect,27,TAT
1 Perfect,27,TCC
2 Perfect,27,TCT
1 Perfect,27,TGA
2 Perfect,27,TGG
1 Perfect,27,TGT
5 Perfect,27,TTA
1 Perfect,27,TTC
6 Perfect,27,TTG
99 Perfect,27,TTT
76 Perfect,28,AAA
3 Perfect,28,AAC
2 Perfect,28,AAT
4 Perfect,28,ACA
3 Perfect,28,ACC
1 Perfect,28,AGA
9 Perfect,28,AGG
8 Perfect,28,ATA
2 Perfect,28,ATG
5 Perfect,28,ATT
2 Perfect,28,CAA
1 Perfect,28,CAC
2 Perfect,28,CAG
1 Perfect,28,CCA
6 Perfect,28,CCT
1 Perfect,28,CTC
1 Perfect,28,CTT
5 Perfect,28,GAA
2 Perfect,28,GAG
3 Perfect,28,GAT
1 Perfect,28,GGA
1 Perfect,28,GGG
2 Perfect,28,GGT
1 Perfect,28,GTG
2 Perfect,28,GTT
3 Perfect,28,TAA
1 Perfect,28,TAG
1 Perfect,28,TAT
3 Perfect,28,TCA
10 Perfect,28,TCC
2 Perfect,28,TCT
2 Perfect,28,TGC
1 Perfect,28,TGG
8 Perfect,28,TGT
3 Perfect,28,TTA
2 Perfect,28,TTC
6 Perfect,28,TTG
86 Perfect,28,TTT
66 Perfect,29,AAA
15 Perfect,29,AAC
3 Perfect,29,AAT
1 Perfect,29,ACC
1 Perfect,29,ACT
8 Perfect,29,AGG
2 Perfect,29,ATA
1 Perfect,29,ATG
1 Perfect,29,ATT
5 Perfect,29,CAA
4 Perfect,29,CAC
2 Perfect,29,CCA
1 Perfect,29,CCT
1 Perfect,29,CTA
4 Perfect,29,CTC
2 Perfect,29,CTT
5 Perfect,29,GAA
5 Perfect,29,GAG
2 Perfect,29,GAT
1 Perfect,29,GGG
2 Perfect,29,GGT
1 Perfect,29,GTG
1 Perfect,29,TAA
2 Perfect,29,TAG
2 Perfect,29,TAT
6 Perfect,29,TCC
1 Perfect,29,TCT
1 Perfect,29,TGA
2 Perfect,29,TGC
5 Perfect,29,TGG
1 Perfect,29,TGT
4 Perfect,29,TTA
25 Perfect,29,TTG
78 Perfect,29,TTT
60 Perfect,30,AAA
2 Perfect,30,AAC
1 Perfect,30,AAG
2 Perfect,30,AAT
2 Perfect,30,AGA
1 Perfect,30,AGC
2 Perfect,30,AGG
2 Perfect,30,ATT
4 Perfect,30,CAA
1 Perfect,30,CAC
2 Perfect,30,CAG
1 Perfect,30,CCA
2 Perfect,30,CCT
2 Perfect,30,CTA
4 Perfect,30,CTC
3 Perfect,30,CTT
1 Perfect,30,GAA
4 Perfect,30,GAG
1 Perfect,30,GAT
1 Perfect,30,GCC
2 Perfect,30,GCT
2 Perfect,30,GGA
1 Perfect,30,GGT
2 Perfect,30,GTG
3 Perfect,30,GTT
7 Perfect,30,TAA
1 Perfect,30,TAG
2 Perfect,30,TCC
1 Perfect,30,TCT
1 Perfect,30,TGA
1 Perfect,30,TGC
1 Perfect,30,TGT
4 Perfect,30,TTA
2 Perfect,30,TTG
52 Perfect,30,TTT
31 Perfect,31,AAA
3 Perfect,31,AAC
2 Perfect,31,AAT
2 Perfect,31,ACA
3 Perfect,31,ACC
1 Perfect,31,AGA
1 Perfect,31,AGC
2 Perfect,31,AGG
3 Perfect,31,ATA
2 Perfect,31,ATT
1 Perfect,31,CCA
4 Perfect,31,CCT
1 Perfect,31,CTG
2 Perfect,31,GAA
4 Perfect,31,GAG
2 Perfect,31,GAT
1 Perfect,31,GCC
2 Perfect,31,GGA
1 Perfect,31,GGG
1 Perfect,31,GTG
5 Perfect,31,TAA
5 Perfect,31,TAT
1 Perfect,31,TCA
8 Perfect,31,TCC
3 Perfect,31,TGC
1 Perfect,31,TGG
3 Perfect,31,TGT
1 Perfect,31,TTA
2 Perfect,31,TTC
1 Perfect,31,TTG
33 Perfect,31,TTT
24 Perfect,32,AAA
8 Perfect,32,AAC
3 Perfect,32,AAT
2 Perfect,32,ACA
1 Perfect,32,ACC
3 Perfect,32,AGA
1 Perfect,32,AGC
9 Perfect,32,AGG
1 Perfect,32,ATT
1 Perfect,32,CAA
1 Perfect,32,CAC
1 Perfect,32,CAG
2 Perfect,32,CCA
1 Perfect,32,CCT
4 Perfect,32,CTC
1 Perfect,32,CTG
3 Perfect,32,CTT
1 Perfect,32,GAA
4 Perfect,32,GAG
2 Perfect,32,GAT
1 Perfect,32,GCT
1 Perfect,32,GGA
2 Perfect,32,GTG
2 Perfect,32,TAA
2 Perfect,32,TAC
1 Perfect,32,TAG
5 Perfect,32,TCC
2 Perfect,32,TCT
1 Perfect,32,TGC
2 Perfect,32,TGG
2 Perfect,32,TGT
3 Perfect,32,TTA
1 Perfect,32,TTC
11 Perfect,32,TTG
27 Perfect,32,TTT
19 Perfect,33,AAA
1 Perfect,33,AAC
1 Perfect,33,AAG
4 Perfect,33,AAT
1 Perfect,33,ACA
5 Perfect,33,AGA
3 Perfect,33,AGG
2 Perfect,33,ATA
1 Perfect,33,ATG
3 Perfect,33,ATT
2 Perfect,33,CAA
1 Perfect,33,CAC
1 Perfect,33,CAG
1 Perfect,33,CCT
9 Perfect,33,CTC
1 Perfect,33,CTT
4 Perfect,33,GAA
5 Perfect,33,GAG
3 Perfect,33,GAT
1 Perfect,33,GGG
1 Perfect,33,GGT
1 Perfect,33,GTG
1 Perfect,33,GTT
6 Perfect,33,TAA
1 Perfect,33,TAT
2 Perfect,33,TCT
1 Perfect,33,TGA
2 Perfect,33,TGC
2 Perfect,33,TTA
1 Perfect,33,TTC
2 Perfect,33,TTG
17 Perfect,33,TTT
14 Perfect,34,AAA
5 Perfect,34,AAC
2 Perfect,34,AAG
4 Perfect,34,AAT
1 Perfect,34,ACC
2 Perfect,34,ACT
2 Perfect,34,AGA
2 Perfect,34,AGG
1 Perfect,34,ATA
1 Perfect,34,ATC
2 Perfect,34,ATG
4 Perfect,34,ATT
1 Perfect,34,CAA
1 Perfect,34,CAC
1 Perfect,34,CAT
4 Perfect,34,CCT
3 Perfect,34,CTC
2 Perfect,34,CTT
2 Perfect,34,GAA
1 Perfect,34,GGT
1 Perfect,34,GTG
2 Perfect,34,TAA
1 Perfect,34,TAC
1 Perfect,34,TAG
1 Perfect,34,TAT
6 Perfect,34,TCC
1 Perfect,34,TGA
2 Perfect,34,TGC
3 Perfect,34,TGG
2 Perfect,34,TGT
4 Perfect,34,TTA
2 Perfect,34,TTC
4 Perfect,34,TTG
17 Perfect,34,TTT
17 Perfect,35,AAA
6 Perfect,35,AAC
5 Perfect,35,AAT
1 Perfect,35,ACT
1 Perfect,35,AGC
6 Perfect,35,AGG
1 Perfect,35,AGT
1 Perfect,35,ATA
1 Perfect,35,ATT
1 Perfect,35,CAC
2 Perfect,35,CAG
1 Perfect,35,CCA
4 Perfect,35,CTC
1 Perfect,35,CTT
1 Perfect,35,GAA
3 Perfect,35,GAG
1 Perfect,35,GGA
1 Perfect,35,GTG
1 Perfect,35,GTT
3 Perfect,35,TAA
1 Perfect,35,TAC
1 Perfect,35,TAT
7 Perfect,35,TCC
1 Perfect,35,TCT
1 Perfect,35,TGC
1 Perfect,35,TGG
6 Perfect,35,TTA
2 Perfect,35,TTC
10 Perfect,35,TTG
18 Perfect,35,TTT
13 Perfect,36,AAA
2 Perfect,36,AAC
1 Perfect,36,AAG
5 Perfect,36,AAT
1 Perfect,36,AGA
2 Perfect,36,AGG
1 Perfect,36,ATC
4 Perfect,36,ATT
3 Perfect,36,CAA
1 Perfect,36,CCA
1 Perfect,36,CCC
1 Perfect,36,CCT
3 Perfect,36,CTC
1 Perfect,36,CTT
1 Perfect,36,GAA
3 Perfect,36,GAG
1 Perfect,36,GCA
1 Perfect,36,GGA
1 Perfect,36,GGC
2 Perfect,36,GTG
1 Perfect,36,GTT
6 Perfect,36,TAA
1 Perfect,36,TAT
4 Perfect,36,TCC
2 Perfect,36,TCT
1 Perfect,36,TGC
2 Perfect,36,TGT
4 Perfect,36,TTA
2 Perfect,36,TTG
11 Perfect,36,TTT
17 Perfect,37,AAA
1 Perfect,37,AAC
1 Perfect,37,AAG
2 Perfect,37,AAT
2 Perfect,37,ACA
1 Perfect,37,ACC
2 Perfect,37,AGA
1 Perfect,37,AGC
4 Perfect,37,AGG
1 Perfect,37,AGT
3 Perfect,37,ATA
1 Perfect,37,ATT
1 Perfect,37,CAA
2 Perfect,37,CAC
1 Perfect,37,CCA
1 Perfect,37,CCT
2 Perfect,37,CTA
1 Perfect,37,CTC
4 Perfect,37,CTT
4 Perfect,37,GAG
2 Perfect,37,GGA
1 Perfect,37,GTG
1 Perfect,37,GTT
3 Perfect,37,TAA
2 Perfect,37,TAT
7 Perfect,37,TCC
1 Perfect,37,TGA
1 Perfect,37,TGG
1 Perfect,37,TGT
3 Perfect,37,TTA
2 Perfect,37,TTG
19 Perfect,37,TTT
16 Perfect,38,AAA
5 Perfect,38,AAC
1 Perfect,38,AAG
6 Perfect,38,AAT
1 Perfect,38,ACA
3 Perfect,38,AGA
1 Perfect,38,AGC
3 Perfect,38,AGG
3 Perfect,38,ATA
2 Perfect,38,ATT
1 Perfect,38,CAA
1 Perfect,38,CAC
2 Perfect,38,CAG
2 Perfect,38,CCT
3 Perfect,38,CTA
4 Perfect,38,CTC
1 Perfect,38,CTT
4 Perfect,38,GAG
1 Perfect,38,GAT
1 Perfect,38,GCT
1 Perfect,38,GGA
1 Perfect,38,GGT
2 Perfect,38,TAA
2 Perfect,38,TAG
2 Perfect,38,TAT
2 Perfect,38,TCC
1 Perfect,38,TCT
1 Perfect,38,TGT
2 Perfect,38,TTA
6 Perfect,38,TTG
12 Perfect,38,TTT
14 Perfect,39,AAA
2 Perfect,39,AAC
1 Perfect,39,AAG
2 Perfect,39,AAT
1 Perfect,39,AGA
2 Perfect,39,AGG
1 Perfect,39,ATA
4 Perfect,39,ATT
1 Perfect,39,CAC
1 Perfect,39,CCT
1 Perfect,39,CTG
1 Perfect,39,GAC
3 Perfect,39,GAG
3 Perfect,39,GGA
1 Perfect,39,GGT
2 Perfect,39,GTT
2 Perfect,39,TAA
1 Perfect,39,TAT
3 Perfect,39,TCC
1 Perfect,39,TCT
1 Perfect,39,TGA
1 Perfect,39,TGG
4 Perfect,39,TTA
1 Perfect,39,TTG
18 Perfect,39,TTT
13 Perfect,40,AAA
3 Perfect,40,AAC
1 Perfect,40,AAG
2 Perfect,40,AAT
1 Perfect,40,AGA
3 Perfect,40,AGG
6 Perfect,40,ATA
2 Perfect,40,ATT
1 Perfect,40,CCA
2 Perfect,40,CCT
1 Perfect,40,CTT
1 Perfect,40,GAG
1 Perfect,40,GCG
2 Perfect,40,GGA
1 Perfect,40,GGT
1 Perfect,40,GTT
2 Perfect,40,TAA
1 Perfect,40,TAC
4 Perfect,40,TAT
5 Perfect,40,TCC
1 Perfect,40,TCG
2 Perfect,40,TCT
1 Perfect,40,TGC
1 Perfect,40,TGG
2 Perfect,40,TGT
5 Perfect,40,TTA
3 Perfect,40,TTT
13 Perfect,41,AAA
7 Perfect,41,AAC
1 Perfect,41,AAT
1 Perfect,41,ACC
4 Perfect,41,AGA
9 Perfect,41,AGG
1 Perfect,41,ATA
1 Perfect,41,ATT
1 Perfect,41,CAA
3 Perfect,41,CAC
1 Perfect,41,CCA
2 Perfect,41,CCT
5 Perfect,41,CTC
1 Perfect,41,CTG
3 Perfect,41,GAG
1 Perfect,41,GAT
2 Perfect,41,TAA
1 Perfect,41,TCC
2 Perfect,41,TGT
5 Perfect,41,TTA
9 Perfect,41,TTG
8 Perfect,41,TTT
6 Perfect,42,AAA
2 Perfect,42,AAC
3 Perfect,42,AAG
6 Perfect,42,AAT
1 Perfect,42,ACA
1 Perfect,42,AGA
2 Perfect,42,AGG
2 Perfect,42,ATA
1 Perfect,42,ATC
2 Perfect,42,ATT
1 Perfect,42,CCA
1 Perfect,42,CCT
8 Perfect,42,CTC
2 Perfect,42,CTT
1 Perfect,42,GAA
2 Perfect,42,GAG
1 Perfect,42,GCA
7 Perfect,42,TAA
3 Perfect,42,TAT
1 Perfect,42,TCT
1 Perfect,42,TGT
6 Perfect,42,TTA
1 Perfect,42,TTG
11 Perfect,42,TTT
11 Perfect,43,AAA
3 Perfect,43,AAC
3 Perfect,43,AAG
6 Perfect,43,AAT
1 Perfect,43,ACA
1 Perfect,43,ACC
1 Perfect,43,ACT
1 Perfect,43,AGA
3 Perfect,43,AGG
1 Perfect,43,AGT
7 Perfect,43,ATA
3 Perfect,43,ATT
1 Perfect,43,CAG
1 Perfect,43,CCT
3 Perfect,43,CTC
1 Perfect,43,CTG
1 Perfect,43,CTT
1 Perfect,43,GAA
2 Perfect,43,GAG
1 Perfect,43,GCT
2 Perfect,43,GGA
2 Perfect,43,TAT
3 Perfect,43,TCC
4 Perfect,43,TCT
2 Perfect,43,TGG
1 Perfect,43,TGT
3 Perfect,43,TTA
1 Perfect,43,TTC
4 Perfect,43,TTT
3 Perfect,44,AAA
5 Perfect,44,AAC
1 Perfect,44,AAG
4 Perfect,44,AAT
1 Perfect,44,AGA
6 Perfect,44,AGG
4 Perfect,44,ATA
3 Perfect,44,ATT
1 Perfect,44,CAA
2 Perfect,44,CCT
5 Perfect,44,CTC
2 Perfect,44,CTT
3 Perfect,44,GAA
2 Perfect,44,GAG
1 Perfect,44,GCC
1 Perfect,44,GTT
1 Perfect,44,TAA
2 Perfect,44,TAC
1 Perfect,44,TAG
3 Perfect,44,TAT
2 Perfect,44,TCC
1 Perfect,44,TCT
1 Perfect,44,TGC
1 Perfect,44,TGG
1 Perfect,44,TGT
2 Perfect,44,TTA
1 Perfect,44,TTC
4 Perfect,44,TTG
3 Perfect,44,TTT
2 Perfect,45,AAA
4 Perfect,45,AAG
1 Perfect,45,AGA
1 Perfect,45,AGG
2 Perfect,45,ATA
5 Perfect,45,ATT
3 Perfect,45,CAA
2 Perfect,45,CAC
2 Perfect,45,CCA
2 Perfect,45,CCT
4 Perfect,45,CTC
1 Perfect,45,GAA
4 Perfect,45,GAG
1 Perfect,45,GGT
1 Perfect,45,GTA
1 Perfect,45,GTT
7 Perfect,45,TAA
1 Perfect,45,TAT
1 Perfect,45,TCC
1 Perfect,45,TCT
1 Perfect,45,TTA
1 Perfect,45,TTC
5 Perfect,45,TTT
3 Perfect,46,AAA
1 Perfect,46,AAG
5 Perfect,46,AAT
2 Perfect,46,ACA
3 Perfect,46,AGA
4 Perfect,46,AGG
1 Perfect,46,ATA
3 Perfect,46,ATT
1 Perfect,46,CCT
1 Perfect,46,CTT
2 Perfect,46,GAA
2 Perfect,46,GAG
1 Perfect,46,GCA
1 Perfect,46,GTA
1 Perfect,46,TAC
1 Perfect,46,TAT
1 Perfect,46,TCA
2 Perfect,46,TCC
1 Perfect,46,TCT
1 Perfect,46,TGG
1 Perfect,46,TGT
2 Perfect,46,TTA
1 Perfect,46,TTG
3 Perfect,46,TTT
5 Perfect,47,AAA
2 Perfect,47,AAC
1 Perfect,47,AAG
1 Perfect,47,AAT
1 Perfect,47,ACT
1 Perfect,47,AGA
7 Perfect,47,AGG
1 Perfect,47,ATA
1 Perfect,47,ATT
1 Perfect,47,CAA
2 Perfect,47,CAC
1 Perfect,47,CCT
6 Perfect,47,CTC
2 Perfect,47,GAA
5 Perfect,47,GAG
1 Perfect,47,GCA
1 Perfect,47,TAA
2 Perfect,47,TAC
2 Perfect,47,TCC
3 Perfect,47,TCT
1 Perfect,47,TGA
3 Perfect,47,TGG
3 Perfect,47,TTA
1 Perfect,47,TTG
1 Perfect,47,TTT
1 Perfect,48,AAA
1 Perfect,48,AAC
1 Perfect,48,AAG
3 Perfect,48,AAT
1 Perfect,48,ACC
1 Perfect,48,ACT
2 Perfect,48,AGA
2 Perfect,48,ATA
7 Perfect,48,ATT
2 Perfect,48,CCT
7 Perfect,48,CTC
2 Perfect,48,GAA
5 Perfect,48,GAG
1 Perfect,48,GCT
1 Perfect,48,GGT
1 Perfect,48,GTA
1 Perfect,48,GTG
7 Perfect,48,TAA
1 Perfect,48,TAC
1 Perfect,48,TCC
1 Perfect,48,TCT
1 Perfect,48,TGC
1 Perfect,48,TGG
4 Perfect,48,TTA
3 Perfect,48,TTT
3 Perfect,49,AAA
2 Perfect,49,AAC
1 Perfect,49,AAG
2 Perfect,49,AAT
2 Perfect,49,ACC
1 Perfect,49,ACT
2 Perfect,49,AGA
5 Perfect,49,AGG
1 Perfect,49,CAC
1 Perfect,49,CCA
1 Perfect,49,CTC
1 Perfect,49,GAA
4 Perfect,49,GGA
1 Perfect,49,GTG
1 Perfect,49,TAA
1 Perfect,49,TAC
3 Perfect,49,TAT
1 Perfect,49,TCC
3 Perfect,49,TTA
2 Perfect,49,TTC
1 Perfect,49,TTT
1 Perfect,50,AAA
1 Perfect,50,AAC
1 Perfect,50,AAG
5 Perfect,50,AAT
1 Perfect,50,ACC
6 Perfect,50,AGG
1 Perfect,50,ATA
1 Perfect,50,ATT
1 Perfect,50,CAC
1 Perfect,50,CCA
1 Perfect,50,CCT
5 Perfect,50,CTC
1 Perfect,50,CTT
2 Perfect,50,GAA
1 Perfect,50,GAG
1 Perfect,50,GGA
1 Perfect,50,TAG
1 Perfect,50,TAT
5 Perfect,50,TCC
2 Perfect,50,TCT
1 Perfect,50,TGT
4 Perfect,50,TTA
2 Perfect,50,TTC
1 Perfect,50,TTG
3 Perfect,50,TTT
2 Perfect,51,AAA
2 Perfect,51,AAG
2 Perfect,51,AAT
1 Perfect,51,AGA
1 Perfect,51,ATA
1 Perfect,51,ATG
4 Perfect,51,ATT
1 Perfect,51,CAA
1 Perfect,51,CAC
1 Perfect,51,CCT
1 Perfect,51,CTA
1 Perfect,51,CTC
3 Perfect,51,GAA
6 Perfect,51,GAG
2 Perfect,51,GCA
1 Perfect,51,GCT
1 Perfect,51,GTG
1 Perfect,51,TAA
2 Perfect,51,TCT
1 Perfect,51,TTA
1 Perfect,51,TTC
1 Perfect,51,TTG
2 Perfect,51,TTT
2 Perfect,52,AAT
1 Perfect,52,ACA
3 Perfect,52,AGA
1 Perfect,52,AGG
1 Perfect,52,ATT
1 Perfect,52,CAA
2 Perfect,52,CTC
1 Perfect,52,CTG
1 Perfect,52,CTT
1 Perfect,52,GAA
1 Perfect,52,GCT
4 Perfect,52,GGA
1 Perfect,52,GTG
1 Perfect,52,TAC
1 Perfect,52,TAT
3 Perfect,52,TCC
2 Perfect,52,TCT
1 Perfect,52,TGA
1 Perfect,52,TTA
2 Perfect,52,TTC
2 Perfect,53,AAA
1 Perfect,53,AAG
2 Perfect,53,AAT
2 Perfect,53,AGA
1 Perfect,53,AGG
1 Perfect,53,ATA
1 Perfect,53,ATT
1 Perfect,53,CAC
1 Perfect,53,CCT
5 Perfect,53,CTC
1 Perfect,53,CTT
1 Perfect,53,GAA
1 Perfect,53,GCT
1 Perfect,53,TAG
1 Perfect,53,TCC
2 Perfect,53,TCT
5 Perfect,53,TTA
2 Perfect,53,TTC
1 Perfect,53,TTG
1 Perfect,53,TTT
1 Perfect,54,AAT
2 Perfect,54,ACC
1 Perfect,54,AGA
1 Perfect,54,ATA
1 Perfect,54,CAC
1 Perfect,54,CCT
7 Perfect,54,CTC
1 Perfect,54,CTT
3 Perfect,54,GAG
1 Perfect,54,GGA
1 Perfect,54,TAC
1 Perfect,54,TCC
1 Perfect,54,TTA
1 Perfect,55,AAA
1 Perfect,55,AAG
2 Perfect,55,AGA
1 Perfect,55,AGG
1 Perfect,55,CAA
1 Perfect,55,CTA
1 Perfect,55,CTC
2 Perfect,55,CTT
1 Perfect,55,GAA
1 Perfect,55,GAG
1 Perfect,55,TAA
3 Perfect,55,TCC
1 Perfect,55,TGC
3 Perfect,55,TTC
1 Perfect,55,TTT
3 Perfect,56,AAG
2 Perfect,56,AAT
4 Perfect,56,AGA
3 Perfect,56,AGG
1 Perfect,56,CAC
7 Perfect,56,CTC
1 Perfect,56,CTT
4 Perfect,56,GAA
3 Perfect,56,GAG
1 Perfect,56,TAC
1 Perfect,56,TAG
2 Perfect,56,TCC
1 Perfect,56,TCT
2 Perfect,56,TTA
3 Perfect,56,TTC
1 Perfect,57,AAA
1 Perfect,57,AAG
1 Perfect,57,AAT
5 Perfect,57,AGA
1 Perfect,57,CCA
2 Perfect,57,GAA
1 Perfect,57,GAG
1 Perfect,57,TAA
1 Perfect,57,TCC
2 Perfect,57,TCT
1 Perfect,57,TGG
1 Perfect,57,TTA
1 Perfect,57,TTC
1 Perfect,58,AAG
3 Perfect,58,AGA
4 Perfect,58,AGG
1 Perfect,58,AGT
1 Perfect,58,CCT
1 Perfect,58,CTT
1 Perfect,58,GAA
1 Perfect,58,GGA
1 Perfect,58,TAG
2 Perfect,58,TAT
1 Perfect,58,TCC
3 Perfect,58,TTC
3 Perfect,59,AAG
2 Perfect,59,AGA
3 Perfect,59,AGG
1 Perfect,59,CAC
1 Perfect,59,CAG
2 Perfect,59,CTC
2 Perfect,59,GAG
1 Perfect,59,GGA
1 Perfect,59,TAA
4 Perfect,59,TCC
1 Perfect,60,AGA
1 Perfect,60,CCT
4 Perfect,60,CTC
1 Perfect,60,CTT
2 Perfect,60,GAA
1 Perfect,60,GAG
2 Perfect,60,GGA
4 Perfect,60,TCT
1 Perfect,60,TTC
2 Perfect,61,AAG
1 Perfect,61,ACC
1 Perfect,61,ACT
3 Perfect,61,AGA
1 Perfect,61,CCA
1 Perfect,61,CCT
1 Perfect,61,CTT
3 Perfect,61,GAA
2 Perfect,61,GAG
2 Perfect,61,GGA
1 Perfect,61,TAG
1 Perfect,61,TCC
2 Perfect,61,TCT
2 Perfect,61,TTC
2 Perfect,62,AAG
2 Perfect,62,AGG
1 Perfect,62,CAC
1 Perfect,62,CTA
3 Perfect,62,CTC
1 Perfect,62,CTT
2 Perfect,62,GAA
1 Perfect,62,GAG
1 Perfect,62,GGA
1 Perfect,62,TAG
2 Perfect,62,TCC
1 Perfect,62,TCT
2 Perfect,62,TTC
3 Perfect,63,AGA
1 Perfect,63,AGG
1 Perfect,63,CTA
2 Perfect,63,CTC
1 Perfect,63,CTT
1 Perfect,63,GAG
1 Perfect,63,GGA
2 Perfect,63,TCT
1 Perfect,63,TTC
1 Perfect,64,AAG
2 Perfect,64,AGA
2 Perfect,64,AGG
3 Perfect,64,GAA
2 Perfect,64,GGA
1 Perfect,64,TCC
1 Perfect,64,TGG
2 Perfect,64,TTC
2 Perfect,65,AGA
4 Perfect,65,AGG
1 Perfect,65,CAC
1 Perfect,65,CTC
1 Perfect,65,CTG
5 Perfect,65,CTT
2 Perfect,65,GAA
2 Perfect,65,GAG
2 Perfect,65,TCT
2 Perfect,65,TTC
2 Perfect,66,AGA
2 Perfect,66,AGG
2 Perfect,66,CCT
2 Perfect,66,CTC
1 Perfect,66,CTG
5 Perfect,66,GAG
1 Perfect,66,GGA
5 Perfect,66,TCT
1 Perfect,66,TTC
1 Perfect,67,AAG
5 Perfect,67,AGA
2 Perfect,67,AGC
2 Perfect,67,AGG
1 Perfect,67,ATA
2 Perfect,67,CTT
3 Perfect,67,GAA
2 Perfect,67,TCC
1 Perfect,67,TCT
2 Perfect,67,TTC
2 Perfect,68,AAG
3 Perfect,68,AGA
2 Perfect,68,AGG
3 Perfect,68,CTC
4 Perfect,68,CTT
3 Perfect,68,GAA
1 Perfect,68,GGA
1 Perfect,68,TCT
2 Perfect,68,TTC
2 Perfect,69,AAG
1 Perfect,69,AGG
1 Perfect,69,CCT
2 Perfect,69,CTT
1 Perfect,69,GAA
2 Perfect,69,GAG
1 Perfect,69,TCC
3 Perfect,69,TCT
46965 Perfect,6,AAA
15638 Perfect,6,AAC
34517 Perfect,6,AAG
31123 Perfect,6,AAT
20824 Perfect,6,ACA
10224 Perfect,6,ACC
487 Perfect,6,ACG
12844 Perfect,6,ACT
40415 Perfect,6,AGA
18701 Perfect,6,AGC
25632 Perfect,6,AGG
12773 Perfect,6,AGT
21507 Perfect,6,ATA
14347 Perfect,6,ATC
21641 Perfect,6,ATG
30977 Perfect,6,ATT
26032 Perfect,6,CAA
16606 Perfect,6,CAC
32903 Perfect,6,CAG
21800 Perfect,6,CAT
26289 Perfect,6,CCA
11943 Perfect,6,CCC
896 Perfect,6,CCG
25765 Perfect,6,CCT
366 Perfect,6,CGA
768 Perfect,6,CGC
882 Perfect,6,CGG
482 Perfect,6,CGT
10779 Perfect,6,CTA
23623 Perfect,6,CTC
32913 Perfect,6,CTG
33884 Perfect,6,CTT
33287 Perfect,6,GAA
2373 Perfect,6,GAC
23329 Perfect,6,GAG
14194 Perfect,6,GAT
15030 Perfect,6,GCA
3606 Perfect,6,GCC
846 Perfect,6,GCG
18384 Perfect,6,GCT
22248 Perfect,6,GGA
3629 Perfect,6,GGC
11880 Perfect,6,GGG
10507 Perfect,6,GGT
8660 Perfect,6,GTA
2453 Perfect,6,GTC
16585 Perfect,6,GTG
15889 Perfect,6,GTT
26398 Perfect,6,TAA
8823 Perfect,6,TAC
10925 Perfect,6,TAG
21352 Perfect,6,TAT
21615 Perfect,6,TCA
22361 Perfect,6,TCC
345 Perfect,6,TCG
40572 Perfect,6,TCT
21490 Perfect,6,TGA
14989 Perfect,6,TGC
25857 Perfect,6,TGG
20715 Perfect,6,TGT
25935 Perfect,6,TTA
33251 Perfect,6,TTC
25775 Perfect,6,TTG
46781 Perfect,6,TTT
2 Perfect,70,AAG
7 Perfect,70,AGA
2 Perfect,70,CTT
1 Perfect,70,GAA
1 Perfect,70,GCT
1 Perfect,70,GTG
1 Perfect,70,TCC
2 Perfect,70,TCT
3 Perfect,70,TTC
1 Perfect,71,AAG
4 Perfect,71,AGA
1 Perfect,71,AGC
1 Perfect,71,AGG
3 Perfect,71,CTC
1 Perfect,71,CTT
1 Perfect,71,GAA
2 Perfect,71,TCC
3 Perfect,71,TCT
2 Perfect,71,TTC
2 Perfect,72,AAG
1 Perfect,72,AGA
1 Perfect,72,GAG
1 Perfect,72,GGA
4 Perfect,72,TCT
1 Perfect,72,TTC
3 Perfect,73,AAG
3 Perfect,73,AGA
3 Perfect,73,CTT
2 Perfect,73,GAA
1 Perfect,73,GCT
1 Perfect,73,TCT
4 Perfect,73,TTC
5 Perfect,74,AAG
1 Perfect,74,AGA
1 Perfect,74,CAG
1 Perfect,74,CTT
2 Perfect,74,GAA
3 Perfect,74,GAG
1 Perfect,74,TCC
3 Perfect,74,TCT
4 Perfect,74,TTC
4 Perfect,75,AGA
1 Perfect,75,CTG
4 Perfect,75,CTT
6 Perfect,75,GAA
2 Perfect,75,GGA
2 Perfect,75,TCT
4 Perfect,75,TTC
5 Perfect,76,AGA
1 Perfect,76,CCT
4 Perfect,76,CTT
4 Perfect,76,GAA
1 Perfect,76,TCC
4 Perfect,76,TTC
3 Perfect,77,AAG
1 Perfect,77,AGA
1 Perfect,77,AGG
2 Perfect,77,CTT
6 Perfect,77,GAA
1 Perfect,77,GAG
1 Perfect,77,TCC
1 Perfect,77,TCT
1 Perfect,77,TGC
2 Perfect,77,TTC
2 Perfect,78,AAG
1 Perfect,78,AGA
2 Perfect,78,CTT
1 Perfect,78,GAA
1 Perfect,78,GGA
3 Perfect,78,TCT
4 Perfect,78,TTC
1 Perfect,79,AAG
7 Perfect,79,AGA
1 Perfect,79,CTT
6 Perfect,79,GAA
1 Perfect,79,TCT
8 Perfect,79,TTC
21697 Perfect,7,AAA
8821 Perfect,7,AAC
11246 Perfect,7,AAG
9257 Perfect,7,AAT
6104 Perfect,7,ACA
6828 Perfect,7,ACC
110 Perfect,7,ACG
2820 Perfect,7,ACT
13635 Perfect,7,AGA
6543 Perfect,7,AGC
9970 Perfect,7,AGG
4089 Perfect,7,AGT
8752 Perfect,7,ATA
5530 Perfect,7,ATC
5804 Perfect,7,ATG
6119 Perfect,7,ATT
2955 Perfect,7,CAA
3612 Perfect,7,CAC
7041 Perfect,7,CAG
4512 Perfect,7,CAT
6689 Perfect,7,CCA
2743 Perfect,7,CCC
343 Perfect,7,CCG
6620 Perfect,7,CCT
109 Perfect,7,CGA
479 Perfect,7,CGC
318 Perfect,7,CGG
183 Perfect,7,CGT
2050 Perfect,7,CTA
9699 Perfect,7,CTC
5875 Perfect,7,CTG
7617 Perfect,7,CTT
7568 Perfect,7,GAA
158 Perfect,7,GAC
6693 Perfect,7,GAG
4578 Perfect,7,GAT
6058 Perfect,7,GCA
291 Perfect,7,GCC
309 Perfect,7,GCG
6893 Perfect,7,GCT
9829 Perfect,7,GGA
459 Perfect,7,GGC
2822 Perfect,7,GGG
3448 Perfect,7,GGT
2044 Perfect,7,GTA
100 Perfect,7,GTC
6558 Perfect,7,GTG
2884 Perfect,7,GTT
6171 Perfect,7,TAA
3953 Perfect,7,TAC
2711 Perfect,7,TAG
9195 Perfect,7,TAT
5813 Perfect,7,TCA
9760 Perfect,7,TCC
101 Perfect,7,TCG
11268 Perfect,7,TCT
5518 Perfect,7,TGA
6505 Perfect,7,TGC
6634 Perfect,7,TGG
8777 Perfect,7,TGT
8498 Perfect,7,TTA
13653 Perfect,7,TTC
6090 Perfect,7,TTG
21443 Perfect,7,TTT
4 Perfect,80,AAG
2 Perfect,80,AGA
1 Perfect,80,CTC
3 Perfect,80,CTT
2 Perfect,80,GAA
1 Perfect,80,GAG
1 Perfect,80,TCC
2 Perfect,80,TCT
1 Perfect,80,TTC
1 Perfect,81,AAG
1 Perfect,81,AGA
1 Perfect,81,CTC
4 Perfect,81,GAA
2 Perfect,81,TCT
5 Perfect,81,TTC
3 Perfect,82,AAG
5 Perfect,82,AGA
1 Perfect,82,AGG
1 Perfect,82,GAG
2 Perfect,82,TCT
4 Perfect,82,TTC
9 Perfect,83,AAG
2 Perfect,83,AGA
1 Perfect,83,CTC
3 Perfect,83,CTT
3 Perfect,83,GAA
1 Perfect,83,GAG
3 Perfect,83,TCT
3 Perfect,83,TTC
2 Perfect,84,AAG
1 Perfect,84,AGA
1 Perfect,84,CCT
2 Perfect,84,GAA
3 Perfect,84,TCT
3 Perfect,84,TTC
1 Perfect,85,AAG
1 Perfect,85,AGA
1 Perfect,85,CCT
2 Perfect,85,CTT
2 Perfect,85,GAA
1 Perfect,85,TCT
1 Perfect,85,TTC
1 Perfect,86,AAG
1 Perfect,86,GAA
5 Perfect,86,TCT
5 Perfect,86,TTC
4 Perfect,87,AGA
1 Perfect,87,GAA
3 Perfect,87,TCT
1 Perfect,87,TTC
2 Perfect,88,AAG
4 Perfect,88,AGA
1 Perfect,88,AGG
2 Perfect,88,GAA
3 Perfect,88,TCT
2 Perfect,88,TTC
1 Perfect,89,AAG
3 Perfect,89,AGA
2 Perfect,89,TTC
9026 Perfect,8,AAA
5046 Perfect,8,AAC
6018 Perfect,8,AAG
4253 Perfect,8,AAT
687 Perfect,8,ACA
1568 Perfect,8,ACC
42 Perfect,8,ACG
492 Perfect,8,ACT
2974 Perfect,8,AGA
2548 Perfect,8,AGC
2769 Perfect,8,AGG
834 Perfect,8,AGT
2353 Perfect,8,ATA
1675 Perfect,8,ATC
1704 Perfect,8,ATG
2383 Perfect,8,ATT
1481 Perfect,8,CAA
1893 Perfect,8,CAC
2272 Perfect,8,CAG
2041 Perfect,8,CAT
1634 Perfect,8,CCA
957 Perfect,8,CCC
204 Perfect,8,CCG
2880 Perfect,8,CCT
16 Perfect,8,CGA
67 Perfect,8,CGC
52 Perfect,8,CGG
18 Perfect,8,CGT
790 Perfect,8,CTA
3217 Perfect,8,CTC
2446 Perfect,8,CTG
3089 Perfect,8,CTT
2833 Perfect,8,GAA
61 Perfect,8,GAC
2338 Perfect,8,GAG
1150 Perfect,8,GAT
1264 Perfect,8,GCA
162 Perfect,8,GCC
136 Perfect,8,GCG
1260 Perfect,8,GCT
3068 Perfect,8,GGA
184 Perfect,8,GGC
941 Perfect,8,GGG
1668 Perfect,8,GGT
496 Perfect,8,GTA
46 Perfect,8,GTC
1567 Perfect,8,GTG
682 Perfect,8,GTT
1684 Perfect,8,TAA
744 Perfect,8,TAC
709 Perfect,8,TAG
1723 Perfect,8,TAT
1119 Perfect,8,TCA
2399 Perfect,8,TCC
62 Perfect,8,TCG
2854 Perfect,8,TCT
2027 Perfect,8,TGA
2589 Perfect,8,TGC
1978 Perfect,8,TGG
1457 Perfect,8,TGT
4241 Perfect,8,TTA
5897 Perfect,8,TTC
5047 Perfect,8,TTG
8877 Perfect,8,TTT
1 Perfect,90,AGA
1 Perfect,90,AGG
1 Perfect,90,CTT
1 Perfect,90,GAA
1 Perfect,90,GAG
1 Perfect,90,TTC
1 Perfect,91,AAG
6 Perfect,91,AGA
1 Perfect,91,CTC
1 Perfect,91,GAA
1 Perfect,91,GAG
3 Perfect,91,TTC
3 Perfect,92,AAG
1 Perfect,92,AGA
3 Perfect,92,CTT
2 Perfect,92,GAA
3 Perfect,92,TCT
3 Perfect,92,TTC
2 Perfect,93,AGA
1 Perfect,93,CTC
1 Perfect,93,CTT
1 Perfect,93,GAA
3 Perfect,93,TCT
1 Perfect,93,TTC
2 Perfect,94,AAG
1 Perfect,94,AGA
2 Perfect,94,CTT
1 Perfect,94,GAA
5 Perfect,94,TTC
2 Perfect,95,AAG
1 Perfect,95,GAA
1 Perfect,95,GAG
2 Perfect,96,AGA
1 Perfect,96,CTC
2 Perfect,96,CTT
1 Perfect,96,TCT
1 Perfect,97,AAG
1 Perfect,97,AGA
2 Perfect,97,CTT
2 Perfect,97,TTC
4 Perfect,98,AAG
2 Perfect,98,AGA
1 Perfect,98,CTT
1 Perfect,98,GAA
3 Perfect,98,TCT
2 Perfect,98,TTC
2 Perfect,99,AAG
1 Perfect,99,CTT
1 Perfect,99,TCT
6325 Perfect,9,AAA
369 Perfect,9,AAC
1054 Perfect,9,AAG
998 Perfect,9,AAT
394 Perfect,9,ACA
325 Perfect,9,ACC
5 Perfect,9,ACG
196 Perfect,9,ACT
844 Perfect,9,AGA
544 Perfect,9,AGC
991 Perfect,9,AGG
205 Perfect,9,AGT
596 Perfect,9,ATA
212 Perfect,9,ATC
635 Perfect,9,ATG
1024 Perfect,9,ATT
747 Perfect,9,CAA
957 Perfect,9,CAC
1005 Perfect,9,CAG
610 Perfect,9,CAT
573 Perfect,9,CCA
880 Perfect,9,CCC
30 Perfect,9,CCG
987 Perfect,9,CCT
4 Perfect,9,CGA
28 Perfect,9,CGC
28 Perfect,9,CGG
7 Perfect,9,CGT
180 Perfect,9,CTA
807 Perfect,9,CTC
940 Perfect,9,CTG
997 Perfect,9,CTT
1124 Perfect,9,GAA
23 Perfect,9,GAC
844 Perfect,9,GAG
240 Perfect,9,GAT
398 Perfect,9,GCA
97 Perfect,9,GCC
28 Perfect,9,GCG
536 Perfect,9,GCT
783 Perfect,9,GGA
94 Perfect,9,GGC
873 Perfect,9,GGG
311 Perfect,9,GGT
108 Perfect,9,GTA
27 Perfect,9,GTC
932 Perfect,9,GTG
366 Perfect,9,GTT
813 Perfect,9,TAA
129 Perfect,9,TAC
181 Perfect,9,TAG
635 Perfect,9,TAT
462 Perfect,9,TCA
756 Perfect,9,TCC
4 Perfect,9,TCG
848 Perfect,9,TCT
524 Perfect,9,TGA
397 Perfect,9,TGC
588 Perfect,9,TGG
385 Perfect,9,TGT
837 Perfect,9,TTA
1089 Perfect,9,TTC
652 Perfect,9,TTG
6257 Perfect,9,TTT
