1149641 Imperfect,3,AA
1019032 Imperfect,3,AC
1079649 Imperfect,3,AG
806020 Imperfect,3,AT
511047 Imperfect,3,CA
597075 Imperfect,3,CC
101992 Imperfect,3,CG
580807 Imperfect,3,CT
582127 Imperfect,3,GA
103233 Imperfect,3,GC
600429 Imperfect,3,GG
515181 Imperfect,3,GT
803218 Imperfect,3,TA
1077246 Imperfect,3,TC
1016458 Imperfect,3,TG
1151574 Imperfect,3,TT
2941 Perfect,10,AA
521 Perfect,10,AC
395 Perfect,10,AG
580 Perfect,10,AT
1042 Perfect,10,CA
526 Perfect,10,CC
8 Perfect,10,CG
390 Perfect,10,CT
383 Perfect,10,GA
58 Perfect,10,GC
595 Perfect,10,GG
506 Perfect,10,GT
358 Perfect,10,TA
408 Perfect,10,TC
1066 Perfect,10,TG
2928 Perfect,10,TT
1601 Perfect,11,AA
1094 Perfect,11,AC
490 Perfect,11,AG
364 Perfect,11,AT
362 Perfect,11,CA
437 Perfect,11,CC
23 Perfect,11,CG
206 Perfect,11,CT
220 Perfect,11,GA
24 Perfect,11,GC
438 Perfect,11,GG
399 Perfect,11,GT
316 Perfect,11,TA
520 Perfect,11,TC
1088 Perfect,11,TG
1603 Perfect,11,TT
1088 Perfect,12,AA
291 Perfect,12,AC
153 Perfect,12,AG
267 Perfect,12,AT
432 Perfect,12,CA
306 Perfect,12,CC
1 Perfect,12,CG
132 Perfect,12,CT
180 Perfect,12,GA
39 Perfect,12,GC
322 Perfect,12,GG
281 Perfect,12,GT
181 Perfect,12,TA
179 Perfect,12,TC
466 Perfect,12,TG
1138 Perfect,12,TT
875 Perfect,13,AA
638 Perfect,13,AC
273 Perfect,13,AG
136 Perfect,13,AT
216 Perfect,13,CA
208 Perfect,13,CC
10 Perfect,13,CG
85 Perfect,13,CT
116 Perfect,13,GA
9 Perfect,13,GC
198 Perfect,13,GG
186 Perfect,13,GT
183 Perfect,13,TA
288 Perfect,13,TC
663 Perfect,13,TG
891 Perfect,13,TT
713 Perfect,14,AA
157 Perfect,14,AC
75 Perfect,14,AG
162 Perfect,14,AT
276 Perfect,14,CA
125 Perfect,14,CC
1 Perfect,14,CG
96 Perfect,14,CT
105 Perfect,14,GA
12 Perfect,14,GC
102 Perfect,14,GG
191 Perfect,14,GT
93 Perfect,14,TA
120 Perfect,14,TC
219 Perfect,14,TG
659 Perfect,14,TT
576 Perfect,15,AA
408 Perfect,15,AC
152 Perfect,15,AG
115 Perfect,15,AT
133 Perfect,15,CA
72 Perfect,15,CC
7 Perfect,15,CG
62 Perfect,15,CT
67 Perfect,15,GA
6 Perfect,15,GC
61 Perfect,15,GG
133 Perfect,15,GT
93 Perfect,15,TA
162 Perfect,15,TC
415 Perfect,15,TG
567 Perfect,15,TT
406 Perfect,16,AA
116 Perfect,16,AC
62 Perfect,16,AG
121 Perfect,16,AT
164 Perfect,16,CA
53 Perfect,16,CC
1 Perfect,16,CG
59 Perfect,16,CT
64 Perfect,16,GA
9 Perfect,16,GC
37 Perfect,16,GG
120 Perfect,16,GT
61 Perfect,16,TA
64 Perfect,16,TC
150 Perfect,16,TG
432 Perfect,16,TT
288 Perfect,17,AA
245 Perfect,17,AC
95 Perfect,17,AG
75 Perfect,17,AT
72 Perfect,17,CA
33 Perfect,17,CC
4 Perfect,17,CG
42 Perfect,17,CT
45 Perfect,17,GA
8 Perfect,17,GC
22 Perfect,17,GG
85 Perfect,17,GT
58 Perfect,17,TA
106 Perfect,17,TC
247 Perfect,17,TG
244 Perfect,17,TT
182 Perfect,18,AA
81 Perfect,18,AC
44 Perfect,18,AG
63 Perfect,18,AT
104 Perfect,18,CA
17 Perfect,18,CC
3 Perfect,18,CG
45 Perfect,18,CT
45 Perfect,18,GA
5 Perfect,18,GC
13 Perfect,18,GG
78 Perfect,18,GT
44 Perfect,18,TA
52 Perfect,18,TC
104 Perfect,18,TG
176 Perfect,18,TT
148 Perfect,19,AA
169 Perfect,19,AC
69 Perfect,19,AG
39 Perfect,19,AT
52 Perfect,19,CA
13 Perfect,19,CC
3 Perfect,19,CG
28 Perfect,19,CT
44 Perfect,19,GA
1 Perfect,19,GC
12 Perfect,19,GG
69 Perfect,19,GT
44 Perfect,19,TA
62 Perfect,19,TC
158 Perfect,19,TG
169 Perfect,19,TT
144 Perfect,20,AA
59 Perfect,20,AC
22 Perfect,20,AG
34 Perfect,20,AT
76 Perfect,20,CA
11 Perfect,20,CC
28 Perfect,20,CT
46 Perfect,20,GA
4 Perfect,20,GC
15 Perfect,20,GG
63 Perfect,20,GT
34 Perfect,20,TA
46 Perfect,20,TC
73 Perfect,20,TG
124 Perfect,20,TT
116 Perfect,21,AA
141 Perfect,21,AC
42 Perfect,21,AG
28 Perfect,21,AT
59 Perfect,21,CA
10 Perfect,21,CC
3 Perfect,21,CG
34 Perfect,21,CT
31 Perfect,21,GA
2 Perfect,21,GC
4 Perfect,21,GG
55 Perfect,21,GT
30 Perfect,21,TA
45 Perfect,21,TC
131 Perfect,21,TG
126 Perfect,21,TT
114 Perfect,22,AA
54 Perfect,22,AC
22 Perfect,22,AG
25 Perfect,22,AT
72 Perfect,22,CA
2 Perfect,22,CC
28 Perfect,22,CT
28 Perfect,22,GA
1 Perfect,22,GC
4 Perfect,22,GG
54 Perfect,22,GT
23 Perfect,22,TA
28 Perfect,22,TC
50 Perfect,22,TG
108 Perfect,22,TT
119 Perfect,23,AA
116 Perfect,23,AC
36 Perfect,23,AG
30 Perfect,23,AT
35 Perfect,23,CA
2 Perfect,23,CC
22 Perfect,23,CT
18 Perfect,23,GA
1 Perfect,23,GC
1 Perfect,23,GG
49 Perfect,23,GT
20 Perfect,23,TA
38 Perfect,23,TC
134 Perfect,23,TG
105 Perfect,23,TT
115 Perfect,24,AA
63 Perfect,24,AC
20 Perfect,24,AG
22 Perfect,24,AT
78 Perfect,24,CA
2 Perfect,24,CC
20 Perfect,24,CT
23 Perfect,24,GA
2 Perfect,24,GC
1 Perfect,24,GG
54 Perfect,24,GT
20 Perfect,24,TA
28 Perfect,24,TC
68 Perfect,24,TG
99 Perfect,24,TT
82 Perfect,25,AA
101 Perfect,25,AC
37 Perfect,25,AG
23 Perfect,25,AT
39 Perfect,25,CA
1 Perfect,25,CC
14 Perfect,25,CT
20 Perfect,25,GA
1 Perfect,25,GG
42 Perfect,25,GT
20 Perfect,25,TA
30 Perfect,25,TC
117 Perfect,25,TG
81 Perfect,25,TT
67 Perfect,26,AA
67 Perfect,26,AC
17 Perfect,26,AG
28 Perfect,26,AT
39 Perfect,26,CA
1 Perfect,26,CG
22 Perfect,26,CT
26 Perfect,26,GA
1 Perfect,26,GC
72 Perfect,26,GT
22 Perfect,26,TA
14 Perfect,26,TC
52 Perfect,26,TG
74 Perfect,26,TT
59 Perfect,27,AA
127 Perfect,27,AC
31 Perfect,27,AG
16 Perfect,27,AT
45 Perfect,27,CA
2 Perfect,27,CC
14 Perfect,27,CT
9 Perfect,27,GA
4 Perfect,27,GG
54 Perfect,27,GT
28 Perfect,27,TA
34 Perfect,27,TC
120 Perfect,27,TG
62 Perfect,27,TT
65 Perfect,28,AA
72 Perfect,28,AC
18 Perfect,28,AG
19 Perfect,28,AT
66 Perfect,28,CA
19 Perfect,28,CT
22 Perfect,28,GA
1 Perfect,28,GG
53 Perfect,28,GT
15 Perfect,28,TA
21 Perfect,28,TC
66 Perfect,28,TG
56 Perfect,28,TT
54 Perfect,29,AA
111 Perfect,29,AC
23 Perfect,29,AG
13 Perfect,29,AT
46 Perfect,29,CA
16 Perfect,29,CT
14 Perfect,29,GA
55 Perfect,29,GT
13 Perfect,29,TA
35 Perfect,29,TC
116 Perfect,29,TG
55 Perfect,29,TT
24 Perfect,30,AA
70 Perfect,30,AC
11 Perfect,30,AG
18 Perfect,30,AT
65 Perfect,30,CA
1 Perfect,30,CC
17 Perfect,30,CT
26 Perfect,30,GA
68 Perfect,30,GT
13 Perfect,30,TA
20 Perfect,30,TC
63 Perfect,30,TG
35 Perfect,30,TT
12 Perfect,31,AA
127 Perfect,31,AC
25 Perfect,31,AG
7 Perfect,31,AT
60 Perfect,31,CA
16 Perfect,31,CT
14 Perfect,31,GA
49 Perfect,31,GT
14 Perfect,31,TA
29 Perfect,31,TC
121 Perfect,31,TG
26 Perfect,31,TT
21 Perfect,32,AA
79 Perfect,32,AC
10 Perfect,32,AG
12 Perfect,32,AT
61 Perfect,32,CA
11 Perfect,32,CT
24 Perfect,32,GA
74 Perfect,32,GT
18 Perfect,32,TA
27 Perfect,32,TC
65 Perfect,32,TG
16 Perfect,32,TT
11 Perfect,33,AA
109 Perfect,33,AC
26 Perfect,33,AG
16 Perfect,33,AT
54 Perfect,33,CA
15 Perfect,33,CT
18 Perfect,33,GA
76 Perfect,33,GT
11 Perfect,33,TA
35 Perfect,33,TC
102 Perfect,33,TG
13 Perfect,33,TT
15 Perfect,34,AA
95 Perfect,34,AC
20 Perfect,34,AG
15 Perfect,34,AT
61 Perfect,34,CA
16 Perfect,34,CT
18 Perfect,34,GA
1 Perfect,34,GG
84 Perfect,34,GT
12 Perfect,34,TA
27 Perfect,34,TC
70 Perfect,34,TG
14 Perfect,34,TT
14 Perfect,35,AA
121 Perfect,35,AC
31 Perfect,35,AG
11 Perfect,35,AT
43 Perfect,35,CA
12 Perfect,35,CT
21 Perfect,35,GA
53 Perfect,35,GT
13 Perfect,35,TA
42 Perfect,35,TC
129 Perfect,35,TG
13 Perfect,35,TT
17 Perfect,36,AA
85 Perfect,36,AC
16 Perfect,36,AG
15 Perfect,36,AT
70 Perfect,36,CA
21 Perfect,36,CT
24 Perfect,36,GA
93 Perfect,36,GT
12 Perfect,36,TA
20 Perfect,36,TC
54 Perfect,36,TG
11 Perfect,36,TT
23 Perfect,37,AA
107 Perfect,37,AC
32 Perfect,37,AG
12 Perfect,37,AT
64 Perfect,37,CA
17 Perfect,37,CT
19 Perfect,37,GA
67 Perfect,37,GT
21 Perfect,37,TA
29 Perfect,37,TC
112 Perfect,37,TG
9 Perfect,37,TT
16 Perfect,38,AA
89 Perfect,38,AC
15 Perfect,38,AG
20 Perfect,38,AT
64 Perfect,38,CA
13 Perfect,38,CT
26 Perfect,38,GA
97 Perfect,38,GT
9 Perfect,38,TA
27 Perfect,38,TC
62 Perfect,38,TG
9 Perfect,38,TT
11 Perfect,39,AA
105 Perfect,39,AC
33 Perfect,39,AG
23 Perfect,39,AT
66 Perfect,39,CA
17 Perfect,39,CT
25 Perfect,39,GA
72 Perfect,39,GT
17 Perfect,39,TA
31 Perfect,39,TC
108 Perfect,39,TG
8 Perfect,39,TT
8 Perfect,40,AA
92 Perfect,40,AC
18 Perfect,40,AG
24 Perfect,40,AT
51 Perfect,40,CA
21 Perfect,40,CT
30 Perfect,40,GA
103 Perfect,40,GT
22 Perfect,40,TA
28 Perfect,40,TC
63 Perfect,40,TG
6 Perfect,40,TT
5 Perfect,41,AA
110 Perfect,41,AC
34 Perfect,41,AG
17 Perfect,41,AT
52 Perfect,41,CA
22 Perfect,41,CT
11 Perfect,41,GA
47 Perfect,41,GT
18 Perfect,41,TA
38 Perfect,41,TC
97 Perfect,41,TG
6 Perfect,41,TT
9 Perfect,42,AA
85 Perfect,42,AC
27 Perfect,42,AG
23 Perfect,42,AT
59 Perfect,42,CA
23 Perfect,42,CT
34 Perfect,42,GA
97 Perfect,42,GT
18 Perfect,42,TA
30 Perfect,42,TC
53 Perfect,42,TG
4 Perfect,42,TT
1 Perfect,43,AA
106 Perfect,43,AC
40 Perfect,43,AG
17 Perfect,43,AT
46 Perfect,43,CA
22 Perfect,43,CT
17 Perfect,43,GA
46 Perfect,43,GT
29 Perfect,43,TA
38 Perfect,43,TC
109 Perfect,43,TG
3 Perfect,43,TT
3 Perfect,44,AA
86 Perfect,44,AC
23 Perfect,44,AG
28 Perfect,44,AT
49 Perfect,44,CA
28 Perfect,44,CT
32 Perfect,44,GA
81 Perfect,44,GT
12 Perfect,44,TA
37 Perfect,44,TC
68 Perfect,44,TG
1 Perfect,44,TT
4 Perfect,45,AA
111 Perfect,45,AC
41 Perfect,45,AG
30 Perfect,45,AT
53 Perfect,45,CA
16 Perfect,45,CT
24 Perfect,45,GA
54 Perfect,45,GT
25 Perfect,45,TA
32 Perfect,45,TC
104 Perfect,45,TG
4 Perfect,45,TT
1 Perfect,46,AA
86 Perfect,46,AC
21 Perfect,46,AG
21 Perfect,46,AT
49 Perfect,46,CA
18 Perfect,46,CT
37 Perfect,46,GA
88 Perfect,46,GT
18 Perfect,46,TA
43 Perfect,46,TC
54 Perfect,46,TG
5 Perfect,46,TT
2 Perfect,47,AA
86 Perfect,47,AC
32 Perfect,47,AG
14 Perfect,47,AT
35 Perfect,47,CA
18 Perfect,47,CT
23 Perfect,47,GA
55 Perfect,47,GT
23 Perfect,47,TA
37 Perfect,47,TC
87 Perfect,47,TG
1 Perfect,47,TT
2 Perfect,48,AA
68 Perfect,48,AC
21 Perfect,48,AG
16 Perfect,48,AT
31 Perfect,48,CA
19 Perfect,48,CT
48 Perfect,48,GA
69 Perfect,48,GT
13 Perfect,48,TA
36 Perfect,48,TC
39 Perfect,48,TG
70 Perfect,49,AC
39 Perfect,49,AG
11 Perfect,49,AT
33 Perfect,49,CA
14 Perfect,49,CT
15 Perfect,49,GA
28 Perfect,49,GT
9 Perfect,49,TA
43 Perfect,49,TC
77 Perfect,49,TG
3 Perfect,49,TT
420166 Perfect,4,AA
136288 Perfect,4,AC
258208 Perfect,4,AG
256411 Perfect,4,AT
263745 Perfect,4,CA
152693 Perfect,4,CC
5500 Perfect,4,CG
256147 Perfect,4,CT
198966 Perfect,4,GA
25953 Perfect,4,GC
153378 Perfect,4,GG
136527 Perfect,4,GT
190524 Perfect,4,TA
198183 Perfect,4,TC
265207 Perfect,4,TG
418116 Perfect,4,TT
40 Perfect,50,AC
16 Perfect,50,AG
12 Perfect,50,AT
30 Perfect,50,CA
22 Perfect,50,CT
32 Perfect,50,GA
52 Perfect,50,GT
12 Perfect,50,TA
37 Perfect,50,TC
31 Perfect,50,TG
1 Perfect,50,TT
5 Perfect,51,AA
49 Perfect,51,AC
27 Perfect,51,AG
15 Perfect,51,AT
26 Perfect,51,CA
8 Perfect,51,CT
15 Perfect,51,GA
19 Perfect,51,GT
13 Perfect,51,TA
36 Perfect,51,TC
61 Perfect,51,TG
31 Perfect,52,AC
15 Perfect,52,AG
10 Perfect,52,AT
17 Perfect,52,CA
20 Perfect,52,CT
41 Perfect,52,GA
39 Perfect,52,GT
7 Perfect,52,TA
36 Perfect,52,TC
26 Perfect,52,TG
1 Perfect,53,AA
30 Perfect,53,AC
23 Perfect,53,AG
10 Perfect,53,AT
12 Perfect,53,CA
13 Perfect,53,CT
14 Perfect,53,GA
10 Perfect,53,GT
13 Perfect,53,TA
36 Perfect,53,TC
31 Perfect,53,TG
1 Perfect,53,TT
25 Perfect,54,AC
11 Perfect,54,AG
6 Perfect,54,AT
16 Perfect,54,CA
10 Perfect,54,CT
31 Perfect,54,GA
17 Perfect,54,GT
6 Perfect,54,TA
26 Perfect,54,TC
14 Perfect,54,TG
1 Perfect,54,TT
21 Perfect,55,AC
25 Perfect,55,AG
9 Perfect,55,AT
10 Perfect,55,CA
16 Perfect,55,CT
21 Perfect,55,GA
6 Perfect,55,GT
5 Perfect,55,TA
30 Perfect,55,TC
21 Perfect,55,TG
1 Perfect,56,AA
14 Perfect,56,AC
12 Perfect,56,AG
10 Perfect,56,AT
13 Perfect,56,CA
11 Perfect,56,CT
15 Perfect,56,GA
10 Perfect,56,GT
5 Perfect,56,TA
23 Perfect,56,TC
9 Perfect,56,TG
17 Perfect,57,AC
29 Perfect,57,AG
5 Perfect,57,AT
5 Perfect,57,CA
16 Perfect,57,CT
15 Perfect,57,GA
9 Perfect,57,GT
8 Perfect,57,TA
24 Perfect,57,TC
20 Perfect,57,TG
8 Perfect,58,AC
13 Perfect,58,AG
6 Perfect,58,AT
7 Perfect,58,CA
7 Perfect,58,CT
22 Perfect,58,GA
12 Perfect,58,GT
5 Perfect,58,TA
25 Perfect,58,TC
6 Perfect,58,TG
1 Perfect,58,TT
9 Perfect,59,AC
19 Perfect,59,AG
6 Perfect,59,AT
2 Perfect,59,CA
11 Perfect,59,CT
9 Perfect,59,GA
2 Perfect,59,GT
3 Perfect,59,TA
14 Perfect,59,TC
8 Perfect,59,TG
131978 Perfect,5,AA
93690 Perfect,5,AC
111334 Perfect,5,AG
68354 Perfect,5,AT
42393 Perfect,5,CA
38711 Perfect,5,CC
1914 Perfect,5,CG
49215 Perfect,5,CT
50373 Perfect,5,GA
1953 Perfect,5,GC
38551 Perfect,5,GG
43219 Perfect,5,GT
68608 Perfect,5,TA
109685 Perfect,5,TC
93805 Perfect,5,TG
131870 Perfect,5,TT
5 Perfect,60,AC
8 Perfect,60,AG
4 Perfect,60,AT
2 Perfect,60,CA
11 Perfect,60,CT
16 Perfect,60,GA
3 Perfect,60,GT
1 Perfect,60,TA
10 Perfect,60,TC
5 Perfect,60,TG
6 Perfect,61,AC
11 Perfect,61,AG
3 Perfect,61,AT
1 Perfect,61,CA
6 Perfect,61,CT
5 Perfect,61,GA
2 Perfect,61,GT
15 Perfect,61,TC
6 Perfect,61,TG
1 Perfect,62,AC
2 Perfect,62,AG
2 Perfect,62,AT
2 Perfect,62,CA
3 Perfect,62,CT
17 Perfect,62,GA
2 Perfect,62,GT
29 Perfect,62,TC
2 Perfect,62,TG
3 Perfect,63,AC
9 Perfect,63,AG
3 Perfect,63,AT
5 Perfect,63,CT
7 Perfect,63,GA
3 Perfect,63,GT
3 Perfect,63,TA
13 Perfect,63,TC
5 Perfect,64,AC
5 Perfect,64,AG
3 Perfect,64,AT
2 Perfect,64,CA
3 Perfect,64,CT
16 Perfect,64,GA
1 Perfect,64,GT
2 Perfect,64,TA
14 Perfect,64,TC
3 Perfect,64,TG
1 Perfect,65,AC
7 Perfect,65,AG
5 Perfect,65,CT
4 Perfect,65,GA
2 Perfect,65,TA
5 Perfect,65,TC
1 Perfect,65,TG
2 Perfect,66,AC
6 Perfect,66,AG
1 Perfect,66,AT
4 Perfect,66,CT
12 Perfect,66,GA
1 Perfect,66,GT
11 Perfect,66,TC
2 Perfect,67,AC
4 Perfect,67,AG
1 Perfect,67,AT
6 Perfect,67,CT
2 Perfect,67,GA
1 Perfect,67,TA
1 Perfect,67,TC
1 Perfect,68,AC
3 Perfect,68,AG
2 Perfect,68,CT
9 Perfect,68,GA
1 Perfect,68,GT
1 Perfect,68,TA
7 Perfect,68,TC
1 Perfect,69,AG
1 Perfect,69,AT
2 Perfect,69,CT
3 Perfect,69,GA
1 Perfect,69,TA
2 Perfect,69,TC
34588 Perfect,6,AA
13012 Perfect,6,AC
22306 Perfect,6,AG
23714 Perfect,6,AT
24646 Perfect,6,CA
7517 Perfect,6,CC
304 Perfect,6,CG
22364 Perfect,6,CT
18816 Perfect,6,GA
698 Perfect,6,GC
7447 Perfect,6,GG
13073 Perfect,6,GT
18653 Perfect,6,TA
18946 Perfect,6,TC
24803 Perfect,6,TG
34873 Perfect,6,TT
1 Perfect,70,AG
1 Perfect,70,CT
9 Perfect,70,GA
6 Perfect,70,TC
1 Perfect,71,AG
1 Perfect,71,AT
1 Perfect,71,CT
2 Perfect,71,TC
1 Perfect,72,AG
5 Perfect,72,GA
1 Perfect,72,GT
2 Perfect,72,TC
2 Perfect,73,AG
1 Perfect,73,CT
2 Perfect,73,TC
2 Perfect,74,AG
3 Perfect,74,CT
4 Perfect,74,GA
3 Perfect,74,TC
1 Perfect,75,AG
2 Perfect,75,CT
2 Perfect,75,GA
1 Perfect,75,TC
1 Perfect,76,AG
1 Perfect,76,GA
1 Perfect,76,TC
1 Perfect,77,AG
2 Perfect,77,CT
2 Perfect,77,TC
15775 Perfect,7,AA
10931 Perfect,7,AC
10519 Perfect,7,AG
8365 Perfect,7,AT
5295 Perfect,7,CA
1789 Perfect,7,CC
162 Perfect,7,CG
5626 Perfect,7,CT
5542 Perfect,7,GA
202 Perfect,7,GC
1855 Perfect,7,GG
5318 Perfect,7,GT
8513 Perfect,7,TA
10515 Perfect,7,TC
11309 Perfect,7,TG
15724 Perfect,7,TT
1 Perfect,80,CA
1 Perfect,81,AG
1 Perfect,81,CT
1 Perfect,82,GA
1 Perfect,82,TC
2 Perfect,83,AG
2 Perfect,83,TC
1 Perfect,87,CT
2 Perfect,89,AG
1 Perfect,89,TG
6439 Perfect,8,AA
1780 Perfect,8,AC
2717 Perfect,8,AG
3445 Perfect,8,AT
3986 Perfect,8,CA
558 Perfect,8,CC
40 Perfect,8,CG
2673 Perfect,8,CT
2132 Perfect,8,GA
192 Perfect,8,GC
548 Perfect,8,GG
1780 Perfect,8,GT
2789 Perfect,8,TA
2131 Perfect,8,TC
4063 Perfect,8,TG
6453 Perfect,8,TT
1 Perfect,91,TG
1 Perfect,93,TG
1 Perfect,95,AC
1 Perfect,96,GA
4432 Perfect,9,AA
2623 Perfect,9,AC
1631 Perfect,9,AG
1260 Perfect,9,AT
955 Perfect,9,CA
523 Perfect,9,CC
40 Perfect,9,CG
762 Perfect,9,CT
803 Perfect,9,GA
44 Perfect,9,GC
537 Perfect,9,GG
884 Perfect,9,GT
1264 Perfect,9,TA
1694 Perfect,9,TC
2816 Perfect,9,TG
4451 Perfect,9,TT
