395543 Imperfect,4,AAA
224059 Imperfect,4,AAC
216817 Imperfect,4,AAG
215249 Imperfect,4,AAT
241185 Imperfect,4,ACA
178709 Imperfect,4,ACC
30823 Imperfect,4,ACG
122355 Imperfect,4,ACT
315550 Imperfect,4,AGA
203690 Imperfect,4,AGC
222021 Imperfect,4,AGG
132812 Imperfect,4,AGT
218971 Imperfect,4,ATA
174126 Imperfect,4,ATC
202896 Imperfect,4,ATG
184572 Imperfect,4,ATT
102989 Imperfect,4,CAA
170595 Imperfect,4,CAC
217671 Imperfect,4,CAG
150368 Imperfect,4,CAT
168770 Imperfect,4,CCA
179260 Imperfect,4,CCC
30517 Imperfect,4,CCG
201672 Imperfect,4,CCT
22196 Imperfect,4,CGA
62825 Imperfect,4,CGC
46924 Imperfect,4,CGG
36206 Imperfect,4,CGT
93920 Imperfect,4,CTA
217460 Imperfect,4,CTC
207531 Imperfect,4,CTG
172915 Imperfect,4,CTT
187732 Imperfect,4,GAA
32074 Imperfect,4,GAC
231223 Imperfect,4,GAG
158747 Imperfect,4,GAT
226532 Imperfect,4,GCA
42706 Imperfect,4,GCC
43206 Imperfect,4,GCG
247143 Imperfect,4,GCT
211973 Imperfect,4,GGA
46430 Imperfect,4,GGC
179378 Imperfect,4,GGG
162701 Imperfect,4,GGT
111699 Imperfect,4,GTA
19451 Imperfect,4,GTC
199231 Imperfect,4,GTG
136050 Imperfect,4,GTT
194115 Imperfect,4,TAA
147281 Imperfect,4,TAC
119641 Imperfect,4,TAG
267686 Imperfect,4,TAT
211718 Imperfect,4,TCA
245552 Imperfect,4,TCC
30817 Imperfect,4,TCG
277518 Imperfect,4,TCT
179314 Imperfect,4,TGA
191915 Imperfect,4,TGC
163840 Imperfect,4,TGG
253352 Imperfect,4,TGT
180505 Imperfect,4,TTA
283401 Imperfect,4,TTC
198655 Imperfect,4,TTG
409361 Imperfect,4,TTT
111137 Imperfect,5,AAA
69854 Imperfect,5,AAC
85425 Imperfect,5,AAG
77541 Imperfect,5,AAT
18275 Imperfect,5,ACA
27629 Imperfect,5,ACC
4326 Imperfect,5,ACG
21046 Imperfect,5,ACT
53740 Imperfect,5,AGA
51693 Imperfect,5,AGC
63166 Imperfect,5,AGG
37054 Imperfect,5,AGT
39308 Imperfect,5,ATA
39989 Imperfect,5,ATC
40058 Imperfect,5,ATG
39297 Imperfect,5,ATT
45278 Imperfect,5,CAA
45005 Imperfect,5,CAC
58848 Imperfect,5,CAG
38406 Imperfect,5,CAT
53772 Imperfect,5,CCA
35794 Imperfect,5,CCC
18965 Imperfect,5,CCG
69993 Imperfect,5,CCT
1433 Imperfect,5,CGA
2314 Imperfect,5,CGC
2215 Imperfect,5,CGG
1402 Imperfect,5,CGT
36949 Imperfect,5,CTA
63556 Imperfect,5,CTC
48125 Imperfect,5,CTG
52131 Imperfect,5,CTT
37212 Imperfect,5,GAA
6031 Imperfect,5,GAC
40928 Imperfect,5,GAG
34586 Imperfect,5,GAT
32068 Imperfect,5,GCA
6771 Imperfect,5,GCC
6572 Imperfect,5,GCG
31919 Imperfect,5,GCT
69920 Imperfect,5,GGA
19048 Imperfect,5,GGC
35778 Imperfect,5,GGG
53858 Imperfect,5,GGT
21606 Imperfect,5,GTA
4367 Imperfect,5,GTC
28383 Imperfect,5,GTG
18749 Imperfect,5,GTT
31570 Imperfect,5,TAA
24201 Imperfect,5,TAC
24085 Imperfect,5,TAG
31500 Imperfect,5,TAT
34707 Imperfect,5,TCA
40113 Imperfect,5,TCC
5976 Imperfect,5,TCG
39788 Imperfect,5,TCT
41941 Imperfect,5,TGA
60109 Imperfect,5,TGC
45383 Imperfect,5,TGG
47235 Imperfect,5,TGT
81230 Imperfect,5,TTA
89833 Imperfect,5,TTC
73258 Imperfect,5,TTG
114374 Imperfect,5,TTT
1913 Perfect,10,AAA
73 Perfect,10,AAC
98 Perfect,10,AAG
239 Perfect,10,AAT
81 Perfect,10,ACA
102 Perfect,10,ACC
19 Perfect,10,ACT
171 Perfect,10,AGA
119 Perfect,10,AGC
128 Perfect,10,AGG
20 Perfect,10,AGT
214 Perfect,10,ATA
60 Perfect,10,ATC
61 Perfect,10,ATG
120 Perfect,10,ATT
32 Perfect,10,CAA
114 Perfect,10,CAC
162 Perfect,10,CAG
59 Perfect,10,CAT
556 Perfect,10,CCA
58 Perfect,10,CCC
12 Perfect,10,CCG
182 Perfect,10,CCT
29 Perfect,10,CGC
15 Perfect,10,CGG
14 Perfect,10,CTA
212 Perfect,10,CTC
100 Perfect,10,CTG
72 Perfect,10,CTT
74 Perfect,10,GAA
3 Perfect,10,GAC
159 Perfect,10,GAG
65 Perfect,10,GAT
101 Perfect,10,GCA
8 Perfect,10,GCC
14 Perfect,10,GCG
146 Perfect,10,GCT
199 Perfect,10,GGA
21 Perfect,10,GGC
51 Perfect,10,GGG
106 Perfect,10,GGT
10 Perfect,10,GTA
530 Perfect,10,GTG
36 Perfect,10,GTT
152 Perfect,10,TAA
31 Perfect,10,TAC
19 Perfect,10,TAG
243 Perfect,10,TAT
85 Perfect,10,TCA
154 Perfect,10,TCC
101 Perfect,10,TCT
82 Perfect,10,TGA
128 Perfect,10,TGC
93 Perfect,10,TGG
93 Perfect,10,TGT
179 Perfect,10,TTA
187 Perfect,10,TTC
112 Perfect,10,TTG
2067 Perfect,10,TTT
1253 Perfect,11,AAA
224 Perfect,11,AAC
110 Perfect,11,AAG
202 Perfect,11,AAT
4 Perfect,11,ACA
38 Perfect,11,ACC
2 Perfect,11,ACG
3 Perfect,11,ACT
39 Perfect,11,AGA
49 Perfect,11,AGC
69 Perfect,11,AGG
5 Perfect,11,AGT
84 Perfect,11,ATA
35 Perfect,11,ATC
36 Perfect,11,ATG
76 Perfect,11,ATT
21 Perfect,11,CAA
75 Perfect,11,CAC
68 Perfect,11,CAG
62 Perfect,11,CAT
69 Perfect,11,CCA
21 Perfect,11,CCC
15 Perfect,11,CCG
166 Perfect,11,CCT
2 Perfect,11,CGA
7 Perfect,11,CGC
7 Perfect,11,CGG
1 Perfect,11,CGT
8 Perfect,11,CTA
73 Perfect,11,CTC
57 Perfect,11,CTG
32 Perfect,11,CTT
44 Perfect,11,GAA
2 Perfect,11,GAC
80 Perfect,11,GAG
20 Perfect,11,GAT
32 Perfect,11,GCA
6 Perfect,11,GCC
14 Perfect,11,GCG
27 Perfect,11,GCT
130 Perfect,11,GGA
24 Perfect,11,GGC
31 Perfect,11,GGG
69 Perfect,11,GGT
5 Perfect,11,GTA
1 Perfect,11,GTC
40 Perfect,11,GTG
4 Perfect,11,GTT
76 Perfect,11,TAA
17 Perfect,11,TAC
8 Perfect,11,TAG
95 Perfect,11,TAT
14 Perfect,11,TCA
71 Perfect,11,TCC
1 Perfect,11,TCG
36 Perfect,11,TCT
70 Perfect,11,TGA
69 Perfect,11,TGC
83 Perfect,11,TGG
11 Perfect,11,TGT
170 Perfect,11,TTA
104 Perfect,11,TTC
237 Perfect,11,TTG
1380 Perfect,11,TTT
1011 Perfect,12,AAA
14 Perfect,12,AAC
12 Perfect,12,AAG
70 Perfect,12,AAT
8 Perfect,12,ACA
4 Perfect,12,ACC
1 Perfect,12,ACT
16 Perfect,12,AGA
19 Perfect,12,AGC
36 Perfect,12,AGG
5 Perfect,12,AGT
40 Perfect,12,ATA
16 Perfect,12,ATC
13 Perfect,12,ATG
82 Perfect,12,ATT
56 Perfect,12,CAA
30 Perfect,12,CAC
18 Perfect,12,CAG
19 Perfect,12,CAT
25 Perfect,12,CCA
16 Perfect,12,CCC
6 Perfect,12,CCG
40 Perfect,12,CCT
2 Perfect,12,CGA
5 Perfect,12,CGC
1 Perfect,12,CGG
5 Perfect,12,CTA
35 Perfect,12,CTC
29 Perfect,12,CTG
21 Perfect,12,CTT
42 Perfect,12,GAA
30 Perfect,12,GAG
5 Perfect,12,GAT
11 Perfect,12,GCA
8 Perfect,12,GCC
7 Perfect,12,GCG
22 Perfect,12,GCT
20 Perfect,12,GGA
10 Perfect,12,GGC
21 Perfect,12,GGG
10 Perfect,12,GGT
2 Perfect,12,GTA
27 Perfect,12,GTG
13 Perfect,12,GTT
49 Perfect,12,TAA
4 Perfect,12,TAC
1 Perfect,12,TAG
35 Perfect,12,TAT
13 Perfect,12,TCA
30 Perfect,12,TCC
9 Perfect,12,TCT
13 Perfect,12,TGA
13 Perfect,12,TGC
27 Perfect,12,TGG
3 Perfect,12,TGT
47 Perfect,12,TTA
20 Perfect,12,TTC
60 Perfect,12,TTG
1135 Perfect,12,TTT
945 Perfect,13,AAA
20 Perfect,13,AAC
12 Perfect,13,AAG
43 Perfect,13,AAT
17 Perfect,13,ACA
16 Perfect,13,ACC
1 Perfect,13,ACG
9 Perfect,13,AGA
14 Perfect,13,AGC
20 Perfect,13,AGG
70 Perfect,13,ATA
10 Perfect,13,ATC
8 Perfect,13,ATG
17 Perfect,13,ATT
2 Perfect,13,CAA
4 Perfect,13,CAC
16 Perfect,13,CAG
9 Perfect,13,CAT
10 Perfect,13,CCA
5 Perfect,13,CCC
4 Perfect,13,CCG
22 Perfect,13,CCT
1 Perfect,13,CGA
4 Perfect,13,CGC
4 Perfect,13,CGG
1 Perfect,13,CTA
13 Perfect,13,CTC
12 Perfect,13,CTG
7 Perfect,13,CTT
13 Perfect,13,GAA
14 Perfect,13,GAG
11 Perfect,13,GAT
3 Perfect,13,GCA
1 Perfect,13,GCC
2 Perfect,13,GCG
15 Perfect,13,GCT
10 Perfect,13,GGA
4 Perfect,13,GGC
15 Perfect,13,GGG
8 Perfect,13,GGT
11 Perfect,13,GTG
1 Perfect,13,GTT
23 Perfect,13,TAA
2 Perfect,13,TAC
4 Perfect,13,TAG
47 Perfect,13,TAT
11 Perfect,13,TCA
12 Perfect,13,TCC
9 Perfect,13,TCT
9 Perfect,13,TGA
6 Perfect,13,TGC
12 Perfect,13,TGG
25 Perfect,13,TGT
78 Perfect,13,TTA
11 Perfect,13,TTC
26 Perfect,13,TTG
980 Perfect,13,TTT
857 Perfect,14,AAA
107 Perfect,14,AAC
30 Perfect,14,AAG
75 Perfect,14,AAT
3 Perfect,14,ACA
5 Perfect,14,ACC
4 Perfect,14,AGA
8 Perfect,14,AGC
15 Perfect,14,AGG
1 Perfect,14,AGT
12 Perfect,14,ATA
7 Perfect,14,ATC
13 Perfect,14,ATG
19 Perfect,14,ATT
7 Perfect,14,CAA
17 Perfect,14,CAC
13 Perfect,14,CAG
10 Perfect,14,CAT
8 Perfect,14,CCA
6 Perfect,14,CCC
3 Perfect,14,CCG
8 Perfect,14,CCT
4 Perfect,14,CGC
3 Perfect,14,CGG
1 Perfect,14,CTA
13 Perfect,14,CTC
8 Perfect,14,CTG
4 Perfect,14,CTT
7 Perfect,14,GAA
13 Perfect,14,GAG
5 Perfect,14,GAT
6 Perfect,14,GCA
5 Perfect,14,GCC
1 Perfect,14,GCG
1 Perfect,14,GCT
9 Perfect,14,GGA
1 Perfect,14,GGC
5 Perfect,14,GGG
5 Perfect,14,GGT
1 Perfect,14,GTA
3 Perfect,14,GTG
2 Perfect,14,GTT
8 Perfect,14,TAA
1 Perfect,14,TAG
11 Perfect,14,TAT
5 Perfect,14,TCA
14 Perfect,14,TCC
4 Perfect,14,TCT
12 Perfect,14,TGA
8 Perfect,14,TGC
14 Perfect,14,TGG
3 Perfect,14,TGT
84 Perfect,14,TTA
29 Perfect,14,TTC
117 Perfect,14,TTG
859 Perfect,14,TTT
715 Perfect,15,AAA
4 Perfect,15,AAC
9 Perfect,15,AAG
38 Perfect,15,AAT
1 Perfect,15,ACA
3 Perfect,15,ACC
3 Perfect,15,AGA
1 Perfect,15,AGC
7 Perfect,15,AGG
8 Perfect,15,ATA
2 Perfect,15,ATC
2 Perfect,15,ATG
36 Perfect,15,ATT
23 Perfect,15,CAA
4 Perfect,15,CAC
2 Perfect,15,CAG
2 Perfect,15,CAT
5 Perfect,15,CCA
2 Perfect,15,CCC
1 Perfect,15,CCG
8 Perfect,15,CCT
1 Perfect,15,CGC
2 Perfect,15,CGG
5 Perfect,15,CTC
3 Perfect,15,CTG
10 Perfect,15,CTT
6 Perfect,15,GAA
7 Perfect,15,GAG
4 Perfect,15,GAT
2 Perfect,15,GCA
2 Perfect,15,GCC
2 Perfect,15,GCG
1 Perfect,15,GCT
4 Perfect,15,GGA
5 Perfect,15,GGC
5 Perfect,15,GGG
2 Perfect,15,GGT
1 Perfect,15,GTC
5 Perfect,15,GTG
3 Perfect,15,GTT
8 Perfect,15,TAA
1 Perfect,15,TAC
4 Perfect,15,TAT
2 Perfect,15,TCA
3 Perfect,15,TCC
3 Perfect,15,TCT
1 Perfect,15,TGA
3 Perfect,15,TGC
5 Perfect,15,TGG
3 Perfect,15,TGT
8 Perfect,15,TTA
5 Perfect,15,TTC
23 Perfect,15,TTG
788 Perfect,15,TTT
708 Perfect,16,AAA
6 Perfect,16,AAC
9 Perfect,16,AAG
22 Perfect,16,AAT
8 Perfect,16,ACA
3 Perfect,16,ACC
1 Perfect,16,ACT
3 Perfect,16,AGA
2 Perfect,16,AGC
4 Perfect,16,AGG
1 Perfect,16,AGT
20 Perfect,16,ATA
1 Perfect,16,ATC
1 Perfect,16,ATG
4 Perfect,16,ATT
1 Perfect,16,CAC
6 Perfect,16,CAG
2 Perfect,16,CAT
2 Perfect,16,CCA
2 Perfect,16,CCC
2 Perfect,16,CCG
2 Perfect,16,CCT
4 Perfect,16,CGC
7 Perfect,16,CTC
2 Perfect,16,CTG
4 Perfect,16,CTT
2 Perfect,16,GAA
6 Perfect,16,GAG
5 Perfect,16,GAT
2 Perfect,16,GCA
1 Perfect,16,GCC
1 Perfect,16,GCG
5 Perfect,16,GCT
5 Perfect,16,GGA
5 Perfect,16,GGC
1 Perfect,16,GGG
6 Perfect,16,GGT
4 Perfect,16,GTG
1 Perfect,16,GTT
4 Perfect,16,TAA
1 Perfect,16,TAG
25 Perfect,16,TAT
1 Perfect,16,TCA
4 Perfect,16,TCC
5 Perfect,16,TCT
3 Perfect,16,TGA
3 Perfect,16,TGC
5 Perfect,16,TGG
10 Perfect,16,TGT
11 Perfect,16,TTA
2 Perfect,16,TTC
8 Perfect,16,TTG
698 Perfect,16,TTT
557 Perfect,17,AAA
62 Perfect,17,AAC
18 Perfect,17,AAG
40 Perfect,17,AAT
5 Perfect,17,ACC
2 Perfect,17,AGA
2 Perfect,17,AGC
4 Perfect,17,AGG
2 Perfect,17,ATA
4 Perfect,17,ATC
2 Perfect,17,ATG
1 Perfect,17,ATT
1 Perfect,17,CAA
10 Perfect,17,CAC
4 Perfect,17,CAG
3 Perfect,17,CAT
1 Perfect,17,CCA
2 Perfect,17,CCC
2 Perfect,17,CCG
1 Perfect,17,CCT
1 Perfect,17,CGG
3 Perfect,17,CTC
1 Perfect,17,CTT
4 Perfect,17,GAA
1 Perfect,17,GAC
4 Perfect,17,GAG
2 Perfect,17,GAT
2 Perfect,17,GCC
1 Perfect,17,GCG
1 Perfect,17,GCT
2 Perfect,17,GGA
1 Perfect,17,GGT
2 Perfect,17,GTG
2 Perfect,17,TAA
1 Perfect,17,TAC
1 Perfect,17,TAG
4 Perfect,17,TAT
11 Perfect,17,TCC
3 Perfect,17,TCT
2 Perfect,17,TGA
7 Perfect,17,TGC
8 Perfect,17,TGG
3 Perfect,17,TGT
27 Perfect,17,TTA
20 Perfect,17,TTC
53 Perfect,17,TTG
561 Perfect,17,TTT
400 Perfect,18,AAA
4 Perfect,18,AAC
1 Perfect,18,AAG
16 Perfect,18,AAT
2 Perfect,18,AGA
1 Perfect,18,AGC
1 Perfect,18,AGG
2 Perfect,18,ATA
13 Perfect,18,ATT
17 Perfect,18,CAA
2 Perfect,18,CAG
1 Perfect,18,CAT
3 Perfect,18,CCA
1 Perfect,18,CCT
1 Perfect,18,CGC
2 Perfect,18,CGG
6 Perfect,18,CTC
3 Perfect,18,CTG
3 Perfect,18,CTT
2 Perfect,18,GAA
2 Perfect,18,GAG
3 Perfect,18,GCC
2 Perfect,18,GCG
2 Perfect,18,GCT
1 Perfect,18,GGA
3 Perfect,18,GGT
9 Perfect,18,GTT
9 Perfect,18,TAA
1 Perfect,18,TAC
3 Perfect,18,TAT
1 Perfect,18,TCA
2 Perfect,18,TCC
1 Perfect,18,TCT
1 Perfect,18,TGA
1 Perfect,18,TGC
6 Perfect,18,TTA
1 Perfect,18,TTC
13 Perfect,18,TTG
439 Perfect,18,TTT
383 Perfect,19,AAA
2 Perfect,19,AAC
3 Perfect,19,AAG
9 Perfect,19,AAT
9 Perfect,19,ACA
4 Perfect,19,ACC
3 Perfect,19,AGG
5 Perfect,19,ATA
1 Perfect,19,ATC
1 Perfect,19,ATG
3 Perfect,19,ATT
1 Perfect,19,CAG
1 Perfect,19,CCA
2 Perfect,19,CCT
1 Perfect,19,CTC
1 Perfect,19,CTT
1 Perfect,19,GAA
1 Perfect,19,GAG
1 Perfect,19,GAT
1 Perfect,19,GCA
1 Perfect,19,GCG
1 Perfect,19,GGC
2 Perfect,19,GGG
2 Perfect,19,GGT
1 Perfect,19,GTG
2 Perfect,19,GTT
1 Perfect,19,TAA
6 Perfect,19,TAT
4 Perfect,19,TCC
6 Perfect,19,TCT
2 Perfect,19,TGG
4 Perfect,19,TGT
4 Perfect,19,TTA
6 Perfect,19,TTG
407 Perfect,19,TTT
342 Perfect,20,AAA
20 Perfect,20,AAC
7 Perfect,20,AAG
18 Perfect,20,AAT
1 Perfect,20,ACA
1 Perfect,20,ACC
2 Perfect,20,AGG
3 Perfect,20,ATA
2 Perfect,20,ATC
1 Perfect,20,ATT
1 Perfect,20,CAG
1 Perfect,20,CCC
1 Perfect,20,CCG
2 Perfect,20,CCT
1 Perfect,20,CGG
1 Perfect,20,GAA
6 Perfect,20,GAG
1 Perfect,20,GCA
5 Perfect,20,GCC
2 Perfect,20,GCG
3 Perfect,20,GCT
1 Perfect,20,GGA
1 Perfect,20,GGC
1 Perfect,20,GGT
1 Perfect,20,GTT
2 Perfect,20,TAA
3 Perfect,20,TAT
3 Perfect,20,TCA
5 Perfect,20,TCC
1 Perfect,20,TGA
3 Perfect,20,TGG
1 Perfect,20,TGT
21 Perfect,20,TTA
4 Perfect,20,TTC
30 Perfect,20,TTG
339 Perfect,20,TTT
272 Perfect,21,AAA
2 Perfect,21,AAG
13 Perfect,21,AAT
2 Perfect,21,AGC
1 Perfect,21,ATC
16 Perfect,21,ATT
6 Perfect,21,CAA
1 Perfect,21,CAC
1 Perfect,21,CAG
1 Perfect,21,CAT
2 Perfect,21,CCT
1 Perfect,21,CTA
1 Perfect,21,CTG
1 Perfect,21,CTT
1 Perfect,21,GAA
1 Perfect,21,GAT
1 Perfect,21,GCA
2 Perfect,21,GCC
1 Perfect,21,GCT
2 Perfect,21,GGA
1 Perfect,21,GTT
1 Perfect,21,TAA
2 Perfect,21,TCC
2 Perfect,21,TCT
1 Perfect,21,TGA
1 Perfect,21,TGC
1 Perfect,21,TGG
4 Perfect,21,TTA
1 Perfect,21,TTC
5 Perfect,21,TTG
294 Perfect,21,TTT
271 Perfect,22,AAA
3 Perfect,22,AAC
1 Perfect,22,AAG
5 Perfect,22,AAT
2 Perfect,22,ACA
1 Perfect,22,ACC
2 Perfect,22,ATG
1 Perfect,22,ATT
1 Perfect,22,CAA
1 Perfect,22,CAT
1 Perfect,22,CTG
1 Perfect,22,CTT
1 Perfect,22,GCG
1 Perfect,22,GGC
3 Perfect,22,TAA
1 Perfect,22,TAG
1 Perfect,22,TAT
1 Perfect,22,TCC
1 Perfect,22,TCT
1 Perfect,22,TGA
1 Perfect,22,TGC
2 Perfect,22,TGG
4 Perfect,22,TGT
1 Perfect,22,TTA
1 Perfect,22,TTG
290 Perfect,22,TTT
229 Perfect,23,AAA
16 Perfect,23,AAC
2 Perfect,23,AAG
8 Perfect,23,AAT
1 Perfect,23,AGC
1 Perfect,23,AGG
1 Perfect,23,ATA
2 Perfect,23,CAC
1 Perfect,23,CAG
1 Perfect,23,CCC
1 Perfect,23,CCG
1 Perfect,23,CCT
1 Perfect,23,CGC
1 Perfect,23,CTC
2 Perfect,23,GAA
1 Perfect,23,GAG
1 Perfect,23,GGC
1 Perfect,23,GTG
3 Perfect,23,TCA
2 Perfect,23,TGC
1 Perfect,23,TGG
1 Perfect,23,TGT
7 Perfect,23,TTA
17 Perfect,23,TTG
224 Perfect,23,TTT
188 Perfect,24,AAA
4 Perfect,24,AAT
1 Perfect,24,ACA
1 Perfect,24,ATA
5 Perfect,24,ATT
2 Perfect,24,GCC
1 Perfect,24,GCG
1 Perfect,24,TAA
1 Perfect,24,TAG
1 Perfect,24,TAT
1 Perfect,24,TCC
2 Perfect,24,TCT
1 Perfect,24,TGC
1 Perfect,24,TGT
1 Perfect,24,TTA
1 Perfect,24,TTC
4 Perfect,24,TTG
194 Perfect,24,TTT
143 Perfect,25,AAA
1 Perfect,25,AAT
1 Perfect,25,AGG
2 Perfect,25,ATA
1 Perfect,25,ATC
2 Perfect,25,CCT
1 Perfect,25,CGG
1 Perfect,25,CTC
1 Perfect,25,CTT
1 Perfect,25,GCC
1 Perfect,25,GTA
1 Perfect,25,GTG
1 Perfect,25,TAA
3 Perfect,25,TAT
2 Perfect,25,TCC
1 Perfect,25,TCT
1 Perfect,25,TGA
2 Perfect,25,TGG
1 Perfect,25,TTA
1 Perfect,25,TTG
165 Perfect,25,TTT
107 Perfect,26,AAA
7 Perfect,26,AAC
5 Perfect,26,AAT
1 Perfect,26,ACC
1 Perfect,26,ATG
1 Perfect,26,ATT
1 Perfect,26,CAC
1 Perfect,26,CAG
1 Perfect,26,CCA
1 Perfect,26,CCT
1 Perfect,26,CTG
1 Perfect,26,GAG
1 Perfect,26,GGC
1 Perfect,26,GTG
1 Perfect,26,TAA
1 Perfect,26,TGC
1 Perfect,26,TGG
6 Perfect,26,TTA
1 Perfect,26,TTC
6 Perfect,26,TTG
161 Perfect,26,TTT
74 Perfect,27,AAA
2 Perfect,27,AAT
2 Perfect,27,CAA
1 Perfect,27,CTC
1 Perfect,27,GCC
1 Perfect,27,GTG
1 Perfect,27,GTT
1 Perfect,27,TAA
2 Perfect,27,TTA
3 Perfect,27,TTG
87 Perfect,27,TTT
59 Perfect,28,AAA
1 Perfect,28,AAC
1 Perfect,28,AAG
2 Perfect,28,AAT
2 Perfect,28,ATA
1 Perfect,28,ATC
1 Perfect,28,GCG
2 Perfect,28,TAT
1 Perfect,28,TCT
1 Perfect,28,TGT
1 Perfect,28,TTA
73 Perfect,28,TTT
50 Perfect,29,AAA
3 Perfect,29,AAT
1 Perfect,29,ATA
1 Perfect,29,ATG
1 Perfect,29,ATT
1 Perfect,29,CAG
1 Perfect,29,GTG
1 Perfect,29,TAA
1 Perfect,29,TGG
4 Perfect,29,TTA
1 Perfect,29,TTC
3 Perfect,29,TTG
55 Perfect,29,TTT
40 Perfect,30,AAA
1 Perfect,30,AAG
1 Perfect,30,ATA
1 Perfect,30,CAA
1 Perfect,30,TCA
1 Perfect,30,TCC
1 Perfect,30,TGT
1 Perfect,30,TTC
2 Perfect,30,TTG
41 Perfect,30,TTT
27 Perfect,31,AAA
1 Perfect,31,AAT
1 Perfect,31,ATA
1 Perfect,31,CCA
1 Perfect,31,TAA
3 Perfect,31,TAT
1 Perfect,31,TGA
1 Perfect,31,TTA
40 Perfect,31,TTT
27 Perfect,32,AAA
2 Perfect,32,AAC
2 Perfect,32,AAT
1 Perfect,32,AGC
1 Perfect,32,ATG
1 Perfect,32,ATT
1 Perfect,32,CTC
1 Perfect,32,TAT
1 Perfect,32,TTA
2 Perfect,32,TTG
20 Perfect,32,TTT
12 Perfect,33,AAA
1 Perfect,33,AAG
1 Perfect,33,ATT
1 Perfect,33,CAA
1 Perfect,33,GGA
1 Perfect,33,TCA
1 Perfect,33,TGA
2 Perfect,33,TTA
1 Perfect,33,TTC
14 Perfect,33,TTT
7 Perfect,34,AAA
1 Perfect,34,AAT
1 Perfect,34,ATA
1 Perfect,34,ATC
1 Perfect,34,TAA
1 Perfect,34,TAT
1 Perfect,34,TGT
15 Perfect,34,TTT
8 Perfect,35,AAA
2 Perfect,35,AAC
1 Perfect,35,CTC
1 Perfect,35,GAG
2 Perfect,35,TTG
7 Perfect,35,TTT
4 Perfect,36,AAA
1 Perfect,36,AAT
1 Perfect,36,ATC
1 Perfect,36,GGA
1 Perfect,36,TAA
6 Perfect,36,TTT
9 Perfect,37,AAA
2 Perfect,37,TAT
10 Perfect,37,TTT
7 Perfect,38,AAA
2 Perfect,38,AAT
1 Perfect,38,AGA
1 Perfect,38,AGT
1 Perfect,38,CCG
1 Perfect,38,TCT
1 Perfect,38,TGA
1 Perfect,38,TTA
1 Perfect,38,TTC
7 Perfect,38,TTT
6 Perfect,39,AAA
1 Perfect,39,AAT
1 Perfect,39,ATA
2 Perfect,39,ATT
1 Perfect,39,CTG
1 Perfect,39,GAT
1 Perfect,39,GTT
6 Perfect,39,TTT
4 Perfect,40,AAA
3 Perfect,40,AAT
1 Perfect,40,ATT
2 Perfect,40,TAT
1 Perfect,40,TCC
2 Perfect,40,TTA
6 Perfect,40,TTT
3 Perfect,41,AAA
1 Perfect,41,ATC
1 Perfect,41,ATT
1 Perfect,41,CCA
1 Perfect,41,TTA
7 Perfect,41,TTT
4 Perfect,42,AAA
2 Perfect,42,AAT
2 Perfect,42,ATA
1 Perfect,42,ATC
1 Perfect,42,CAC
1 Perfect,42,GCG
1 Perfect,42,TTG
5 Perfect,42,TTT
2 Perfect,43,AAA
1 Perfect,43,AAT
1 Perfect,43,ATA
1 Perfect,43,ATC
1 Perfect,43,TAA
1 Perfect,43,TAT
1 Perfect,43,TTT
2 Perfect,44,AAA
2 Perfect,44,AAT
1 Perfect,44,CTC
1 Perfect,44,GGA
1 Perfect,44,GGT
3 Perfect,44,TTA
4 Perfect,44,TTT
4 Perfect,45,AAA
1 Perfect,45,ATA
1 Perfect,45,ATC
4 Perfect,45,ATT
1 Perfect,45,CAA
1 Perfect,45,TAA
1 Perfect,45,TGA
2 Perfect,45,TTG
1 Perfect,46,ATA
1 Perfect,46,TAC
1 Perfect,46,TAT
1 Perfect,46,TCT
1 Perfect,46,TGA
2 Perfect,46,TTT
1 Perfect,47,AAT
1 Perfect,47,TTA
2 Perfect,47,TTT
2 Perfect,48,AAA
1 Perfect,48,AAT
2 Perfect,48,TTT
1 Perfect,49,AAA
1 Perfect,49,AAT
1 Perfect,49,TAT
2 Perfect,49,TTT
1 Perfect,50,AAA
1 Perfect,50,AAG
2 Perfect,50,AAT
1 Perfect,51,AAA
1 Perfect,51,AAT
1 Perfect,51,ATA
2 Perfect,52,CTT
1 Perfect,53,AAA
1 Perfect,55,TAT
1 Perfect,56,TTT
1 Perfect,57,TTT
1 Perfect,58,TCT
1 Perfect,60,TTT
1 Perfect,62,GAA
1 Perfect,62,TTC
1 Perfect,63,CTT
1 Perfect,64,AGA
1 Perfect,66,TCT
1 Perfect,67,CTT
1 Perfect,68,TCT
32080 Perfect,6,AAA
6747 Perfect,6,AAC
15011 Perfect,6,AAG
16582 Perfect,6,AAT
8754 Perfect,6,ACA
5853 Perfect,6,ACC
298 Perfect,6,ACG
6347 Perfect,6,ACT
13858 Perfect,6,AGA
9137 Perfect,6,AGC
20645 Perfect,6,AGG
6202 Perfect,6,AGT
9545 Perfect,6,ATA
6136 Perfect,6,ATC
10389 Perfect,6,ATG
16922 Perfect,6,ATT
11921 Perfect,6,CAA
10718 Perfect,6,CAC
16215 Perfect,6,CAG
10001 Perfect,6,CAT
16185 Perfect,6,CCA
7010 Perfect,6,CCC
683 Perfect,6,CCG
20560 Perfect,6,CCT
232 Perfect,6,CGA
708 Perfect,6,CGC
737 Perfect,6,CGG
324 Perfect,6,CGT
11611 Perfect,6,CTA
11144 Perfect,6,CTC
16319 Perfect,6,CTG
16651 Perfect,6,CTT
14376 Perfect,6,GAA
1166 Perfect,6,GAC
11496 Perfect,6,GAG
6116 Perfect,6,GAT
8563 Perfect,6,GCA
3583 Perfect,6,GCC
719 Perfect,6,GCG
8790 Perfect,6,GCT
13196 Perfect,6,GGA
3347 Perfect,6,GGC
6812 Perfect,6,GGG
6022 Perfect,6,GGT
3952 Perfect,6,GTA
1135 Perfect,6,GTC
11174 Perfect,6,GTG
6925 Perfect,6,GTT
11716 Perfect,6,TAA
3532 Perfect,6,TAC
11868 Perfect,6,TAG
9963 Perfect,6,TAT
10347 Perfect,6,TCA
13283 Perfect,6,TCC
224 Perfect,6,TCG
14354 Perfect,6,TCT
10659 Perfect,6,TGA
8781 Perfect,6,TGC
16733 Perfect,6,TGG
9408 Perfect,6,TGT
11900 Perfect,6,TTA
14791 Perfect,6,TTC
12586 Perfect,6,TTG
33713 Perfect,6,TTT
1 Perfect,70,AAG
1 Perfect,71,CTT
13598 Perfect,7,AAA
3531 Perfect,7,AAC
4791 Perfect,7,AAG
4419 Perfect,7,AAT
2675 Perfect,7,ACA
2671 Perfect,7,ACC
51 Perfect,7,ACG
1196 Perfect,7,ACT
6644 Perfect,7,AGA
3087 Perfect,7,AGC
5510 Perfect,7,AGG
1394 Perfect,7,AGT
3669 Perfect,7,ATA
2303 Perfect,7,ATC
3216 Perfect,7,ATG
3176 Perfect,7,ATT
1320 Perfect,7,CAA
2234 Perfect,7,CAC
4039 Perfect,7,CAG
2171 Perfect,7,CAT
7193 Perfect,7,CCA
1095 Perfect,7,CCC
284 Perfect,7,CCG
4193 Perfect,7,CCT
62 Perfect,7,CGA
383 Perfect,7,CGC
311 Perfect,7,CGG
117 Perfect,7,CGT
841 Perfect,7,CTA
3964 Perfect,7,CTC
3549 Perfect,7,CTG
3454 Perfect,7,CTT
3433 Perfect,7,GAA
168 Perfect,7,GAC
4200 Perfect,7,GAG
2309 Perfect,7,GAT
3633 Perfect,7,GCA
318 Perfect,7,GCC
293 Perfect,7,GCG
4005 Perfect,7,GCT
3735 Perfect,7,GGA
395 Perfect,7,GGC
1042 Perfect,7,GGG
2242 Perfect,7,GGT
897 Perfect,7,GTA
61 Perfect,7,GTC
7512 Perfect,7,GTG
1430 Perfect,7,GTT
3216 Perfect,7,TAA
1346 Perfect,7,TAC
1255 Perfect,7,TAG
4543 Perfect,7,TAT
3234 Perfect,7,TCA
5473 Perfect,7,TCC
57 Perfect,7,TCG
4927 Perfect,7,TCT
2374 Perfect,7,TGA
3107 Perfect,7,TGC
2791 Perfect,7,TGG
3644 Perfect,7,TGT
3819 Perfect,7,TTA
6730 Perfect,7,TTC
2711 Perfect,7,TTG
14317 Perfect,7,TTT
5116 Perfect,8,AAA
1358 Perfect,8,AAC
2535 Perfect,8,AAG
2350 Perfect,8,AAT
318 Perfect,8,ACA
672 Perfect,8,ACC
13 Perfect,8,ACG
213 Perfect,8,ACT
1050 Perfect,8,AGA
1182 Perfect,8,AGC
1327 Perfect,8,AGG
284 Perfect,8,AGT
1032 Perfect,8,ATA
799 Perfect,8,ATC
788 Perfect,8,ATG
1027 Perfect,8,ATT
751 Perfect,8,CAA
1779 Perfect,8,CAC
2147 Perfect,8,CAG
847 Perfect,8,CAT
1212 Perfect,8,CCA
202 Perfect,8,CCC
239 Perfect,8,CCG
1879 Perfect,8,CCT
11 Perfect,8,CGA
65 Perfect,8,CGC
57 Perfect,8,CGG
14 Perfect,8,CGT
280 Perfect,8,CTA
1301 Perfect,8,CTC
1146 Perfect,8,CTG
1081 Perfect,8,CTT
1035 Perfect,8,GAA
43 Perfect,8,GAC
1173 Perfect,8,GAG
643 Perfect,8,GAT
891 Perfect,8,GCA
157 Perfect,8,GCC
151 Perfect,8,GCG
934 Perfect,8,GCT
1906 Perfect,8,GGA
225 Perfect,8,GGC
240 Perfect,8,GGG
1225 Perfect,8,GGT
194 Perfect,8,GTA
12 Perfect,8,GTC
770 Perfect,8,GTG
365 Perfect,8,GTT
1038 Perfect,8,TAA
315 Perfect,8,TAC
309 Perfect,8,TAG
1035 Perfect,8,TAT
659 Perfect,8,TCA
1153 Perfect,8,TCC
30 Perfect,8,TCG
1055 Perfect,8,TCT
838 Perfect,8,TGA
1533 Perfect,8,TGC
1736 Perfect,8,TGG
730 Perfect,8,TGT
2363 Perfect,8,TTA
2571 Perfect,8,TTC
1352 Perfect,8,TTG
5392 Perfect,8,TTT
3046 Perfect,9,AAA
155 Perfect,9,AAC
339 Perfect,9,AAG
624 Perfect,9,AAT
181 Perfect,9,ACA
164 Perfect,9,ACC
76 Perfect,9,ACT
344 Perfect,9,AGA
314 Perfect,9,AGC
560 Perfect,9,AGG
78 Perfect,9,AGT
385 Perfect,9,ATA
124 Perfect,9,ATC
223 Perfect,9,ATG
654 Perfect,9,ATT
251 Perfect,9,CAA
1099 Perfect,9,CAC
454 Perfect,9,CAG
192 Perfect,9,CAT
578 Perfect,9,CCA
84 Perfect,9,CCC
29 Perfect,9,CCG
541 Perfect,9,CCT
35 Perfect,9,CGA
36 Perfect,9,CGC
26 Perfect,9,CGG
3 Perfect,9,CGT
51 Perfect,9,CTA
371 Perfect,9,CTC
461 Perfect,9,CTG
329 Perfect,9,CTT
445 Perfect,9,GAA
9 Perfect,9,GAC
393 Perfect,9,GAG
136 Perfect,9,GAT
256 Perfect,9,GCA
78 Perfect,9,GCC
40 Perfect,9,GCG
324 Perfect,9,GCT
392 Perfect,9,GGA
80 Perfect,9,GGC
100 Perfect,9,GGG
188 Perfect,9,GGT
59 Perfect,9,GTA
7 Perfect,9,GTC
1151 Perfect,9,GTG
161 Perfect,9,GTT
378 Perfect,9,TAA
42 Perfect,9,TAC
85 Perfect,9,TAG
393 Perfect,9,TAT
355 Perfect,9,TCA
403 Perfect,9,TCC
1 Perfect,9,TCG
362 Perfect,9,TCT
354 Perfect,9,TGA
285 Perfect,9,TGC
564 Perfect,9,TGG
154 Perfect,9,TGT
459 Perfect,9,TTA
458 Perfect,9,TTC
311 Perfect,9,TTG
3171 Perfect,9,TTT
