345769 Imperfect,5,AAAA
168649 Imperfect,5,AAAC
161668 Imperfect,5,AAAG
224080 Imperfect,5,AAAT
113203 Imperfect,5,AACA
90022 Imperfect,5,AACC
11630 Imperfect,5,AACG
81418 Imperfect,5,AACT
149794 Imperfect,5,AAGA
111818 Imperfect,5,AAGC
105478 Imperfect,5,AAGG
90431 Imperfect,5,AAGT
149590 Imperfect,5,AATA
113090 Imperfect,5,AATC
123702 Imperfect,5,AATG
147806 Imperfect,5,AATT
217399 Imperfect,5,ACAA
136940 Imperfect,5,ACAC
174092 Imperfect,5,ACAG
125875 Imperfect,5,ACAT
96269 Imperfect,5,ACCA
99585 Imperfect,5,ACCC
10494 Imperfect,5,ACCG
64261 Imperfect,5,ACCT
15394 Imperfect,5,ACGA
13358 Imperfect,5,ACGC
17993 Imperfect,5,ACGG
15238 Imperfect,5,ACGT
99109 Imperfect,5,ACTA
99254 Imperfect,5,ACTC
110818 Imperfect,5,ACTG
90692 Imperfect,5,ACTT
271905 Imperfect,5,AGAA
115198 Imperfect,5,AGAC
167009 Imperfect,5,AGAG
111062 Imperfect,5,AGAT
120609 Imperfect,5,AGCA
118516 Imperfect,5,AGCC
14294 Imperfect,5,AGCG
91139 Imperfect,5,AGCT
156245 Imperfect,5,AGGA
110330 Imperfect,5,AGGC
101947 Imperfect,5,AGGG
72381 Imperfect,5,AGGT
104469 Imperfect,5,AGTA
86868 Imperfect,5,AGTC
108503 Imperfect,5,AGTG
87379 Imperfect,5,AGTT
212602 Imperfect,5,ATAA
118590 Imperfect,5,ATAC
96934 Imperfect,5,ATAG
130727 Imperfect,5,ATAT
98452 Imperfect,5,ATCA
88903 Imperfect,5,ATCC
10257 Imperfect,5,ATCG
74036 Imperfect,5,ATCT
147103 Imperfect,5,ATGA
97152 Imperfect,5,ATGC
110848 Imperfect,5,ATGG
94294 Imperfect,5,ATGT
140139 Imperfect,5,ATTA
123265 Imperfect,5,ATTC
90420 Imperfect,5,ATTG
151819 Imperfect,5,ATTT
74074 Imperfect,5,CAAA
57418 Imperfect,5,CAAC
59332 Imperfect,5,CAAG
52651 Imperfect,5,CAAT
77579 Imperfect,5,CACA
66146 Imperfect,5,CACC
26843 Imperfect,5,CACG
83549 Imperfect,5,CACT
58539 Imperfect,5,CAGA
133671 Imperfect,5,CAGC
114718 Imperfect,5,CAGG
60979 Imperfect,5,CAGT
42490 Imperfect,5,CATA
68838 Imperfect,5,CATC
77263 Imperfect,5,CATG
94380 Imperfect,5,CATT
69093 Imperfect,5,CCAA
106368 Imperfect,5,CCAC
117267 Imperfect,5,CCAG
87753 Imperfect,5,CCAT
76295 Imperfect,5,CCCA
65830 Imperfect,5,CCCC
13890 Imperfect,5,CCCG
73152 Imperfect,5,CCCT
7487 Imperfect,5,CCGA
25733 Imperfect,5,CCGC
16840 Imperfect,5,CCGG
18139 Imperfect,5,CCGT
45369 Imperfect,5,CCTA
107918 Imperfect,5,CCTC
80036 Imperfect,5,CCTG
86968 Imperfect,5,CCTT
11720 Imperfect,5,CGAA
9681 Imperfect,5,CGAC
12548 Imperfect,5,CGAG
15326 Imperfect,5,CGAT
14661 Imperfect,5,CGCA
25883 Imperfect,5,CGCC
9226 Imperfect,5,CGCG
18095 Imperfect,5,CGCT
9270 Imperfect,5,CGGA
27036 Imperfect,5,CGGC
21486 Imperfect,5,CGGG
10174 Imperfect,5,CGGT
7436 Imperfect,5,CGTA
13771 Imperfect,5,CGTC
20456 Imperfect,5,CGTG
13677 Imperfect,5,CGTT
45400 Imperfect,5,CTAA
42830 Imperfect,5,CTAC
38522 Imperfect,5,CTAG
41265 Imperfect,5,CTAT
81847 Imperfect,5,CTCA
123379 Imperfect,5,CTCC
10337 Imperfect,5,CTCG
83445 Imperfect,5,CTCT
69274 Imperfect,5,CTGA
86123 Imperfect,5,CTGC
86688 Imperfect,5,CTGG
71915 Imperfect,5,CTGT
48855 Imperfect,5,CTTA
96219 Imperfect,5,CTTC
58420 Imperfect,5,CTTG
98614 Imperfect,5,CTTT
1 Imperfect,5,CYGG
107869 Imperfect,5,GAAA
11094 Imperfect,5,GAAC
85569 Imperfect,5,GAAG
91090 Imperfect,5,GAAT
77792 Imperfect,5,GACA
8094 Imperfect,5,GACC
15792 Imperfect,5,GACG
65366 Imperfect,5,GACT
88383 Imperfect,5,GAGA
13070 Imperfect,5,GAGC
74664 Imperfect,5,GAGG
77909 Imperfect,5,GAGT
45280 Imperfect,5,GATA
11849 Imperfect,5,GATC
83207 Imperfect,5,GATG
60775 Imperfect,5,GATT
80671 Imperfect,5,GCAA
17457 Imperfect,5,GCAC
108413 Imperfect,5,GCAG
89778 Imperfect,5,GCAT
108105 Imperfect,5,GCCA
20926 Imperfect,5,GCCC
22334 Imperfect,5,GCCG
143067 Imperfect,5,GCCT
15701 Imperfect,5,GCGA
8336 Imperfect,5,GCGC
21259 Imperfect,5,GCGG
29134 Imperfect,5,GCGT
48045 Imperfect,5,GCTA
10596 Imperfect,5,GCTC
159293 Imperfect,5,GCTG
74738 Imperfect,5,GCTT
112788 Imperfect,5,GGAA
10973 Imperfect,5,GGAC
146627 Imperfect,5,GGAG
69190 Imperfect,5,GGAT
100119 Imperfect,5,GGCA
19488 Imperfect,5,GGCC
21665 Imperfect,5,GGCG
111273 Imperfect,5,GGCT
89829 Imperfect,5,GGGA
21669 Imperfect,5,GGGC
65518 Imperfect,5,GGGG
70767 Imperfect,5,GGGT
48686 Imperfect,5,GGTA
6827 Imperfect,5,GGTC
100546 Imperfect,5,GGTG
62370 Imperfect,5,GGTT
1 Imperfect,5,GRCC
53967 Imperfect,5,GTAA
4913 Imperfect,5,GTAC
45859 Imperfect,5,GTAG
46665 Imperfect,5,GTAT
79154 Imperfect,5,GTCA
7672 Imperfect,5,GTCC
9090 Imperfect,5,GTCG
67508 Imperfect,5,GTCT
113036 Imperfect,5,GTGA
12484 Imperfect,5,GTGC
95389 Imperfect,5,GTGG
91619 Imperfect,5,GTGT
49509 Imperfect,5,GTTA
9851 Imperfect,5,GTTC
68346 Imperfect,5,GTTG
87364 Imperfect,5,GTTT
157400 Imperfect,5,TAAA
84083 Imperfect,5,TAAC
81280 Imperfect,5,TAAG
165750 Imperfect,5,TAAT
99459 Imperfect,5,TACA
74360 Imperfect,5,TACC
13265 Imperfect,5,TACG
105715 Imperfect,5,TACT
75967 Imperfect,5,TAGA
89236 Imperfect,5,TAGC
58159 Imperfect,5,TAGG
89720 Imperfect,5,TAGT
136836 Imperfect,5,TATA
112286 Imperfect,5,TATC
109704 Imperfect,5,TATG
273001 Imperfect,5,TATT
105514 Imperfect,5,TCAA
131053 Imperfect,5,TCAC
106297 Imperfect,5,TCAG
154798 Imperfect,5,TCAT
110532 Imperfect,5,TCCA
112007 Imperfect,5,TCCC
13261 Imperfect,5,TCCG
133014 Imperfect,5,TCCT
10205 Imperfect,5,TCGA
16480 Imperfect,5,TCGC
9991 Imperfect,5,TCGG
15590 Imperfect,5,TCGT
105839 Imperfect,5,TCTA
171127 Imperfect,5,TCTC
150744 Imperfect,5,TCTG
221514 Imperfect,5,TCTT
127418 Imperfect,5,TGAA
87632 Imperfect,5,TGAC
92849 Imperfect,5,TGAG
132415 Imperfect,5,TGAT
101125 Imperfect,5,TGCA
122461 Imperfect,5,TGCC
10906 Imperfect,5,TGCG
128889 Imperfect,5,TGCT
93085 Imperfect,5,TGGA
121807 Imperfect,5,TGGC
84139 Imperfect,5,TGGG
102406 Imperfect,5,TGGT
135358 Imperfect,5,TGTA
128289 Imperfect,5,TGTC
125906 Imperfect,5,TGTG
207861 Imperfect,5,TGTT
123656 Imperfect,5,TTAA
84802 Imperfect,5,TTAC
79286 Imperfect,5,TTAG
144679 Imperfect,5,TTAT
127081 Imperfect,5,TTCA
141125 Imperfect,5,TTCC
12235 Imperfect,5,TTCG
156778 Imperfect,5,TTCT
87454 Imperfect,5,TTGA
104094 Imperfect,5,TTGC
79724 Imperfect,5,TTGG
113431 Imperfect,5,TTGT
171847 Imperfect,5,TTTA
214540 Imperfect,5,TTTC
166464 Imperfect,5,TTTG
343767 Imperfect,5,TTTT
105220 Imperfect,6,AAAA
44582 Imperfect,6,AAAC
56138 Imperfect,6,AAAG
65174 Imperfect,6,AAAT
75470 Imperfect,6,AACA
31193 Imperfect,6,AACC
5108 Imperfect,6,AACG
29716 Imperfect,6,AACT
95644 Imperfect,6,AAGA
42906 Imperfect,6,AAGC
52704 Imperfect,6,AAGG
36649 Imperfect,6,AAGT
83682 Imperfect,6,AATA
33074 Imperfect,6,AATC
50487 Imperfect,6,AATG
48185 Imperfect,6,AATT
18163 Imperfect,6,ACAA
17948 Imperfect,6,ACAC
15466 Imperfect,6,ACAG
13873 Imperfect,6,ACAT
15965 Imperfect,6,ACCA
15881 Imperfect,6,ACCC
1490 Imperfect,6,ACCG
12192 Imperfect,6,ACCT
2347 Imperfect,6,ACGA
3303 Imperfect,6,ACGC
2759 Imperfect,6,ACGG
2779 Imperfect,6,ACGT
11733 Imperfect,6,ACTA
14969 Imperfect,6,ACTC
12957 Imperfect,6,ACTG
13180 Imperfect,6,ACTT
40944 Imperfect,6,AGAA
32847 Imperfect,6,AGAC
31226 Imperfect,6,AGAG
15979 Imperfect,6,AGAT
31904 Imperfect,6,AGCA
38024 Imperfect,6,AGCC
7334 Imperfect,6,AGCG
16580 Imperfect,6,AGCT
41584 Imperfect,6,AGGA
38019 Imperfect,6,AGGC
27914 Imperfect,6,AGGG
16606 Imperfect,6,AGGT
18036 Imperfect,6,AGTA
23105 Imperfect,6,AGTC
44913 Imperfect,6,AGTG
15812 Imperfect,6,AGTT
48099 Imperfect,6,ATAA
30018 Imperfect,6,ATAC
21726 Imperfect,6,ATAG
46760 Imperfect,6,ATAT
28477 Imperfect,6,ATCA
23910 Imperfect,6,ATCC
2774 Imperfect,6,ATCG
26089 Imperfect,6,ATCT
34125 Imperfect,6,ATGA
25558 Imperfect,6,ATGC
22563 Imperfect,6,ATGG
38053 Imperfect,6,ATGT
32312 Imperfect,6,ATTA
29480 Imperfect,6,ATTC
20427 Imperfect,6,ATTG
46525 Imperfect,6,ATTT
29984 Imperfect,6,CAAA
17461 Imperfect,6,CAAC
20397 Imperfect,6,CAAG
19486 Imperfect,6,CAAT
35376 Imperfect,6,CACA
30621 Imperfect,6,CACC
4429 Imperfect,6,CACG
22279 Imperfect,6,CACT
28779 Imperfect,6,CAGA
30765 Imperfect,6,CAGC
40404 Imperfect,6,CAGG
21106 Imperfect,6,CAGT
21426 Imperfect,6,CATA
20682 Imperfect,6,CATC
23633 Imperfect,6,CATG
29378 Imperfect,6,CATT
13608 Imperfect,6,CCAA
24905 Imperfect,6,CCAC
52343 Imperfect,6,CCAG
22207 Imperfect,6,CCAT
28348 Imperfect,6,CCCA
12368 Imperfect,6,CCCC
9916 Imperfect,6,CCCG
21954 Imperfect,6,CCCT
3379 Imperfect,6,CCGA
8590 Imperfect,6,CCGC
9266 Imperfect,6,CCGG
3992 Imperfect,6,CCGT
10596 Imperfect,6,CCTA
61494 Imperfect,6,CCTC
25451 Imperfect,6,CCTG
25269 Imperfect,6,CCTT
446 Imperfect,6,CGAA
600 Imperfect,6,CGAC
1103 Imperfect,6,CGAG
397 Imperfect,6,CGAT
764 Imperfect,6,CGCA
4577 Imperfect,6,CGCC
894 Imperfect,6,CGCG
897 Imperfect,6,CGCT
1068 Imperfect,6,CGGA
2151 Imperfect,6,CGGC
4359 Imperfect,6,CGGG
438 Imperfect,6,CGGT
266 Imperfect,6,CGTA
1112 Imperfect,6,CGTC
1147 Imperfect,6,CGTG
451 Imperfect,6,CGTT
16293 Imperfect,6,CTAA
19226 Imperfect,6,CTAC
14293 Imperfect,6,CTAG
19633 Imperfect,6,CTAT
41473 Imperfect,6,CTCA
29422 Imperfect,6,CTCC
4480 Imperfect,6,CTCG
36574 Imperfect,6,CTCT
23183 Imperfect,6,CTGA
51477 Imperfect,6,CTGC
34717 Imperfect,6,CTGG
42746 Imperfect,6,CTGT
17444 Imperfect,6,CTTA
38685 Imperfect,6,CTTC
26324 Imperfect,6,CTTG
43196 Imperfect,6,CTTT
32282 Imperfect,6,GAAA
2545 Imperfect,6,GAAC
24520 Imperfect,6,GAAG
23265 Imperfect,6,GAAT
43292 Imperfect,6,GACA
2291 Imperfect,6,GACC
6879 Imperfect,6,GACG
19490 Imperfect,6,GACT
32030 Imperfect,6,GAGA
2638 Imperfect,6,GAGC
21595 Imperfect,6,GAGG
19749 Imperfect,6,GAGT
16647 Imperfect,6,GATA
3572 Imperfect,6,GATC
26160 Imperfect,6,GATG
13647 Imperfect,6,GATT
11840 Imperfect,6,GCAA
3248 Imperfect,6,GCAC
14968 Imperfect,6,GCAG
12392 Imperfect,6,GCAT
16119 Imperfect,6,GCCA
3083 Imperfect,6,GCCC
3381 Imperfect,6,GCCG
15595 Imperfect,6,GCCT
2536 Imperfect,6,GCGA
1827 Imperfect,6,GCGC
5229 Imperfect,6,GCGG
3723 Imperfect,6,GCGT
7127 Imperfect,6,GCTA
2117 Imperfect,6,GCTC
16381 Imperfect,6,GCTG
11468 Imperfect,6,GCTT
26966 Imperfect,6,GGAA
3455 Imperfect,6,GGAC
24747 Imperfect,6,GGAG
21242 Imperfect,6,GGAT
42537 Imperfect,6,GGCA
8996 Imperfect,6,GGCC
10223 Imperfect,6,GGCG
56637 Imperfect,6,GGCT
61038 Imperfect,6,GGGA
5946 Imperfect,6,GGGC
12255 Imperfect,6,GGGG
21170 Imperfect,6,GGGT
12859 Imperfect,6,GGTA
3134 Imperfect,6,GGTC
34557 Imperfect,6,GGTG
14462 Imperfect,6,GGTT
15012 Imperfect,6,GTAA
2223 Imperfect,6,GTAC
11485 Imperfect,6,GTAG
19276 Imperfect,6,GTAT
16001 Imperfect,6,GTCA
2210 Imperfect,6,GTCC
1677 Imperfect,6,GTCG
23431 Imperfect,6,GTCT
15909 Imperfect,6,GTGA
2114 Imperfect,6,GTGC
14662 Imperfect,6,GTGG
24253 Imperfect,6,GTGT
9770 Imperfect,6,GTTA
1870 Imperfect,6,GTTC
14600 Imperfect,6,GTTG
20801 Imperfect,6,GTTT
43831 Imperfect,6,TAAA
16240 Imperfect,6,TAAC
18346 Imperfect,6,TAAG
31560 Imperfect,6,TAAT
35628 Imperfect,6,TACA
17375 Imperfect,6,TACC
4171 Imperfect,6,TACG
23188 Imperfect,6,TACT
23939 Imperfect,6,TAGA
17069 Imperfect,6,TAGC
17001 Imperfect,6,TAGG
19254 Imperfect,6,TAGT
38597 Imperfect,6,TATA
18754 Imperfect,6,TATC
25137 Imperfect,6,TATG
42711 Imperfect,6,TATT
12099 Imperfect,6,TCAA
22792 Imperfect,6,TCAC
15864 Imperfect,6,TCAG
25250 Imperfect,6,TCAT
25536 Imperfect,6,TCCA
23003 Imperfect,6,TCCC
5772 Imperfect,6,TCCG
28466 Imperfect,6,TCCT
3916 Imperfect,6,TCGA
6778 Imperfect,6,TCGC
2424 Imperfect,6,TCGG
3349 Imperfect,6,TCGT
13359 Imperfect,6,TCTA
25619 Imperfect,6,TCTC
26842 Imperfect,6,TCTG
29721 Imperfect,6,TCTT
27217 Imperfect,6,TGAA
20811 Imperfect,6,TGAC
20429 Imperfect,6,TGAG
20315 Imperfect,6,TGAT
24491 Imperfect,6,TGCA
43790 Imperfect,6,TGCC
5073 Imperfect,6,TGCG
28206 Imperfect,6,TGCT
22810 Imperfect,6,TGGA
29968 Imperfect,6,TGGC
29281 Imperfect,6,TGGG
18686 Imperfect,6,TGGT
17638 Imperfect,6,TGTA
24046 Imperfect,6,TGTC
31423 Imperfect,6,TGTG
30169 Imperfect,6,TGTT
49108 Imperfect,6,TTAA
33577 Imperfect,6,TTAC
27215 Imperfect,6,TTAG
92845 Imperfect,6,TTAT
54555 Imperfect,6,TTCA
51190 Imperfect,6,TTCC
6627 Imperfect,6,TTCG
89556 Imperfect,6,TTCT
38292 Imperfect,6,TTGA
40703 Imperfect,6,TTGC
30352 Imperfect,6,TTGG
72309 Imperfect,6,TTGT
60019 Imperfect,6,TTTA
64525 Imperfect,6,TTTC
46185 Imperfect,6,TTTG
104630 Imperfect,6,TTTT
29646 Imperfect,7,AAAA
31837 Imperfect,7,AAAC
38262 Imperfect,7,AAAG
35798 Imperfect,7,AAAT
4752 Imperfect,7,AACA
3655 Imperfect,7,AACC
666 Imperfect,7,AACG
4512 Imperfect,7,AACT
9389 Imperfect,7,AAGA
7890 Imperfect,7,AAGC
9951 Imperfect,7,AAGG
4671 Imperfect,7,AAGT
13099 Imperfect,7,AATA
9377 Imperfect,7,AATC
10525 Imperfect,7,AATG
9036 Imperfect,7,AATT
7479 Imperfect,7,ACAA
9505 Imperfect,7,ACAC
9673 Imperfect,7,ACAG
7590 Imperfect,7,ACAT
2288 Imperfect,7,ACCA
2888 Imperfect,7,ACCC
387 Imperfect,7,ACCG
1866 Imperfect,7,ACCT
89 Imperfect,7,ACGA
97 Imperfect,7,ACGC
161 Imperfect,7,ACGG
77 Imperfect,7,ACGT
2712 Imperfect,7,ACTA
4756 Imperfect,7,ACTC
4641 Imperfect,7,ACTG
4048 Imperfect,7,ACTT
10836 Imperfect,7,AGAA
18187 Imperfect,7,AGAC
11672 Imperfect,7,AGAG
5655 Imperfect,7,AGAT
2451 Imperfect,7,AGCA
3965 Imperfect,7,AGCC
799 Imperfect,7,AGCG
1867 Imperfect,7,AGCT
7428 Imperfect,7,AGGA
20835 Imperfect,7,AGGC
7727 Imperfect,7,AGGG
4402 Imperfect,7,AGGT
4022 Imperfect,7,AGTA
4611 Imperfect,7,AGTC
4868 Imperfect,7,AGTG
2677 Imperfect,7,AGTT
11556 Imperfect,7,ATAA
11693 Imperfect,7,ATAC
7059 Imperfect,7,ATAG
11950 Imperfect,7,ATAT
1808 Imperfect,7,ATCA
4103 Imperfect,7,ATCC
450 Imperfect,7,ATCG
2510 Imperfect,7,ATCT
5712 Imperfect,7,ATGA
5019 Imperfect,7,ATGC
5857 Imperfect,7,ATGG
4014 Imperfect,7,ATGT
9116 Imperfect,7,ATTA
10869 Imperfect,7,ATTC
9203 Imperfect,7,ATTG
13348 Imperfect,7,ATTT
5609 Imperfect,7,CAAA
4404 Imperfect,7,CAAC
10136 Imperfect,7,CAAG
4102 Imperfect,7,CAAT
5556 Imperfect,7,CACA
4152 Imperfect,7,CACC
1356 Imperfect,7,CACG
3890 Imperfect,7,CACT
4866 Imperfect,7,CAGA
7179 Imperfect,7,CAGC
7593 Imperfect,7,CAGG
4681 Imperfect,7,CAGT
4011 Imperfect,7,CATA
5676 Imperfect,7,CATC
5087 Imperfect,7,CATG
6148 Imperfect,7,CATT
3256 Imperfect,7,CCAA
5167 Imperfect,7,CCAC
8041 Imperfect,7,CCAG
3993 Imperfect,7,CCAT
8741 Imperfect,7,CCCA
1626 Imperfect,7,CCCC
2908 Imperfect,7,CCCG
7903 Imperfect,7,CCCT
194 Imperfect,7,CCGA
515 Imperfect,7,CCGC
900 Imperfect,7,CCGG
394 Imperfect,7,CCGT
4586 Imperfect,7,CCTA
7665 Imperfect,7,CCTC
20826 Imperfect,7,CCTG
7535 Imperfect,7,CCTT
66 Imperfect,7,CGAA
74 Imperfect,7,CGAC
107 Imperfect,7,CGAG
52 Imperfect,7,CGAT
459 Imperfect,7,CGCA
384 Imperfect,7,CGCC
330 Imperfect,7,CGCG
288 Imperfect,7,CGCT
316 Imperfect,7,CGGA
862 Imperfect,7,CGGC
489 Imperfect,7,CGGG
186 Imperfect,7,CGGT
96 Imperfect,7,CGTA
136 Imperfect,7,CGTC
119 Imperfect,7,CGTG
90 Imperfect,7,CGTT
2346 Imperfect,7,CTAA
2641 Imperfect,7,CTAC
3903 Imperfect,7,CTAG
2192 Imperfect,7,CTAT
8833 Imperfect,7,CTCA
6221 Imperfect,7,CTCC
3987 Imperfect,7,CTCG
5665 Imperfect,7,CTCT
4580 Imperfect,7,CTGA
7772 Imperfect,7,CTGC
6998 Imperfect,7,CTGG
4870 Imperfect,7,CTGT
4803 Imperfect,7,CTTA
9872 Imperfect,7,CTTC
8022 Imperfect,7,CTTG
9275 Imperfect,7,CTTT
7923 Imperfect,7,GAAA
969 Imperfect,7,GAAC
9548 Imperfect,7,GAAG
7320 Imperfect,7,GAAT
1873 Imperfect,7,GACA
292 Imperfect,7,GACC
438 Imperfect,7,GACG
1770 Imperfect,7,GACT
5745 Imperfect,7,GAGA
3796 Imperfect,7,GAGC
6149 Imperfect,7,GAGG
8636 Imperfect,7,GAGT
2558 Imperfect,7,GATA
463 Imperfect,7,GATC
4361 Imperfect,7,GATG
1794 Imperfect,7,GATT
2589 Imperfect,7,GCAA
885 Imperfect,7,GCAC
4238 Imperfect,7,GCAG
4381 Imperfect,7,GCAT
4375 Imperfect,7,GCCA
2463 Imperfect,7,GCCC
1052 Imperfect,7,GCCG
3807 Imperfect,7,GCCT
328 Imperfect,7,GCGA
319 Imperfect,7,GCGC
399 Imperfect,7,GCGG
447 Imperfect,7,GCGT
1801 Imperfect,7,GCTA
849 Imperfect,7,GCTC
3879 Imperfect,7,GCTG
2670 Imperfect,7,GCTT
5791 Imperfect,7,GGAA
991 Imperfect,7,GGAC
5052 Imperfect,7,GGAG
4699 Imperfect,7,GGAT
3762 Imperfect,7,GGCA
1041 Imperfect,7,GGCC
2486 Imperfect,7,GGCG
4185 Imperfect,7,GGCT
7921 Imperfect,7,GGGA
2907 Imperfect,7,GGGC
1646 Imperfect,7,GGGG
8866 Imperfect,7,GGGT
1826 Imperfect,7,GGTA
456 Imperfect,7,GGTC
2853 Imperfect,7,GGTG
2350 Imperfect,7,GGTT
2417 Imperfect,7,GTAA
591 Imperfect,7,GTAC
2415 Imperfect,7,GTAG
2411 Imperfect,7,GTAT
1806 Imperfect,7,GTCA
403 Imperfect,7,GTCC
286 Imperfect,7,GTCG
1949 Imperfect,7,GTCT
3924 Imperfect,7,GTGA
1448 Imperfect,7,GTGC
4336 Imperfect,7,GTGG
5739 Imperfect,7,GTGT
3184 Imperfect,7,GTTA
715 Imperfect,7,GTTC
3751 Imperfect,7,GTTG
4716 Imperfect,7,GTTT
9841 Imperfect,7,TAAA
5714 Imperfect,7,TAAC
7321 Imperfect,7,TAAG
8312 Imperfect,7,TAAT
2293 Imperfect,7,TACA
2462 Imperfect,7,TACC
592 Imperfect,7,TACG
2454 Imperfect,7,TACT
2362 Imperfect,7,TAGA
4040 Imperfect,7,TAGC
2525 Imperfect,7,TAGG
2331 Imperfect,7,TAGT
11981 Imperfect,7,TATA
6972 Imperfect,7,TATC
11417 Imperfect,7,TATG
11407 Imperfect,7,TATT
3415 Imperfect,7,TCAA
5889 Imperfect,7,TCAC
4980 Imperfect,7,TCAG
5712 Imperfect,7,TCAT
4751 Imperfect,7,TCCA
5088 Imperfect,7,TCCC
924 Imperfect,7,TCCG
5750 Imperfect,7,TCCT
50 Imperfect,7,TCGA
128 Imperfect,7,TCGC
65 Imperfect,7,TCGG
58 Imperfect,7,TCGT
5752 Imperfect,7,TCTA
11102 Imperfect,7,TCTC
15180 Imperfect,7,TCTG
12102 Imperfect,7,TCTT
5550 Imperfect,7,TGAA
5072 Imperfect,7,TGAC
5705 Imperfect,7,TGAG
3387 Imperfect,7,TGAT
4315 Imperfect,7,TGCA
4286 Imperfect,7,TGCC
927 Imperfect,7,TGCG
2606 Imperfect,7,TGCT
3905 Imperfect,7,TGGA
8088 Imperfect,7,TGGC
5355 Imperfect,7,TGGG
3316 Imperfect,7,TGGT
7945 Imperfect,7,TGTA
9681 Imperfect,7,TGTC
11129 Imperfect,7,TGTG
7673 Imperfect,7,TGTT
8316 Imperfect,7,TTAA
7140 Imperfect,7,TTAC
5665 Imperfect,7,TTAG
10005 Imperfect,7,TTAT
7378 Imperfect,7,TTCA
9752 Imperfect,7,TTCC
948 Imperfect,7,TTCG
8070 Imperfect,7,TTCT
4283 Imperfect,7,TTGA
10154 Imperfect,7,TTGC
4355 Imperfect,7,TTGG
5429 Imperfect,7,TTGT
35461 Imperfect,7,TTTA
38248 Imperfect,7,TTTC
31741 Imperfect,7,TTTG
29362 Imperfect,7,TTTT
4040 Perfect,10,AAAA
742 Perfect,10,AAAC
717 Perfect,10,AAAG
868 Perfect,10,AAAT
363 Perfect,10,AACA
119 Perfect,10,AACC
6 Perfect,10,AACG
70 Perfect,10,AACT
856 Perfect,10,AAGA
160 Perfect,10,AAGC
472 Perfect,10,AAGG
120 Perfect,10,AAGT
633 Perfect,10,AATA
141 Perfect,10,AATC
548 Perfect,10,AATG
333 Perfect,10,AATT
83 Perfect,10,ACAA
395 Perfect,10,ACAC
90 Perfect,10,ACAG
72 Perfect,10,ACAT
41 Perfect,10,ACCA
77 Perfect,10,ACCC
30 Perfect,10,ACCT
3 Perfect,10,ACGC
3 Perfect,10,ACGG
2 Perfect,10,ACGT
23 Perfect,10,ACTA
66 Perfect,10,ACTC
46 Perfect,10,ACTG
38 Perfect,10,ACTT
352 Perfect,10,AGAA
138 Perfect,10,AGAC
350 Perfect,10,AGAG
62 Perfect,10,AGAT
113 Perfect,10,AGCA
125 Perfect,10,AGCC
7 Perfect,10,AGCG
48 Perfect,10,AGCT
292 Perfect,10,AGGA
1226 Perfect,10,AGGC
252 Perfect,10,AGGG
58 Perfect,10,AGGT
58 Perfect,10,AGTA
83 Perfect,10,AGTC
117 Perfect,10,AGTG
29 Perfect,10,AGTT
511 Perfect,10,ATAA
237 Perfect,10,ATAC
126 Perfect,10,ATAG
914 Perfect,10,ATAT
127 Perfect,10,ATCA
118 Perfect,10,ATCC
2 Perfect,10,ATCG
120 Perfect,10,ATCT
304 Perfect,10,ATGA
164 Perfect,10,ATGC
119 Perfect,10,ATGG
218 Perfect,10,ATGT
196 Perfect,10,ATTA
288 Perfect,10,ATTC
135 Perfect,10,ATTG
515 Perfect,10,ATTT
168 Perfect,10,CAAA
88 Perfect,10,CAAC
81 Perfect,10,CAAG
67 Perfect,10,CAAT
682 Perfect,10,CACA
126 Perfect,10,CACC
10 Perfect,10,CACG
112 Perfect,10,CACT
130 Perfect,10,CAGA
126 Perfect,10,CAGC
160 Perfect,10,CAGG
72 Perfect,10,CAGT
107 Perfect,10,CATA
117 Perfect,10,CATC
160 Perfect,10,CATG
227 Perfect,10,CATT
30 Perfect,10,CCAA
187 Perfect,10,CCAC
193 Perfect,10,CCAG
92 Perfect,10,CCAT
205 Perfect,10,CCCA
69 Perfect,10,CCCC
64 Perfect,10,CCCG
255 Perfect,10,CCCT
48 Perfect,10,CCGC
21 Perfect,10,CCGG
6 Perfect,10,CCGT
34 Perfect,10,CCTA
429 Perfect,10,CCTC
231 Perfect,10,CCTG
228 Perfect,10,CCTT
1 Perfect,10,CGAA
1 Perfect,10,CGAC
3 Perfect,10,CGAG
1 Perfect,10,CGAT
3 Perfect,10,CGCA
14 Perfect,10,CGCC
7 Perfect,10,CGCG
3 Perfect,10,CGCT
4 Perfect,10,CGGA
11 Perfect,10,CGGC
11 Perfect,10,CGGG
1 Perfect,10,CGTC
2 Perfect,10,CGTG
38 Perfect,10,CTAA
70 Perfect,10,CTAC
34 Perfect,10,CTAG
83 Perfect,10,CTAT
128 Perfect,10,CTCA
277 Perfect,10,CTCC
3 Perfect,10,CTCG
404 Perfect,10,CTCT
76 Perfect,10,CTGA
1200 Perfect,10,CTGC
138 Perfect,10,CTGG
157 Perfect,10,CTGT
54 Perfect,10,CTTA
311 Perfect,10,CTTC
102 Perfect,10,CTTG
387 Perfect,10,CTTT
297 Perfect,10,GAAA
1 Perfect,10,GAAC
223 Perfect,10,GAAG
171 Perfect,10,GAAT
125 Perfect,10,GACA
2 Perfect,10,GACC
4 Perfect,10,GACG
60 Perfect,10,GACT
397 Perfect,10,GAGA
6 Perfect,10,GAGC
209 Perfect,10,GAGG
84 Perfect,10,GAGT
37 Perfect,10,GATA
105 Perfect,10,GATG
59 Perfect,10,GATT
39 Perfect,10,GCAA
9 Perfect,10,GCAC
89 Perfect,10,GCAG
40 Perfect,10,GCAT
71 Perfect,10,GCCA
25 Perfect,10,GCCC
12 Perfect,10,GCCG
89 Perfect,10,GCCT
8 Perfect,10,GCGA
23 Perfect,10,GCGC
21 Perfect,10,GCGG
13 Perfect,10,GCGT
9 Perfect,10,GCTA
6 Perfect,10,GCTC
84 Perfect,10,GCTG
29 Perfect,10,GCTT
248 Perfect,10,GGAA
6 Perfect,10,GGAC
258 Perfect,10,GGAG
102 Perfect,10,GGAT
238 Perfect,10,GGCA
20 Perfect,10,GGCC
75 Perfect,10,GGCG
143 Perfect,10,GGCT
534 Perfect,10,GGGA
44 Perfect,10,GGGC
73 Perfect,10,GGGG
188 Perfect,10,GGGT
37 Perfect,10,GGTA
3 Perfect,10,GGTC
209 Perfect,10,GGTG
38 Perfect,10,GGTT
32 Perfect,10,GTAA
1 Perfect,10,GTAC
33 Perfect,10,GTAG
89 Perfect,10,GTAT
58 Perfect,10,GTCA
1 Perfect,10,GTCG
73 Perfect,10,GTCT
85 Perfect,10,GTGA
4 Perfect,10,GTGC
83 Perfect,10,GTGG
498 Perfect,10,GTGT
18 Perfect,10,GTTA
3 Perfect,10,GTTC
41 Perfect,10,GTTG
83 Perfect,10,GTTT
515 Perfect,10,TAAA
46 Perfect,10,TAAC
77 Perfect,10,TAAG
169 Perfect,10,TAAT
192 Perfect,10,TACA
41 Perfect,10,TACC
1 Perfect,10,TACG
53 Perfect,10,TACT
96 Perfect,10,TAGA
44 Perfect,10,TAGC
51 Perfect,10,TAGG
49 Perfect,10,TAGT
937 Perfect,10,TATA
108 Perfect,10,TATC
213 Perfect,10,TATG
491 Perfect,10,TATT
56 Perfect,10,TCAA
95 Perfect,10,TCAC
61 Perfect,10,TCAG
161 Perfect,10,TCAT
98 Perfect,10,TCCA
224 Perfect,10,TCCC
4 Perfect,10,TCCG
259 Perfect,10,TCCT
2 Perfect,10,TCGA
2 Perfect,10,TCGC
2 Perfect,10,TCGG
2 Perfect,10,TCGT
37 Perfect,10,TCTA
387 Perfect,10,TCTC
126 Perfect,10,TCTG
306 Perfect,10,TCTT
262 Perfect,10,TGAA
52 Perfect,10,TGAC
87 Perfect,10,TGAG
70 Perfect,10,TGAT
185 Perfect,10,TGCA
174 Perfect,10,TGCC
8 Perfect,10,TGCG
87 Perfect,10,TGCT
131 Perfect,10,TGGA
122 Perfect,10,TGGC
132 Perfect,10,TGGG
83 Perfect,10,TGGT
120 Perfect,10,TGTA
127 Perfect,10,TGTC
745 Perfect,10,TGTG
168 Perfect,10,TGTT
338 Perfect,10,TTAA
130 Perfect,10,TTAC
67 Perfect,10,TTAG
875 Perfect,10,TTAT
531 Perfect,10,TTCA
444 Perfect,10,TTCC
5 Perfect,10,TTCG
750 Perfect,10,TTCT
143 Perfect,10,TTGA
174 Perfect,10,TTGC
128 Perfect,10,TTGG
752 Perfect,10,TTGT
659 Perfect,10,TTTA
894 Perfect,10,TTTC
363 Perfect,10,TTTG
4021 Perfect,10,TTTT
2522 Perfect,11,AAAA
962 Perfect,11,AAAC
1034 Perfect,11,AAAG
866 Perfect,11,AAAT
30 Perfect,11,AACA
30 Perfect,11,AACC
3 Perfect,11,AACG
5 Perfect,11,AACT
114 Perfect,11,AAGA
48 Perfect,11,AAGC
138 Perfect,11,AAGG
17 Perfect,11,AAGT
239 Perfect,11,AATA
71 Perfect,11,AATC
175 Perfect,11,AATG
101 Perfect,11,AATT
58 Perfect,11,ACAA
720 Perfect,11,ACAC
49 Perfect,11,ACAG
155 Perfect,11,ACAT
9 Perfect,11,ACCA
60 Perfect,11,ACCC
11 Perfect,11,ACCT
1 Perfect,11,ACGA
1 Perfect,11,ACGC
1 Perfect,11,ACGG
10 Perfect,11,ACTA
152 Perfect,11,ACTC
20 Perfect,11,ACTG
11 Perfect,11,ACTT
225 Perfect,11,AGAA
105 Perfect,11,AGAC
370 Perfect,11,AGAG
35 Perfect,11,AGAT
14 Perfect,11,AGCA
23 Perfect,11,AGCC
5 Perfect,11,AGCG
8 Perfect,11,AGCT
139 Perfect,11,AGGA
117 Perfect,11,AGGC
193 Perfect,11,AGGG
21 Perfect,11,AGGT
14 Perfect,11,AGTA
17 Perfect,11,AGTC
182 Perfect,11,AGTG
9 Perfect,11,AGTT
209 Perfect,11,ATAA
278 Perfect,11,ATAC
80 Perfect,11,ATAG
605 Perfect,11,ATAT
11 Perfect,11,ATCA
48 Perfect,11,ATCC
1 Perfect,11,ATCG
42 Perfect,11,ATCT
91 Perfect,11,ATGA
66 Perfect,11,ATGC
63 Perfect,11,ATGG
43 Perfect,11,ATGT
82 Perfect,11,ATTA
223 Perfect,11,ATTC
82 Perfect,11,ATTG
245 Perfect,11,ATTT
66 Perfect,11,CAAA
23 Perfect,11,CAAC
34 Perfect,11,CAAG
19 Perfect,11,CAAT
284 Perfect,11,CACA
42 Perfect,11,CACC
35 Perfect,11,CACG
45 Perfect,11,CACT
33 Perfect,11,CAGA
57 Perfect,11,CAGC
77 Perfect,11,CAGG
28 Perfect,11,CAGT
41 Perfect,11,CATA
60 Perfect,11,CATC
70 Perfect,11,CATG
81 Perfect,11,CATT
21 Perfect,11,CCAA
92 Perfect,11,CCAC
38 Perfect,11,CCAG
83 Perfect,11,CCAT
137 Perfect,11,CCCA
50 Perfect,11,CCCC
31 Perfect,11,CCCG
121 Perfect,11,CCCT
11 Perfect,11,CCGC
8 Perfect,11,CCGG
3 Perfect,11,CCGT
18 Perfect,11,CCTA
159 Perfect,11,CCTC
125 Perfect,11,CCTG
123 Perfect,11,CCTT
1 Perfect,11,CGAA
7 Perfect,11,CGCC
13 Perfect,11,CGCG
5 Perfect,11,CGCT
5 Perfect,11,CGGC
3 Perfect,11,CGGG
1 Perfect,11,CGTG
8 Perfect,11,CTAA
13 Perfect,11,CTAC
19 Perfect,11,CTAG
27 Perfect,11,CTAT
55 Perfect,11,CTCA
119 Perfect,11,CTCC
16 Perfect,11,CTCG
147 Perfect,11,CTCT
21 Perfect,11,CTGA
87 Perfect,11,CTGC
56 Perfect,11,CTGG
48 Perfect,11,CTGT
23 Perfect,11,CTTA
119 Perfect,11,CTTC
37 Perfect,11,CTTG
112 Perfect,11,CTTT
153 Perfect,11,GAAA
1 Perfect,11,GAAC
176 Perfect,11,GAAG
104 Perfect,11,GAAT
20 Perfect,11,GACA
6 Perfect,11,GACT
171 Perfect,11,GAGA
19 Perfect,11,GAGC
112 Perfect,11,GAGG
62 Perfect,11,GAGT
35 Perfect,11,GATA
1 Perfect,11,GATC
53 Perfect,11,GATG
12 Perfect,11,GATT
20 Perfect,11,GCAA
1 Perfect,11,GCAC
34 Perfect,11,GCAG
27 Perfect,11,GCAT
30 Perfect,11,GCCA
16 Perfect,11,GCCC
6 Perfect,11,GCCG
38 Perfect,11,GCCT
2 Perfect,11,GCGA
12 Perfect,11,GCGC
6 Perfect,11,GCGG
4 Perfect,11,GCGT
6 Perfect,11,GCTA
28 Perfect,11,GCTG
13 Perfect,11,GCTT
91 Perfect,11,GGAA
4 Perfect,11,GGAC
139 Perfect,11,GGAG
40 Perfect,11,GGAT
41 Perfect,11,GGCA
12 Perfect,11,GGCC
11 Perfect,11,GGCG
27 Perfect,11,GGCT
124 Perfect,11,GGGA
19 Perfect,11,GGGC
53 Perfect,11,GGGG
106 Perfect,11,GGGT
10 Perfect,11,GGTA
69 Perfect,11,GGTG
12 Perfect,11,GGTT
11 Perfect,11,GTAA
2 Perfect,11,GTAC
10 Perfect,11,GTAG
22 Perfect,11,GTAT
8 Perfect,11,GTCA
1 Perfect,11,GTCC
1 Perfect,11,GTCG
20 Perfect,11,GTCT
30 Perfect,11,GTGA
19 Perfect,11,GTGC
42 Perfect,11,GTGG
308 Perfect,11,GTGT
10 Perfect,11,GTTA
1 Perfect,11,GTTC
19 Perfect,11,GTTG
29 Perfect,11,GTTT
173 Perfect,11,TAAA
21 Perfect,11,TAAC
37 Perfect,11,TAAG
57 Perfect,11,TAAT
19 Perfect,11,TACA
8 Perfect,11,TACC
3 Perfect,11,TACG
5 Perfect,11,TACT
17 Perfect,11,TAGA
19 Perfect,11,TAGC
27 Perfect,11,TAGG
9 Perfect,11,TAGT
620 Perfect,11,TATA
96 Perfect,11,TATC
305 Perfect,11,TATG
195 Perfect,11,TATT
23 Perfect,11,TCAA
87 Perfect,11,TCAC
34 Perfect,11,TCAG
150 Perfect,11,TCAT
40 Perfect,11,TCCA
126 Perfect,11,TCCC
4 Perfect,11,TCCG
96 Perfect,11,TCCT
1 Perfect,11,TCGA
28 Perfect,11,TCTA
376 Perfect,11,TCTC
96 Perfect,11,TCTG
218 Perfect,11,TCTT
130 Perfect,11,TGAA
46 Perfect,11,TGAC
54 Perfect,11,TGAG
27 Perfect,11,TGAT
13 Perfect,11,TGCA
40 Perfect,11,TGCC
1 Perfect,11,TGCG
19 Perfect,11,TGCT
118 Perfect,11,TGGA
46 Perfect,11,TGGC
93 Perfect,11,TGGG
23 Perfect,11,TGGT
159 Perfect,11,TGTA
48 Perfect,11,TGTC
680 Perfect,11,TGTG
43 Perfect,11,TGTT
66 Perfect,11,TTAA
42 Perfect,11,TTAC
12 Perfect,11,TTAG
186 Perfect,11,TTAT
104 Perfect,11,TTCA
153 Perfect,11,TTCC
2 Perfect,11,TTCG
156 Perfect,11,TTCT
21 Perfect,11,TTGA
38 Perfect,11,TTGC
29 Perfect,11,TTGG
60 Perfect,11,TTGT
926 Perfect,11,TTTA
1061 Perfect,11,TTTC
928 Perfect,11,TTTG
2525 Perfect,11,TTTT
1984 Perfect,12,AAAA
89 Perfect,12,AAAC
126 Perfect,12,AAAG
245 Perfect,12,AAAT
25 Perfect,12,AACA
6 Perfect,12,AACC
1 Perfect,12,AACG
3 Perfect,12,AACT
65 Perfect,12,AAGA
10 Perfect,12,AAGC
50 Perfect,12,AAGG
6 Perfect,12,AAGT
98 Perfect,12,AATA
4 Perfect,12,AATC
72 Perfect,12,AATG
56 Perfect,12,AATT
22 Perfect,12,ACAA
183 Perfect,12,ACAC
9 Perfect,12,ACAG
26 Perfect,12,ACAT
4 Perfect,12,ACCA
10 Perfect,12,ACCC
4 Perfect,12,ACCT
24 Perfect,12,ACTC
3 Perfect,12,ACTG
5 Perfect,12,ACTT
88 Perfect,12,AGAA
13 Perfect,12,AGAC
119 Perfect,12,AGAG
17 Perfect,12,AGAT
11 Perfect,12,AGCA
7 Perfect,12,AGCC
9 Perfect,12,AGCT
51 Perfect,12,AGGA
98 Perfect,12,AGGC
59 Perfect,12,AGGG
3 Perfect,12,AGGT
1 Perfect,12,AGTA
6 Perfect,12,AGTC
27 Perfect,12,AGTG
5 Perfect,12,AGTT
89 Perfect,12,ATAA
36 Perfect,12,ATAC
8 Perfect,12,ATAG
359 Perfect,12,ATAT
8 Perfect,12,ATCA
23 Perfect,12,ATCC
8 Perfect,12,ATCT
45 Perfect,12,ATGA
7 Perfect,12,ATGC
35 Perfect,12,ATGG
29 Perfect,12,ATGT
23 Perfect,12,ATTA
40 Perfect,12,ATTC
14 Perfect,12,ATTG
242 Perfect,12,ATTT
138 Perfect,12,CAAA
4 Perfect,12,CAAC
7 Perfect,12,CAAG
11 Perfect,12,CAAT
268 Perfect,12,CACA
15 Perfect,12,CACC
1 Perfect,12,CACG
19 Perfect,12,CACT
18 Perfect,12,CAGA
15 Perfect,12,CAGC
23 Perfect,12,CAGG
5 Perfect,12,CAGT
24 Perfect,12,CATA
33 Perfect,12,CATC
15 Perfect,12,CATG
65 Perfect,12,CATT
6 Perfect,12,CCAA
12 Perfect,12,CCAC
17 Perfect,12,CCAG
34 Perfect,12,CCAT
27 Perfect,12,CCCA
17 Perfect,12,CCCC
4 Perfect,12,CCCG
46 Perfect,12,CCCT
4 Perfect,12,CCGC
2 Perfect,12,CCGG
4 Perfect,12,CCTA
63 Perfect,12,CCTC
22 Perfect,12,CCTG
51 Perfect,12,CCTT
1 Perfect,12,CGAG
1 Perfect,12,CGCA
2 Perfect,12,CGCC
1 Perfect,12,CGCG
1 Perfect,12,CGCT
2 Perfect,12,CGGC
2 Perfect,12,CGGG
1 Perfect,12,CTAA
5 Perfect,12,CTAC
3 Perfect,12,CTAG
9 Perfect,12,CTAT
23 Perfect,12,CTCA
44 Perfect,12,CTCC
2 Perfect,12,CTCG
129 Perfect,12,CTCT
6 Perfect,12,CTGA
16 Perfect,12,CTGC
25 Perfect,12,CTGG
19 Perfect,12,CTGT
8 Perfect,12,CTTA
62 Perfect,12,CTTC
6 Perfect,12,CTTG
131 Perfect,12,CTTT
144 Perfect,12,GAAA
59 Perfect,12,GAAG
38 Perfect,12,GAAT
10 Perfect,12,GACA
1 Perfect,12,GACC
2 Perfect,12,GACG
7 Perfect,12,GACT
157 Perfect,12,GAGA
3 Perfect,12,GAGC
58 Perfect,12,GAGG
17 Perfect,12,GAGT
27 Perfect,12,GATA
1 Perfect,12,GATC
35 Perfect,12,GATG
9 Perfect,12,GATT
6 Perfect,12,GCAA
3 Perfect,12,GCAC
17 Perfect,12,GCAG
5 Perfect,12,GCAT
8 Perfect,12,GCCA
4 Perfect,12,GCCC
2 Perfect,12,GCCG
87 Perfect,12,GCCT
1 Perfect,12,GCGA
8 Perfect,12,GCGC
2 Perfect,12,GCGG
3 Perfect,12,GCTA
3 Perfect,12,GCTC
15 Perfect,12,GCTG
10 Perfect,12,GCTT
47 Perfect,12,GGAA
2 Perfect,12,GGAC
63 Perfect,12,GGAG
18 Perfect,12,GGAT
15 Perfect,12,GGCA
1 Perfect,12,GGCC
9 Perfect,12,GGCG
11 Perfect,12,GGCT
51 Perfect,12,GGGA
3 Perfect,12,GGGC
37 Perfect,12,GGGG
10 Perfect,12,GGGT
4 Perfect,12,GGTA
17 Perfect,12,GGTG
12 Perfect,12,GGTT
7 Perfect,12,GTAA
1 Perfect,12,GTAG
39 Perfect,12,GTAT
4 Perfect,12,GTCA
3 Perfect,12,GTCC
14 Perfect,12,GTCT
13 Perfect,12,GTGA
4 Perfect,12,GTGC
27 Perfect,12,GTGG
171 Perfect,12,GTGT
2 Perfect,12,GTTA
1 Perfect,12,GTTC
7 Perfect,12,GTTG
95 Perfect,12,GTTT
142 Perfect,12,TAAA
4 Perfect,12,TAAG
17 Perfect,12,TAAT
39 Perfect,12,TACA
4 Perfect,12,TACC
7 Perfect,12,TACT
9 Perfect,12,TAGA
7 Perfect,12,TAGG
379 Perfect,12,TATA
24 Perfect,12,TATC
21 Perfect,12,TATG
106 Perfect,12,TATT
4 Perfect,12,TCAA
17 Perfect,12,TCAC
3 Perfect,12,TCAG
37 Perfect,12,TCAT
27 Perfect,12,TCCA
49 Perfect,12,TCCC
1 Perfect,12,TCCG
55 Perfect,12,TCCT
9 Perfect,12,TCTA
148 Perfect,12,TCTC
15 Perfect,12,TCTG
63 Perfect,12,TCTT
99 Perfect,12,TGAA
5 Perfect,12,TGAC
10 Perfect,12,TGAG
12 Perfect,12,TGAT
15 Perfect,12,TGCA
12 Perfect,12,TGCC
1 Perfect,12,TGCG
4 Perfect,12,TGCT
35 Perfect,12,TGGA
8 Perfect,12,TGGC
23 Perfect,12,TGGG
4 Perfect,12,TGGT
26 Perfect,12,TGTA
8 Perfect,12,TGTC
286 Perfect,12,TGTG
25 Perfect,12,TGTT
36 Perfect,12,TTAA
8 Perfect,12,TTAC
1 Perfect,12,TTAG
60 Perfect,12,TTAT
92 Perfect,12,TTCA
55 Perfect,12,TTCC
85 Perfect,12,TTCT
10 Perfect,12,TTGA
5 Perfect,12,TTGC
10 Perfect,12,TTGG
18 Perfect,12,TTGT
160 Perfect,12,TTTA
133 Perfect,12,TTTC
145 Perfect,12,TTTG
1934 Perfect,12,TTTT
1722 Perfect,13,AAAA
79 Perfect,13,AAAC
97 Perfect,13,AAAG
122 Perfect,13,AAAT
15 Perfect,13,AACA
5 Perfect,13,AACC
37 Perfect,13,AAGA
6 Perfect,13,AAGC
28 Perfect,13,AAGG
1 Perfect,13,AAGT
55 Perfect,13,AATA
7 Perfect,13,AATC
39 Perfect,13,AATG
10 Perfect,13,AATT
55 Perfect,13,ACAA
380 Perfect,13,ACAC
9 Perfect,13,ACAG
31 Perfect,13,ACAT
3 Perfect,13,ACCA
4 Perfect,13,ACCC
2 Perfect,13,ACCT
1 Perfect,13,ACTA
8 Perfect,13,ACTC
5 Perfect,13,ACTG
1 Perfect,13,ACTT
108 Perfect,13,AGAA
10 Perfect,13,AGAC
219 Perfect,13,AGAG
19 Perfect,13,AGAT
2 Perfect,13,AGCA
1 Perfect,13,AGCC
2 Perfect,13,AGCT
32 Perfect,13,AGGA
6 Perfect,13,AGGC
38 Perfect,13,AGGG
6 Perfect,13,AGGT
1 Perfect,13,AGTA
5 Perfect,13,AGTC
8 Perfect,13,AGTG
61 Perfect,13,ATAA
33 Perfect,13,ATAC
10 Perfect,13,ATAG
268 Perfect,13,ATAT
5 Perfect,13,ATCA
26 Perfect,13,ATCC
11 Perfect,13,ATCT
24 Perfect,13,ATGA
4 Perfect,13,ATGC
11 Perfect,13,ATGG
8 Perfect,13,ATGT
7 Perfect,13,ATTA
55 Perfect,13,ATTC
19 Perfect,13,ATTG
57 Perfect,13,ATTT
12 Perfect,13,CAAA
2 Perfect,13,CAAC
122 Perfect,13,CACA
6 Perfect,13,CACC
2 Perfect,13,CACG
35 Perfect,13,CACT
1 Perfect,13,CAGA
7 Perfect,13,CAGC
5 Perfect,13,CAGG
8 Perfect,13,CATA
8 Perfect,13,CATC
3 Perfect,13,CATG
18 Perfect,13,CATT
1 Perfect,13,CCAA
9 Perfect,13,CCAC
5 Perfect,13,CCAG
20 Perfect,13,CCAT
7 Perfect,13,CCCA
9 Perfect,13,CCCC
2 Perfect,13,CCCG
20 Perfect,13,CCCT
2 Perfect,13,CCGC
41 Perfect,13,CCTC
9 Perfect,13,CCTG
23 Perfect,13,CCTT
2 Perfect,13,CGCA
2 Perfect,13,CGCC
5 Perfect,13,CGCG
1 Perfect,13,CGGA
1 Perfect,13,CGGC
4 Perfect,13,CGGG
1 Perfect,13,CTAA
3 Perfect,13,CTAC
1 Perfect,13,CTAG
4 Perfect,13,CTAT
5 Perfect,13,CTCA
30 Perfect,13,CTCC
1 Perfect,13,CTCG
68 Perfect,13,CTCT
2 Perfect,13,CTGA
7 Perfect,13,CTGC
5 Perfect,13,CTGG
4 Perfect,13,CTGT
20 Perfect,13,CTTC
1 Perfect,13,CTTG
41 Perfect,13,CTTT
23 Perfect,13,GAAA
28 Perfect,13,GAAG
19 Perfect,13,GAAT
3 Perfect,13,GACA
3 Perfect,13,GACT
62 Perfect,13,GAGA
3 Perfect,13,GAGC
15 Perfect,13,GAGG
3 Perfect,13,GAGT
2 Perfect,13,GATA
26 Perfect,13,GATG
2 Perfect,13,GCAA
2 Perfect,13,GCAC
12 Perfect,13,GCAG
4 Perfect,13,GCAT
6 Perfect,13,GCCA
3 Perfect,13,GCCC
1 Perfect,13,GCCG
5 Perfect,13,GCCT
2 Perfect,13,GCGA
8 Perfect,13,GCGC
3 Perfect,13,GCGG
1 Perfect,13,GCGT
2 Perfect,13,GCTA
1 Perfect,13,GCTG
17 Perfect,13,GGAA
43 Perfect,13,GGAG
10 Perfect,13,GGAT
4 Perfect,13,GGCA
3 Perfect,13,GGCC
6 Perfect,13,GGCG
8 Perfect,13,GGCT
25 Perfect,13,GGGA
2 Perfect,13,GGGC
21 Perfect,13,GGGG
13 Perfect,13,GGGT
15 Perfect,13,GGTG
1 Perfect,13,GGTT
1 Perfect,13,GTAA
3 Perfect,13,GTAG
2 Perfect,13,GTAT
3 Perfect,13,GTCA
3 Perfect,13,GTCT
7 Perfect,13,GTGA
1 Perfect,13,GTGC
15 Perfect,13,GTGG
143 Perfect,13,GTGT
5 Perfect,13,GTTG
19 Perfect,13,GTTT
58 Perfect,13,TAAA
1 Perfect,13,TAAC
1 Perfect,13,TAAG
15 Perfect,13,TAAT
8 Perfect,13,TACA
4 Perfect,13,TACC
6 Perfect,13,TACT
2 Perfect,13,TAGA
1 Perfect,13,TAGG
1 Perfect,13,TAGT
277 Perfect,13,TATA
15 Perfect,13,TATC
38 Perfect,13,TATG
130 Perfect,13,TATT
5 Perfect,13,TCAA
11 Perfect,13,TCAC
6 Perfect,13,TCAG
41 Perfect,13,TCAT
14 Perfect,13,TCCA
45 Perfect,13,TCCC
37 Perfect,13,TCCT
8 Perfect,13,TCTA
205 Perfect,13,TCTC
17 Perfect,13,TCTG
86 Perfect,13,TCTT
61 Perfect,13,TGAA
5 Perfect,13,TGAG
16 Perfect,13,TGAT
11 Perfect,13,TGCA
6 Perfect,13,TGCC
6 Perfect,13,TGCT
20 Perfect,13,TGGA
3 Perfect,13,TGGC
12 Perfect,13,TGGG
7 Perfect,13,TGGT
31 Perfect,13,TGTA
17 Perfect,13,TGTC
377 Perfect,13,TGTG
61 Perfect,13,TGTT
15 Perfect,13,TTAA
2 Perfect,13,TTAC
63 Perfect,13,TTAT
21 Perfect,13,TTCA
40 Perfect,13,TTCC
32 Perfect,13,TTCT
2 Perfect,13,TTGA
2 Perfect,13,TTGC
1 Perfect,13,TTGG
13 Perfect,13,TTGT
97 Perfect,13,TTTA
103 Perfect,13,TTTC
43 Perfect,13,TTTG
1872 Perfect,13,TTTT
1606 Perfect,14,AAAA
81 Perfect,14,AAAC
52 Perfect,14,AAAG
112 Perfect,14,AAAT
39 Perfect,14,AACA
14 Perfect,14,AACC
1 Perfect,14,AACT
49 Perfect,14,AAGA
7 Perfect,14,AAGC
49 Perfect,14,AAGG
61 Perfect,14,AATA
8 Perfect,14,AATC
34 Perfect,14,AATG
29 Perfect,14,AATT
3 Perfect,14,ACAA
127 Perfect,14,ACAC
3 Perfect,14,ACAG
5 Perfect,14,ACAT
4 Perfect,14,ACCC
1 Perfect,14,ACCT
1 Perfect,14,ACGC
1 Perfect,14,ACTG
33 Perfect,14,AGAA
3 Perfect,14,AGAC
72 Perfect,14,AGAG
3 Perfect,14,AGAT
2 Perfect,14,AGCA
2 Perfect,14,AGCC
1 Perfect,14,AGCT
18 Perfect,14,AGGA
5 Perfect,14,AGGC
26 Perfect,14,AGGG
1 Perfect,14,AGGT
6 Perfect,14,AGTC
2 Perfect,14,AGTG
23 Perfect,14,ATAA
9 Perfect,14,ATAC
13 Perfect,14,ATAG
199 Perfect,14,ATAT
5 Perfect,14,ATCA
11 Perfect,14,ATCC
8 Perfect,14,ATCT
25 Perfect,14,ATGA
11 Perfect,14,ATGG
12 Perfect,14,ATGT
4 Perfect,14,ATTA
22 Perfect,14,ATTC
5 Perfect,14,ATTG
19 Perfect,14,ATTT
13 Perfect,14,CAAA
1 Perfect,14,CAAG
3 Perfect,14,CAAT
146 Perfect,14,CACA
8 Perfect,14,CACC
1 Perfect,14,CACG
4 Perfect,14,CACT
2 Perfect,14,CAGA
3 Perfect,14,CAGC
4 Perfect,14,CAGG
6 Perfect,14,CAGT
13 Perfect,14,CATA
31 Perfect,14,CATC
4 Perfect,14,CATG
40 Perfect,14,CATT
5 Perfect,14,CCAC
3 Perfect,14,CCAG
4 Perfect,14,CCAT
3 Perfect,14,CCCA
13 Perfect,14,CCCC
3 Perfect,14,CCCG
15 Perfect,14,CCCT
1 Perfect,14,CCGC
14 Perfect,14,CCTC
3 Perfect,14,CCTG
24 Perfect,14,CCTT
2 Perfect,14,CGCG
1 Perfect,14,CGCT
1 Perfect,14,CGGT
1 Perfect,14,CGTG
5 Perfect,14,CTAC
1 Perfect,14,CTAG
2 Perfect,14,CTAT
3 Perfect,14,CTCA
22 Perfect,14,CTCC
76 Perfect,14,CTCT
3 Perfect,14,CTGC
2 Perfect,14,CTGT
19 Perfect,14,CTTC
1 Perfect,14,CTTG
33 Perfect,14,CTTT
26 Perfect,14,GAAA
22 Perfect,14,GAAG
13 Perfect,14,GAAT
1 Perfect,14,GACA
1 Perfect,14,GACT
79 Perfect,14,GAGA
20 Perfect,14,GAGG
3 Perfect,14,GAGT
3 Perfect,14,GATA
13 Perfect,14,GATG
3 Perfect,14,GATT
2 Perfect,14,GCAG
1 Perfect,14,GCAT
2 Perfect,14,GCCA
2 Perfect,14,GCCC
2 Perfect,14,GCCT
6 Perfect,14,GCGC
1 Perfect,14,GCTG
1 Perfect,14,GCTT
25 Perfect,14,GGAA
16 Perfect,14,GGAG
3 Perfect,14,GGAT
1 Perfect,14,GGCA
1 Perfect,14,GGCC
3 Perfect,14,GGCG
1 Perfect,14,GGCT
10 Perfect,14,GGGA
1 Perfect,14,GGGC
13 Perfect,14,GGGG
8 Perfect,14,GGGT
4 Perfect,14,GGTG
2 Perfect,14,GGTT
2 Perfect,14,GTAG
5 Perfect,14,GTAT
2 Perfect,14,GTCT
1 Perfect,14,GTGA
3 Perfect,14,GTGG
119 Perfect,14,GTGT
1 Perfect,14,GTTG
1 Perfect,14,GTTT
45 Perfect,14,TAAA
3 Perfect,14,TAAT
13 Perfect,14,TACA
2 Perfect,14,TACC
1 Perfect,14,TACT
9 Perfect,14,TAGA
4 Perfect,14,TAGC
4 Perfect,14,TAGG
185 Perfect,14,TATA
12 Perfect,14,TATC
11 Perfect,14,TATG
32 Perfect,14,TATT
2 Perfect,14,TCAA
4 Perfect,14,TCAC
12 Perfect,14,TCAT
10 Perfect,14,TCCA
28 Perfect,14,TCCC
1 Perfect,14,TCCG
23 Perfect,14,TCCT
10 Perfect,14,TCTA
83 Perfect,14,TCTC
3 Perfect,14,TCTG
21 Perfect,14,TCTT
26 Perfect,14,TGAA
2 Perfect,14,TGAC
2 Perfect,14,TGAG
1 Perfect,14,TGAT
5 Perfect,14,TGCA
4 Perfect,14,TGCC
3 Perfect,14,TGCG
1 Perfect,14,TGCT
35 Perfect,14,TGGA
2 Perfect,14,TGGC
9 Perfect,14,TGGG
2 Perfect,14,TGGT
9 Perfect,14,TGTA
1 Perfect,14,TGTC
136 Perfect,14,TGTG
8 Perfect,14,TGTT
28 Perfect,14,TTAA
4 Perfect,14,TTAC
1 Perfect,14,TTAG
107 Perfect,14,TTAT
25 Perfect,14,TTCA
43 Perfect,14,TTCC
64 Perfect,14,TTCT
4 Perfect,14,TTGA
8 Perfect,14,TTGC
9 Perfect,14,TTGG
80 Perfect,14,TTGT
67 Perfect,14,TTTA
48 Perfect,14,TTTC
46 Perfect,14,TTTG
1542 Perfect,14,TTTT
1350 Perfect,15,AAAA
481 Perfect,15,AAAC
260 Perfect,15,AAAG
341 Perfect,15,AAAT
6 Perfect,15,AACA
3 Perfect,15,AACC
4 Perfect,15,AAGA
4 Perfect,15,AAGC
28 Perfect,15,AAGG
39 Perfect,15,AATA
6 Perfect,15,AATC
20 Perfect,15,AATG
11 Perfect,15,AATT
1 Perfect,15,ACAA
198 Perfect,15,ACAC
2 Perfect,15,ACAG
14 Perfect,15,ACAT
1 Perfect,15,ACTA
5 Perfect,15,ACTC
1 Perfect,15,ACTT
30 Perfect,15,AGAA
11 Perfect,15,AGAC
102 Perfect,15,AGAG
1 Perfect,15,AGAT
32 Perfect,15,AGGA
30 Perfect,15,AGGG
2 Perfect,15,AGGT
1 Perfect,15,AGTC
2 Perfect,15,AGTG
25 Perfect,15,ATAA
38 Perfect,15,ATAC
14 Perfect,15,ATAG
118 Perfect,15,ATAT
1 Perfect,15,ATCA
10 Perfect,15,ATCC
8 Perfect,15,ATCT
9 Perfect,15,ATGA
2 Perfect,15,ATGC
16 Perfect,15,ATGG
2 Perfect,15,ATGT
11 Perfect,15,ATTA
18 Perfect,15,ATTC
4 Perfect,15,ATTG
25 Perfect,15,ATTT
13 Perfect,15,CAAA
3 Perfect,15,CAAC
3 Perfect,15,CAAG
1 Perfect,15,CAAT
46 Perfect,15,CACA
5 Perfect,15,CACC
3 Perfect,15,CACG
2 Perfect,15,CACT
2 Perfect,15,CAGC
2 Perfect,15,CAGG
1 Perfect,15,CAGT
2 Perfect,15,CATA
20 Perfect,15,CATC
6 Perfect,15,CATG
9 Perfect,15,CATT
2 Perfect,15,CCAA
17 Perfect,15,CCAC
1 Perfect,15,CCAG
36 Perfect,15,CCAT
3 Perfect,15,CCCA
8 Perfect,15,CCCC
2 Perfect,15,CCCT
1 Perfect,15,CCGC
2 Perfect,15,CCTA
26 Perfect,15,CCTC
6 Perfect,15,CCTG
14 Perfect,15,CCTT
2 Perfect,15,CGCG
3 Perfect,15,CTAC
3 Perfect,15,CTAT
13 Perfect,15,CTCA
19 Perfect,15,CTCC
30 Perfect,15,CTCT
2 Perfect,15,CTGC
1 Perfect,15,CTGT
27 Perfect,15,CTTC
7 Perfect,15,CTTT
20 Perfect,15,GAAA
29 Perfect,15,GAAG
11 Perfect,15,GAAT
1 Perfect,15,GACA
2 Perfect,15,GACG
35 Perfect,15,GAGA
2 Perfect,15,GAGC
15 Perfect,15,GAGG
1 Perfect,15,GAGT
9 Perfect,15,GATA
7 Perfect,15,GATG
1 Perfect,15,GATT
2 Perfect,15,GCAA
1 Perfect,15,GCAG
1 Perfect,15,GCAT
2 Perfect,15,GCCA
1 Perfect,15,GCCC
1 Perfect,15,GCCT
4 Perfect,15,GCGC
1 Perfect,15,GCTC
15 Perfect,15,GGAA
2 Perfect,15,GGAC
22 Perfect,15,GGAG
3 Perfect,15,GGAT
10 Perfect,15,GGGA
6 Perfect,15,GGGG
2 Perfect,15,GGGT
3 Perfect,15,GGTG
1 Perfect,15,GTAC
3 Perfect,15,GTAT
1 Perfect,15,GTCA
1 Perfect,15,GTCT
1 Perfect,15,GTGA
6 Perfect,15,GTGG
64 Perfect,15,GTGT
6 Perfect,15,GTTG
4 Perfect,15,GTTT
21 Perfect,15,TAAA
2 Perfect,15,TAAG
3 Perfect,15,TACC
1 Perfect,15,TAGA
3 Perfect,15,TAGG
126 Perfect,15,TATA
15 Perfect,15,TATC
29 Perfect,15,TATG
25 Perfect,15,TATT
2 Perfect,15,TCAA
36 Perfect,15,TCAC
2 Perfect,15,TCAG
30 Perfect,15,TCAT
3 Perfect,15,TCCA
24 Perfect,15,TCCC
7 Perfect,15,TCCT
6 Perfect,15,TCTA
125 Perfect,15,TCTC
14 Perfect,15,TCTG
49 Perfect,15,TCTT
28 Perfect,15,TGAA
1 Perfect,15,TGAC
10 Perfect,15,TGAG
2 Perfect,15,TGAT
1 Perfect,15,TGCA
1 Perfect,15,TGCC
1 Perfect,15,TGCG
1 Perfect,15,TGCT
16 Perfect,15,TGGA
1 Perfect,15,TGGC
19 Perfect,15,TGGG
7 Perfect,15,TGGT
9 Perfect,15,TGTA
5 Perfect,15,TGTC
185 Perfect,15,TGTG
3 Perfect,15,TGTT
7 Perfect,15,TTAA
1 Perfect,15,TTAC
1 Perfect,15,TTAG
25 Perfect,15,TTAT
16 Perfect,15,TTCA
37 Perfect,15,TTCC
1 Perfect,15,TTCG
17 Perfect,15,TTCT
2 Perfect,15,TTGA
1 Perfect,15,TTGC
4 Perfect,15,TTGG
11 Perfect,15,TTGT
310 Perfect,15,TTTA
266 Perfect,15,TTTC
409 Perfect,15,TTTG
1371 Perfect,15,TTTT
1243 Perfect,16,AAAA
28 Perfect,16,AAAC
33 Perfect,16,AAAG
41 Perfect,16,AAAT
2 Perfect,16,AACA
1 Perfect,16,AACC
11 Perfect,16,AAGA
1 Perfect,16,AAGC
11 Perfect,16,AAGG
18 Perfect,16,AATA
3 Perfect,16,AATC
12 Perfect,16,AATG
9 Perfect,16,AATT
1 Perfect,16,ACAA
63 Perfect,16,ACAC
1 Perfect,16,ACAG
2 Perfect,16,ACAT
1 Perfect,16,ACCA
4 Perfect,16,ACTC
12 Perfect,16,AGAA
2 Perfect,16,AGAC
35 Perfect,16,AGAG
3 Perfect,16,AGAT
10 Perfect,16,AGGA
1 Perfect,16,AGGC
8 Perfect,16,AGGG
2 Perfect,16,AGTA
1 Perfect,16,AGTC
7 Perfect,16,ATAA
5 Perfect,16,ATAC
1 Perfect,16,ATAG
126 Perfect,16,ATAT
3 Perfect,16,ATCA
5 Perfect,16,ATCC
3 Perfect,16,ATCT
8 Perfect,16,ATGA
6 Perfect,16,ATGG
4 Perfect,16,ATTA
7 Perfect,16,ATTC
3 Perfect,16,ATTG
49 Perfect,16,ATTT
86 Perfect,16,CAAA
1 Perfect,16,CAAC
1 Perfect,16,CAAT
67 Perfect,16,CACA
1 Perfect,16,CACC
3 Perfect,16,CAGA
1 Perfect,16,CAGC
5 Perfect,16,CATA
13 Perfect,16,CATC
2 Perfect,16,CATG
5 Perfect,16,CATT
2 Perfect,16,CCAA
2 Perfect,16,CCAC
6 Perfect,16,CCAT
2 Perfect,16,CCCA
1 Perfect,16,CCCC
7 Perfect,16,CCCT
1 Perfect,16,CCGC
9 Perfect,16,CCTC
2 Perfect,16,CCTG
17 Perfect,16,CCTT
1 Perfect,16,CTAA
2 Perfect,16,CTAC
1 Perfect,16,CTAT
3 Perfect,16,CTCA
4 Perfect,16,CTCC
32 Perfect,16,CTCT
1 Perfect,16,CTGT
13 Perfect,16,CTTC
32 Perfect,16,CTTT
29 Perfect,16,GAAA
14 Perfect,16,GAAG
6 Perfect,16,GAAT
39 Perfect,16,GAGA
1 Perfect,16,GAGC
10 Perfect,16,GAGG
1 Perfect,16,GAGT
7 Perfect,16,GATA
13 Perfect,16,GATG
1 Perfect,16,GATT
1 Perfect,16,GCAC
1 Perfect,16,GCAG
2 Perfect,16,GCAT
1 Perfect,16,GCCG
2 Perfect,16,GCCT
3 Perfect,16,GCGC
1 Perfect,16,GCTG
19 Perfect,16,GGAA
1 Perfect,16,GGAC
8 Perfect,16,GGAG
3 Perfect,16,GGAT
1 Perfect,16,GGCT
7 Perfect,16,GGGA
1 Perfect,16,GGGC
3 Perfect,16,GGGG
2 Perfect,16,GGGT
1 Perfect,16,GGTA
4 Perfect,16,GGTG
3 Perfect,16,GGTT
1 Perfect,16,GTAT
1 Perfect,16,GTCA
2 Perfect,16,GTCT
3 Perfect,16,GTGG
75 Perfect,16,GTGT
26 Perfect,16,GTTT
42 Perfect,16,TAAA
3 Perfect,16,TACA
1 Perfect,16,TAGG
95 Perfect,16,TATA
2 Perfect,16,TATC
2 Perfect,16,TATG
16 Perfect,16,TATT
2 Perfect,16,TCAG
10 Perfect,16,TCAT
3 Perfect,16,TCCA
8 Perfect,16,TCCC
11 Perfect,16,TCCT
3 Perfect,16,TCTA
52 Perfect,16,TCTC
2 Perfect,16,TCTG
11 Perfect,16,TCTT
13 Perfect,16,TGAA
4 Perfect,16,TGAT
1 Perfect,16,TGCA
12 Perfect,16,TGGA
1 Perfect,16,TGGT
4 Perfect,16,TGTA
57 Perfect,16,TGTG
2 Perfect,16,TGTT
3 Perfect,16,TTAA
1 Perfect,16,TTAG
16 Perfect,16,TTAT
16 Perfect,16,TTCA
11 Perfect,16,TTCC
20 Perfect,16,TTCT
1 Perfect,16,TTGA
2 Perfect,16,TTGG
1 Perfect,16,TTGT
39 Perfect,16,TTTA
19 Perfect,16,TTTC
73 Perfect,16,TTTG
1217 Perfect,16,TTTT
1006 Perfect,17,AAAA
16 Perfect,17,AAAC
29 Perfect,17,AAAG
50 Perfect,17,AAAT
3 Perfect,17,AACA
2 Perfect,17,AACC
5 Perfect,17,AAGA
1 Perfect,17,AAGC
17 Perfect,17,AAGG
18 Perfect,17,AATA
1 Perfect,17,AATC
7 Perfect,17,AATG
3 Perfect,17,AATT
12 Perfect,17,ACAA
134 Perfect,17,ACAC
6 Perfect,17,ACAT
1 Perfect,17,ACTA
18 Perfect,17,AGAA
5 Perfect,17,AGAC
66 Perfect,17,AGAG
5 Perfect,17,AGAT
1 Perfect,17,AGCA
1 Perfect,17,AGCC
20 Perfect,17,AGGA
13 Perfect,17,AGGG
2 Perfect,17,AGTC
20 Perfect,17,ATAA
5 Perfect,17,ATAC
4 Perfect,17,ATAG
88 Perfect,17,ATAT
1 Perfect,17,ATCA
8 Perfect,17,ATCC
2 Perfect,17,ATCT
5 Perfect,17,ATGA
1 Perfect,17,ATGC
5 Perfect,17,ATGG
2 Perfect,17,ATGT
1 Perfect,17,ATTA
13 Perfect,17,ATTC
1 Perfect,17,ATTG
13 Perfect,17,ATTT
3 Perfect,17,CAAA
21 Perfect,17,CACA
1 Perfect,17,CAGA
5 Perfect,17,CATC
5 Perfect,17,CATT
1 Perfect,17,CCAA
6 Perfect,17,CCAC
7 Perfect,17,CCAT
4 Perfect,17,CCCC
2 Perfect,17,CCCT
3 Perfect,17,CCGC
4 Perfect,17,CCTC
5 Perfect,17,CCTT
1 Perfect,17,CGAT
2 Perfect,17,CGCG
2 Perfect,17,CTAT
5 Perfect,17,CTCC
17 Perfect,17,CTCT
1 Perfect,17,CTTC
8 Perfect,17,CTTT
8 Perfect,17,GAAA
10 Perfect,17,GAAG
5 Perfect,17,GAAT
1 Perfect,17,GACA
17 Perfect,17,GAGA
3 Perfect,17,GATA
11 Perfect,17,GATG
1 Perfect,17,GATT
1 Perfect,17,GCAG
1 Perfect,17,GCCT
2 Perfect,17,GCGC
7 Perfect,17,GGAA
4 Perfect,17,GGAG
2 Perfect,17,GGAT
1 Perfect,17,GGCA
1 Perfect,17,GGCG
3 Perfect,17,GGGA
1 Perfect,17,GGGC
4 Perfect,17,GGGG
2 Perfect,17,GGGT
1 Perfect,17,GGTA
1 Perfect,17,GGTG
2 Perfect,17,GGTT
34 Perfect,17,GTGT
3 Perfect,17,GTTT
15 Perfect,17,TAAA
2 Perfect,17,TAAT
1 Perfect,17,TACA
2 Perfect,17,TAGA
62 Perfect,17,TATA
6 Perfect,17,TATC
6 Perfect,17,TATG
55 Perfect,17,TATT
3 Perfect,17,TCAA
3 Perfect,17,TCAT
14 Perfect,17,TCCC
10 Perfect,17,TCCT
7 Perfect,17,TCTA
82 Perfect,17,TCTC
45 Perfect,17,TCTT
5 Perfect,17,TGAA
1 Perfect,17,TGAG
1 Perfect,17,TGAT
1 Perfect,17,TGCA
3 Perfect,17,TGCC
9 Perfect,17,TGGA
3 Perfect,17,TGGG
1 Perfect,17,TGGT
9 Perfect,17,TGTA
2 Perfect,17,TGTC
135 Perfect,17,TGTG
18 Perfect,17,TGTT
2 Perfect,17,TTAA
23 Perfect,17,TTAT
3 Perfect,17,TTCA
16 Perfect,17,TTCC
1 Perfect,17,TTCT
1 Perfect,17,TTGA
1 Perfect,17,TTGC
3 Perfect,17,TTGT
19 Perfect,17,TTTA
23 Perfect,17,TTTC
14 Perfect,17,TTTG
968 Perfect,17,TTTT
783 Perfect,18,AAAA
36 Perfect,18,AAAC
17 Perfect,18,AAAG
58 Perfect,18,AAAT
16 Perfect,18,AACA
3 Perfect,18,AACC
21 Perfect,18,AAGA
15 Perfect,18,AAGG
29 Perfect,18,AATA
7 Perfect,18,AATG
10 Perfect,18,AATT
39 Perfect,18,ACAC
1 Perfect,18,ACAG
6 Perfect,18,AGAA
1 Perfect,18,AGAC
26 Perfect,18,AGAG
1 Perfect,18,AGAT
4 Perfect,18,AGGA
2 Perfect,18,AGGC
6 Perfect,18,AGGG
1 Perfect,18,AGTC
1 Perfect,18,AGTG
4 Perfect,18,ATAA
4 Perfect,18,ATAC
3 Perfect,18,ATAG
73 Perfect,18,ATAT
2 Perfect,18,ATCC
5 Perfect,18,ATCT
2 Perfect,18,ATGA
1 Perfect,18,ATGC
3 Perfect,18,ATGG
2 Perfect,18,ATGT
2 Perfect,18,ATTC
1 Perfect,18,ATTG
1 Perfect,18,ATTT
2 Perfect,18,CAAA
3 Perfect,18,CAAT
45 Perfect,18,CACA
1 Perfect,18,CACT
1 Perfect,18,CATA
4 Perfect,18,CATC
2 Perfect,18,CATG
7 Perfect,18,CATT
1 Perfect,18,CCAC
2 Perfect,18,CCAT
1 Perfect,18,CCCA
1 Perfect,18,CCCC
1 Perfect,18,CCCG
7 Perfect,18,CCCT
1 Perfect,18,CCTC
7 Perfect,18,CCTT
2 Perfect,18,CTAC
2 Perfect,18,CTAT
1 Perfect,18,CTCA
5 Perfect,18,CTCC
1 Perfect,18,CTCG
20 Perfect,18,CTCT
2 Perfect,18,CTGC
6 Perfect,18,CTTC
1 Perfect,18,CTTT
9 Perfect,18,GAAA
7 Perfect,18,GAAG
3 Perfect,18,GAAT
31 Perfect,18,GAGA
5 Perfect,18,GAGG
6 Perfect,18,GATA
7 Perfect,18,GATG
1 Perfect,18,GATT
1 Perfect,18,GCAG
1 Perfect,18,GCCC
2 Perfect,18,GCGC
13 Perfect,18,GGAA
4 Perfect,18,GGAG
1 Perfect,18,GGAT
1 Perfect,18,GGCA
1 Perfect,18,GGCT
1 Perfect,18,GGGA
3 Perfect,18,GGGG
1 Perfect,18,GGTG
1 Perfect,18,GTCA
2 Perfect,18,GTGG
44 Perfect,18,GTGT
2 Perfect,18,GTTT
13 Perfect,18,TAAA
3 Perfect,18,TAAT
1 Perfect,18,TACC
4 Perfect,18,TAGA
45 Perfect,18,TATA
3 Perfect,18,TATC
1 Perfect,18,TATG
8 Perfect,18,TATT
1 Perfect,18,TCAA
5 Perfect,18,TCAC
3 Perfect,18,TCAT
2 Perfect,18,TCCA
7 Perfect,18,TCCC
11 Perfect,18,TCCT
4 Perfect,18,TCTA
38 Perfect,18,TCTC
13 Perfect,18,TCTT
8 Perfect,18,TGAA
2 Perfect,18,TGAT
2 Perfect,18,TGCA
14 Perfect,18,TGGA
1 Perfect,18,TGGG
34 Perfect,18,TGTG
2 Perfect,18,TGTT
13 Perfect,18,TTAA
1 Perfect,18,TTAG
51 Perfect,18,TTAT
3 Perfect,18,TTCA
17 Perfect,18,TTCC
16 Perfect,18,TTCT
1 Perfect,18,TTGA
5 Perfect,18,TTGG
35 Perfect,18,TTGT
25 Perfect,18,TTTA
9 Perfect,18,TTTC
16 Perfect,18,TTTG
784 Perfect,18,TTTT
694 Perfect,19,AAAA
193 Perfect,19,AAAC
105 Perfect,19,AAAG
161 Perfect,19,AAAT
1 Perfect,19,AACA
1 Perfect,19,AACC
1 Perfect,19,AAGA
1 Perfect,19,AAGC
9 Perfect,19,AAGG
5 Perfect,19,AATA
3 Perfect,19,AATC
5 Perfect,19,AATG
1 Perfect,19,ACAA
71 Perfect,19,ACAC
1 Perfect,19,ACAG
5 Perfect,19,ACAT
1 Perfect,19,ACCT
1 Perfect,19,ACTA
10 Perfect,19,AGAA
6 Perfect,19,AGAC
37 Perfect,19,AGAG
9 Perfect,19,AGGA
2 Perfect,19,AGGC
10 Perfect,19,AGGG
1 Perfect,19,AGGT
1 Perfect,19,AGTC
2 Perfect,19,ATAA
10 Perfect,19,ATAC
9 Perfect,19,ATAG
49 Perfect,19,ATAT
2 Perfect,19,ATCC
4 Perfect,19,ATCT
1 Perfect,19,ATGA
1 Perfect,19,ATGC
3 Perfect,19,ATGG
1 Perfect,19,ATGT
1 Perfect,19,ATTA
6 Perfect,19,ATTC
1 Perfect,19,ATTG
7 Perfect,19,ATTT
3 Perfect,19,CAAA
2 Perfect,19,CAAT
29 Perfect,19,CACA
1 Perfect,19,CACG
1 Perfect,19,CAGT
1 Perfect,19,CATA
6 Perfect,19,CATC
1 Perfect,19,CATT
3 Perfect,19,CCAC
19 Perfect,19,CCAT
1 Perfect,19,CCCC
13 Perfect,19,CCTC
1 Perfect,19,CCTG
7 Perfect,19,CCTT
1 Perfect,19,CGCC
1 Perfect,19,CGCG
1 Perfect,19,CTAC
1 Perfect,19,CTAG
1 Perfect,19,CTCA
4 Perfect,19,CTCC
11 Perfect,19,CTCT
5 Perfect,19,CTTC
1 Perfect,19,CTTG
2 Perfect,19,CTTT
2 Perfect,19,GAAA
16 Perfect,19,GAAG
1 Perfect,19,GACG
17 Perfect,19,GAGA
6 Perfect,19,GAGG
1 Perfect,19,GAGT
3 Perfect,19,GATA
3 Perfect,19,GATG
1 Perfect,19,GCAG
1 Perfect,19,GCGC
1 Perfect,19,GCTC
1 Perfect,19,GCTT
4 Perfect,19,GGAA
6 Perfect,19,GGAG
4 Perfect,19,GGAT
2 Perfect,19,GGGA
1 Perfect,19,GGGG
2 Perfect,19,GGTG
1 Perfect,19,GTCA
1 Perfect,19,GTGA
1 Perfect,19,GTGG
21 Perfect,19,GTGT
3 Perfect,19,GTTT
8 Perfect,19,TAAA
2 Perfect,19,TAAC
2 Perfect,19,TAAT
1 Perfect,19,TAGG
62 Perfect,19,TATA
2 Perfect,19,TATC
5 Perfect,19,TATG
8 Perfect,19,TATT
1 Perfect,19,TCAA
5 Perfect,19,TCAC
1 Perfect,19,TCAG
11 Perfect,19,TCAT
1 Perfect,19,TCCA
10 Perfect,19,TCCC
4 Perfect,19,TCTA
31 Perfect,19,TCTC
7 Perfect,19,TCTG
14 Perfect,19,TCTT
9 Perfect,19,TGAA
8 Perfect,19,TGAG
15 Perfect,19,TGGA
5 Perfect,19,TGGG
2 Perfect,19,TGGT
5 Perfect,19,TGTA
2 Perfect,19,TGTC
63 Perfect,19,TGTG
5 Perfect,19,TTAA
12 Perfect,19,TTAT
15 Perfect,19,TTCC
5 Perfect,19,TTCT
2 Perfect,19,TTGC
3 Perfect,19,TTGT
178 Perfect,19,TTTA
86 Perfect,19,TTTC
217 Perfect,19,TTTG
734 Perfect,19,TTTT
614 Perfect,20,AAAA
15 Perfect,20,AAAC
6 Perfect,20,AAAG
30 Perfect,20,AAAT
1 Perfect,20,AACA
1 Perfect,20,AACC
4 Perfect,20,AAGA
1 Perfect,20,AAGC
7 Perfect,20,AAGG
5 Perfect,20,AATA
4 Perfect,20,AATG
8 Perfect,20,AATT
52 Perfect,20,ACAC
1 Perfect,20,ACCT
1 Perfect,20,ACTC
3 Perfect,20,AGAA
11 Perfect,20,AGAG
2 Perfect,20,AGAT
4 Perfect,20,AGGA
4 Perfect,20,AGGG
11 Perfect,20,ATAA
44 Perfect,20,ATAT
1 Perfect,20,ATCC
3 Perfect,20,ATCT
1 Perfect,20,ATGA
4 Perfect,20,ATGG
1 Perfect,20,ATGT
1 Perfect,20,ATTA
2 Perfect,20,ATTC
38 Perfect,20,ATTT
34 Perfect,20,CAAA
35 Perfect,20,CACA
4 Perfect,20,CATC
1 Perfect,20,CATT
1 Perfect,20,CCCC
6 Perfect,20,CCTC
6 Perfect,20,CCTT
1 Perfect,20,CTCC
11 Perfect,20,CTCT
10 Perfect,20,CTTT
11 Perfect,20,GAAA
7 Perfect,20,GAAG
3 Perfect,20,GAAT
20 Perfect,20,GAGA
4 Perfect,20,GAGG
5 Perfect,20,GATA
6 Perfect,20,GATG
6 Perfect,20,GGAA
3 Perfect,20,GGAG
2 Perfect,20,GGGA
1 Perfect,20,GGTA
1 Perfect,20,GGTT
1 Perfect,20,GTAT
1 Perfect,20,GTCA
1 Perfect,20,GTCC
1 Perfect,20,GTGC
2 Perfect,20,GTGG
42 Perfect,20,GTGT
9 Perfect,20,GTTT
20 Perfect,20,TAAA
3 Perfect,20,TAAT
1 Perfect,20,TAGA
41 Perfect,20,TATA
3 Perfect,20,TATC
2 Perfect,20,TATG
8 Perfect,20,TATT
1 Perfect,20,TCAT
5 Perfect,20,TCCA
5 Perfect,20,TCCT
1 Perfect,20,TCTA
21 Perfect,20,TCTC
2 Perfect,20,TCTG
2 Perfect,20,TCTT
1 Perfect,20,TGAA
1 Perfect,20,TGAT
4 Perfect,20,TGGA
1 Perfect,20,TGTA
33 Perfect,20,TGTG
1 Perfect,20,TGTT
2 Perfect,20,TTAT
4 Perfect,20,TTCA
5 Perfect,20,TTCC
4 Perfect,20,TTCT
2 Perfect,20,TTGA
23 Perfect,20,TTTA
5 Perfect,20,TTTC
28 Perfect,20,TTTG
575 Perfect,20,TTTT
516 Perfect,21,AAAA
12 Perfect,21,AAAC
11 Perfect,21,AAAG
32 Perfect,21,AAAT
3 Perfect,21,AACA
1 Perfect,21,AAGA
3 Perfect,21,AAGG
10 Perfect,21,AATA
2 Perfect,21,AATC
3 Perfect,21,AATG
1 Perfect,21,AATT
8 Perfect,21,ACAA
67 Perfect,21,ACAC
1 Perfect,21,ACTT
4 Perfect,21,AGAA
1 Perfect,21,AGAC
24 Perfect,21,AGAG
1 Perfect,21,AGAT
4 Perfect,21,AGGA
7 Perfect,21,AGGG
5 Perfect,21,ATAA
1 Perfect,21,ATAC
38 Perfect,21,ATAT
5 Perfect,21,ATCC
3 Perfect,21,ATCT
5 Perfect,21,ATGA
1 Perfect,21,ATGG
8 Perfect,21,ATTC
1 Perfect,21,ATTG
7 Perfect,21,ATTT
2 Perfect,21,CAAA
23 Perfect,21,CACA
1 Perfect,21,CACG
1 Perfect,21,CACT
1 Perfect,21,CAGC
1 Perfect,21,CATA
1 Perfect,21,CCAC
2 Perfect,21,CCAT
1 Perfect,21,CCCA
1 Perfect,21,CCCG
2 Perfect,21,CCCT
1 Perfect,21,CCGC
4 Perfect,21,CCTC
1 Perfect,21,CCTG
5 Perfect,21,CCTT
1 Perfect,21,CTAT
7 Perfect,21,CTCT
2 Perfect,21,CTTT
3 Perfect,21,GAAA
5 Perfect,21,GAAG
3 Perfect,21,GAAT
7 Perfect,21,GAGA
3 Perfect,21,GATG
4 Perfect,21,GGAA
4 Perfect,21,GGAG
2 Perfect,21,GGAT
1 Perfect,21,GGGG
2 Perfect,21,GGTG
23 Perfect,21,GTGT
2 Perfect,21,GTTT
6 Perfect,21,TAAA
2 Perfect,21,TAGA
36 Perfect,21,TATA
4 Perfect,21,TATC
1 Perfect,21,TATG
28 Perfect,21,TATT
4 Perfect,21,TCAA
1 Perfect,21,TCAT
5 Perfect,21,TCCC
3 Perfect,21,TCCT
6 Perfect,21,TCTA
22 Perfect,21,TCTC
1 Perfect,21,TCTG
14 Perfect,21,TCTT
3 Perfect,21,TGAA
1 Perfect,21,TGAG
3 Perfect,21,TGGA
2 Perfect,21,TGTA
2 Perfect,21,TGTC
66 Perfect,21,TGTG
17 Perfect,21,TGTT
1 Perfect,21,TTAA
14 Perfect,21,TTAT
3 Perfect,21,TTCA
9 Perfect,21,TTCC
1 Perfect,21,TTCT
1 Perfect,21,TTGT
5 Perfect,21,TTTA
6 Perfect,21,TTTC
10 Perfect,21,TTTG
504 Perfect,21,TTTT
463 Perfect,22,AAAA
13 Perfect,22,AAAC
5 Perfect,22,AAAG
38 Perfect,22,AAAT
8 Perfect,22,AACA
2 Perfect,22,AACC
1 Perfect,22,AAGA
1 Perfect,22,AAGC
3 Perfect,22,AAGG
16 Perfect,22,AATA
1 Perfect,22,AATC
3 Perfect,22,AATT
32 Perfect,22,ACAC
3 Perfect,22,AGAA
4 Perfect,22,AGAG
2 Perfect,22,AGAT
1 Perfect,22,AGCT
3 Perfect,22,AGGA
4 Perfect,22,ATAA
1 Perfect,22,ATAG
38 Perfect,22,ATAT
4 Perfect,22,ATCC
2 Perfect,22,ATGA
1 Perfect,22,ATGC
6 Perfect,22,ATGG
1 Perfect,22,ATTA
3 Perfect,22,ATTC
1 Perfect,22,ATTG
2 Perfect,22,ATTT
3 Perfect,22,CAAA
1 Perfect,22,CAAT
17 Perfect,22,CACA
1 Perfect,22,CAGA
6 Perfect,22,CATC
3 Perfect,22,CATT
3 Perfect,22,CCAT
1 Perfect,22,CCTA
3 Perfect,22,CCTT
1 Perfect,22,CTAT
3 Perfect,22,CTCC
12 Perfect,22,CTCT
1 Perfect,22,CTGC
2 Perfect,22,CTTC
1 Perfect,22,CTTT
2 Perfect,22,GAAG
1 Perfect,22,GAAT
10 Perfect,22,GAGA
2 Perfect,22,GAGG
4 Perfect,22,GATG
1 Perfect,22,GGAA
1 Perfect,22,GGAT
1 Perfect,22,GGGC
22 Perfect,22,GTGT
7 Perfect,22,TAAA
1 Perfect,22,TAGA
16 Perfect,22,TATA
2 Perfect,22,TATC
3 Perfect,22,TATT
1 Perfect,22,TCAA
2 Perfect,22,TCAC
1 Perfect,22,TCAT
2 Perfect,22,TCCA
5 Perfect,22,TCCT
2 Perfect,22,TCTA
16 Perfect,22,TCTC
2 Perfect,22,TCTT
1 Perfect,22,TGAA
4 Perfect,22,TGGA
1 Perfect,22,TGGG
1 Perfect,22,TGTC
32 Perfect,22,TGTG
2 Perfect,22,TGTT
5 Perfect,22,TTAA
39 Perfect,22,TTAT
2 Perfect,22,TTCA
8 Perfect,22,TTCC
3 Perfect,22,TTCT
18 Perfect,22,TTGT
9 Perfect,22,TTTA
2 Perfect,22,TTTC
6 Perfect,22,TTTG
456 Perfect,22,TTTT
403 Perfect,23,AAAA
100 Perfect,23,AAAC
47 Perfect,23,AAAG
76 Perfect,23,AAAT
2 Perfect,23,AACA
1 Perfect,23,AACC
2 Perfect,23,AAGA
5 Perfect,23,AAGG
3 Perfect,23,AATA
1 Perfect,23,AATT
57 Perfect,23,ACAC
1 Perfect,23,ACAG
6 Perfect,23,AGAA
20 Perfect,23,AGAG
4 Perfect,23,AGGA
3 Perfect,23,AGGG
4 Perfect,23,ATAA
1 Perfect,23,ATAC
3 Perfect,23,ATAG
25 Perfect,23,ATAT
4 Perfect,23,ATCC
4 Perfect,23,ATCT
2 Perfect,23,ATGA
2 Perfect,23,ATGG
2 Perfect,23,ATTC
1 Perfect,23,ATTG
2 Perfect,23,ATTT
3 Perfect,23,CAAA
23 Perfect,23,CACA
1 Perfect,23,CACC
1 Perfect,23,CAGT
4 Perfect,23,CATC
1 Perfect,23,CATT
2 Perfect,23,CCAC
6 Perfect,23,CCAT
1 Perfect,23,CCCT
2 Perfect,23,CCTC
1 Perfect,23,CCTG
4 Perfect,23,CCTT
1 Perfect,23,CTAC
1 Perfect,23,CTAT
1 Perfect,23,CTCC
5 Perfect,23,CTCT
3 Perfect,23,CTTC
1 Perfect,23,CTTG
2 Perfect,23,GAAA
5 Perfect,23,GAAG
2 Perfect,23,GAAT
7 Perfect,23,GAGA
4 Perfect,23,GAGG
2 Perfect,23,GATA
3 Perfect,23,GATG
1 Perfect,23,GCGT
3 Perfect,23,GGAA
4 Perfect,23,GGAG
1 Perfect,23,GGGA
1 Perfect,23,GGGG
1 Perfect,23,GTGA
16 Perfect,23,GTGT
1 Perfect,23,GTTG
2 Perfect,23,TAAA
1 Perfect,23,TAGA
1 Perfect,23,TAGG
23 Perfect,23,TATA
3 Perfect,23,TATC
4 Perfect,23,TATG
3 Perfect,23,TATT
1 Perfect,23,TCAC
4 Perfect,23,TCAT
1 Perfect,23,TCCA
1 Perfect,23,TCCC
2 Perfect,23,TCCT
17 Perfect,23,TCTC
5 Perfect,23,TCTG
2 Perfect,23,TCTT
8 Perfect,23,TGAA
3 Perfect,23,TGAT
1 Perfect,23,TGCT
6 Perfect,23,TGGA
1 Perfect,23,TGGT
1 Perfect,23,TGTC
62 Perfect,23,TGTG
6 Perfect,23,TTAT
9 Perfect,23,TTCC
1 Perfect,23,TTCT
3 Perfect,23,TTGT
73 Perfect,23,TTTA
43 Perfect,23,TTTC
115 Perfect,23,TTTG
414 Perfect,23,TTTT
354 Perfect,24,AAAA
7 Perfect,24,AAAC
5 Perfect,24,AAAG
15 Perfect,24,AAAT
2 Perfect,24,AAGA
1 Perfect,24,AAGG
3 Perfect,24,AATA
3 Perfect,24,AATG
2 Perfect,24,AATT
1 Perfect,24,ACAA
45 Perfect,24,ACAC
4 Perfect,24,AGAG
1 Perfect,24,AGGA
1 Perfect,24,AGGC
3 Perfect,24,AGGG
3 Perfect,24,ATAA
2 Perfect,24,ATAC
25 Perfect,24,ATAT
1 Perfect,24,ATCC
1 Perfect,24,ATGA
2 Perfect,24,ATGG
1 Perfect,24,ATTC
14 Perfect,24,ATTT
27 Perfect,24,CAAA
21 Perfect,24,CACA
1 Perfect,24,CAGA
2 Perfect,24,CATC
1 Perfect,24,CATT
1 Perfect,24,CCAC
1 Perfect,24,CCTC
5 Perfect,24,CCTT
2 Perfect,24,CTCC
5 Perfect,24,CTCT
1 Perfect,24,CTTC
10 Perfect,24,CTTT
2 Perfect,24,GAAA
4 Perfect,24,GAAG
11 Perfect,24,GAGA
3 Perfect,24,GAGG
3 Perfect,24,GATA
3 Perfect,24,GATG
1 Perfect,24,GCCT
1 Perfect,24,GCTG
4 Perfect,24,GGAA
2 Perfect,24,GGAT
1 Perfect,24,GGCG
2 Perfect,24,GGGA
1 Perfect,24,GTAT
29 Perfect,24,GTGT
10 Perfect,24,GTTT
6 Perfect,24,TAAA
24 Perfect,24,TATA
2 Perfect,24,TATC
3 Perfect,24,TATT
1 Perfect,24,TCCA
2 Perfect,24,TCCC
5 Perfect,24,TCTC
2 Perfect,24,TCTT
4 Perfect,24,TGAA
1 Perfect,24,TGGA
23 Perfect,24,TGTG
1 Perfect,24,TTAA
2 Perfect,24,TTAT
1 Perfect,24,TTCA
1 Perfect,24,TTCC
1 Perfect,24,TTGT
8 Perfect,24,TTTA
3 Perfect,24,TTTC
19 Perfect,24,TTTG
374 Perfect,24,TTTT
303 Perfect,25,AAAA
13 Perfect,25,AAAC
8 Perfect,25,AAAG
14 Perfect,25,AAAT
2 Perfect,25,AACA
3 Perfect,25,AAGG
2 Perfect,25,AATA
2 Perfect,25,AATG
1 Perfect,25,AATT
2 Perfect,25,ACAA
40 Perfect,25,ACAC
2 Perfect,25,AGAA
1 Perfect,25,AGAC
19 Perfect,25,AGAG
1 Perfect,25,AGAT
1 Perfect,25,AGGA
3 Perfect,25,AGGG
3 Perfect,25,ATAA
1 Perfect,25,ATAC
2 Perfect,25,ATAG
21 Perfect,25,ATAT
1 Perfect,25,ATCC
1 Perfect,25,ATGG
1 Perfect,25,ATTC
1 Perfect,25,ATTG
4 Perfect,25,ATTT
3 Perfect,25,CAAA
19 Perfect,25,CACA
2 Perfect,25,CATC
2 Perfect,25,CATT
1 Perfect,25,CCAC
1 Perfect,25,CCAT
2 Perfect,25,CCTT
2 Perfect,25,CTAT
3 Perfect,25,CTCT
3 Perfect,25,GAAA
5 Perfect,25,GAAG
2 Perfect,25,GAAT
6 Perfect,25,GAGA
1 Perfect,25,GCAG
2 Perfect,25,GGAG
29 Perfect,25,GTGT
3 Perfect,25,TAAA
19 Perfect,25,TATA
2 Perfect,25,TATC
1 Perfect,25,TATG
16 Perfect,25,TATT
1 Perfect,25,TCAA
6 Perfect,25,TCCC
2 Perfect,25,TCCT
1 Perfect,25,TCTA
13 Perfect,25,TCTC
6 Perfect,25,TCTT
2 Perfect,25,TGAA
1 Perfect,25,TGAT
3 Perfect,25,TGGA
1 Perfect,25,TGTA
53 Perfect,25,TGTG
9 Perfect,25,TGTT
6 Perfect,25,TTAT
7 Perfect,25,TTCC
2 Perfect,25,TTGG
2 Perfect,25,TTGT
2 Perfect,25,TTTA
2 Perfect,25,TTTC
1 Perfect,25,TTTG
278 Perfect,25,TTTT
216 Perfect,26,AAAA
4 Perfect,26,AAAC
1 Perfect,26,AAAG
17 Perfect,26,AAAT
3 Perfect,26,AACA
2 Perfect,26,AACC
3 Perfect,26,AAGA
2 Perfect,26,AAGC
4 Perfect,26,AAGG
11 Perfect,26,AATA
1 Perfect,26,AATC
2 Perfect,26,AATG
3 Perfect,26,AATT
32 Perfect,26,ACAC
3 Perfect,26,AGAG
1 Perfect,26,AGAT
1 Perfect,26,AGTC
1 Perfect,26,ATAC
18 Perfect,26,ATAT
1 Perfect,26,ATCA
2 Perfect,26,ATGA
4 Perfect,26,ATGG
2 Perfect,26,CAAA
24 Perfect,26,CACA
3 Perfect,26,CATC
1 Perfect,26,CATT
1 Perfect,26,CCAT
1 Perfect,26,CCCT
1 Perfect,26,CTCC
3 Perfect,26,CTCT
1 Perfect,26,CTTC
1 Perfect,26,CTTT
1 Perfect,26,GAAA
1 Perfect,26,GAAT
6 Perfect,26,GAGA
1 Perfect,26,GAGG
1 Perfect,26,GATA
1 Perfect,26,GATG
2 Perfect,26,GGAA
1 Perfect,26,GGAT
31 Perfect,26,GTGT
3 Perfect,26,TAAA
1 Perfect,26,TAAT
1 Perfect,26,TACA
1 Perfect,26,TAGA
13 Perfect,26,TATA
1 Perfect,26,TATC
5 Perfect,26,TATT
1 Perfect,26,TCCT
2 Perfect,26,TCTA
15 Perfect,26,TCTC
3 Perfect,26,TGAA
1 Perfect,26,TGGA
23 Perfect,26,TGTG
1 Perfect,26,TGTT
2 Perfect,26,TTAA
16 Perfect,26,TTAT
1 Perfect,26,TTCA
4 Perfect,26,TTCC
4 Perfect,26,TTCT
12 Perfect,26,TTGT
11 Perfect,26,TTTA
5 Perfect,26,TTTC
3 Perfect,26,TTTG
222 Perfect,26,TTTT
178 Perfect,27,AAAA
37 Perfect,27,AAAC
9 Perfect,27,AAAG
27 Perfect,27,AAAT
1 Perfect,27,AACA
1 Perfect,27,AAGA
1 Perfect,27,AAGG
2 Perfect,27,AATA
1 Perfect,27,AATG
1 Perfect,27,ACAA
48 Perfect,27,ACAC
1 Perfect,27,AGAA
1 Perfect,27,AGAC
7 Perfect,27,AGAG
1 Perfect,27,AGAT
1 Perfect,27,AGGA
2 Perfect,27,AGGG
1 Perfect,27,ATAA
1 Perfect,27,ATAC
3 Perfect,27,ATAG
23 Perfect,27,ATAT
1 Perfect,27,ATCC
2 Perfect,27,ATCT
2 Perfect,27,ATGA
1 Perfect,27,ATTG
2 Perfect,27,ATTT
17 Perfect,27,CACA
1 Perfect,27,CATC
2 Perfect,27,CATT
4 Perfect,27,CCAT
1 Perfect,27,CCCC
3 Perfect,27,CCTC
5 Perfect,27,CCTT
5 Perfect,27,CTTC
1 Perfect,27,CTTT
1 Perfect,27,GAAT
4 Perfect,27,GAGA
1 Perfect,27,GATG
1 Perfect,27,GCCT
1 Perfect,27,GGAG
14 Perfect,27,GTGT
2 Perfect,27,TAAA
2 Perfect,27,TAGG
18 Perfect,27,TATA
2 Perfect,27,TATC
2 Perfect,27,TATG
2 Perfect,27,TATT
1 Perfect,27,TCAT
3 Perfect,27,TCTA
7 Perfect,27,TCTC
3 Perfect,27,TCTG
2 Perfect,27,TGAA
5 Perfect,27,TGGA
1 Perfect,27,TGTC
56 Perfect,27,TGTG
1 Perfect,27,TGTT
6 Perfect,27,TTAT
1 Perfect,27,TTGC
1 Perfect,27,TTGT
28 Perfect,27,TTTA
7 Perfect,27,TTTC
35 Perfect,27,TTTG
187 Perfect,27,TTTT
138 Perfect,28,AAAA
3 Perfect,28,AAAC
1 Perfect,28,AAAG
8 Perfect,28,AAAT
1 Perfect,28,AAGA
1 Perfect,28,AATA
2 Perfect,28,ACAA
36 Perfect,28,ACAC
1 Perfect,28,AGAA
8 Perfect,28,AGAG
1 Perfect,28,AGGA
1 Perfect,28,AGGG
3 Perfect,28,ATAA
15 Perfect,28,ATAT
1 Perfect,28,ATCC
1 Perfect,28,ATGG
9 Perfect,28,ATTT
10 Perfect,28,CAAA
20 Perfect,28,CACA
1 Perfect,28,CATC
1 Perfect,28,CATT
1 Perfect,28,CCAT
1 Perfect,28,CCCT
2 Perfect,28,CCTC
3 Perfect,28,CTTT
2 Perfect,28,GAAA
1 Perfect,28,GAAT
2 Perfect,28,GAGA
1 Perfect,28,GTAG
42 Perfect,28,GTGT
1 Perfect,28,GTTT
2 Perfect,28,TAAA
1 Perfect,28,TAGG
16 Perfect,28,TATA
3 Perfect,28,TATC
2 Perfect,28,TATT
2 Perfect,28,TCCA
1 Perfect,28,TCTA
7 Perfect,28,TCTC
1 Perfect,28,TCTG
3 Perfect,28,TCTT
2 Perfect,28,TGAA
1 Perfect,28,TGAT
2 Perfect,28,TGTA
16 Perfect,28,TGTG
1 Perfect,28,TGTT
2 Perfect,28,TTAT
2 Perfect,28,TTCC
2 Perfect,28,TTCT
3 Perfect,28,TTTA
4 Perfect,28,TTTG
153 Perfect,28,TTTT
90 Perfect,29,AAAA
4 Perfect,29,AAAC
1 Perfect,29,AAAG
9 Perfect,29,AAAT
2 Perfect,29,AATA
1 Perfect,29,AATG
2 Perfect,29,ACAA
64 Perfect,29,ACAC
6 Perfect,29,AGAG
2 Perfect,29,AGGC
3 Perfect,29,AGGG
1 Perfect,29,ATAA
14 Perfect,29,ATAT
1 Perfect,29,ATCC
3 Perfect,29,ATGG
1 Perfect,29,ATTT
9 Perfect,29,CACA
1 Perfect,29,CCAT
1 Perfect,29,CCTC
2 Perfect,29,CCTT
1 Perfect,29,CTCT
2 Perfect,29,CTTT
2 Perfect,29,GAAG
3 Perfect,29,GAGA
3 Perfect,29,GATA
2 Perfect,29,GGAA
1 Perfect,29,GGAT
1 Perfect,29,GGGG
13 Perfect,29,GTGT
1 Perfect,29,GTTT
3 Perfect,29,TAAA
13 Perfect,29,TATA
1 Perfect,29,TATC
1 Perfect,29,TATG
1 Perfect,29,TATT
1 Perfect,29,TCAA
2 Perfect,29,TCCC
1 Perfect,29,TCCT
8 Perfect,29,TCTC
1 Perfect,29,TCTT
1 Perfect,29,TGAA
2 Perfect,29,TGGA
2 Perfect,29,TGTA
1 Perfect,29,TGTC
38 Perfect,29,TGTG
4 Perfect,29,TGTT
1 Perfect,29,TTAA
1 Perfect,29,TTAT
1 Perfect,29,TTCA
1 Perfect,29,TTCT
1 Perfect,29,TTTC
100 Perfect,29,TTTT
68 Perfect,30,AAAA
5 Perfect,30,AAAC
7 Perfect,30,AAAT
1 Perfect,30,AACC
1 Perfect,30,AAGC
2 Perfect,30,AAGG
3 Perfect,30,AATA
1 Perfect,30,ACAA
30 Perfect,30,ACAC
1 Perfect,30,AGAA
5 Perfect,30,AGAG
1 Perfect,30,AGAT
1 Perfect,30,AGGA
1 Perfect,30,AGGC
12 Perfect,30,ATAT
1 Perfect,30,ATGA
1 Perfect,30,ATGG
1 Perfect,30,ATTT
2 Perfect,30,CAAA
17 Perfect,30,CACA
2 Perfect,30,CATC
1 Perfect,30,CCAT
1 Perfect,30,CTCC
5 Perfect,30,GAGA
1 Perfect,30,GGAA
1 Perfect,30,GGTT
25 Perfect,30,GTGT
2 Perfect,30,TAAA
1 Perfect,30,TAAT
13 Perfect,30,TATA
1 Perfect,30,TATC
3 Perfect,30,TATT
1 Perfect,30,TCAT
9 Perfect,30,TCTC
1 Perfect,30,TGCG
1 Perfect,30,TGGA
1 Perfect,30,TGGC
19 Perfect,30,TGTG
1 Perfect,30,TTAA
1 Perfect,30,TTCC
2 Perfect,30,TTCT
3 Perfect,30,TTGT
2 Perfect,30,TTTA
1 Perfect,30,TTTC
1 Perfect,30,TTTG
83 Perfect,30,TTTT
56 Perfect,31,AAAA
14 Perfect,31,AAAC
4 Perfect,31,AAAG
18 Perfect,31,AAAT
2 Perfect,31,AAGG
1 Perfect,31,AATA
51 Perfect,31,ACAC
1 Perfect,31,AGAA
11 Perfect,31,AGAG
2 Perfect,31,AGGG
2 Perfect,31,ATAC
15 Perfect,31,ATAT
1 Perfect,31,ATCC
1 Perfect,31,ATGG
1 Perfect,31,ATTT
12 Perfect,31,CACA
5 Perfect,31,CCTC
1 Perfect,31,CCTG
1 Perfect,31,CCTT
1 Perfect,31,CTCT
1 Perfect,31,CTTC
1 Perfect,31,CTTT
1 Perfect,31,GAAG
1 Perfect,31,GAAT
2 Perfect,31,GAGA
1 Perfect,31,GATG
1 Perfect,31,GGAA
8 Perfect,31,GTGT
11 Perfect,31,TATA
1 Perfect,31,TATC
1 Perfect,31,TCCT
6 Perfect,31,TCTC
1 Perfect,31,TCTG
1 Perfect,31,TCTT
1 Perfect,31,TGGA
1 Perfect,31,TGGC
41 Perfect,31,TGTG
2 Perfect,31,TTAT
2 Perfect,31,TTCA
1 Perfect,31,TTCC
1 Perfect,31,TTCT
18 Perfect,31,TTTA
8 Perfect,31,TTTC
11 Perfect,31,TTTG
47 Perfect,31,TTTT
31 Perfect,32,AAAA
3 Perfect,32,AAAT
2 Perfect,32,AAGA
39 Perfect,32,ACAC
4 Perfect,32,AGAG
1 Perfect,32,AGGC
3 Perfect,32,AGGG
1 Perfect,32,ATAC
9 Perfect,32,ATAT
1 Perfect,32,ATTT
4 Perfect,32,CAAA
1 Perfect,32,CAAC
15 Perfect,32,CACA
2 Perfect,32,CATC
1 Perfect,32,CCAT
2 Perfect,32,CTCT
5 Perfect,32,GAGA
1 Perfect,32,GATA
1 Perfect,32,GCAA
1 Perfect,32,GCCT
32 Perfect,32,GTGT
3 Perfect,32,GTTT
3 Perfect,32,TAAA
1 Perfect,32,TAGA
11 Perfect,32,TATA
1 Perfect,32,TCCA
2 Perfect,32,TCTC
1 Perfect,32,TGAA
24 Perfect,32,TGTG
1 Perfect,32,TTCA
1 Perfect,32,TTCT
1 Perfect,32,TTGT
2 Perfect,32,TTTA
3 Perfect,32,TTTG
32 Perfect,32,TTTT
31 Perfect,33,AAAA
3 Perfect,33,AAAC
6 Perfect,33,AAAT
1 Perfect,33,AAGC
1 Perfect,33,AATA
1 Perfect,33,AATG
47 Perfect,33,ACAC
1 Perfect,33,ACAT
9 Perfect,33,AGAG
1 Perfect,33,AGGC
5 Perfect,33,AGGG
5 Perfect,33,ATAA
1 Perfect,33,ATAC
2 Perfect,33,ATAG
7 Perfect,33,ATAT
1 Perfect,33,ATCT
1 Perfect,33,ATGG
2 Perfect,33,ATTT
9 Perfect,33,CACA
1 Perfect,33,CTTT
3 Perfect,33,GAGA
1 Perfect,33,GATG
13 Perfect,33,GTGT
1 Perfect,33,TAGA
10 Perfect,33,TATA
9 Perfect,33,TATT
1 Perfect,33,TCAT
1 Perfect,33,TCTA
7 Perfect,33,TCTC
1 Perfect,33,TCTT
1 Perfect,33,TGCC
47 Perfect,33,TGTG
1 Perfect,33,TGTT
1 Perfect,33,TTAT
1 Perfect,33,TTCA
2 Perfect,33,TTTA
21 Perfect,33,TTTT
20 Perfect,34,AAAA
1 Perfect,34,AAAC
4 Perfect,34,AAAT
1 Perfect,34,AAGA
4 Perfect,34,AAGG
4 Perfect,34,AATA
1 Perfect,34,AATT
30 Perfect,34,ACAC
3 Perfect,34,AGAG
1 Perfect,34,AGGA
1 Perfect,34,ATAC
11 Perfect,34,ATAT
1 Perfect,34,ATCC
1 Perfect,34,ATGT
11 Perfect,34,CACA
1 Perfect,34,CACG
1 Perfect,34,CATC
1 Perfect,34,CATT
2 Perfect,34,CTCT
1 Perfect,34,CTTC
1 Perfect,34,GAAA
1 Perfect,34,GAAT
4 Perfect,34,GAGA
1 Perfect,34,GATA
1 Perfect,34,GGAT
24 Perfect,34,GTGT
11 Perfect,34,TATA
4 Perfect,34,TATT
4 Perfect,34,TCTC
2 Perfect,34,TCTT
3 Perfect,34,TGGA
15 Perfect,34,TGTG
5 Perfect,34,TTAT
1 Perfect,34,TTCC
2 Perfect,34,TTGT
4 Perfect,34,TTTA
1 Perfect,34,TTTG
18 Perfect,34,TTTT
23 Perfect,35,AAAA
5 Perfect,35,AAAC
11 Perfect,35,AAAT
45 Perfect,35,ACAC
1 Perfect,35,AGAC
8 Perfect,35,AGAG
1 Perfect,35,AGGG
5 Perfect,35,ATAT
2 Perfect,35,ATCC
1 Perfect,35,ATGG
1 Perfect,35,ATTT
1 Perfect,35,CAAG
8 Perfect,35,CACA
1 Perfect,35,CCAT
1 Perfect,35,CCCT
1 Perfect,35,CCTC
1 Perfect,35,CCTG
4 Perfect,35,CTCT
2 Perfect,35,GAAG
1 Perfect,35,GATG
1 Perfect,35,GTAT
14 Perfect,35,GTGT
1 Perfect,35,TAAA
1 Perfect,35,TAGA
11 Perfect,35,TATA
2 Perfect,35,TCCA
1 Perfect,35,TCCC
6 Perfect,35,TCTC
1 Perfect,35,TGAG
1 Perfect,35,TGGA
38 Perfect,35,TGTG
1 Perfect,35,TGTT
1 Perfect,35,TTCC
10 Perfect,35,TTTA
3 Perfect,35,TTTC
5 Perfect,35,TTTG
20 Perfect,35,TTTT
18 Perfect,36,AAAA
1 Perfect,36,AAAG
1 Perfect,36,AAGA
1 Perfect,36,AATA
20 Perfect,36,ACAC
2 Perfect,36,AGAG
1 Perfect,36,ATAG
7 Perfect,36,ATAT
1 Perfect,36,ATGG
1 Perfect,36,ATTC
7 Perfect,36,ATTT
16 Perfect,36,CACA
1 Perfect,36,CATC
1 Perfect,36,CCCT
1 Perfect,36,CTAT
2 Perfect,36,CTCT
1 Perfect,36,GAGA
1 Perfect,36,GATA
2 Perfect,36,GGAA
24 Perfect,36,GTGT
2 Perfect,36,GTTT
1 Perfect,36,TAAA
10 Perfect,36,TATA
2 Perfect,36,TATC
1 Perfect,36,TCCT
4 Perfect,36,TCTC
12 Perfect,36,TGTG
3 Perfect,36,TTTA
2 Perfect,36,TTTG
18 Perfect,36,TTTT
21 Perfect,37,AAAA
2 Perfect,37,AAAC
2 Perfect,37,AAAT
2 Perfect,37,AATA
40 Perfect,37,ACAC
1 Perfect,37,AGAA
5 Perfect,37,AGAG
2 Perfect,37,AGAT
1 Perfect,37,AGGA
1 Perfect,37,AGGG
1 Perfect,37,ATAA
5 Perfect,37,ATAT
2 Perfect,37,ATCC
1 Perfect,37,ATGG
1 Perfect,37,ATTT
7 Perfect,37,CACA
2 Perfect,37,CATT
1 Perfect,37,CCAT
1 Perfect,37,CTCT
1 Perfect,37,GAGA
9 Perfect,37,GTGT
1 Perfect,37,TAGA
6 Perfect,37,TATA
2 Perfect,37,TATC
1 Perfect,37,TATT
8 Perfect,37,TCTC
1 Perfect,37,TGCC
3 Perfect,37,TGGA
34 Perfect,37,TGTG
2 Perfect,37,TTAT
1 Perfect,37,TTCA
2 Perfect,37,TTCC
2 Perfect,37,TTTA
16 Perfect,37,TTTT
19 Perfect,38,AAAA
1 Perfect,38,AAAG
4 Perfect,38,AAAT
1 Perfect,38,AAGA
1 Perfect,38,AAGG
4 Perfect,38,AATA
1 Perfect,38,AATC
28 Perfect,38,ACAC
1 Perfect,38,AGAG
1 Perfect,38,AGGA
1 Perfect,38,ATAA
1 Perfect,38,ATAG
12 Perfect,38,ATAT
1 Perfect,38,ATGA
1 Perfect,38,CAAG
8 Perfect,38,CACA
1 Perfect,38,CATT
1 Perfect,38,CCAT
1 Perfect,38,CCTT
1 Perfect,38,CTCT
2 Perfect,38,GAAG
6 Perfect,38,GAGA
1 Perfect,38,GATT
2 Perfect,38,GGAA
30 Perfect,38,GTGT
2 Perfect,38,TATA
1 Perfect,38,TATC
2 Perfect,38,TCTC
1 Perfect,38,TGAA
1 Perfect,38,TGGA
11 Perfect,38,TGTG
3 Perfect,38,TTAT
1 Perfect,38,TTCC
1 Perfect,38,TTGC
1 Perfect,38,TTGT
1 Perfect,38,TTTC
17 Perfect,38,TTTT
10 Perfect,39,AAAA
3 Perfect,39,AAAC
2 Perfect,39,AAAG
16 Perfect,39,AAAT
1 Perfect,39,AAGG
1 Perfect,39,AATA
38 Perfect,39,ACAC
1 Perfect,39,ACAT
1 Perfect,39,AGAA
5 Perfect,39,AGAG
1 Perfect,39,AGAT
2 Perfect,39,ATAC
5 Perfect,39,ATAT
5 Perfect,39,ATCC
1 Perfect,39,ATGA
10 Perfect,39,CACA
1 Perfect,39,CATC
1 Perfect,39,CCAT
1 Perfect,39,CCTC
1 Perfect,39,GAAG
1 Perfect,39,GAAT
2 Perfect,39,GAGA
1 Perfect,39,GAGG
3 Perfect,39,GATA
1 Perfect,39,GATG
1 Perfect,39,GGAG
2 Perfect,39,GGAT
6 Perfect,39,GTGT
2 Perfect,39,TATA
2 Perfect,39,TATC
1 Perfect,39,TATG
1 Perfect,39,TCCG
2 Perfect,39,TCTA
5 Perfect,39,TCTC
1 Perfect,39,TGGA
1 Perfect,39,TGGT
25 Perfect,39,TGTG
1 Perfect,39,TTAT
11 Perfect,39,TTTA
2 Perfect,39,TTTC
14 Perfect,39,TTTT
11 Perfect,40,AAAA
4 Perfect,40,AAAT
2 Perfect,40,AAGG
1 Perfect,40,AATA
28 Perfect,40,ACAC
1 Perfect,40,ACAT
1 Perfect,40,AGAG
2 Perfect,40,AGGA
1 Perfect,40,ATAA
2 Perfect,40,ATAC
1 Perfect,40,ATAG
10 Perfect,40,ATAT
4 Perfect,40,ATTT
11 Perfect,40,CACA
1 Perfect,40,CCAA
1 Perfect,40,CTAT
1 Perfect,40,GAAA
2 Perfect,40,GAAT
3 Perfect,40,GAGA
2 Perfect,40,GATA
1 Perfect,40,GATG
29 Perfect,40,GTGT
2 Perfect,40,TAGA
10 Perfect,40,TATA
3 Perfect,40,TATC
1 Perfect,40,TCCA
3 Perfect,40,TCTA
1 Perfect,40,TCTT
1 Perfect,40,TGAA
1 Perfect,40,TGGT
11 Perfect,40,TGTG
1 Perfect,40,TTTA
2 Perfect,40,TTTC
17 Perfect,40,TTTT
15 Perfect,41,AAAA
3 Perfect,41,AAAT
1 Perfect,41,AAGG
1 Perfect,41,AATA
39 Perfect,41,ACAC
1 Perfect,41,AGAA
4 Perfect,41,AGAG
2 Perfect,41,AGAT
1 Perfect,41,AGGA
1 Perfect,41,AGGC
1 Perfect,41,AGGG
1 Perfect,41,ATAA
2 Perfect,41,ATAG
1 Perfect,41,ATAT
2 Perfect,41,ATCC
1 Perfect,41,ATCT
1 Perfect,41,ATTT
7 Perfect,41,CACA
1 Perfect,41,CATA
1 Perfect,41,CCAT
1 Perfect,41,CCTC
3 Perfect,41,CCTT
2 Perfect,41,GATA
1 Perfect,41,GATG
1 Perfect,41,GGAT
5 Perfect,41,GTGT
1 Perfect,41,TAGA
10 Perfect,41,TATA
3 Perfect,41,TATC
4 Perfect,41,TATT
2 Perfect,41,TCCA
2 Perfect,41,TCCC
3 Perfect,41,TCTC
1 Perfect,41,TCTT
1 Perfect,41,TGGA
30 Perfect,41,TGTG
2 Perfect,41,TTAT
1 Perfect,41,TTCC
2 Perfect,41,TTTA
7 Perfect,41,TTTT
12 Perfect,42,AAAA
2 Perfect,42,AAAT
1 Perfect,42,AAGA
1 Perfect,42,AAGG
5 Perfect,42,AATA
33 Perfect,42,ACAC
1 Perfect,42,AGAA
1 Perfect,42,AGGA
1 Perfect,42,ATAA
1 Perfect,42,ATAG
12 Perfect,42,ATAT
2 Perfect,42,ATGG
2 Perfect,42,ATTC
1 Perfect,42,ATTT
10 Perfect,42,CACA
1 Perfect,42,CATA
4 Perfect,42,CATC
1 Perfect,42,CCTT
1 Perfect,42,CTCT
2 Perfect,42,GAGA
2 Perfect,42,GATA
26 Perfect,42,GTGT
1 Perfect,42,TAGA
9 Perfect,42,TATA
2 Perfect,42,TATC
1 Perfect,42,TATG
2 Perfect,42,TCTA
5 Perfect,42,TCTC
13 Perfect,42,TGTG
5 Perfect,42,TTAT
1 Perfect,42,TTCC
6 Perfect,42,TTTA
8 Perfect,42,TTTT
2 Perfect,43,AAAA
1 Perfect,43,AAAG
9 Perfect,43,AAAT
13 Perfect,43,ACAC
1 Perfect,43,AGAC
1 Perfect,43,AGAG
3 Perfect,43,AGAT
5 Perfect,43,ATAG
10 Perfect,43,ATAT
2 Perfect,43,ATCC
1 Perfect,43,ATCT
1 Perfect,43,ATTC
3 Perfect,43,ATTT
3 Perfect,43,CACA
1 Perfect,43,CATC
1 Perfect,43,CCAT
1 Perfect,43,CCTC
1 Perfect,43,CCTT
1 Perfect,43,CTCT
2 Perfect,43,GAGA
4 Perfect,43,GATA
1 Perfect,43,GGAT
2 Perfect,43,GTGT
2 Perfect,43,TAAA
2 Perfect,43,TAGA
5 Perfect,43,TATA
3 Perfect,43,TATC
1 Perfect,43,TCTA
1 Perfect,43,TCTC
1 Perfect,43,TCTG
20 Perfect,43,TGTG
2 Perfect,43,TTAT
1 Perfect,43,TTCA
3 Perfect,43,TTCC
11 Perfect,43,TTTA
1 Perfect,43,TTTC
1 Perfect,43,TTTG
2 Perfect,43,TTTT
3 Perfect,44,AAAA
1 Perfect,44,AAAG
3 Perfect,44,AAAT
21 Perfect,44,ACAC
1 Perfect,44,AGAA
2 Perfect,44,AGAG
1 Perfect,44,AGAT
1 Perfect,44,ATAA
1 Perfect,44,ATAG
14 Perfect,44,ATAT
2 Perfect,44,ATTT
7 Perfect,44,CACA
2 Perfect,44,CATC
1 Perfect,44,CTAT
1 Perfect,44,CTCT
3 Perfect,44,GAGA
5 Perfect,44,GATA
1 Perfect,44,GCCT
1 Perfect,44,GGAA
1 Perfect,44,GTAT
16 Perfect,44,GTGT
6 Perfect,44,TATA
6 Perfect,44,TATC
2 Perfect,44,TATT
3 Perfect,44,TCTA
1 Perfect,44,TCTC
1 Perfect,44,TGGA
6 Perfect,44,TGTG
1 Perfect,44,TTAT
2 Perfect,44,TTCC
1 Perfect,44,TTCT
3 Perfect,44,TTTA
4 Perfect,44,TTTT
3 Perfect,45,AAAA
2 Perfect,45,AAAG
2 Perfect,45,AAAT
1 Perfect,45,AATA
21 Perfect,45,ACAC
1 Perfect,45,AGAG
1 Perfect,45,AGAT
1 Perfect,45,AGGA
1 Perfect,45,ATAG
3 Perfect,45,ATAT
2 Perfect,45,ATCC
2 Perfect,45,ATCT
1 Perfect,45,ATTT
6 Perfect,45,CACA
1 Perfect,45,CCAT
1 Perfect,45,CCTT
1 Perfect,45,GAAA
1 Perfect,45,GAAG
2 Perfect,45,GATG
1 Perfect,45,GGAT
4 Perfect,45,GTGT
6 Perfect,45,TATA
2 Perfect,45,TATC
2 Perfect,45,TATG
3 Perfect,45,TATT
1 Perfect,45,TCAC
2 Perfect,45,TCCA
1 Perfect,45,TCCT
1 Perfect,45,TCTA
1 Perfect,45,TCTC
1 Perfect,45,TGTC
27 Perfect,45,TGTG
3 Perfect,45,TTTA
1 Perfect,45,TTTC
2 Perfect,45,TTTT
3 Perfect,46,AAAA
1 Perfect,46,AAAG
1 Perfect,46,AAAT
1 Perfect,46,AAGA
1 Perfect,46,AAGC
1 Perfect,46,AAGG
2 Perfect,46,AATA
10 Perfect,46,ACAC
1 Perfect,46,ACAT
1 Perfect,46,AGGA
2 Perfect,46,ATAA
1 Perfect,46,ATAC
4 Perfect,46,ATAT
2 Perfect,46,ATCC
1 Perfect,46,ATCT
3 Perfect,46,ATGT
3 Perfect,46,ATTT
7 Perfect,46,CACA
1 Perfect,46,CTCC
2 Perfect,46,CTTT
1 Perfect,46,GAAA
3 Perfect,46,GAGA
4 Perfect,46,GATA
1 Perfect,46,GGAA
17 Perfect,46,GTGT
2 Perfect,46,TAAA
1 Perfect,46,TAGA
7 Perfect,46,TATA
1 Perfect,46,TATC
1 Perfect,46,TCTA
2 Perfect,46,TCTC
1 Perfect,46,TCTT
6 Perfect,46,TGTG
2 Perfect,46,TTAT
2 Perfect,46,TTCC
1 Perfect,46,TTCT
4 Perfect,46,TTTA
1 Perfect,46,TTTT
4 Perfect,47,AAAA
10 Perfect,47,AAAT
1 Perfect,47,AAGG
15 Perfect,47,ACAC
1 Perfect,47,AGAA
1 Perfect,47,AGAT
2 Perfect,47,ATAC
1 Perfect,47,ATAG
4 Perfect,47,ATAT
1 Perfect,47,ATCC
3 Perfect,47,ATCT
2 Perfect,47,ATGG
1 Perfect,47,ATTT
3 Perfect,47,CACA
1 Perfect,47,CATC
1 Perfect,47,CTAT
2 Perfect,47,CTCT
1 Perfect,47,GAAA
2 Perfect,47,GAAG
1 Perfect,47,GAGA
3 Perfect,47,GATA
2 Perfect,47,GGAA
7 Perfect,47,GTGT
5 Perfect,47,TATA
1 Perfect,47,TATC
1 Perfect,47,TCCT
2 Perfect,47,TCTA
1 Perfect,47,TCTC
18 Perfect,47,TGTG
2 Perfect,47,TTCT
11 Perfect,47,TTTA
2 Perfect,47,TTTC
1 Perfect,48,AAAA
9 Perfect,48,ACAC
1 Perfect,48,ATAA
8 Perfect,48,ATAT
1 Perfect,48,ATCC
1 Perfect,48,ATCT
1 Perfect,48,ATGA
5 Perfect,48,CACA
1 Perfect,48,CTCT
1 Perfect,48,GAAA
2 Perfect,48,GAAG
4 Perfect,48,GATA
2 Perfect,48,GGAA
1 Perfect,48,GGAT
9 Perfect,48,GTGT
1 Perfect,48,TAAA
2 Perfect,48,TAGA
5 Perfect,48,TATA
2 Perfect,48,TATC
2 Perfect,48,TCTA
1 Perfect,48,TCTC
1 Perfect,48,TCTT
8 Perfect,48,TGTG
1 Perfect,48,TTCC
1 Perfect,48,TTTC
2 Perfect,48,TTTT
1 Perfect,49,AAAA
2 Perfect,49,AAAT
1 Perfect,49,AATA
16 Perfect,49,ACAC
1 Perfect,49,ACCT
1 Perfect,49,AGAT
1 Perfect,49,AGGA
10 Perfect,49,ATAT
1 Perfect,49,ATCC
2 Perfect,49,ATCT
3 Perfect,49,CACA
1 Perfect,49,CCTC
1 Perfect,49,CCTT
1 Perfect,49,CTAT
1 Perfect,49,GAAG
1 Perfect,49,GAGA
3 Perfect,49,GTGT
1 Perfect,49,TAGA
2 Perfect,49,TATA
2 Perfect,49,TATC
3 Perfect,49,TATT
1 Perfect,49,TCTA
1 Perfect,49,TCTT
1 Perfect,49,TGGA
15 Perfect,49,TGTG
1 Perfect,49,TTCC
1 Perfect,49,TTTA
1 Perfect,49,TTTC
2 Perfect,49,TTTT
2 Perfect,50,AAAG
3 Perfect,50,AAAT
1 Perfect,50,AAGA
2 Perfect,50,AAGG
2 Perfect,50,AATA
9 Perfect,50,ACAC
1 Perfect,50,AGAG
1 Perfect,50,AGGA
2 Perfect,50,ATAG
6 Perfect,50,ATAT
1 Perfect,50,ATCC
2 Perfect,50,ATCT
1 Perfect,50,CCAT
1 Perfect,50,CCTA
1 Perfect,50,CTTC
2 Perfect,50,GAGA
2 Perfect,50,GGAA
1 Perfect,50,GGAT
6 Perfect,50,GTGT
1 Perfect,50,TAGA
6 Perfect,50,TATA
1 Perfect,50,TATC
3 Perfect,50,TCTA
1 Perfect,50,TCTC
3 Perfect,50,TGTG
1 Perfect,50,TTAT
3 Perfect,50,TTCC
1 Perfect,51,AAAA
1 Perfect,51,AAAG
8 Perfect,51,AAAT
2 Perfect,51,AATA
8 Perfect,51,ACAC
1 Perfect,51,AGAA
2 Perfect,51,AGAT
1 Perfect,51,AGGA
1 Perfect,51,AGGG
1 Perfect,51,ATAG
4 Perfect,51,ATAT
3 Perfect,51,ATCT
4 Perfect,51,CACA
1 Perfect,51,CCAT
1 Perfect,51,CCTT
2 Perfect,51,GAAG
1 Perfect,51,GATA
1 Perfect,51,GATG
3 Perfect,51,GTGT
5 Perfect,51,TATA
2 Perfect,51,TATC
3 Perfect,51,TCTA
1 Perfect,51,TCTC
1 Perfect,51,TCTT
15 Perfect,51,TGTG
2 Perfect,51,TTCC
7 Perfect,51,TTTA
3 Perfect,51,TTTC
2 Perfect,51,TTTT
3 Perfect,52,AAAA
1 Perfect,52,AAAT
5 Perfect,52,ACAC
1 Perfect,52,AGAA
1 Perfect,52,ATAC
3 Perfect,52,ATAT
1 Perfect,52,ATCT
1 Perfect,52,ATTT
1 Perfect,52,CACA
1 Perfect,52,CATC
1 Perfect,52,CCAT
2 Perfect,52,CCTT
1 Perfect,52,CTTT
1 Perfect,52,GAAA
1 Perfect,52,GAGA
1 Perfect,52,GGAA
4 Perfect,52,GTGT
1 Perfect,52,TAGA
3 Perfect,52,TATA
1 Perfect,52,TCTA
1 Perfect,52,TCTC
3 Perfect,52,TGTG
1 Perfect,52,TTTC
1 Perfect,52,TTTT
1 Perfect,53,AAAG
2 Perfect,53,AAGG
3 Perfect,53,ACAC
2 Perfect,53,AGAA
1 Perfect,53,AGAG
1 Perfect,53,AGAT
1 Perfect,53,AGGA
1 Perfect,53,ATAT
1 Perfect,53,ATCT
1 Perfect,53,CCTT
1 Perfect,53,CTAT
2 Perfect,53,CTTC
1 Perfect,53,CTTT
1 Perfect,53,GAAA
1 Perfect,53,GAGA
1 Perfect,53,TAAA
1 Perfect,53,TAGA
2 Perfect,53,TATA
1 Perfect,53,TATC
1 Perfect,53,TCTA
4 Perfect,53,TGTG
1 Perfect,53,TTTC
1 Perfect,53,TTTT
1 Perfect,54,AAGA
3 Perfect,54,ACAC
1 Perfect,54,AGAG
2 Perfect,54,ATAT
1 Perfect,54,ATCT
1 Perfect,54,ATGG
4 Perfect,54,CTTT
1 Perfect,54,GTAT
4 Perfect,54,GTGT
1 Perfect,54,TAGA
1 Perfect,54,TATC
1 Perfect,54,TCCA
1 Perfect,54,TCTA
1 Perfect,54,TCTC
3 Perfect,54,TGTG
1 Perfect,54,TTTC
3 Perfect,55,AAAA
2 Perfect,55,AAAG
1 Perfect,55,AAAT
1 Perfect,55,AAGG
5 Perfect,55,ACAC
1 Perfect,55,AGAA
2 Perfect,55,AGAT
1 Perfect,55,ATAG
2 Perfect,55,ATAT
1 Perfect,55,ATCT
1 Perfect,55,GAAA
1 Perfect,55,GATA
1 Perfect,55,GTGT
1 Perfect,55,TAGA
4 Perfect,55,TATA
3 Perfect,55,TCTT
4 Perfect,55,TGTG
1 Perfect,55,TTTA
1 Perfect,56,AAAA
2 Perfect,56,AAAG
1 Perfect,56,AAAT
1 Perfect,56,AAGG
1 Perfect,56,AGGA
4 Perfect,56,ATAT
2 Perfect,56,GATA
5 Perfect,56,TATA
2 Perfect,56,TATC
1 Perfect,56,TCCT
2 Perfect,56,TGTG
1 Perfect,56,TTCC
1 Perfect,56,TTCT
1 Perfect,56,TTTC
1 Perfect,57,AAAG
2 Perfect,57,AAGA
1 Perfect,57,AAGG
3 Perfect,57,ACAC
4 Perfect,57,AGGA
3 Perfect,57,ATAT
1 Perfect,57,CACA
2 Perfect,57,CCTT
2 Perfect,57,TATA
2 Perfect,57,TCTT
1 Perfect,57,TGTG
1 Perfect,57,TTTC
1 Perfect,58,AAAA
1 Perfect,58,AAGA
1 Perfect,58,AAGG
2 Perfect,58,ACAC
3 Perfect,58,ATAT
1 Perfect,58,CTTT
1 Perfect,58,GGAA
3 Perfect,58,GTGT
2 Perfect,58,TATA
1 Perfect,58,TCTA
3 Perfect,58,TCTT
1 Perfect,58,TTAT
1 Perfect,58,TTCC
1 Perfect,59,AAAG
1 Perfect,59,AAAT
1 Perfect,59,AAGA
1 Perfect,59,AAGG
1 Perfect,59,ATAG
1 Perfect,59,ATAT
1 Perfect,59,ATCT
1 Perfect,59,GAAA
2 Perfect,59,TCTC
1 Perfect,59,TCTT
1 Perfect,59,TTTA
1 Perfect,59,TTTC
1 Perfect,60,AAAG
1 Perfect,60,AAGA
1 Perfect,60,ACAC
1 Perfect,60,ATAT
1 Perfect,60,ATCT
1 Perfect,60,CACA
2 Perfect,60,CCTT
1 Perfect,60,CTTC
2 Perfect,60,CTTT
1 Perfect,60,GAAA
1 Perfect,60,GGAT
1 Perfect,60,TAGA
1 Perfect,60,TATA
1 Perfect,60,TCTC
1 Perfect,60,TCTT
2 Perfect,60,TTCC
1 Perfect,60,TTTC
2 Perfect,61,AAAG
1 Perfect,61,AAGG
2 Perfect,61,AGAA
1 Perfect,61,AGAT
2 Perfect,61,AGGA
2 Perfect,61,ATAT
1 Perfect,61,CTTT
1 Perfect,61,GGAA
1 Perfect,61,TATA
1 Perfect,61,TCTC
2 Perfect,61,TTCC
1 Perfect,61,TTTC
1 Perfect,62,AAAT
1 Perfect,62,AGAA
2 Perfect,62,ATAT
2 Perfect,62,CTTT
1 Perfect,62,GAAA
1 Perfect,62,GAAG
1 Perfect,62,GGAA
3 Perfect,62,GTGT
1 Perfect,62,TCTT
1 Perfect,62,TTTC
2 Perfect,63,AAGG
2 Perfect,63,ACAC
1 Perfect,63,AGAA
1 Perfect,63,ATAG
1 Perfect,63,CTTT
1 Perfect,63,GAAG
1 Perfect,63,GATA
1 Perfect,63,GGAA
1 Perfect,63,TCTT
1 Perfect,64,AAGG
2 Perfect,64,ACAC
1 Perfect,64,CTTC
2 Perfect,64,CTTT
2 Perfect,64,GAAA
1 Perfect,64,GAAG
1 Perfect,64,GATA
3 Perfect,64,GGAA
1 Perfect,64,TCTT
2 Perfect,64,TTCC
1 Perfect,64,TTTC
1 Perfect,65,AAAG
1 Perfect,65,GAAA
1 Perfect,65,GAAG
1 Perfect,65,TCCT
1 Perfect,65,TTTC
1 Perfect,66,AAGG
1 Perfect,66,AGGA
1 Perfect,66,CTTT
1 Perfect,66,GAAA
1 Perfect,66,TAGA
1 Perfect,66,TCTT
1 Perfect,66,TTCC
1 Perfect,67,AGAA
2 Perfect,67,CCTT
1 Perfect,67,GAAA
1 Perfect,67,TCTT
2 Perfect,67,TTCC
1 Perfect,67,TTTC
2 Perfect,68,AGAA
1 Perfect,68,CCTT
1 Perfect,68,TCTT
1 Perfect,68,TTCT
1 Perfect,69,AAGA
1 Perfect,69,CCTT
1 Perfect,69,GAAA
1 Perfect,69,TCTA
1 Perfect,69,TTTC
1 Perfect,70,CTTT
1 Perfect,70,TCTT
1 Perfect,70,TTCT
1 Perfect,71,AAAG
1 Perfect,71,CTCT
1 Perfect,72,AAGA
1 Perfect,72,ATAT
1 Perfect,72,TTTC
1 Perfect,73,ATAT
1 Perfect,73,TTTC
1 Perfect,74,AAAG
2 Perfect,74,AAGA
1 Perfect,74,AAGG
1 Perfect,74,TTCT
1 Perfect,75,AAAG
1 Perfect,75,CTTT
1 Perfect,75,TTCC
1 Perfect,75,TTCT
2 Perfect,76,AAAG
1 Perfect,76,AAGA
1 Perfect,78,CTTT
1 Perfect,78,GGAA
1 Perfect,79,TTTC
1 Perfect,80,AAAG
2 Perfect,80,GAAA
1 Perfect,84,AAGA
2 Perfect,85,GAAA
1 Perfect,85,TATA
1 Perfect,85,TCTT
10609 Perfect,8,AAAA
2349 Perfect,8,AAAC
4476 Perfect,8,AAAG
7628 Perfect,8,AAAT
2455 Perfect,8,AACA
1250 Perfect,8,AACC
25 Perfect,8,AACG
1008 Perfect,8,AACT
2900 Perfect,8,AAGA
896 Perfect,8,AAGC
2327 Perfect,8,AAGG
1331 Perfect,8,AAGT
4382 Perfect,8,AATA
884 Perfect,8,AATC
2304 Perfect,8,AATG
3860 Perfect,8,AATT
1741 Perfect,8,ACAA
1605 Perfect,8,ACAC
1503 Perfect,8,ACAG
1973 Perfect,8,ACAT
772 Perfect,8,ACCA
875 Perfect,8,ACCC
13 Perfect,8,ACCG
870 Perfect,8,ACCT
15 Perfect,8,ACGA
42 Perfect,8,ACGC
37 Perfect,8,ACGG
44 Perfect,8,ACGT
456 Perfect,8,ACTA
852 Perfect,8,ACTC
903 Perfect,8,ACTG
1262 Perfect,8,ACTT
3790 Perfect,8,AGAA
1021 Perfect,8,AGAC
2479 Perfect,8,AGAG
1047 Perfect,8,AGAT
1199 Perfect,8,AGCA
1009 Perfect,8,AGCC
61 Perfect,8,AGCG
651 Perfect,8,AGCT
2706 Perfect,8,AGGA
2074 Perfect,8,AGGC
2242 Perfect,8,AGGG
928 Perfect,8,AGGT
1033 Perfect,8,AGTA
606 Perfect,8,AGTC
1299 Perfect,8,AGTG
1029 Perfect,8,AGTT
3180 Perfect,8,ATAA
950 Perfect,8,ATAC
869 Perfect,8,ATAG
5610 Perfect,8,ATAT
839 Perfect,8,ATCA
772 Perfect,8,ATCC
12 Perfect,8,ATCG
1063 Perfect,8,ATCT
1606 Perfect,8,ATGA
843 Perfect,8,ATGC
1105 Perfect,8,ATGG
2013 Perfect,8,ATGT
2266 Perfect,8,ATTA
1668 Perfect,8,ATTC
1230 Perfect,8,ATTG
7573 Perfect,8,ATTT
3297 Perfect,8,CAAA
753 Perfect,8,CAAC
1191 Perfect,8,CAAG
1210 Perfect,8,CAAT
2833 Perfect,8,CACA
1597 Perfect,8,CACC
87 Perfect,8,CACG
1249 Perfect,8,CACT
2247 Perfect,8,CAGA
1421 Perfect,8,CAGC
2786 Perfect,8,CAGG
979 Perfect,8,CAGT
1263 Perfect,8,CATA
1041 Perfect,8,CATC
1558 Perfect,8,CATG
2459 Perfect,8,CATT
927 Perfect,8,CCAA
1249 Perfect,8,CCAC
2413 Perfect,8,CCAG
1101 Perfect,8,CCAT
2336 Perfect,8,CCCA
326 Perfect,8,CCCC
326 Perfect,8,CCCG
2200 Perfect,8,CCCT
27 Perfect,8,CCGA
184 Perfect,8,CCGC
262 Perfect,8,CCGG
41 Perfect,8,CCGT
594 Perfect,8,CCTA
2059 Perfect,8,CCTC
2731 Perfect,8,CCTG
2482 Perfect,8,CCTT
23 Perfect,8,CGAA
16 Perfect,8,CGAC
45 Perfect,8,CGAG
17 Perfect,8,CGAT
51 Perfect,8,CGCA
1078 Perfect,8,CGCC
42 Perfect,8,CGCG
58 Perfect,8,CGCT
62 Perfect,8,CGGA
135 Perfect,8,CGGC
270 Perfect,8,CGGG
23 Perfect,8,CGGT
13 Perfect,8,CGTA
31 Perfect,8,CGTC
83 Perfect,8,CGTG
33 Perfect,8,CGTT
788 Perfect,8,CTAA
514 Perfect,8,CTAC
711 Perfect,8,CTAG
907 Perfect,8,CTAT
2217 Perfect,8,CTCA
1909 Perfect,8,CTCC
41 Perfect,8,CTCG
2511 Perfect,8,CTCT
1186 Perfect,8,CTGA
1645 Perfect,8,CTGC
2528 Perfect,8,CTGG
1622 Perfect,8,CTGT
944 Perfect,8,CTTA
2607 Perfect,8,CTTC
1191 Perfect,8,CTTG
5480 Perfect,8,CTTT
4768 Perfect,8,GAAA
171 Perfect,8,GAAC
2596 Perfect,8,GAAG
1637 Perfect,8,GAAT
1013 Perfect,8,GACA
129 Perfect,8,GACC
40 Perfect,8,GACG
595 Perfect,8,GACT
2388 Perfect,8,GAGA
226 Perfect,8,GAGC
2088 Perfect,8,GAGG
807 Perfect,8,GAGT
752 Perfect,8,GATA
84 Perfect,8,GATC
1066 Perfect,8,GATG
828 Perfect,8,GATT
640 Perfect,8,GCAA
626 Perfect,8,GCAC
1628 Perfect,8,GCAG
835 Perfect,8,GCAT
1071 Perfect,8,GCCA
450 Perfect,8,GCCC
174 Perfect,8,GCCG
2046 Perfect,8,GCCT
17 Perfect,8,GCGA
223 Perfect,8,GCGC
166 Perfect,8,GCGG
32 Perfect,8,GCGT
300 Perfect,8,GCTA
222 Perfect,8,GCTC
1427 Perfect,8,GCTG
972 Perfect,8,GCTT
2085 Perfect,8,GGAA
162 Perfect,8,GGAC
2066 Perfect,8,GGAG
798 Perfect,8,GGAT
1563 Perfect,8,GGCA
422 Perfect,8,GGCC
1078 Perfect,8,GGCG
978 Perfect,8,GGCT
2436 Perfect,8,GGGA
442 Perfect,8,GGGC
359 Perfect,8,GGGG
832 Perfect,8,GGGT
483 Perfect,8,GGTA
105 Perfect,8,GGTC
1621 Perfect,8,GGTG
1322 Perfect,8,GGTT
844 Perfect,8,GTAA
124 Perfect,8,GTAC
491 Perfect,8,GTAG
987 Perfect,8,GTAT
590 Perfect,8,GTCA
147 Perfect,8,GTCC
12 Perfect,8,GTCG
953 Perfect,8,GTCT
919 Perfect,8,GTGA
692 Perfect,8,GTGC
1264 Perfect,8,GTGG
1732 Perfect,8,GTGT
864 Perfect,8,GTTA
178 Perfect,8,GTTC
733 Perfect,8,GTTG
2319 Perfect,8,GTTT
4726 Perfect,8,TAAA
893 Perfect,8,TAAC
1000 Perfect,8,TAAG
2180 Perfect,8,TAAT
1315 Perfect,8,TACA
500 Perfect,8,TACC
15 Perfect,8,TACG
929 Perfect,8,TACT
906 Perfect,8,TAGA
311 Perfect,8,TAGC
548 Perfect,8,TAGG
484 Perfect,8,TAGT
4179 Perfect,8,TATA
797 Perfect,8,TATC
1218 Perfect,8,TATG
4508 Perfect,8,TATT
1041 Perfect,8,TCAA
916 Perfect,8,TCAC
1109 Perfect,8,TCAG
1537 Perfect,8,TCAT
1392 Perfect,8,TCCA
2394 Perfect,8,TCCC
67 Perfect,8,TCCG
2502 Perfect,8,TCCT
6 Perfect,8,TCGA
26 Perfect,8,TCGC
17 Perfect,8,TCGG
27 Perfect,8,TCGT
848 Perfect,8,TCTA
2344 Perfect,8,TCTC
1958 Perfect,8,TCTG
2928 Perfect,8,TCTT
2170 Perfect,8,TGAA
643 Perfect,8,TGAC
2200 Perfect,8,TGAG
877 Perfect,8,TGAT
1175 Perfect,8,TGCA
1505 Perfect,8,TGCC
57 Perfect,8,TGCG
1172 Perfect,8,TGCT
1401 Perfect,8,TGGA
1010 Perfect,8,TGGC
2360 Perfect,8,TGGG
771 Perfect,8,TGGT
1296 Perfect,8,TGTA
1023 Perfect,8,TGTC
2876 Perfect,8,TGTG
2343 Perfect,8,TGTT
2789 Perfect,8,TTAA
876 Perfect,8,TTAC
750 Perfect,8,TTAG
3191 Perfect,8,TTAT
2536 Perfect,8,TTCA
2053 Perfect,8,TTCC
26 Perfect,8,TTCG
3745 Perfect,8,TTCT
1269 Perfect,8,TTGA
615 Perfect,8,TTGC
886 Perfect,8,TTGG
2234 Perfect,8,TTGT
4521 Perfect,8,TTTA
4632 Perfect,8,TTTC
3281 Perfect,8,TTTG
10784 Perfect,8,TTTT
1 Perfect,90,CTTT
1 Perfect,91,AAAG
1 Perfect,98,TCTT
6232 Perfect,9,AAAA
1270 Perfect,9,AAAC
1641 Perfect,9,AAAG
2297 Perfect,9,AAAT
495 Perfect,9,AACA
267 Perfect,9,AACC
5 Perfect,9,AACG
172 Perfect,9,AACT
1305 Perfect,9,AAGA
517 Perfect,9,AAGC
744 Perfect,9,AAGG
320 Perfect,9,AAGT
1323 Perfect,9,AATA
402 Perfect,9,AATC
796 Perfect,9,AATG
752 Perfect,9,AATT
1311 Perfect,9,ACAA
1876 Perfect,9,ACAC
597 Perfect,9,ACAG
758 Perfect,9,ACAT
440 Perfect,9,ACCA
299 Perfect,9,ACCC
7 Perfect,9,ACCG
151 Perfect,9,ACCT
4 Perfect,9,ACGA
11 Perfect,9,ACGC
8 Perfect,9,ACGG
4 Perfect,9,ACGT
162 Perfect,9,ACTA
487 Perfect,9,ACTC
317 Perfect,9,ACTG
322 Perfect,9,ACTT
2524 Perfect,9,AGAA
668 Perfect,9,AGAC
1674 Perfect,9,AGAG
417 Perfect,9,AGAT
257 Perfect,9,AGCA
327 Perfect,9,AGCC
8 Perfect,9,AGCG
150 Perfect,9,AGCT
965 Perfect,9,AGGA
536 Perfect,9,AGGC
688 Perfect,9,AGGG
255 Perfect,9,AGGT
317 Perfect,9,AGTA
283 Perfect,9,AGTC
433 Perfect,9,AGTG
321 Perfect,9,AGTT
1537 Perfect,9,ATAA
825 Perfect,9,ATAC
345 Perfect,9,ATAG
1967 Perfect,9,ATAT
300 Perfect,9,ATCA
363 Perfect,9,ATCC
6 Perfect,9,ATCG
219 Perfect,9,ATCT
670 Perfect,9,ATGA
414 Perfect,9,ATGC
544 Perfect,9,ATGG
475 Perfect,9,ATGT
637 Perfect,9,ATTA
812 Perfect,9,ATTC
378 Perfect,9,ATTG
1573 Perfect,9,ATTT
318 Perfect,9,CAAA
130 Perfect,9,CAAC
176 Perfect,9,CAAG
118 Perfect,9,CAAT
760 Perfect,9,CACA
371 Perfect,9,CACC
30 Perfect,9,CACG
295 Perfect,9,CACT
295 Perfect,9,CAGA
410 Perfect,9,CAGC
443 Perfect,9,CAGG
185 Perfect,9,CAGT
152 Perfect,9,CATA
233 Perfect,9,CATC
203 Perfect,9,CATG
454 Perfect,9,CATT
189 Perfect,9,CCAA
1775 Perfect,9,CCAC
484 Perfect,9,CCAG
274 Perfect,9,CCAT
576 Perfect,9,CCCA
136 Perfect,9,CCCC
76 Perfect,9,CCCG
621 Perfect,9,CCCT
6 Perfect,9,CCGA
1080 Perfect,9,CCGC
50 Perfect,9,CCGG
19 Perfect,9,CCGT
141 Perfect,9,CCTA
924 Perfect,9,CCTC
538 Perfect,9,CCTG
591 Perfect,9,CCTT
1 Perfect,9,CGAA
1 Perfect,9,CGAC
10 Perfect,9,CGAG
1 Perfect,9,CGAT
38 Perfect,9,CGCA
93 Perfect,9,CGCC
40 Perfect,9,CGCG
19 Perfect,9,CGCT
11 Perfect,9,CGGA
42 Perfect,9,CGGC
47 Perfect,9,CGGG
6 Perfect,9,CGGT
4 Perfect,9,CGTA
20 Perfect,9,CGTC
26 Perfect,9,CGTG
12 Perfect,9,CGTT
97 Perfect,9,CTAA
115 Perfect,9,CTAC
112 Perfect,9,CTAG
111 Perfect,9,CTAT
377 Perfect,9,CTCA
831 Perfect,9,CTCC
16 Perfect,9,CTCG
703 Perfect,9,CTCT
189 Perfect,9,CTGA
543 Perfect,9,CTGC
418 Perfect,9,CTGG
285 Perfect,9,CTGT
132 Perfect,9,CTTA
583 Perfect,9,CTTC
162 Perfect,9,CTTG
754 Perfect,9,CTTT
782 Perfect,9,GAAA
7 Perfect,9,GAAC
590 Perfect,9,GAAG
459 Perfect,9,GAAT
300 Perfect,9,GACA
8 Perfect,9,GACC
21 Perfect,9,GACG
159 Perfect,9,GACT
712 Perfect,9,GAGA
34 Perfect,9,GAGC
608 Perfect,9,GAGG
272 Perfect,9,GAGT
96 Perfect,9,GATA
5 Perfect,9,GATC
298 Perfect,9,GATG
126 Perfect,9,GATT
197 Perfect,9,GCAA
23 Perfect,9,GCAC
503 Perfect,9,GCAG
221 Perfect,9,GCAT
376 Perfect,9,GCCA
35 Perfect,9,GCCC
60 Perfect,9,GCCG
421 Perfect,9,GCCT
15 Perfect,9,GCGA
43 Perfect,9,GCGC
100 Perfect,9,GCGG
31 Perfect,9,GCGT
97 Perfect,9,GCTA
10 Perfect,9,GCTC
487 Perfect,9,GCTG
157 Perfect,9,GCTT
661 Perfect,9,GGAA
15 Perfect,9,GGAC
874 Perfect,9,GGAG
245 Perfect,9,GGAT
536 Perfect,9,GGCA
58 Perfect,9,GGCC
1047 Perfect,9,GGCG
391 Perfect,9,GGCT
872 Perfect,9,GGGA
82 Perfect,9,GGGC
135 Perfect,9,GGGG
373 Perfect,9,GGGT
136 Perfect,9,GGTA
3 Perfect,9,GGTC
1783 Perfect,9,GGTG
132 Perfect,9,GGTT
148 Perfect,9,GTAA
9 Perfect,9,GTAC
127 Perfect,9,GTAG
161 Perfect,9,GTAT
199 Perfect,9,GTCA
12 Perfect,9,GTCC
2 Perfect,9,GTCG
282 Perfect,9,GTCT
380 Perfect,9,GTGA
28 Perfect,9,GTGC
580 Perfect,9,GTGG
871 Perfect,9,GTGT
110 Perfect,9,GTTA
6 Perfect,9,GTTC
185 Perfect,9,GTTG
319 Perfect,9,GTTT
1642 Perfect,9,TAAA
324 Perfect,9,TAAC
294 Perfect,9,TAAG
702 Perfect,9,TAAT
439 Perfect,9,TACA
269 Perfect,9,TACC
16 Perfect,9,TACG
302 Perfect,9,TACT
237 Perfect,9,TAGA
139 Perfect,9,TAGC
138 Perfect,9,TAGG
166 Perfect,9,TAGT
1987 Perfect,9,TATA
425 Perfect,9,TATC
853 Perfect,9,TATG
2179 Perfect,9,TATT
391 Perfect,9,TCAA
376 Perfect,9,TCAC
313 Perfect,9,TCAG
853 Perfect,9,TCAT
599 Perfect,9,TCCA
697 Perfect,9,TCCC
10 Perfect,9,TCCG
697 Perfect,9,TCCT
6 Perfect,9,TCGA
7 Perfect,9,TCGC
2 Perfect,9,TCGG
11 Perfect,9,TCGT
316 Perfect,9,TCTA
1705 Perfect,9,TCTC
668 Perfect,9,TCTG
1629 Perfect,9,TCTT
807 Perfect,9,TGAA
255 Perfect,9,TGAC
490 Perfect,9,TGAG
434 Perfect,9,TGAT
418 Perfect,9,TGCA
548 Perfect,9,TGCC
16 Perfect,9,TGCG
500 Perfect,9,TGCT
390 Perfect,9,TGGA
340 Perfect,9,TGGC
332 Perfect,9,TGGG
246 Perfect,9,TGGT
872 Perfect,9,TGTA
704 Perfect,9,TGTC
1896 Perfect,9,TGTG
1229 Perfect,9,TGTT
619 Perfect,9,TTAA
335 Perfect,9,TTAC
157 Perfect,9,TTAG
1311 Perfect,9,TTAT
693 Perfect,9,TTCA
962 Perfect,9,TTCC
8 Perfect,9,TTCG
1294 Perfect,9,TTCT
319 Perfect,9,TTGA
279 Perfect,9,TTGC
430 Perfect,9,TTGG
543 Perfect,9,TTGT
1634 Perfect,9,TTTA
2506 Perfect,9,TTTC
1319 Perfect,9,TTTG
6168 Perfect,9,TTTT
