443414 Imperfect,5,AAAA
218653 Imperfect,5,AAAC
211341 Imperfect,5,AAAG
299580 Imperfect,5,AAAT
146696 Imperfect,5,AACA
112907 Imperfect,5,AACC
14681 Imperfect,5,AACG
105851 Imperfect,5,AACT
195464 Imperfect,5,AAGA
138137 Imperfect,5,AAGC
133332 Imperfect,5,AAGG
118526 Imperfect,5,AAGT
202760 Imperfect,5,AATA
148438 Imperfect,5,AATC
162360 Imperfect,5,AATG
197608 Imperfect,5,AATT
279039 Imperfect,5,ACAA
176401 Imperfect,5,ACAC
210234 Imperfect,5,ACAG
167151 Imperfect,5,ACAT
123634 Imperfect,5,ACCA
119103 Imperfect,5,ACCC
12588 Imperfect,5,ACCG
82884 Imperfect,5,ACCT
19495 Imperfect,5,ACGA
16125 Imperfect,5,ACGC
19904 Imperfect,5,ACGG
20529 Imperfect,5,ACGT
129536 Imperfect,5,ACTA
126306 Imperfect,5,ACTC
141394 Imperfect,5,ACTG
119865 Imperfect,5,ACTT
354050 Imperfect,5,AGAA
149041 Imperfect,5,AGAC
209061 Imperfect,5,AGAG
149084 Imperfect,5,AGAT
156459 Imperfect,5,AGCA
141618 Imperfect,5,AGCC
17051 Imperfect,5,AGCG
113263 Imperfect,5,AGCT
197276 Imperfect,5,AGGA
133779 Imperfect,5,AGGC
124615 Imperfect,5,AGGG
92916 Imperfect,5,AGGT
138513 Imperfect,5,AGTA
112003 Imperfect,5,AGTC
137035 Imperfect,5,AGTG
117369 Imperfect,5,AGTT
282129 Imperfect,5,ATAA
150761 Imperfect,5,ATAC
128787 Imperfect,5,ATAG
174406 Imperfect,5,ATAT
130777 Imperfect,5,ATCA
111989 Imperfect,5,ATCC
12304 Imperfect,5,ATCG
96545 Imperfect,5,ATCT
191297 Imperfect,5,ATGA
127392 Imperfect,5,ATGC
140557 Imperfect,5,ATGG
126837 Imperfect,5,ATGT
189770 Imperfect,5,ATTA
161037 Imperfect,5,ATTC
121764 Imperfect,5,ATTG
207396 Imperfect,5,ATTT
92945 Imperfect,5,CAAA
67970 Imperfect,5,CAAC
68131 Imperfect,5,CAAG
66329 Imperfect,5,CAAT
92580 Imperfect,5,CACA
73343 Imperfect,5,CACC
27572 Imperfect,5,CACG
94749 Imperfect,5,CACT
69142 Imperfect,5,CAGA
142776 Imperfect,5,CAGC
121141 Imperfect,5,CAGG
72625 Imperfect,5,CAGT
54187 Imperfect,5,CATA
81350 Imperfect,5,CATC
92675 Imperfect,5,CATG
114251 Imperfect,5,CATT
83024 Imperfect,5,CCAA
118985 Imperfect,5,CCAC
131825 Imperfect,5,CCAG
105910 Imperfect,5,CCAT
89577 Imperfect,5,CCCA
69425 Imperfect,5,CCCC
14166 Imperfect,5,CCCG
83485 Imperfect,5,CCCT
8170 Imperfect,5,CCGA
24410 Imperfect,5,CCGC
16196 Imperfect,5,CCGG
18578 Imperfect,5,CCGT
56969 Imperfect,5,CCTA
122210 Imperfect,5,CCTC
93988 Imperfect,5,CCTG
107385 Imperfect,5,CCTT
13575 Imperfect,5,CGAA
10787 Imperfect,5,CGAC
13277 Imperfect,5,CGAG
16923 Imperfect,5,CGAT
16037 Imperfect,5,CGCA
25258 Imperfect,5,CGCC
8464 Imperfect,5,CGCG
18573 Imperfect,5,CGCT
10018 Imperfect,5,CGGA
26211 Imperfect,5,CGGC
21339 Imperfect,5,CGGG
10909 Imperfect,5,CGGT
9482 Imperfect,5,CGTA
15486 Imperfect,5,CGTC
22743 Imperfect,5,CGTG
16357 Imperfect,5,CGTT
56291 Imperfect,5,CTAA
51245 Imperfect,5,CTAC
46601 Imperfect,5,CTAG
53122 Imperfect,5,CTAT
97860 Imperfect,5,CTCA
135173 Imperfect,5,CTCC
11291 Imperfect,5,CTCG
101540 Imperfect,5,CTCT
80977 Imperfect,5,CTGA
94611 Imperfect,5,CTGC
94306 Imperfect,5,CTGG
85017 Imperfect,5,CTGT
63285 Imperfect,5,CTTA
115746 Imperfect,5,CTTC
71069 Imperfect,5,CTTG
122706 Imperfect,5,CTTT
135613 Imperfect,5,GAAA
13007 Imperfect,5,GAAC
102244 Imperfect,5,GAAG
115131 Imperfect,5,GAAT
92796 Imperfect,5,GACA
8832 Imperfect,5,GACC
16532 Imperfect,5,GACG
78772 Imperfect,5,GACT
105721 Imperfect,5,GAGA
13435 Imperfect,5,GAGC
82784 Imperfect,5,GAGG
90961 Imperfect,5,GAGT
56255 Imperfect,5,GATA
13023 Imperfect,5,GATC
98639 Imperfect,5,GATG
76643 Imperfect,5,GATT
97693 Imperfect,5,GCAA
19887 Imperfect,5,GCAC
123111 Imperfect,5,GCAG
109747 Imperfect,5,GCAT
119321 Imperfect,5,GCCA
19856 Imperfect,5,GCCC
21303 Imperfect,5,GCCG
154349 Imperfect,5,GCCT
17237 Imperfect,5,GCGA
7754 Imperfect,5,GCGC
20639 Imperfect,5,GCGG
30248 Imperfect,5,GCGT
57772 Imperfect,5,GCTA
11650 Imperfect,5,GCTC
171889 Imperfect,5,GCTG
89333 Imperfect,5,GCTT
138212 Imperfect,5,GGAA
11972 Imperfect,5,GGAC
161883 Imperfect,5,GGAG
85412 Imperfect,5,GGAT
114228 Imperfect,5,GGCA
19348 Imperfect,5,GGCC
20706 Imperfect,5,GGCG
124451 Imperfect,5,GGCT
104372 Imperfect,5,GGGA
21200 Imperfect,5,GGGC
68998 Imperfect,5,GGGG
81018 Imperfect,5,GGGT
60620 Imperfect,5,GGTA
7657 Imperfect,5,GGTC
110974 Imperfect,5,GGTG
75111 Imperfect,5,GGTT
69362 Imperfect,5,GTAA
5818 Imperfect,5,GTAC
55928 Imperfect,5,GTAG
58688 Imperfect,5,GTAT
92712 Imperfect,5,GTCA
8057 Imperfect,5,GTCC
9434 Imperfect,5,GTCG
79619 Imperfect,5,GTCT
130652 Imperfect,5,GTGA
13229 Imperfect,5,GTGC
106791 Imperfect,5,GTGG
108376 Imperfect,5,GTGT
62909 Imperfect,5,GTTA
10804 Imperfect,5,GTTC
80878 Imperfect,5,GTTG
105944 Imperfect,5,GTTT
213168 Imperfect,5,TAAA
111640 Imperfect,5,TAAC
107703 Imperfect,5,TAAG
221844 Imperfect,5,TAAT
133329 Imperfect,5,TACA
93137 Imperfect,5,TACC
17299 Imperfect,5,TACG
138716 Imperfect,5,TACT
100423 Imperfect,5,TAGA
108570 Imperfect,5,TAGC
74406 Imperfect,5,TAGG
119013 Imperfect,5,TAGT
186705 Imperfect,5,TATA
142712 Imperfect,5,TATC
144598 Imperfect,5,TATG
363064 Imperfect,5,TATT
143276 Imperfect,5,TCAA
161636 Imperfect,5,TCAC
136958 Imperfect,5,TCAG
205124 Imperfect,5,TCAT
140845 Imperfect,5,TCCA
132774 Imperfect,5,TCCC
16076 Imperfect,5,TCCG
168086 Imperfect,5,TCCT
12246 Imperfect,5,TCGA
18529 Imperfect,5,TCGC
11867 Imperfect,5,TCGG
18732 Imperfect,5,TCGT
142035 Imperfect,5,TCTA
212547 Imperfect,5,TCTC
188604 Imperfect,5,TCTG
286475 Imperfect,5,TCTT
172427 Imperfect,5,TGAA
112598 Imperfect,5,TGAC
117443 Imperfect,5,TGAG
175100 Imperfect,5,TGAT
130778 Imperfect,5,TGCA
144896 Imperfect,5,TGCC
13155 Imperfect,5,TGCG
165180 Imperfect,5,TGCT
117419 Imperfect,5,TGGA
142943 Imperfect,5,TGGC
101505 Imperfect,5,TGGG
131455 Imperfect,5,TGGT
175074 Imperfect,5,TGTA
164690 Imperfect,5,TGTC
159745 Imperfect,5,TGTG
271816 Imperfect,5,TGTT
168235 Imperfect,5,TTAA
112148 Imperfect,5,TTAC
101443 Imperfect,5,TTAG
194599 Imperfect,5,TTAT
165873 Imperfect,5,TTCA
177118 Imperfect,5,TTCC
15432 Imperfect,5,TTCG
206334 Imperfect,5,TTCT
114175 Imperfect,5,TTGA
131542 Imperfect,5,TTGC
100558 Imperfect,5,TTGG
148448 Imperfect,5,TTGT
232588 Imperfect,5,TTTA
279142 Imperfect,5,TTTC
210738 Imperfect,5,TTTG
442153 Imperfect,5,TTTT
134332 Imperfect,6,AAAA
58710 Imperfect,6,AAAC
74201 Imperfect,6,AAAG
88891 Imperfect,6,AAAT
97193 Imperfect,6,AACA
40643 Imperfect,6,AACC
6663 Imperfect,6,AACG
40339 Imperfect,6,AACT
125306 Imperfect,6,AAGA
56031 Imperfect,6,AAGC
66575 Imperfect,6,AAGG
48878 Imperfect,6,AAGT
111824 Imperfect,6,AATA
44653 Imperfect,6,AATC
66553 Imperfect,6,AATG
65817 Imperfect,6,AATT
23508 Imperfect,6,ACAA
22148 Imperfect,6,ACAC
18786 Imperfect,6,ACAG
17631 Imperfect,6,ACAT
19938 Imperfect,6,ACCA
19137 Imperfect,6,ACCC
1770 Imperfect,6,ACCG
15414 Imperfect,6,ACCT
3115 Imperfect,6,ACGA
3938 Imperfect,6,ACGC
3032 Imperfect,6,ACGG
3771 Imperfect,6,ACGT
13801 Imperfect,6,ACTA
18712 Imperfect,6,ACTC
16533 Imperfect,6,ACTG
17356 Imperfect,6,ACTT
51002 Imperfect,6,AGAA
39658 Imperfect,6,AGAC
37210 Imperfect,6,AGAG
20325 Imperfect,6,AGAT
39051 Imperfect,6,AGCA
42759 Imperfect,6,AGCC
7962 Imperfect,6,AGCG
19895 Imperfect,6,AGCT
51423 Imperfect,6,AGGA
44538 Imperfect,6,AGGC
32599 Imperfect,6,AGGG
21088 Imperfect,6,AGGT
23353 Imperfect,6,AGTA
28088 Imperfect,6,AGTC
51888 Imperfect,6,AGTG
20512 Imperfect,6,AGTT
66138 Imperfect,6,ATAA
40636 Imperfect,6,ATAC
29421 Imperfect,6,ATAG
64274 Imperfect,6,ATAT
38766 Imperfect,6,ATCA
31413 Imperfect,6,ATCC
3653 Imperfect,6,ATCG
35765 Imperfect,6,ATCT
47115 Imperfect,6,ATGA
33980 Imperfect,6,ATGC
29874 Imperfect,6,ATGG
51384 Imperfect,6,ATGT
44299 Imperfect,6,ATTA
40499 Imperfect,6,ATTC
27880 Imperfect,6,ATTG
63599 Imperfect,6,ATTT
38676 Imperfect,6,CAAA
21695 Imperfect,6,CAAC
25445 Imperfect,6,CAAG
25727 Imperfect,6,CAAT
43723 Imperfect,6,CACA
35198 Imperfect,6,CACC
5212 Imperfect,6,CACG
27854 Imperfect,6,CACT
35942 Imperfect,6,CAGA
36704 Imperfect,6,CAGC
46947 Imperfect,6,CAGG
26781 Imperfect,6,CAGT
27569 Imperfect,6,CATA
26008 Imperfect,6,CATC
30393 Imperfect,6,CATG
35615 Imperfect,6,CATT
15715 Imperfect,6,CCAA
25994 Imperfect,6,CCAC
53734 Imperfect,6,CCAG
24621 Imperfect,6,CCAT
31542 Imperfect,6,CCCA
12545 Imperfect,6,CCCC
9363 Imperfect,6,CCCG
23785 Imperfect,6,CCCT
3487 Imperfect,6,CCGA
7922 Imperfect,6,CCGC
8660 Imperfect,6,CCGG
4158 Imperfect,6,CCGT
12046 Imperfect,6,CCTA
64226 Imperfect,6,CCTC
26563 Imperfect,6,CCTG
28968 Imperfect,6,CCTT
493 Imperfect,6,CGAA
544 Imperfect,6,CGAC
1021 Imperfect,6,CGAG
438 Imperfect,6,CGAT
841 Imperfect,6,CGCA
3898 Imperfect,6,CGCC
864 Imperfect,6,CGCG
851 Imperfect,6,CGCT
770 Imperfect,6,CGGA
1871 Imperfect,6,CGGC
3941 Imperfect,6,CGGG
480 Imperfect,6,CGGT
336 Imperfect,6,CGTA
1000 Imperfect,6,CGTC
1134 Imperfect,6,CGTG
433 Imperfect,6,CGTT
21016 Imperfect,6,CTAA
22809 Imperfect,6,CTAC
17629 Imperfect,6,CTAG
26180 Imperfect,6,CTAT
47967 Imperfect,6,CTCA
34288 Imperfect,6,CTCC
4984 Imperfect,6,CTCG
45019 Imperfect,6,CTCT
28656 Imperfect,6,CTGA
57475 Imperfect,6,CTGC
39134 Imperfect,6,CTGG
51321 Imperfect,6,CTGT
22353 Imperfect,6,CTTA
47027 Imperfect,6,CTTC
31520 Imperfect,6,CTTG
53628 Imperfect,6,CTTT
41894 Imperfect,6,GAAA
2920 Imperfect,6,GAAC
30017 Imperfect,6,GAAG
29930 Imperfect,6,GAAT
48711 Imperfect,6,GACA
2404 Imperfect,6,GACC
6422 Imperfect,6,GACG
24099 Imperfect,6,GACT
39907 Imperfect,6,GAGA
3187 Imperfect,6,GAGC
25241 Imperfect,6,GAGG
24522 Imperfect,6,GAGT
22122 Imperfect,6,GATA
3732 Imperfect,6,GATC
30888 Imperfect,6,GATG
17241 Imperfect,6,GATT
13090 Imperfect,6,GCAA
3400 Imperfect,6,GCAC
16348 Imperfect,6,GCAG
14663 Imperfect,6,GCAT
18099 Imperfect,6,GCCA
3088 Imperfect,6,GCCC
3334 Imperfect,6,GCCG
17344 Imperfect,6,GCCT
2747 Imperfect,6,GCGA
1576 Imperfect,6,GCGC
5332 Imperfect,6,GCGG
3986 Imperfect,6,GCGT
8852 Imperfect,6,GCTA
2191 Imperfect,6,GCTC
17643 Imperfect,6,GCTG
12998 Imperfect,6,GCTT
30713 Imperfect,6,GGAA
3534 Imperfect,6,GGAC
26601 Imperfect,6,GGAG
23489 Imperfect,6,GGAT
45184 Imperfect,6,GGCA
8286 Imperfect,6,GGCC
9589 Imperfect,6,GGCG
58783 Imperfect,6,GGCT
64389 Imperfect,6,GGGA
5652 Imperfect,6,GGGC
12533 Imperfect,6,GGGG
23289 Imperfect,6,GGGT
15007 Imperfect,6,GGTA
3069 Imperfect,6,GGTC
36669 Imperfect,6,GGTG
17495 Imperfect,6,GGTT
19468 Imperfect,6,GTAA
2839 Imperfect,6,GTAC
14825 Imperfect,6,GTAG
24646 Imperfect,6,GTAT
19978 Imperfect,6,GTCA
2536 Imperfect,6,GTCC
1827 Imperfect,6,GTCG
28776 Imperfect,6,GTCT
19869 Imperfect,6,GTGA
2361 Imperfect,6,GTGC
17958 Imperfect,6,GTGG
28001 Imperfect,6,GTGT
12468 Imperfect,6,GTTA
2253 Imperfect,6,GTTC
17637 Imperfect,6,GTTG
27022 Imperfect,6,GTTT
60912 Imperfect,6,TAAA
21652 Imperfect,6,TAAC
24979 Imperfect,6,TAAG
43700 Imperfect,6,TAAT
46994 Imperfect,6,TACA
23109 Imperfect,6,TACC
5629 Imperfect,6,TACG
31158 Imperfect,6,TACT
32654 Imperfect,6,TAGA
22290 Imperfect,6,TAGC
22341 Imperfect,6,TAGG
26464 Imperfect,6,TAGT
51792 Imperfect,6,TATA
25826 Imperfect,6,TATC
34361 Imperfect,6,TATG
58567 Imperfect,6,TATT
15424 Imperfect,6,TCAA
27236 Imperfect,6,TCAC
19366 Imperfect,6,TCAG
32722 Imperfect,6,TCAT
31113 Imperfect,6,TCCA
26664 Imperfect,6,TCCC
5878 Imperfect,6,TCCG
36080 Imperfect,6,TCCT
4391 Imperfect,6,TCGA
6712 Imperfect,6,TCGC
2651 Imperfect,6,TCGG
4007 Imperfect,6,TCGT
17286 Imperfect,6,TCTA
32441 Imperfect,6,TCTC
31220 Imperfect,6,TCTG
38235 Imperfect,6,TCTT
35155 Imperfect,6,TGAA
25837 Imperfect,6,TGAC
24896 Imperfect,6,TGAG
26239 Imperfect,6,TGAT
31642 Imperfect,6,TGCA
50368 Imperfect,6,TGCC
6033 Imperfect,6,TGCG
34879 Imperfect,6,TGCT
28430 Imperfect,6,TGGA
35221 Imperfect,6,TGGC
34161 Imperfect,6,TGGG
23250 Imperfect,6,TGGT
22355 Imperfect,6,TGTA
29833 Imperfect,6,TGTC
38056 Imperfect,6,TGTG
36183 Imperfect,6,TGTT
66972 Imperfect,6,TTAA
44702 Imperfect,6,TTAC
36443 Imperfect,6,TTAG
124481 Imperfect,6,TTAT
71795 Imperfect,6,TTCA
65029 Imperfect,6,TTCC
7068 Imperfect,6,TTCG
115167 Imperfect,6,TTCT
52566 Imperfect,6,TTGA
53404 Imperfect,6,TTGC
39905 Imperfect,6,TTGG
93828 Imperfect,6,TTGT
80857 Imperfect,6,TTTA
85888 Imperfect,6,TTTC
61319 Imperfect,6,TTTG
134988 Imperfect,6,TTTT
37338 Imperfect,7,AAAA
40240 Imperfect,7,AAAC
49196 Imperfect,7,AAAG
47401 Imperfect,7,AAAT
6446 Imperfect,7,AACA
4939 Imperfect,7,AACC
915 Imperfect,7,AACG
4428 Imperfect,7,AACT
11887 Imperfect,7,AAGA
10100 Imperfect,7,AAGC
12679 Imperfect,7,AAGG
6280 Imperfect,7,AAGT
18289 Imperfect,7,AATA
13021 Imperfect,7,AATC
14695 Imperfect,7,AATG
12545 Imperfect,7,AATT
9625 Imperfect,7,ACAA
11733 Imperfect,7,ACAC
12291 Imperfect,7,ACAG
10241 Imperfect,7,ACAT
2812 Imperfect,7,ACCA
3370 Imperfect,7,ACCC
429 Imperfect,7,ACCG
2200 Imperfect,7,ACCT
107 Imperfect,7,ACGA
147 Imperfect,7,ACGC
162 Imperfect,7,ACGG
88 Imperfect,7,ACGT
3568 Imperfect,7,ACTA
6186 Imperfect,7,ACTC
6090 Imperfect,7,ACTG
5222 Imperfect,7,ACTT
13953 Imperfect,7,AGAA
19168 Imperfect,7,AGAC
14147 Imperfect,7,AGAG
7645 Imperfect,7,AGAT
2964 Imperfect,7,AGCA
4565 Imperfect,7,AGCC
884 Imperfect,7,AGCG
2346 Imperfect,7,AGCT
8697 Imperfect,7,AGGA
22178 Imperfect,7,AGGC
8771 Imperfect,7,AGGG
5119 Imperfect,7,AGGT
5284 Imperfect,7,AGTA
6099 Imperfect,7,AGTC
6018 Imperfect,7,AGTG
3425 Imperfect,7,AGTT
16063 Imperfect,7,ATAA
15702 Imperfect,7,ATAC
9880 Imperfect,7,ATAG
16561 Imperfect,7,ATAT
2342 Imperfect,7,ATCA
5553 Imperfect,7,ATCC
520 Imperfect,7,ATCG
3187 Imperfect,7,ATCT
7548 Imperfect,7,ATGA
6679 Imperfect,7,ATGC
7529 Imperfect,7,ATGG
5278 Imperfect,7,ATGT
12648 Imperfect,7,ATTA
14526 Imperfect,7,ATTC
12925 Imperfect,7,ATTG
18018 Imperfect,7,ATTT
6972 Imperfect,7,CAAA
5701 Imperfect,7,CAAC
12587 Imperfect,7,CAAG
5866 Imperfect,7,CAAT
6675 Imperfect,7,CACA
5038 Imperfect,7,CACC
1640 Imperfect,7,CACG
4543 Imperfect,7,CACT
5819 Imperfect,7,CAGA
8019 Imperfect,7,CAGC
8849 Imperfect,7,CAGG
5556 Imperfect,7,CAGT
5145 Imperfect,7,CATA
7453 Imperfect,7,CATC
6555 Imperfect,7,CATG
7672 Imperfect,7,CATT
3914 Imperfect,7,CCAA
6139 Imperfect,7,CCAC
9114 Imperfect,7,CCAG
4531 Imperfect,7,CCAT
8764 Imperfect,7,CCCA
1636 Imperfect,7,CCCC
2786 Imperfect,7,CCCG
8153 Imperfect,7,CCCT
150 Imperfect,7,CCGA
426 Imperfect,7,CCGC
755 Imperfect,7,CCGG
324 Imperfect,7,CCGT
5225 Imperfect,7,CCTA
8638 Imperfect,7,CCTC
22144 Imperfect,7,CCTG
8612 Imperfect,7,CCTT
57 Imperfect,7,CGAA
81 Imperfect,7,CGAC
121 Imperfect,7,CGAG
45 Imperfect,7,CGAT
439 Imperfect,7,CGCA
365 Imperfect,7,CGCC
294 Imperfect,7,CGCG
300 Imperfect,7,CGCT
323 Imperfect,7,CGGA
828 Imperfect,7,CGGC
437 Imperfect,7,CGGG
157 Imperfect,7,CGGT
91 Imperfect,7,CGTA
145 Imperfect,7,CGTC
117 Imperfect,7,CGTG
93 Imperfect,7,CGTT
3073 Imperfect,7,CTAA
3592 Imperfect,7,CTAC
4719 Imperfect,7,CTAG
2898 Imperfect,7,CTAT
10048 Imperfect,7,CTCA
6970 Imperfect,7,CTCC
3712 Imperfect,7,CTCG
6723 Imperfect,7,CTCT
5626 Imperfect,7,CTGA
8717 Imperfect,7,CTGC
7722 Imperfect,7,CTGG
5810 Imperfect,7,CTGT
6137 Imperfect,7,CTTA
12376 Imperfect,7,CTTC
10166 Imperfect,7,CTTG
12038 Imperfect,7,CTTT
10522 Imperfect,7,GAAA
1222 Imperfect,7,GAAC
12680 Imperfect,7,GAAG
9398 Imperfect,7,GAAT
2256 Imperfect,7,GACA
336 Imperfect,7,GACC
411 Imperfect,7,GACG
2003 Imperfect,7,GACT
6822 Imperfect,7,GAGA
3834 Imperfect,7,GAGC
6947 Imperfect,7,GAGG
9965 Imperfect,7,GAGT
3438 Imperfect,7,GATA
540 Imperfect,7,GATC
5674 Imperfect,7,GATG
2401 Imperfect,7,GATT
3251 Imperfect,7,GCAA
1036 Imperfect,7,GCAC
5283 Imperfect,7,GCAG
5297 Imperfect,7,GCAT
4225 Imperfect,7,GCCA
2427 Imperfect,7,GCCC
1026 Imperfect,7,GCCG
3856 Imperfect,7,GCCT
328 Imperfect,7,GCGA
325 Imperfect,7,GCGC
347 Imperfect,7,GCGG
394 Imperfect,7,GCGT
2414 Imperfect,7,GCTA
898 Imperfect,7,GCTC
4518 Imperfect,7,GCTG
2900 Imperfect,7,GCTT
6748 Imperfect,7,GGAA
962 Imperfect,7,GGAC
5678 Imperfect,7,GGAG
5613 Imperfect,7,GGAT
3951 Imperfect,7,GGCA
1005 Imperfect,7,GGCC
2466 Imperfect,7,GGCG
4315 Imperfect,7,GGCT
8169 Imperfect,7,GGGA
2553 Imperfect,7,GGGC
1616 Imperfect,7,GGGG
8690 Imperfect,7,GGGT
2238 Imperfect,7,GGTA
409 Imperfect,7,GGTC
3342 Imperfect,7,GGTG
2710 Imperfect,7,GGTT
3200 Imperfect,7,GTAA
766 Imperfect,7,GTAC
3185 Imperfect,7,GTAG
3139 Imperfect,7,GTAT
2048 Imperfect,7,GTCA
442 Imperfect,7,GTCC
306 Imperfect,7,GTCG
2243 Imperfect,7,GTCT
4523 Imperfect,7,GTGA
1743 Imperfect,7,GTGC
5120 Imperfect,7,GTGG
6563 Imperfect,7,GTGT
3970 Imperfect,7,GTTA
920 Imperfect,7,GTTC
4771 Imperfect,7,GTTG
6381 Imperfect,7,GTTT
13632 Imperfect,7,TAAA
7670 Imperfect,7,TAAC
10129 Imperfect,7,TAAG
11408 Imperfect,7,TAAT
3132 Imperfect,7,TACA
3219 Imperfect,7,TACC
774 Imperfect,7,TACG
3101 Imperfect,7,TACT
2826 Imperfect,7,TAGA
4717 Imperfect,7,TAGC
3367 Imperfect,7,TAGG
3102 Imperfect,7,TAGT
16345 Imperfect,7,TATA
9555 Imperfect,7,TATC
15583 Imperfect,7,TATG
16083 Imperfect,7,TATT
4644 Imperfect,7,TCAA
7335 Imperfect,7,TCAC
6608 Imperfect,7,TCAG
7195 Imperfect,7,TCAT
5539 Imperfect,7,TCCA
5673 Imperfect,7,TCCC
1004 Imperfect,7,TCCG
6851 Imperfect,7,TCCT
64 Imperfect,7,TCGA
117 Imperfect,7,TCGC
82 Imperfect,7,TCGG
60 Imperfect,7,TCGT
7590 Imperfect,7,TCTA
13885 Imperfect,7,TCTC
17904 Imperfect,7,TCTG
14048 Imperfect,7,TCTT
7179 Imperfect,7,TGAA
6467 Imperfect,7,TGAC
7301 Imperfect,7,TGAG
4405 Imperfect,7,TGAT
5245 Imperfect,7,TGCA
5162 Imperfect,7,TGCC
974 Imperfect,7,TGCG
3171 Imperfect,7,TGCT
4511 Imperfect,7,TGGA
9208 Imperfect,7,TGGC
5988 Imperfect,7,TGGG
3819 Imperfect,7,TGGT
10006 Imperfect,7,TGTA
12253 Imperfect,7,TGTC
11696 Imperfect,7,TGTG
9647 Imperfect,7,TGTT
11369 Imperfect,7,TTAA
9906 Imperfect,7,TTAC
7960 Imperfect,7,TTAG
13442 Imperfect,7,TTAT
9436 Imperfect,7,TTCA
12639 Imperfect,7,TTCC
1159 Imperfect,7,TTCG
10482 Imperfect,7,TTCT
5633 Imperfect,7,TTGA
12502 Imperfect,7,TTGC
5656 Imperfect,7,TTGG
7013 Imperfect,7,TTGT
47641 Imperfect,7,TTTA
49349 Imperfect,7,TTTC
40048 Imperfect,7,TTTG
38018 Imperfect,7,TTTT
5037 Perfect,10,AAAA
1036 Perfect,10,AAAC
916 Perfect,10,AAAG
1208 Perfect,10,AAAT
492 Perfect,10,AACA
151 Perfect,10,AACC
8 Perfect,10,AACG
85 Perfect,10,AACT
1138 Perfect,10,AAGA
196 Perfect,10,AAGC
568 Perfect,10,AAGG
169 Perfect,10,AAGT
915 Perfect,10,AATA
187 Perfect,10,AATC
778 Perfect,10,AATG
438 Perfect,10,AATT
134 Perfect,10,ACAA
510 Perfect,10,ACAC
117 Perfect,10,ACAG
94 Perfect,10,ACAT
53 Perfect,10,ACCA
93 Perfect,10,ACCC
1 Perfect,10,ACCG
35 Perfect,10,ACCT
1 Perfect,10,ACGA
9 Perfect,10,ACGC
3 Perfect,10,ACGT
19 Perfect,10,ACTA
70 Perfect,10,ACTC
51 Perfect,10,ACTG
53 Perfect,10,ACTT
515 Perfect,10,AGAA
186 Perfect,10,AGAC
492 Perfect,10,AGAG
103 Perfect,10,AGAT
121 Perfect,10,AGCA
171 Perfect,10,AGCC
3 Perfect,10,AGCG
49 Perfect,10,AGCT
406 Perfect,10,AGGA
1450 Perfect,10,AGGC
293 Perfect,10,AGGG
83 Perfect,10,AGGT
72 Perfect,10,AGTA
95 Perfect,10,AGTC
176 Perfect,10,AGTG
55 Perfect,10,AGTT
726 Perfect,10,ATAA
331 Perfect,10,ATAC
154 Perfect,10,ATAG
1380 Perfect,10,ATAT
185 Perfect,10,ATCA
164 Perfect,10,ATCC
4 Perfect,10,ATCG
154 Perfect,10,ATCT
394 Perfect,10,ATGA
218 Perfect,10,ATGC
144 Perfect,10,ATGG
354 Perfect,10,ATGT
277 Perfect,10,ATTA
362 Perfect,10,ATTC
219 Perfect,10,ATTG
712 Perfect,10,ATTT
215 Perfect,10,CAAA
116 Perfect,10,CAAC
108 Perfect,10,CAAG
96 Perfect,10,CAAT
876 Perfect,10,CACA
96 Perfect,10,CACC
13 Perfect,10,CACG
149 Perfect,10,CACT
113 Perfect,10,CAGA
129 Perfect,10,CAGC
176 Perfect,10,CAGG
92 Perfect,10,CAGT
134 Perfect,10,CATA
148 Perfect,10,CATC
225 Perfect,10,CATG
301 Perfect,10,CATT
43 Perfect,10,CCAA
173 Perfect,10,CCAC
163 Perfect,10,CCAG
85 Perfect,10,CCAT
214 Perfect,10,CCCA
77 Perfect,10,CCCC
46 Perfect,10,CCCG
282 Perfect,10,CCCT
2 Perfect,10,CCGA
41 Perfect,10,CCGC
25 Perfect,10,CCGG
6 Perfect,10,CCGT
31 Perfect,10,CCTA
452 Perfect,10,CCTC
237 Perfect,10,CCTG
250 Perfect,10,CCTT
1 Perfect,10,CGAC
6 Perfect,10,CGAG
1 Perfect,10,CGAT
2 Perfect,10,CGCA
14 Perfect,10,CGCC
4 Perfect,10,CGCG
1 Perfect,10,CGCT
4 Perfect,10,CGGA
11 Perfect,10,CGGC
9 Perfect,10,CGGG
1 Perfect,10,CGGT
3 Perfect,10,CGTC
2 Perfect,10,CGTG
52 Perfect,10,CTAA
93 Perfect,10,CTAC
52 Perfect,10,CTAG
90 Perfect,10,CTAT
164 Perfect,10,CTCA
288 Perfect,10,CTCC
10 Perfect,10,CTCG
504 Perfect,10,CTCT
109 Perfect,10,CTGA
1395 Perfect,10,CTGC
149 Perfect,10,CTGG
195 Perfect,10,CTGT
74 Perfect,10,CTTA
416 Perfect,10,CTTC
98 Perfect,10,CTTG
461 Perfect,10,CTTT
388 Perfect,10,GAAA
2 Perfect,10,GAAC
272 Perfect,10,GAAG
215 Perfect,10,GAAT
140 Perfect,10,GACA
2 Perfect,10,GACC
4 Perfect,10,GACG
69 Perfect,10,GACT
501 Perfect,10,GAGA
4 Perfect,10,GAGC
254 Perfect,10,GAGG
114 Perfect,10,GAGT
55 Perfect,10,GATA
3 Perfect,10,GATC
137 Perfect,10,GATG
75 Perfect,10,GATT
33 Perfect,10,GCAA
12 Perfect,10,GCAC
99 Perfect,10,GCAG
47 Perfect,10,GCAT
72 Perfect,10,GCCA
17 Perfect,10,GCCC
12 Perfect,10,GCCG
126 Perfect,10,GCCT
2 Perfect,10,GCGA
33 Perfect,10,GCGC
10 Perfect,10,GCGG
5 Perfect,10,GCGT
25 Perfect,10,GCTA
3 Perfect,10,GCTC
74 Perfect,10,GCTG
26 Perfect,10,GCTT
287 Perfect,10,GGAA
6 Perfect,10,GGAC
263 Perfect,10,GGAG
149 Perfect,10,GGAT
264 Perfect,10,GGCA
14 Perfect,10,GGCC
49 Perfect,10,GGCG
166 Perfect,10,GGCT
506 Perfect,10,GGGA
48 Perfect,10,GGGC
74 Perfect,10,GGGG
170 Perfect,10,GGGT
33 Perfect,10,GGTA
2 Perfect,10,GGTC
203 Perfect,10,GGTG
48 Perfect,10,GGTT
38 Perfect,10,GTAA
2 Perfect,10,GTAC
46 Perfect,10,GTAG
96 Perfect,10,GTAT
51 Perfect,10,GTCA
2 Perfect,10,GTCC
1 Perfect,10,GTCG
98 Perfect,10,GTCT
99 Perfect,10,GTGA
12 Perfect,10,GTGC
56 Perfect,10,GTGG
522 Perfect,10,GTGT
22 Perfect,10,GTTA
2 Perfect,10,GTTC
48 Perfect,10,GTTG
110 Perfect,10,GTTT
735 Perfect,10,TAAA
71 Perfect,10,TAAC
92 Perfect,10,TAAG
268 Perfect,10,TAAT
276 Perfect,10,TACA
76 Perfect,10,TACC
5 Perfect,10,TACG
108 Perfect,10,TACT
155 Perfect,10,TAGA
51 Perfect,10,TAGC
74 Perfect,10,TAGG
70 Perfect,10,TAGT
1264 Perfect,10,TATA
137 Perfect,10,TATC
270 Perfect,10,TATG
725 Perfect,10,TATT
82 Perfect,10,TCAA
110 Perfect,10,TCAC
73 Perfect,10,TCAG
216 Perfect,10,TCAT
116 Perfect,10,TCCA
236 Perfect,10,TCCC
6 Perfect,10,TCCG
286 Perfect,10,TCCT
3 Perfect,10,TCGC
1 Perfect,10,TCGG
2 Perfect,10,TCGT
55 Perfect,10,TCTA
488 Perfect,10,TCTC
146 Perfect,10,TCTG
346 Perfect,10,TCTT
330 Perfect,10,TGAA
80 Perfect,10,TGAC
116 Perfect,10,TGAG
107 Perfect,10,TGAT
213 Perfect,10,TGCA
183 Perfect,10,TGCC
11 Perfect,10,TGCG
90 Perfect,10,TGCT
123 Perfect,10,TGGA
144 Perfect,10,TGGC
128 Perfect,10,TGGG
110 Perfect,10,TGGT
147 Perfect,10,TGTA
127 Perfect,10,TGTC
885 Perfect,10,TGTG
221 Perfect,10,TGTT
497 Perfect,10,TTAA
187 Perfect,10,TTAC
97 Perfect,10,TTAG
1262 Perfect,10,TTAT
682 Perfect,10,TTCA
555 Perfect,10,TTCC
5 Perfect,10,TTCG
902 Perfect,10,TTCT
188 Perfect,10,TTGA
218 Perfect,10,TTGC
153 Perfect,10,TTGG
987 Perfect,10,TTGT
912 Perfect,10,TTTA
1106 Perfect,10,TTTC
467 Perfect,10,TTTG
4901 Perfect,10,TTTT
2916 Perfect,11,AAAA
1101 Perfect,11,AAAC
1334 Perfect,11,AAAG
1111 Perfect,11,AAAT
38 Perfect,11,AACA
34 Perfect,11,AACC
5 Perfect,11,AACG
9 Perfect,11,AACT
186 Perfect,11,AAGA
77 Perfect,11,AAGC
187 Perfect,11,AAGG
20 Perfect,11,AAGT
330 Perfect,11,AATA
121 Perfect,11,AATC
272 Perfect,11,AATG
149 Perfect,11,AATT
59 Perfect,11,ACAA
842 Perfect,11,ACAC
81 Perfect,11,ACAG
187 Perfect,11,ACAT
17 Perfect,11,ACCA
59 Perfect,11,ACCC
9 Perfect,11,ACCT
12 Perfect,11,ACTA
284 Perfect,11,ACTC
23 Perfect,11,ACTG
17 Perfect,11,ACTT
273 Perfect,11,AGAA
133 Perfect,11,AGAC
484 Perfect,11,AGAG
43 Perfect,11,AGAT
11 Perfect,11,AGCA
28 Perfect,11,AGCC
12 Perfect,11,AGCT
124 Perfect,11,AGGA
128 Perfect,11,AGGC
168 Perfect,11,AGGG
24 Perfect,11,AGGT
19 Perfect,11,AGTA
24 Perfect,11,AGTC
256 Perfect,11,AGTG
14 Perfect,11,AGTT
287 Perfect,11,ATAA
368 Perfect,11,ATAC
107 Perfect,11,ATAG
783 Perfect,11,ATAT
20 Perfect,11,ATCA
61 Perfect,11,ATCC
1 Perfect,11,ATCG
54 Perfect,11,ATCT
95 Perfect,11,ATGA
88 Perfect,11,ATGC
62 Perfect,11,ATGG
47 Perfect,11,ATGT
127 Perfect,11,ATTA
265 Perfect,11,ATTC
112 Perfect,11,ATTG
342 Perfect,11,ATTT
101 Perfect,11,CAAA
42 Perfect,11,CAAC
36 Perfect,11,CAAG
31 Perfect,11,CAAT
247 Perfect,11,CACA
42 Perfect,11,CACC
36 Perfect,11,CACG
26 Perfect,11,CACT
47 Perfect,11,CAGA
41 Perfect,11,CAGC
83 Perfect,11,CAGG
27 Perfect,11,CAGT
60 Perfect,11,CATA
83 Perfect,11,CATC
86 Perfect,11,CATG
122 Perfect,11,CATT
21 Perfect,11,CCAA
79 Perfect,11,CCAC
43 Perfect,11,CCAG
78 Perfect,11,CCAT
98 Perfect,11,CCCA
44 Perfect,11,CCCC
26 Perfect,11,CCCG
106 Perfect,11,CCCT
1 Perfect,11,CCGA
6 Perfect,11,CCGC
9 Perfect,11,CCGG
1 Perfect,11,CCGT
25 Perfect,11,CCTA
188 Perfect,11,CCTC
125 Perfect,11,CCTG
154 Perfect,11,CCTT
5 Perfect,11,CGCA
3 Perfect,11,CGCC
7 Perfect,11,CGCG
2 Perfect,11,CGGA
7 Perfect,11,CGGC
7 Perfect,11,CGGG
1 Perfect,11,CGTC
9 Perfect,11,CTAA
27 Perfect,11,CTAC
21 Perfect,11,CTAG
24 Perfect,11,CTAT
67 Perfect,11,CTCA
134 Perfect,11,CTCC
18 Perfect,11,CTCG
180 Perfect,11,CTCT
16 Perfect,11,CTGA
90 Perfect,11,CTGC
52 Perfect,11,CTGG
31 Perfect,11,CTGT
25 Perfect,11,CTTA
167 Perfect,11,CTTC
55 Perfect,11,CTTG
193 Perfect,11,CTTT
216 Perfect,11,GAAA
5 Perfect,11,GAAC
200 Perfect,11,GAAG
109 Perfect,11,GAAT
14 Perfect,11,GACA
2 Perfect,11,GACG
4 Perfect,11,GACT
187 Perfect,11,GAGA
16 Perfect,11,GAGC
119 Perfect,11,GAGG
56 Perfect,11,GAGT
43 Perfect,11,GATA
66 Perfect,11,GATG
10 Perfect,11,GATT
14 Perfect,11,GCAA
6 Perfect,11,GCAC
29 Perfect,11,GCAG
34 Perfect,11,GCAT
28 Perfect,11,GCCA
6 Perfect,11,GCCC
9 Perfect,11,GCCG
29 Perfect,11,GCCT
2 Perfect,11,GCGA
7 Perfect,11,GCGC
4 Perfect,11,GCGG
11 Perfect,11,GCGT
10 Perfect,11,GCTA
1 Perfect,11,GCTC
32 Perfect,11,GCTG
17 Perfect,11,GCTT
123 Perfect,11,GGAA
5 Perfect,11,GGAC
141 Perfect,11,GGAG
40 Perfect,11,GGAT
31 Perfect,11,GGCA
18 Perfect,11,GGCC
8 Perfect,11,GGCG
29 Perfect,11,GGCT
95 Perfect,11,GGGA
24 Perfect,11,GGGC
37 Perfect,11,GGGG
88 Perfect,11,GGGT
11 Perfect,11,GGTA
2 Perfect,11,GGTC
65 Perfect,11,GGTG
10 Perfect,11,GGTT
16 Perfect,11,GTAA
5 Perfect,11,GTAC
10 Perfect,11,GTAG
41 Perfect,11,GTAT
15 Perfect,11,GTCA
2 Perfect,11,GTCC
17 Perfect,11,GTCT
43 Perfect,11,GTGA
35 Perfect,11,GTGC
36 Perfect,11,GTGG
301 Perfect,11,GTGT
17 Perfect,11,GTTA
2 Perfect,11,GTTC
31 Perfect,11,GTTG
48 Perfect,11,GTTT
253 Perfect,11,TAAA
23 Perfect,11,TAAC
65 Perfect,11,TAAG
97 Perfect,11,TAAT
41 Perfect,11,TACA
10 Perfect,11,TACC
2 Perfect,11,TACG
17 Perfect,11,TACT
28 Perfect,11,TAGA
21 Perfect,11,TAGC
36 Perfect,11,TAGG
8 Perfect,11,TAGT
850 Perfect,11,TATA
144 Perfect,11,TATC
387 Perfect,11,TATG
280 Perfect,11,TATT
46 Perfect,11,TCAA
83 Perfect,11,TCAC
34 Perfect,11,TCAG
154 Perfect,11,TCAT
32 Perfect,11,TCCA
144 Perfect,11,TCCC
4 Perfect,11,TCCG
129 Perfect,11,TCCT
1 Perfect,11,TCGC
1 Perfect,11,TCGG
39 Perfect,11,TCTA
481 Perfect,11,TCTC
112 Perfect,11,TCTG
274 Perfect,11,TCTT
157 Perfect,11,TGAA
38 Perfect,11,TGAC
69 Perfect,11,TGAG
37 Perfect,11,TGAT
32 Perfect,11,TGCA
37 Perfect,11,TGCC
4 Perfect,11,TGCG
21 Perfect,11,TGCT
63 Perfect,11,TGGA
59 Perfect,11,TGGC
82 Perfect,11,TGGG
19 Perfect,11,TGGT
176 Perfect,11,TGTA
85 Perfect,11,TGTC
940 Perfect,11,TGTG
62 Perfect,11,TGTT
88 Perfect,11,TTAA
63 Perfect,11,TTAC
35 Perfect,11,TTAG
263 Perfect,11,TTAT
109 Perfect,11,TTCA
179 Perfect,11,TTCC
5 Perfect,11,TTCG
202 Perfect,11,TTCT
25 Perfect,11,TTGA
43 Perfect,11,TTGC
39 Perfect,11,TTGG
80 Perfect,11,TTGT
1121 Perfect,11,TTTA
1335 Perfect,11,TTTC
1097 Perfect,11,TTTG
2912 Perfect,11,TTTT
2088 Perfect,12,AAAA
128 Perfect,12,AAAC
127 Perfect,12,AAAG
338 Perfect,12,AAAT
27 Perfect,12,AACA
4 Perfect,12,AACC
7 Perfect,12,AACT
92 Perfect,12,AAGA
10 Perfect,12,AAGC
72 Perfect,12,AAGG
7 Perfect,12,AAGT
135 Perfect,12,AATA
16 Perfect,12,AATC
92 Perfect,12,AATG
60 Perfect,12,AATT
15 Perfect,12,ACAA
242 Perfect,12,ACAC
11 Perfect,12,ACAG
34 Perfect,12,ACAT
6 Perfect,12,ACCA
9 Perfect,12,ACCC
3 Perfect,12,ACCT
1 Perfect,12,ACGC
1 Perfect,12,ACTA
23 Perfect,12,ACTC
8 Perfect,12,ACTG
7 Perfect,12,ACTT
121 Perfect,12,AGAA
20 Perfect,12,AGAC
153 Perfect,12,AGAG
32 Perfect,12,AGAT
6 Perfect,12,AGCA
13 Perfect,12,AGCC
1 Perfect,12,AGCG
7 Perfect,12,AGCT
47 Perfect,12,AGGA
143 Perfect,12,AGGC
46 Perfect,12,AGGG
6 Perfect,12,AGGT
8 Perfect,12,AGTA
8 Perfect,12,AGTC
48 Perfect,12,AGTG
4 Perfect,12,AGTT
96 Perfect,12,ATAA
30 Perfect,12,ATAC
16 Perfect,12,ATAG
574 Perfect,12,ATAT
19 Perfect,12,ATCA
10 Perfect,12,ATCC
37 Perfect,12,ATCT
47 Perfect,12,ATGA
8 Perfect,12,ATGC
26 Perfect,12,ATGG
33 Perfect,12,ATGT
40 Perfect,12,ATTA
56 Perfect,12,ATTC
15 Perfect,12,ATTG
307 Perfect,12,ATTT
138 Perfect,12,CAAA
10 Perfect,12,CAAC
7 Perfect,12,CAAG
12 Perfect,12,CAAT
293 Perfect,12,CACA
14 Perfect,12,CACC
1 Perfect,12,CACG
40 Perfect,12,CACT
27 Perfect,12,CAGA
12 Perfect,12,CAGC
25 Perfect,12,CAGG
4 Perfect,12,CAGT
32 Perfect,12,CATA
30 Perfect,12,CATC
26 Perfect,12,CATG
64 Perfect,12,CATT
5 Perfect,12,CCAA
18 Perfect,12,CCAC
20 Perfect,12,CCAG
24 Perfect,12,CCAT
30 Perfect,12,CCCA
41 Perfect,12,CCCC
1 Perfect,12,CCCG
42 Perfect,12,CCCT
3 Perfect,12,CCTA
81 Perfect,12,CCTC
24 Perfect,12,CCTG
53 Perfect,12,CCTT
4 Perfect,12,CGCC
2 Perfect,12,CGCG
3 Perfect,12,CGGC
2 Perfect,12,CGGG
10 Perfect,12,CTAA
9 Perfect,12,CTAC
6 Perfect,12,CTAG
16 Perfect,12,CTAT
20 Perfect,12,CTCA
61 Perfect,12,CTCC
154 Perfect,12,CTCT
9 Perfect,12,CTGA
32 Perfect,12,CTGC
15 Perfect,12,CTGG
12 Perfect,12,CTGT
68 Perfect,12,CTTC
16 Perfect,12,CTTG
150 Perfect,12,CTTT
182 Perfect,12,GAAA
1 Perfect,12,GAAC
71 Perfect,12,GAAG
53 Perfect,12,GAAT
10 Perfect,12,GACA
1 Perfect,12,GACC
6 Perfect,12,GACT
196 Perfect,12,GAGA
4 Perfect,12,GAGC
68 Perfect,12,GAGG
20 Perfect,12,GAGT
29 Perfect,12,GATA
1 Perfect,12,GATC
26 Perfect,12,GATG
10 Perfect,12,GATT
2 Perfect,12,GCAA
4 Perfect,12,GCAC
31 Perfect,12,GCAG
12 Perfect,12,GCAT
10 Perfect,12,GCCA
2 Perfect,12,GCCC
2 Perfect,12,GCCG
131 Perfect,12,GCCT
10 Perfect,12,GCGC
6 Perfect,12,GCGG
2 Perfect,12,GCTA
2 Perfect,12,GCTC
6 Perfect,12,GCTG
13 Perfect,12,GCTT
86 Perfect,12,GGAA
78 Perfect,12,GGAG
17 Perfect,12,GGAT
10 Perfect,12,GGCA
2 Perfect,12,GGCC
2 Perfect,12,GGCG
12 Perfect,12,GGCT
46 Perfect,12,GGGA
5 Perfect,12,GGGC
37 Perfect,12,GGGG
9 Perfect,12,GGGT
4 Perfect,12,GGTA
22 Perfect,12,GGTG
9 Perfect,12,GGTT
9 Perfect,12,GTAA
8 Perfect,12,GTAG
38 Perfect,12,GTAT
7 Perfect,12,GTCA
14 Perfect,12,GTCT
11 Perfect,12,GTGA
9 Perfect,12,GTGC
15 Perfect,12,GTGG
271 Perfect,12,GTGT
2 Perfect,12,GTTA
2 Perfect,12,GTTG
109 Perfect,12,GTTT
185 Perfect,12,TAAA
4 Perfect,12,TAAC
9 Perfect,12,TAAG
35 Perfect,12,TAAT
31 Perfect,12,TACA
3 Perfect,12,TACC
2 Perfect,12,TACT
16 Perfect,12,TAGA
4 Perfect,12,TAGC
5 Perfect,12,TAGG
2 Perfect,12,TAGT
551 Perfect,12,TATA
27 Perfect,12,TATC
35 Perfect,12,TATG
134 Perfect,12,TATT
15 Perfect,12,TCAA
5 Perfect,12,TCAC
9 Perfect,12,TCAG
39 Perfect,12,TCAT
32 Perfect,12,TCCA
58 Perfect,12,TCCC
50 Perfect,12,TCCT
15 Perfect,12,TCTA
165 Perfect,12,TCTC
11 Perfect,12,TCTG
86 Perfect,12,TCTT
107 Perfect,12,TGAA
2 Perfect,12,TGAC
22 Perfect,12,TGAG
10 Perfect,12,TGAT
24 Perfect,12,TGCA
8 Perfect,12,TGCC
2 Perfect,12,TGCG
14 Perfect,12,TGCT
23 Perfect,12,TGGA
8 Perfect,12,TGGC
29 Perfect,12,TGGG
8 Perfect,12,TGGT
51 Perfect,12,TGTA
11 Perfect,12,TGTC
350 Perfect,12,TGTG
47 Perfect,12,TGTT
41 Perfect,12,TTAA
4 Perfect,12,TTAC
6 Perfect,12,TTAG
127 Perfect,12,TTAT
94 Perfect,12,TTCA
73 Perfect,12,TTCC
110 Perfect,12,TTCT
12 Perfect,12,TTGA
5 Perfect,12,TTGC
7 Perfect,12,TTGG
20 Perfect,12,TTGT
181 Perfect,12,TTTA
173 Perfect,12,TTTC
161 Perfect,12,TTTG
2204 Perfect,12,TTTT
1903 Perfect,13,AAAA
103 Perfect,13,AAAC
135 Perfect,13,AAAG
179 Perfect,13,AAAT
18 Perfect,13,AACA
1 Perfect,13,AACC
1 Perfect,13,AACT
40 Perfect,13,AAGA
6 Perfect,13,AAGC
45 Perfect,13,AAGG
2 Perfect,13,AAGT
75 Perfect,13,AATA
7 Perfect,13,AATC
44 Perfect,13,AATG
24 Perfect,13,AATT
59 Perfect,13,ACAA
481 Perfect,13,ACAC
15 Perfect,13,ACAG
54 Perfect,13,ACAT
2 Perfect,13,ACCA
4 Perfect,13,ACCC
3 Perfect,13,ACCT
1 Perfect,13,ACTA
6 Perfect,13,ACTC
4 Perfect,13,ACTG
1 Perfect,13,ACTT
123 Perfect,13,AGAA
18 Perfect,13,AGAC
296 Perfect,13,AGAG
41 Perfect,13,AGAT
6 Perfect,13,AGCA
4 Perfect,13,AGCC
1 Perfect,13,AGCT
58 Perfect,13,AGGA
6 Perfect,13,AGGC
63 Perfect,13,AGGG
5 Perfect,13,AGGT
4 Perfect,13,AGTA
4 Perfect,13,AGTC
6 Perfect,13,AGTG
1 Perfect,13,AGTT
85 Perfect,13,ATAA
46 Perfect,13,ATAC
19 Perfect,13,ATAG
329 Perfect,13,ATAT
5 Perfect,13,ATCA
20 Perfect,13,ATCC
19 Perfect,13,ATCT
42 Perfect,13,ATGA
9 Perfect,13,ATGC
16 Perfect,13,ATGG
10 Perfect,13,ATGT
14 Perfect,13,ATTA
86 Perfect,13,ATTC
8 Perfect,13,ATTG
70 Perfect,13,ATTT
22 Perfect,13,CAAA
1 Perfect,13,CAAG
4 Perfect,13,CAAT
127 Perfect,13,CACA
3 Perfect,13,CACC
6 Perfect,13,CACG
5 Perfect,13,CACT
2 Perfect,13,CAGA
12 Perfect,13,CAGC
10 Perfect,13,CAGG
1 Perfect,13,CAGT
6 Perfect,13,CATA
8 Perfect,13,CATC
6 Perfect,13,CATG
29 Perfect,13,CATT
2 Perfect,13,CCAA
8 Perfect,13,CCAC
5 Perfect,13,CCAG
19 Perfect,13,CCAT
10 Perfect,13,CCCA
16 Perfect,13,CCCC
17 Perfect,13,CCCT
4 Perfect,13,CCGC
3 Perfect,13,CCTA
51 Perfect,13,CCTC
9 Perfect,13,CCTG
41 Perfect,13,CCTT
1 Perfect,13,CGCA
3 Perfect,13,CGCC
6 Perfect,13,CGCG
1 Perfect,13,CGGC
1 Perfect,13,CGGG
1 Perfect,13,CGTG
2 Perfect,13,CTAA
4 Perfect,13,CTAC
12 Perfect,13,CTAT
3 Perfect,13,CTCA
27 Perfect,13,CTCC
67 Perfect,13,CTCT
1 Perfect,13,CTGA
8 Perfect,13,CTGC
7 Perfect,13,CTGG
2 Perfect,13,CTGT
25 Perfect,13,CTTC
2 Perfect,13,CTTG
46 Perfect,13,CTTT
48 Perfect,13,GAAA
44 Perfect,13,GAAG
15 Perfect,13,GAAT
4 Perfect,13,GACA
3 Perfect,13,GACT
69 Perfect,13,GAGA
1 Perfect,13,GAGC
27 Perfect,13,GAGG
7 Perfect,13,GAGT
9 Perfect,13,GATA
33 Perfect,13,GATG
2 Perfect,13,GATT
3 Perfect,13,GCAA
9 Perfect,13,GCAG
4 Perfect,13,GCAT
4 Perfect,13,GCCA
2 Perfect,13,GCCG
6 Perfect,13,GCCT
1 Perfect,13,GCGA
3 Perfect,13,GCGC
3 Perfect,13,GCGG
1 Perfect,13,GCTA
5 Perfect,13,GCTG
1 Perfect,13,GCTT
34 Perfect,13,GGAA
45 Perfect,13,GGAG
14 Perfect,13,GGAT
3 Perfect,13,GGCA
1 Perfect,13,GGCG
8 Perfect,13,GGCT
20 Perfect,13,GGGA
1 Perfect,13,GGGC
15 Perfect,13,GGGG
5 Perfect,13,GGGT
4 Perfect,13,GGTA
10 Perfect,13,GGTG
3 Perfect,13,GGTT
1 Perfect,13,GTAA
1 Perfect,13,GTAG
8 Perfect,13,GTAT
1 Perfect,13,GTCA
4 Perfect,13,GTCT
12 Perfect,13,GTGA
9 Perfect,13,GTGG
140 Perfect,13,GTGT
3 Perfect,13,GTTG
15 Perfect,13,GTTT
69 Perfect,13,TAAA
3 Perfect,13,TAAC
2 Perfect,13,TAAG
24 Perfect,13,TAAT
6 Perfect,13,TACA
3 Perfect,13,TACC
4 Perfect,13,TACT
14 Perfect,13,TAGA
1 Perfect,13,TAGC
3 Perfect,13,TAGG
318 Perfect,13,TATA
18 Perfect,13,TATC
38 Perfect,13,TATG
198 Perfect,13,TATT
12 Perfect,13,TCAA
5 Perfect,13,TCAC
5 Perfect,13,TCAG
45 Perfect,13,TCAT
6 Perfect,13,TCCA
60 Perfect,13,TCCC
34 Perfect,13,TCCT
14 Perfect,13,TCTA
259 Perfect,13,TCTC
9 Perfect,13,TCTG
125 Perfect,13,TCTT
82 Perfect,13,TGAA
3 Perfect,13,TGAC
5 Perfect,13,TGAG
16 Perfect,13,TGAT
11 Perfect,13,TGCA
11 Perfect,13,TGCC
6 Perfect,13,TGCT
21 Perfect,13,TGGA
1 Perfect,13,TGGC
5 Perfect,13,TGGG
6 Perfect,13,TGGT
45 Perfect,13,TGTA
19 Perfect,13,TGTC
450 Perfect,13,TGTG
104 Perfect,13,TGTT
15 Perfect,13,TTAA
2 Perfect,13,TTAC
74 Perfect,13,TTAT
23 Perfect,13,TTCA
48 Perfect,13,TTCC
42 Perfect,13,TTCT
2 Perfect,13,TTGA
3 Perfect,13,TTGC
3 Perfect,13,TTGG
14 Perfect,13,TTGT
90 Perfect,13,TTTA
136 Perfect,13,TTTC
53 Perfect,13,TTTG
2004 Perfect,13,TTTT
1659 Perfect,14,AAAA
98 Perfect,14,AAAC
81 Perfect,14,AAAG
149 Perfect,14,AAAT
55 Perfect,14,AACA
12 Perfect,14,AACC
5 Perfect,14,AACT
78 Perfect,14,AAGA
7 Perfect,14,AAGC
62 Perfect,14,AAGG
2 Perfect,14,AAGT
87 Perfect,14,AATA
5 Perfect,14,AATC
40 Perfect,14,AATG
26 Perfect,14,AATT
3 Perfect,14,ACAA
139 Perfect,14,ACAC
3 Perfect,14,ACAT
3 Perfect,14,ACCC
1 Perfect,14,ACGG
1 Perfect,14,ACTC
41 Perfect,14,AGAA
1 Perfect,14,AGAC
66 Perfect,14,AGAG
5 Perfect,14,AGAT
5 Perfect,14,AGCA
3 Perfect,14,AGCC
1 Perfect,14,AGCG
2 Perfect,14,AGCT
37 Perfect,14,AGGA
6 Perfect,14,AGGC
18 Perfect,14,AGGG
8 Perfect,14,AGGT
1 Perfect,14,AGTA
1 Perfect,14,AGTC
2 Perfect,14,AGTG
36 Perfect,14,ATAA
16 Perfect,14,ATAC
12 Perfect,14,ATAG
307 Perfect,14,ATAT
5 Perfect,14,ATCA
12 Perfect,14,ATCC
10 Perfect,14,ATCT
22 Perfect,14,ATGA
4 Perfect,14,ATGC
15 Perfect,14,ATGG
11 Perfect,14,ATGT
5 Perfect,14,ATTA
19 Perfect,14,ATTC
4 Perfect,14,ATTG
27 Perfect,14,ATTT
18 Perfect,14,CAAA
2 Perfect,14,CAAC
3 Perfect,14,CAAT
159 Perfect,14,CACA
2 Perfect,14,CACC
4 Perfect,14,CACG
14 Perfect,14,CACT
2 Perfect,14,CAGA
1 Perfect,14,CAGC
7 Perfect,14,CATA
14 Perfect,14,CATC
9 Perfect,14,CATG
24 Perfect,14,CATT
2 Perfect,14,CCAA
1 Perfect,14,CCAC
8 Perfect,14,CCAT
4 Perfect,14,CCCA
10 Perfect,14,CCCC
1 Perfect,14,CCCG
10 Perfect,14,CCCT
2 Perfect,14,CCGC
1 Perfect,14,CCGG
13 Perfect,14,CCTC
3 Perfect,14,CCTG
23 Perfect,14,CCTT
3 Perfect,14,CGCG
1 Perfect,14,CGGG
1 Perfect,14,CGTG
1 Perfect,14,CTAA
4 Perfect,14,CTAC
2 Perfect,14,CTCA
25 Perfect,14,CTCC
83 Perfect,14,CTCT
1 Perfect,14,CTGA
11 Perfect,14,CTGC
2 Perfect,14,CTGG
6 Perfect,14,CTGT
1 Perfect,14,CTTA
30 Perfect,14,CTTC
39 Perfect,14,CTTT
49 Perfect,14,GAAA
35 Perfect,14,GAAG
16 Perfect,14,GAAT
1 Perfect,14,GACA
1 Perfect,14,GACT
98 Perfect,14,GAGA
26 Perfect,14,GAGG
15 Perfect,14,GATA
16 Perfect,14,GATG
1 Perfect,14,GATT
2 Perfect,14,GCAT
1 Perfect,14,GCCC
2 Perfect,14,GCCT
2 Perfect,14,GCGC
1 Perfect,14,GCGT
1 Perfect,14,GCTG
19 Perfect,14,GGAA
8 Perfect,14,GGAG
3 Perfect,14,GGAT
2 Perfect,14,GGCG
3 Perfect,14,GGCT
14 Perfect,14,GGGA
5 Perfect,14,GGGG
2 Perfect,14,GGGT
1 Perfect,14,GGTA
1 Perfect,14,GGTG
2 Perfect,14,GTAA
2 Perfect,14,GTAG
5 Perfect,14,GTAT
1 Perfect,14,GTCA
3 Perfect,14,GTGG
150 Perfect,14,GTGT
2 Perfect,14,GTTA
2 Perfect,14,GTTT
51 Perfect,14,TAAA
1 Perfect,14,TAAG
7 Perfect,14,TAAT
12 Perfect,14,TACA
1 Perfect,14,TACC
2 Perfect,14,TACG
18 Perfect,14,TAGA
1 Perfect,14,TAGC
3 Perfect,14,TAGG
242 Perfect,14,TATA
8 Perfect,14,TATC
12 Perfect,14,TATG
48 Perfect,14,TATT
1 Perfect,14,TCAA
1 Perfect,14,TCAC
10 Perfect,14,TCAT
14 Perfect,14,TCCA
28 Perfect,14,TCCC
28 Perfect,14,TCCT
1 Perfect,14,TCGA
2 Perfect,14,TCGC
5 Perfect,14,TCTA
86 Perfect,14,TCTC
1 Perfect,14,TCTG
35 Perfect,14,TCTT
23 Perfect,14,TGAA
1 Perfect,14,TGAC
5 Perfect,14,TGAG
7 Perfect,14,TGAT
11 Perfect,14,TGCA
3 Perfect,14,TGCC
1 Perfect,14,TGCG
1 Perfect,14,TGCT
16 Perfect,14,TGGA
2 Perfect,14,TGGC
8 Perfect,14,TGGG
1 Perfect,14,TGGT
7 Perfect,14,TGTA
1 Perfect,14,TGTC
149 Perfect,14,TGTG
15 Perfect,14,TGTT
36 Perfect,14,TTAA
3 Perfect,14,TTAC
2 Perfect,14,TTAG
132 Perfect,14,TTAT
28 Perfect,14,TTCA
50 Perfect,14,TTCC
68 Perfect,14,TTCT
9 Perfect,14,TTGA
8 Perfect,14,TTGC
14 Perfect,14,TTGG
105 Perfect,14,TTGT
64 Perfect,14,TTTA
75 Perfect,14,TTTC
52 Perfect,14,TTTG
1686 Perfect,14,TTTT
1466 Perfect,15,AAAA
531 Perfect,15,AAAC
313 Perfect,15,AAAG
381 Perfect,15,AAAT
6 Perfect,15,AACA
5 Perfect,15,AACC
16 Perfect,15,AAGA
7 Perfect,15,AAGC
30 Perfect,15,AAGG
30 Perfect,15,AATA
9 Perfect,15,AATC
15 Perfect,15,AATG
7 Perfect,15,AATT
4 Perfect,15,ACAA
228 Perfect,15,ACAC
4 Perfect,15,ACAG
13 Perfect,15,ACAT
3 Perfect,15,ACCC
1 Perfect,15,ACTC
62 Perfect,15,AGAA
7 Perfect,15,AGAC
159 Perfect,15,AGAG
9 Perfect,15,AGAT
1 Perfect,15,AGCC
24 Perfect,15,AGGA
6 Perfect,15,AGGC
40 Perfect,15,AGGG
1 Perfect,15,AGGT
1 Perfect,15,AGTA
6 Perfect,15,AGTG
30 Perfect,15,ATAA
48 Perfect,15,ATAC
14 Perfect,15,ATAG
189 Perfect,15,ATAT
1 Perfect,15,ATCA
11 Perfect,15,ATCC
8 Perfect,15,ATCT
4 Perfect,15,ATGA
7 Perfect,15,ATGC
13 Perfect,15,ATGG
2 Perfect,15,ATGT
10 Perfect,15,ATTA
16 Perfect,15,ATTC
8 Perfect,15,ATTG
57 Perfect,15,ATTT
8 Perfect,15,CAAA
7 Perfect,15,CAAC
5 Perfect,15,CAAG
3 Perfect,15,CAAT
66 Perfect,15,CACA
6 Perfect,15,CACC
5 Perfect,15,CACG
2 Perfect,15,CACT
1 Perfect,15,CAGA
1 Perfect,15,CAGG
4 Perfect,15,CATA
15 Perfect,15,CATC
6 Perfect,15,CATG
15 Perfect,15,CATT
1 Perfect,15,CCAA
11 Perfect,15,CCAC
1 Perfect,15,CCAG
18 Perfect,15,CCAT
4 Perfect,15,CCCA
5 Perfect,15,CCCC
5 Perfect,15,CCCT
1 Perfect,15,CCGC
1 Perfect,15,CCGG
36 Perfect,15,CCTC
8 Perfect,15,CCTG
23 Perfect,15,CCTT
1 Perfect,15,CGCC
2 Perfect,15,CGCG
1 Perfect,15,CGGC
8 Perfect,15,CTAC
2 Perfect,15,CTAG
5 Perfect,15,CTAT
21 Perfect,15,CTCC
1 Perfect,15,CTCG
41 Perfect,15,CTCT
2 Perfect,15,CTGC
1 Perfect,15,CTGG
31 Perfect,15,CTTC
6 Perfect,15,CTTG
12 Perfect,15,CTTT
14 Perfect,15,GAAA
44 Perfect,15,GAAG
12 Perfect,15,GAAT
42 Perfect,15,GAGA
1 Perfect,15,GAGC
21 Perfect,15,GAGG
1 Perfect,15,GAGT
11 Perfect,15,GATA
18 Perfect,15,GATG
1 Perfect,15,GATT
1 Perfect,15,GCAA
1 Perfect,15,GCAT
1 Perfect,15,GCCC
1 Perfect,15,GCCT
2 Perfect,15,GCGC
3 Perfect,15,GCGG
1 Perfect,15,GCGT
2 Perfect,15,GCTG
1 Perfect,15,GCTT
12 Perfect,15,GGAA
1 Perfect,15,GGAC
37 Perfect,15,GGAG
13 Perfect,15,GGAT
1 Perfect,15,GGCC
2 Perfect,15,GGCT
2 Perfect,15,GGGA
1 Perfect,15,GGGC
5 Perfect,15,GGGG
3 Perfect,15,GGGT
1 Perfect,15,GGTA
3 Perfect,15,GGTG
1 Perfect,15,GGTT
1 Perfect,15,GTAT
1 Perfect,15,GTCC
2 Perfect,15,GTCT
3 Perfect,15,GTGA
2 Perfect,15,GTGC
78 Perfect,15,GTGT
5 Perfect,15,GTTG
3 Perfect,15,GTTT
41 Perfect,15,TAAA
2 Perfect,15,TAAC
1 Perfect,15,TAAG
7 Perfect,15,TAAT
2 Perfect,15,TACA
6 Perfect,15,TAGA
3 Perfect,15,TAGC
5 Perfect,15,TAGG
202 Perfect,15,TATA
18 Perfect,15,TATC
34 Perfect,15,TATG
28 Perfect,15,TATT
8 Perfect,15,TCAA
23 Perfect,15,TCAC
4 Perfect,15,TCAG
24 Perfect,15,TCAT
7 Perfect,15,TCCA
25 Perfect,15,TCCC
1 Perfect,15,TCCG
17 Perfect,15,TCCT
11 Perfect,15,TCTA
152 Perfect,15,TCTC
13 Perfect,15,TCTG
43 Perfect,15,TCTT
28 Perfect,15,TGAA
1 Perfect,15,TGAC
10 Perfect,15,TGAG
2 Perfect,15,TGAT
1 Perfect,15,TGCA
1 Perfect,15,TGCC
27 Perfect,15,TGGA
1 Perfect,15,TGGC
12 Perfect,15,TGGG
3 Perfect,15,TGGT
13 Perfect,15,TGTA
5 Perfect,15,TGTC
268 Perfect,15,TGTG
11 Perfect,15,TGTT
4 Perfect,15,TTAA
2 Perfect,15,TTAC
27 Perfect,15,TTAT
9 Perfect,15,TTCA
57 Perfect,15,TTCC
26 Perfect,15,TTCT
2 Perfect,15,TTGA
4 Perfect,15,TTGC
5 Perfect,15,TTGG
17 Perfect,15,TTGT
373 Perfect,15,TTTA
303 Perfect,15,TTTC
552 Perfect,15,TTTG
1434 Perfect,15,TTTT
1295 Perfect,16,AAAA
28 Perfect,16,AAAC
39 Perfect,16,AAAG
86 Perfect,16,AAAT
2 Perfect,16,AACA
1 Perfect,16,AACC
1 Perfect,16,AACT
15 Perfect,16,AAGA
2 Perfect,16,AAGC
16 Perfect,16,AAGG
1 Perfect,16,AAGT
23 Perfect,16,AATA
3 Perfect,16,AATC
14 Perfect,16,AATG
15 Perfect,16,AATT
3 Perfect,16,ACAA
79 Perfect,16,ACAC
5 Perfect,16,ACAT
1 Perfect,16,ACCT
1 Perfect,16,ACTC
18 Perfect,16,AGAA
42 Perfect,16,AGAG
6 Perfect,16,AGAT
2 Perfect,16,AGCA
2 Perfect,16,AGCC
1 Perfect,16,AGCG
1 Perfect,16,AGCT
12 Perfect,16,AGGA
6 Perfect,16,AGGC
7 Perfect,16,AGGG
3 Perfect,16,AGTG
1 Perfect,16,AGTT
16 Perfect,16,ATAA
3 Perfect,16,ATAC
1 Perfect,16,ATAG
157 Perfect,16,ATAT
3 Perfect,16,ATCA
5 Perfect,16,ATCC
4 Perfect,16,ATCT
12 Perfect,16,ATGA
4 Perfect,16,ATGG
3 Perfect,16,ATGT
5 Perfect,16,ATTA
8 Perfect,16,ATTC
85 Perfect,16,ATTT
91 Perfect,16,CAAA
5 Perfect,16,CAAT
69 Perfect,16,CACA
3 Perfect,16,CACT
1 Perfect,16,CAGA
1 Perfect,16,CAGC
2 Perfect,16,CATA
11 Perfect,16,CATC
3 Perfect,16,CATG
13 Perfect,16,CATT
2 Perfect,16,CCAA
7 Perfect,16,CCAT
1 Perfect,16,CCCA
2 Perfect,16,CCCC
7 Perfect,16,CCCT
1 Perfect,16,CCGG
1 Perfect,16,CCTA
11 Perfect,16,CCTC
1 Perfect,16,CCTG
16 Perfect,16,CCTT
1 Perfect,16,CGCC
1 Perfect,16,CTAC
2 Perfect,16,CTAT
11 Perfect,16,CTCC
38 Perfect,16,CTCT
1 Perfect,16,CTGG
11 Perfect,16,CTTC
48 Perfect,16,CTTT
37 Perfect,16,GAAA
16 Perfect,16,GAAG
9 Perfect,16,GAAT
2 Perfect,16,GACA
62 Perfect,16,GAGA
2 Perfect,16,GAGC
14 Perfect,16,GAGG
1 Perfect,16,GAGT
9 Perfect,16,GATA
5 Perfect,16,GATG
1 Perfect,16,GATT
1 Perfect,16,GCAC
1 Perfect,16,GCAT
4 Perfect,16,GCCT
3 Perfect,16,GCGC
3 Perfect,16,GCTT
25 Perfect,16,GGAA
12 Perfect,16,GGAG
4 Perfect,16,GGAT
1 Perfect,16,GGCA
8 Perfect,16,GGGA
2 Perfect,16,GGGG
3 Perfect,16,GGTG
3 Perfect,16,GGTT
1 Perfect,16,GTAA
3 Perfect,16,GTAG
4 Perfect,16,GTAT
2 Perfect,16,GTCT
3 Perfect,16,GTGA
1 Perfect,16,GTGG
98 Perfect,16,GTGT
1 Perfect,16,GTTG
23 Perfect,16,GTTT
43 Perfect,16,TAAA
1 Perfect,16,TAAC
2 Perfect,16,TACA
1 Perfect,16,TACT
4 Perfect,16,TAGA
149 Perfect,16,TATA
8 Perfect,16,TATC
7 Perfect,16,TATG
22 Perfect,16,TATT
10 Perfect,16,TCAT
5 Perfect,16,TCCA
9 Perfect,16,TCCC
11 Perfect,16,TCCT
6 Perfect,16,TCTA
59 Perfect,16,TCTC
1 Perfect,16,TCTG
18 Perfect,16,TCTT
26 Perfect,16,TGAA
6 Perfect,16,TGGA
1 Perfect,16,TGGC
3 Perfect,16,TGGG
1 Perfect,16,TGGT
3 Perfect,16,TGTA
1 Perfect,16,TGTC
81 Perfect,16,TGTG
5 Perfect,16,TGTT
3 Perfect,16,TTAA
1 Perfect,16,TTAG
13 Perfect,16,TTAT
17 Perfect,16,TTCA
21 Perfect,16,TTCC
9 Perfect,16,TTCT
4 Perfect,16,TTGA
1 Perfect,16,TTGG
4 Perfect,16,TTGT
49 Perfect,16,TTTA
27 Perfect,16,TTTC
67 Perfect,16,TTTG
1271 Perfect,16,TTTT
1027 Perfect,17,AAAA
36 Perfect,17,AAAC
58 Perfect,17,AAAG
93 Perfect,17,AAAT
4 Perfect,17,AACA
2 Perfect,17,AACC
5 Perfect,17,AAGA
1 Perfect,17,AAGC
14 Perfect,17,AAGG
1 Perfect,17,AAGT
24 Perfect,17,AATA
3 Perfect,17,AATC
10 Perfect,17,AATG
5 Perfect,17,AATT
16 Perfect,17,ACAA
149 Perfect,17,ACAC
1 Perfect,17,ACAG
3 Perfect,17,ACAT
1 Perfect,17,ACCA
1 Perfect,17,ACCC
1 Perfect,17,ACCT
1 Perfect,17,ACTT
37 Perfect,17,AGAA
77 Perfect,17,AGAG
5 Perfect,17,AGAT
30 Perfect,17,AGGA
3 Perfect,17,AGGC
22 Perfect,17,AGGG
1 Perfect,17,AGTA
1 Perfect,17,AGTC
1 Perfect,17,AGTG
22 Perfect,17,ATAA
6 Perfect,17,ATAC
3 Perfect,17,ATAG
118 Perfect,17,ATAT
1 Perfect,17,ATCA
8 Perfect,17,ATCC
4 Perfect,17,ATCT
5 Perfect,17,ATGA
1 Perfect,17,ATGC
6 Perfect,17,ATGG
2 Perfect,17,ATGT
2 Perfect,17,ATTA
10 Perfect,17,ATTC
4 Perfect,17,ATTG
18 Perfect,17,ATTT
7 Perfect,17,CAAA
45 Perfect,17,CACA
1 Perfect,17,CACT
1 Perfect,17,CAGC
4 Perfect,17,CATC
1 Perfect,17,CATG
3 Perfect,17,CATT
1 Perfect,17,CCAC
6 Perfect,17,CCAT
2 Perfect,17,CCCA
2 Perfect,17,CCCC
2 Perfect,17,CCCT
19 Perfect,17,CCTC
21 Perfect,17,CCTT
1 Perfect,17,CTAC
3 Perfect,17,CTAT
19 Perfect,17,CTCT
1 Perfect,17,CTGC
1 Perfect,17,CTGT
8 Perfect,17,CTTC
4 Perfect,17,CTTT
4 Perfect,17,GAAA
19 Perfect,17,GAAG
2 Perfect,17,GAAT
1 Perfect,17,GACG
28 Perfect,17,GAGA
3 Perfect,17,GAGG
1 Perfect,17,GAGT
7 Perfect,17,GATA
4 Perfect,17,GATG
2 Perfect,17,GCAG
2 Perfect,17,GCCA
2 Perfect,17,GCGC
1 Perfect,17,GCTG
1 Perfect,17,GCTT
6 Perfect,17,GGAA
12 Perfect,17,GGAG
7 Perfect,17,GGAT
3 Perfect,17,GGGA
2 Perfect,17,GGGG
1 Perfect,17,GGTA
1 Perfect,17,GGTG
1 Perfect,17,GTAG
1 Perfect,17,GTAT
1 Perfect,17,GTGC
47 Perfect,17,GTGT
1 Perfect,17,GTTG
5 Perfect,17,GTTT
17 Perfect,17,TAAA
3 Perfect,17,TAAT
4 Perfect,17,TAGA
122 Perfect,17,TATA
8 Perfect,17,TATC
9 Perfect,17,TATG
63 Perfect,17,TATT
5 Perfect,17,TCAA
6 Perfect,17,TCAT
2 Perfect,17,TCCA
23 Perfect,17,TCCC
15 Perfect,17,TCCT
3 Perfect,17,TCTA
96 Perfect,17,TCTC
30 Perfect,17,TCTT
13 Perfect,17,TGAA
1 Perfect,17,TGAT
2 Perfect,17,TGCT
5 Perfect,17,TGGA
2 Perfect,17,TGGG
6 Perfect,17,TGTA
3 Perfect,17,TGTC
136 Perfect,17,TGTG
31 Perfect,17,TGTT
3 Perfect,17,TTAA
1 Perfect,17,TTAC
22 Perfect,17,TTAT
8 Perfect,17,TTCA
18 Perfect,17,TTCC
8 Perfect,17,TTCT
2 Perfect,17,TTGA
1 Perfect,17,TTGG
2 Perfect,17,TTGT
20 Perfect,17,TTTA
35 Perfect,17,TTTC
10 Perfect,17,TTTG
1017 Perfect,17,TTTT
767 Perfect,18,AAAA
40 Perfect,18,AAAC
30 Perfect,18,AAAG
70 Perfect,18,AAAT
17 Perfect,18,AACA
2 Perfect,18,AACC
22 Perfect,18,AAGA
2 Perfect,18,AAGC
26 Perfect,18,AAGG
2 Perfect,18,AAGT
32 Perfect,18,AATA
5 Perfect,18,AATG
15 Perfect,18,AATT
3 Perfect,18,ACAA
54 Perfect,18,ACAC
1 Perfect,18,ACAT
5 Perfect,18,AGAA
30 Perfect,18,AGAG
3 Perfect,18,AGGA
1 Perfect,18,AGGC
8 Perfect,18,AGGG
2 Perfect,18,AGGT
7 Perfect,18,ATAA
1 Perfect,18,ATAC
6 Perfect,18,ATAG
86 Perfect,18,ATAT
2 Perfect,18,ATCA
5 Perfect,18,ATCC
3 Perfect,18,ATCT
4 Perfect,18,ATGA
1 Perfect,18,ATGG
4 Perfect,18,ATGT
1 Perfect,18,ATTA
6 Perfect,18,ATTT
4 Perfect,18,CAAA
46 Perfect,18,CACA
9 Perfect,18,CACT
1 Perfect,18,CAGT
10 Perfect,18,CATC
4 Perfect,18,CATT
1 Perfect,18,CCCC
1 Perfect,18,CCCT
1 Perfect,18,CCGC
5 Perfect,18,CCTC
9 Perfect,18,CCTT
1 Perfect,18,CGCG
1 Perfect,18,CTAC
1 Perfect,18,CTCA
5 Perfect,18,CTCC
25 Perfect,18,CTCT
10 Perfect,18,CTTC
3 Perfect,18,CTTT
17 Perfect,18,GAAA
17 Perfect,18,GAAG
2 Perfect,18,GAAT
35 Perfect,18,GAGA
10 Perfect,18,GAGG
6 Perfect,18,GATA
1 Perfect,18,GCAC
1 Perfect,18,GCAG
1 Perfect,18,GCGC
1 Perfect,18,GCTG
8 Perfect,18,GGAA
1 Perfect,18,GGAG
5 Perfect,18,GGAT
1 Perfect,18,GGCA
1 Perfect,18,GGGA
1 Perfect,18,GGGG
67 Perfect,18,GTGT
1 Perfect,18,GTTG
14 Perfect,18,TAAA
1 Perfect,18,TAAT
3 Perfect,18,TACA
1 Perfect,18,TACC
5 Perfect,18,TAGA
1 Perfect,18,TAGC
61 Perfect,18,TATA
3 Perfect,18,TATC
5 Perfect,18,TATG
13 Perfect,18,TATT
2 Perfect,18,TCAC
1 Perfect,18,TCAT
3 Perfect,18,TCCA
12 Perfect,18,TCCC
12 Perfect,18,TCCT
3 Perfect,18,TCTA
44 Perfect,18,TCTC
8 Perfect,18,TCTT
9 Perfect,18,TGAA
2 Perfect,18,TGAG
2 Perfect,18,TGAT
4 Perfect,18,TGGA
2 Perfect,18,TGGG
2 Perfect,18,TGGT
1 Perfect,18,TGTA
66 Perfect,18,TGTG
7 Perfect,18,TGTT
11 Perfect,18,TTAA
69 Perfect,18,TTAT
11 Perfect,18,TTCA
19 Perfect,18,TTCC
22 Perfect,18,TTCT
3 Perfect,18,TTGG
30 Perfect,18,TTGT
31 Perfect,18,TTTA
22 Perfect,18,TTTC
15 Perfect,18,TTTG
833 Perfect,18,TTTT
687 Perfect,19,AAAA
255 Perfect,19,AAAC
108 Perfect,19,AAAG
210 Perfect,19,AAAT
1 Perfect,19,AACA
1 Perfect,19,AAGA
2 Perfect,19,AAGC
9 Perfect,19,AAGG
6 Perfect,19,AATA
3 Perfect,19,AATC
7 Perfect,19,AATG
3 Perfect,19,AATT
1 Perfect,19,ACAA
101 Perfect,19,ACAC
1 Perfect,19,ACAT
1 Perfect,19,ACCT
15 Perfect,19,AGAA
7 Perfect,19,AGAC
60 Perfect,19,AGAG
1 Perfect,19,AGAT
10 Perfect,19,AGGA
1 Perfect,19,AGGC
23 Perfect,19,AGGG
9 Perfect,19,ATAA
7 Perfect,19,ATAC
6 Perfect,19,ATAG
61 Perfect,19,ATAT
3 Perfect,19,ATCC
6 Perfect,19,ATCT
4 Perfect,19,ATGA
1 Perfect,19,ATGC
3 Perfect,19,ATGG
3 Perfect,19,ATTA
7 Perfect,19,ATTC
2 Perfect,19,ATTG
6 Perfect,19,ATTT
6 Perfect,19,CAAA
37 Perfect,19,CACA
1 Perfect,19,CACT
5 Perfect,19,CATC
3 Perfect,19,CATT
6 Perfect,19,CCAC
11 Perfect,19,CCAT
2 Perfect,19,CCCT
1 Perfect,19,CCTA
18 Perfect,19,CCTC
2 Perfect,19,CCTG
5 Perfect,19,CCTT
1 Perfect,19,CGCT
5 Perfect,19,CTAC
1 Perfect,19,CTAG
1 Perfect,19,CTAT
9 Perfect,19,CTCC
6 Perfect,19,CTCT
10 Perfect,19,CTTC
3 Perfect,19,CTTG
6 Perfect,19,CTTT
11 Perfect,19,GAAA
30 Perfect,19,GAAG
3 Perfect,19,GAAT
19 Perfect,19,GAGA
4 Perfect,19,GAGG
4 Perfect,19,GATA
4 Perfect,19,GATG
1 Perfect,19,GCAG
11 Perfect,19,GGAA
12 Perfect,19,GGAG
3 Perfect,19,GGAT
1 Perfect,19,GGCA
1 Perfect,19,GGCG
1 Perfect,19,GGCT
1 Perfect,19,GGGA
1 Perfect,19,GTAG
38 Perfect,19,GTGT
1 Perfect,19,GTTG
3 Perfect,19,GTTT
18 Perfect,19,TAAA
2 Perfect,19,TAAC
1 Perfect,19,TAAG
3 Perfect,19,TAAT
5 Perfect,19,TAGG
63 Perfect,19,TATA
4 Perfect,19,TATC
8 Perfect,19,TATG
5 Perfect,19,TATT
2 Perfect,19,TCAA
6 Perfect,19,TCAC
6 Perfect,19,TCAT
2 Perfect,19,TCCA
14 Perfect,19,TCCC
3 Perfect,19,TCCT
1 Perfect,19,TCGC
3 Perfect,19,TCTA
58 Perfect,19,TCTC
5 Perfect,19,TCTG
10 Perfect,19,TCTT
8 Perfect,19,TGAA
1 Perfect,19,TGAG
3 Perfect,19,TGGA
3 Perfect,19,TGGC
3 Perfect,19,TGGG
1 Perfect,19,TGGT
1 Perfect,19,TGTA
2 Perfect,19,TGTC
101 Perfect,19,TGTG
1 Perfect,19,TGTT
2 Perfect,19,TTAA
11 Perfect,19,TTAT
4 Perfect,19,TTCA
27 Perfect,19,TTCC
1 Perfect,19,TTCG
9 Perfect,19,TTCT
2 Perfect,19,TTGG
3 Perfect,19,TTGT
189 Perfect,19,TTTA
120 Perfect,19,TTTC
234 Perfect,19,TTTG
677 Perfect,19,TTTT
602 Perfect,20,AAAA
13 Perfect,20,AAAC
12 Perfect,20,AAAG
33 Perfect,20,AAAT
1 Perfect,20,AACA
9 Perfect,20,AAGA
3 Perfect,20,AAGC
7 Perfect,20,AAGG
12 Perfect,20,AATA
2 Perfect,20,AATC
7 Perfect,20,AATG
4 Perfect,20,AATT
36 Perfect,20,ACAC
1 Perfect,20,ACAT
3 Perfect,20,AGAA
1 Perfect,20,AGAC
14 Perfect,20,AGAG
2 Perfect,20,AGAT
1 Perfect,20,AGGA
2 Perfect,20,AGGC
6 Perfect,20,AGGG
1 Perfect,20,AGTG
2 Perfect,20,ATAA
4 Perfect,20,ATAG
61 Perfect,20,ATAT
1 Perfect,20,ATCC
6 Perfect,20,ATCT
4 Perfect,20,ATGA
2 Perfect,20,ATGT
1 Perfect,20,ATTA
1 Perfect,20,ATTC
1 Perfect,20,ATTG
38 Perfect,20,ATTT
28 Perfect,20,CAAA
3 Perfect,20,CAAT
32 Perfect,20,CACA
1 Perfect,20,CAGA
1 Perfect,20,CATC
5 Perfect,20,CATT
1 Perfect,20,CCAA
3 Perfect,20,CCCT
1 Perfect,20,CCTA
5 Perfect,20,CCTC
8 Perfect,20,CCTT
5 Perfect,20,CTCC
8 Perfect,20,CTCT
5 Perfect,20,CTTC
15 Perfect,20,CTTT
6 Perfect,20,GAAA
9 Perfect,20,GAAG
1 Perfect,20,GACA
25 Perfect,20,GAGA
7 Perfect,20,GAGG
6 Perfect,20,GATA
2 Perfect,20,GATG
1 Perfect,20,GATT
15 Perfect,20,GGAA
4 Perfect,20,GGAG
6 Perfect,20,GGAT
1 Perfect,20,GGGA
1 Perfect,20,GGGG
1 Perfect,20,GTAG
1 Perfect,20,GTAT
28 Perfect,20,GTGT
15 Perfect,20,GTTT
10 Perfect,20,TAAA
1 Perfect,20,TACA
1 Perfect,20,TAGA
47 Perfect,20,TATA
1 Perfect,20,TATC
4 Perfect,20,TATG
12 Perfect,20,TATT
3 Perfect,20,TCAA
1 Perfect,20,TCAC
6 Perfect,20,TCAT
4 Perfect,20,TCCA
4 Perfect,20,TCCC
5 Perfect,20,TCCT
2 Perfect,20,TCTA
23 Perfect,20,TCTC
7 Perfect,20,TCTT
3 Perfect,20,TGAA
1 Perfect,20,TGAT
2 Perfect,20,TGGA
33 Perfect,20,TGTG
1 Perfect,20,TGTT
3 Perfect,20,TTAA
1 Perfect,20,TTAT
4 Perfect,20,TTCA
12 Perfect,20,TTCC
6 Perfect,20,TTCT
2 Perfect,20,TTGA
1 Perfect,20,TTGG
1 Perfect,20,TTGT
17 Perfect,20,TTTA
10 Perfect,20,TTTC
34 Perfect,20,TTTG
617 Perfect,20,TTTT
553 Perfect,21,AAAA
18 Perfect,21,AAAC
16 Perfect,21,AAAG
34 Perfect,21,AAAT
2 Perfect,21,AAGA
4 Perfect,21,AAGG
9 Perfect,21,AATA
1 Perfect,21,AATC
3 Perfect,21,AATG
3 Perfect,21,ACAA
87 Perfect,21,ACAC
2 Perfect,21,ACCT
12 Perfect,21,AGAA
2 Perfect,21,AGAC
19 Perfect,21,AGAG
2 Perfect,21,AGAT
8 Perfect,21,AGGA
1 Perfect,21,AGGC
11 Perfect,21,AGGG
7 Perfect,21,ATAA
2 Perfect,21,ATAC
1 Perfect,21,ATAG
32 Perfect,21,ATAT
3 Perfect,21,ATCC
2 Perfect,21,ATCT
1 Perfect,21,ATGA
1 Perfect,21,ATGG
1 Perfect,21,ATGT
3 Perfect,21,ATTA
4 Perfect,21,ATTC
2 Perfect,21,ATTG
9 Perfect,21,ATTT
3 Perfect,21,CAAA
20 Perfect,21,CACA
1 Perfect,21,CATC
2 Perfect,21,CATT
2 Perfect,21,CCAT
1 Perfect,21,CCCC
1 Perfect,21,CCCG
2 Perfect,21,CCCT
2 Perfect,21,CCTC
9 Perfect,21,CCTT
1 Perfect,21,CTAT
2 Perfect,21,CTCC
4 Perfect,21,CTCT
5 Perfect,21,CTTC
1 Perfect,21,CTTT
1 Perfect,21,GAAA
13 Perfect,21,GAAG
2 Perfect,21,GAAT
14 Perfect,21,GAGA
2 Perfect,21,GAGG
1 Perfect,21,GATA
3 Perfect,21,GATG
2 Perfect,21,GCAA
2 Perfect,21,GCGC
4 Perfect,21,GGAA
1 Perfect,21,GGAG
1 Perfect,21,GGCG
1 Perfect,21,GGTT
1 Perfect,21,GTAT
36 Perfect,21,GTGT
2 Perfect,21,GTTG
2 Perfect,21,GTTT
7 Perfect,21,TAAA
1 Perfect,21,TAGA
52 Perfect,21,TATA
1 Perfect,21,TATC
3 Perfect,21,TATG
28 Perfect,21,TATT
3 Perfect,21,TCAA
1 Perfect,21,TCAT
3 Perfect,21,TCCA
9 Perfect,21,TCCC
5 Perfect,21,TCCT
3 Perfect,21,TCTA
28 Perfect,21,TCTC
15 Perfect,21,TCTT
3 Perfect,21,TGAA
2 Perfect,21,TGAT
2 Perfect,21,TGCC
2 Perfect,21,TGGA
4 Perfect,21,TGTC
87 Perfect,21,TGTG
15 Perfect,21,TGTT
1 Perfect,21,TTAA
9 Perfect,21,TTAT
2 Perfect,21,TTCA
8 Perfect,21,TTCC
5 Perfect,21,TTCT
1 Perfect,21,TTGA
2 Perfect,21,TTGT
5 Perfect,21,TTTA
13 Perfect,21,TTTC
12 Perfect,21,TTTG
516 Perfect,21,TTTT
463 Perfect,22,AAAA
10 Perfect,22,AAAC
5 Perfect,22,AAAG
40 Perfect,22,AAAT
7 Perfect,22,AACA
1 Perfect,22,AACT
5 Perfect,22,AAGA
9 Perfect,22,AAGG
11 Perfect,22,AATA
4 Perfect,22,AATT
1 Perfect,22,ACAA
33 Perfect,22,ACAC
2 Perfect,22,AGAA
2 Perfect,22,AGAC
13 Perfect,22,AGAG
3 Perfect,22,AGAT
3 Perfect,22,AGGA
1 Perfect,22,AGGT
5 Perfect,22,ATAA
2 Perfect,22,ATAC
2 Perfect,22,ATAG
40 Perfect,22,ATAT
4 Perfect,22,ATCC
3 Perfect,22,ATCT
2 Perfect,22,ATGG
2 Perfect,22,ATGT
1 Perfect,22,ATTA
1 Perfect,22,ATTG
1 Perfect,22,ATTT
3 Perfect,22,CAAA
32 Perfect,22,CACA
1 Perfect,22,CATA
7 Perfect,22,CATC
7 Perfect,22,CATT
1 Perfect,22,CCAT
1 Perfect,22,CCCT
2 Perfect,22,CCTC
5 Perfect,22,CCTT
4 Perfect,22,CTCC
20 Perfect,22,CTCT
1 Perfect,22,CTGC
6 Perfect,22,CTTC
3 Perfect,22,CTTT
6 Perfect,22,GAAA
1 Perfect,22,GAAG
2 Perfect,22,GAAT
13 Perfect,22,GAGA
5 Perfect,22,GAGG
1 Perfect,22,GAGT
2 Perfect,22,GATA
9 Perfect,22,GGAA
2 Perfect,22,GGAT
1 Perfect,22,GGCA
2 Perfect,22,GGGA
1 Perfect,22,GGTG
38 Perfect,22,GTGT
10 Perfect,22,TAAA
3 Perfect,22,TAGA
33 Perfect,22,TATA
4 Perfect,22,TATT
1 Perfect,22,TCAT
2 Perfect,22,TCCC
2 Perfect,22,TCCT
1 Perfect,22,TCTA
20 Perfect,22,TCTC
5 Perfect,22,TCTT
4 Perfect,22,TGAA
1 Perfect,22,TGAT
1 Perfect,22,TGGA
1 Perfect,22,TGTA
27 Perfect,22,TGTG
1 Perfect,22,TGTT
3 Perfect,22,TTAA
32 Perfect,22,TTAT
3 Perfect,22,TTCA
14 Perfect,22,TTCC
8 Perfect,22,TTCT
15 Perfect,22,TTGT
17 Perfect,22,TTTA
13 Perfect,22,TTTC
2 Perfect,22,TTTG
489 Perfect,22,TTTT
453 Perfect,23,AAAA
135 Perfect,23,AAAC
48 Perfect,23,AAAG
92 Perfect,23,AAAT
1 Perfect,23,AACA
2 Perfect,23,AACC
3 Perfect,23,AAGG
4 Perfect,23,AATA
3 Perfect,23,AATG
2 Perfect,23,AATT
1 Perfect,23,ACAA
87 Perfect,23,ACAC
2 Perfect,23,ACAG
3 Perfect,23,AGAA
2 Perfect,23,AGAC
23 Perfect,23,AGAG
1 Perfect,23,AGGA
4 Perfect,23,AGGG
3 Perfect,23,ATAA
2 Perfect,23,ATAG
44 Perfect,23,ATAT
1 Perfect,23,ATCC
2 Perfect,23,ATCT
3 Perfect,23,ATGG
1 Perfect,23,ATTC
3 Perfect,23,ATTG
3 Perfect,23,ATTT
1 Perfect,23,CAAA
1 Perfect,23,CAAT
20 Perfect,23,CACA
1 Perfect,23,CACG
1 Perfect,23,CACT
1 Perfect,23,CATC
3 Perfect,23,CATT
2 Perfect,23,CCAC
1 Perfect,23,CCCT
9 Perfect,23,CCTC
2 Perfect,23,CCTT
1 Perfect,23,CGCA
3 Perfect,23,CTAG
1 Perfect,23,CTCC
5 Perfect,23,CTCT
5 Perfect,23,CTTC
2 Perfect,23,GAAA
11 Perfect,23,GAAG
6 Perfect,23,GAGA
2 Perfect,23,GAGG
1 Perfect,23,GATA
1 Perfect,23,GATG
1 Perfect,23,GCCT
2 Perfect,23,GCGC
3 Perfect,23,GGAA
5 Perfect,23,GGAG
3 Perfect,23,GGAT
1 Perfect,23,GGGT
31 Perfect,23,GTGT
7 Perfect,23,TAAA
1 Perfect,23,TAAC
1 Perfect,23,TAAT
1 Perfect,23,TACA
1 Perfect,23,TACC
1 Perfect,23,TAGC
1 Perfect,23,TAGG
29 Perfect,23,TATA
3 Perfect,23,TATC
7 Perfect,23,TATG
3 Perfect,23,TATT
1 Perfect,23,TCAA
3 Perfect,23,TCAT
3 Perfect,23,TCCC
3 Perfect,23,TCCT
2 Perfect,23,TCTA
20 Perfect,23,TCTC
9 Perfect,23,TCTG
1 Perfect,23,TCTT
9 Perfect,23,TGAA
1 Perfect,23,TGAT
2 Perfect,23,TGGA
1 Perfect,23,TGGG
1 Perfect,23,TGTA
75 Perfect,23,TGTG
1 Perfect,23,TTAC
6 Perfect,23,TTAT
3 Perfect,23,TTCA
18 Perfect,23,TTCC
2 Perfect,23,TTCT
1 Perfect,23,TTGA
1 Perfect,23,TTGG
4 Perfect,23,TTGT
93 Perfect,23,TTTA
44 Perfect,23,TTTC
108 Perfect,23,TTTG
433 Perfect,23,TTTT
376 Perfect,24,AAAA
4 Perfect,24,AAAC
4 Perfect,24,AAAG
17 Perfect,24,AAAT
3 Perfect,24,AAGA
5 Perfect,24,AAGG
8 Perfect,24,AATA
1 Perfect,24,AATG
1 Perfect,24,AATT
42 Perfect,24,ACAC
1 Perfect,24,AGAA
7 Perfect,24,AGAG
1 Perfect,24,AGAT
1 Perfect,24,AGGC
1 Perfect,24,AGGG
4 Perfect,24,ATAA
2 Perfect,24,ATAC
37 Perfect,24,ATAT
2 Perfect,24,ATCC
1 Perfect,24,ATCT
2 Perfect,24,ATGA
1 Perfect,24,ATTA
1 Perfect,24,ATTG
12 Perfect,24,ATTT
11 Perfect,24,CAAA
30 Perfect,24,CACA
1 Perfect,24,CATT
3 Perfect,24,CCAT
3 Perfect,24,CCCT
3 Perfect,24,CCTC
2 Perfect,24,CCTT
3 Perfect,24,CTCT
2 Perfect,24,CTTC
1 Perfect,24,CTTT
1 Perfect,24,GAAA
3 Perfect,24,GAAG
1 Perfect,24,GAAT
10 Perfect,24,GAGA
3 Perfect,24,GAGG
1 Perfect,24,GATA
3 Perfect,24,GGAA
2 Perfect,24,GGAT
1 Perfect,24,GGTA
1 Perfect,24,GGTG
1 Perfect,24,GTAG
41 Perfect,24,GTGT
9 Perfect,24,GTTT
8 Perfect,24,TAAA
1 Perfect,24,TACA
1 Perfect,24,TAGA
1 Perfect,24,TAGG
27 Perfect,24,TATA
1 Perfect,24,TATC
5 Perfect,24,TATT
3 Perfect,24,TCAT
3 Perfect,24,TCCA
1 Perfect,24,TCCT
2 Perfect,24,TCTA
12 Perfect,24,TCTC
2 Perfect,24,TCTT
5 Perfect,24,TGAA
3 Perfect,24,TGGA
22 Perfect,24,TGTG
1 Perfect,24,TTAT
5 Perfect,24,TTCA
4 Perfect,24,TTCC
1 Perfect,24,TTCT
14 Perfect,24,TTTA
3 Perfect,24,TTTC
11 Perfect,24,TTTG
379 Perfect,24,TTTT
306 Perfect,25,AAAA
12 Perfect,25,AAAC
10 Perfect,25,AAAG
12 Perfect,25,AAAT
1 Perfect,25,AACA
1 Perfect,25,AAGG
4 Perfect,25,AATA
1 Perfect,25,AATC
1 Perfect,25,ACAA
62 Perfect,25,ACAC
4 Perfect,25,AGAA
23 Perfect,25,AGAG
3 Perfect,25,AGGA
1 Perfect,25,AGGC
4 Perfect,25,AGGG
3 Perfect,25,ATAA
1 Perfect,25,ATAG
19 Perfect,25,ATAT
4 Perfect,25,ATCC
3 Perfect,25,ATCT
1 Perfect,25,ATGA
1 Perfect,25,ATGC
3 Perfect,25,ATGG
2 Perfect,25,ATTC
1 Perfect,25,ATTG
5 Perfect,25,ATTT
3 Perfect,25,CAAA
23 Perfect,25,CACA
3 Perfect,25,CATC
1 Perfect,25,CATT
2 Perfect,25,CCAT
3 Perfect,25,CCTT
4 Perfect,25,CTCT
1 Perfect,25,CTTC
1 Perfect,25,GAAA
3 Perfect,25,GAAG
6 Perfect,25,GAGA
1 Perfect,25,GAGG
1 Perfect,25,GATG
3 Perfect,25,GGAA
1 Perfect,25,GGAG
1 Perfect,25,GGAT
19 Perfect,25,GTGT
1 Perfect,25,GTTT
2 Perfect,25,TAAA
2 Perfect,25,TAGA
19 Perfect,25,TATA
3 Perfect,25,TATC
15 Perfect,25,TATT
1 Perfect,25,TCAT
4 Perfect,25,TCCC
1 Perfect,25,TCCT
21 Perfect,25,TCTC
5 Perfect,25,TCTT
4 Perfect,25,TGAA
1 Perfect,25,TGCC
1 Perfect,25,TGCT
3 Perfect,25,TGGA
1 Perfect,25,TGTA
1 Perfect,25,TGTC
72 Perfect,25,TGTG
14 Perfect,25,TGTT
6 Perfect,25,TTAT
2 Perfect,25,TTCC
1 Perfect,25,TTCT
1 Perfect,25,TTGG
5 Perfect,25,TTTA
1 Perfect,25,TTTC
1 Perfect,25,TTTG
331 Perfect,25,TTTT
244 Perfect,26,AAAA
9 Perfect,26,AAAC
2 Perfect,26,AAAG
9 Perfect,26,AAAT
4 Perfect,26,AACA
5 Perfect,26,AAGG
7 Perfect,26,AATA
2 Perfect,26,AATG
1 Perfect,26,AATT
29 Perfect,26,ACAC
1 Perfect,26,ACAT
1 Perfect,26,AGAA
4 Perfect,26,AGAG
2 Perfect,26,AGGA
1 Perfect,26,ATAC
1 Perfect,26,ATAG
31 Perfect,26,ATAT
2 Perfect,26,ATCC
3 Perfect,26,ATCT
1 Perfect,26,ATGG
2 Perfect,26,ATGT
1 Perfect,26,ATTC
2 Perfect,26,ATTT
2 Perfect,26,CAAA
18 Perfect,26,CACA
1 Perfect,26,CATC
4 Perfect,26,CATT
1 Perfect,26,CCAA
1 Perfect,26,CCAT
3 Perfect,26,CCTT
1 Perfect,26,CTAT
7 Perfect,26,CTCT
1 Perfect,26,CTGT
1 Perfect,26,CTTC
1 Perfect,26,CTTT
3 Perfect,26,GAAA
3 Perfect,26,GAAG
1 Perfect,26,GACA
9 Perfect,26,GAGA
2 Perfect,26,GAGG
1 Perfect,26,GATA
1 Perfect,26,GATG
1 Perfect,26,GATT
2 Perfect,26,GGAA
42 Perfect,26,GTGT
6 Perfect,26,TAAA
22 Perfect,26,TATA
1 Perfect,26,TATC
3 Perfect,26,TATT
1 Perfect,26,TCAT
1 Perfect,26,TCCC
2 Perfect,26,TCCT
2 Perfect,26,TCTA
9 Perfect,26,TCTC
1 Perfect,26,TCTT
1 Perfect,26,TGAT
1 Perfect,26,TGGA
23 Perfect,26,TGTG
1 Perfect,26,TGTT
4 Perfect,26,TTAA
18 Perfect,26,TTAT
2 Perfect,26,TTCA
3 Perfect,26,TTCC
1 Perfect,26,TTCT
8 Perfect,26,TTGT
11 Perfect,26,TTTA
4 Perfect,26,TTTC
4 Perfect,26,TTTG
218 Perfect,26,TTTT
177 Perfect,27,AAAA
32 Perfect,27,AAAC
14 Perfect,27,AAAG
42 Perfect,27,AAAT
1 Perfect,27,AAGA
3 Perfect,27,AAGG
1 Perfect,27,AATC
3 Perfect,27,AATG
67 Perfect,27,ACAC
1 Perfect,27,AGAA
1 Perfect,27,AGAC
12 Perfect,27,AGAG
1 Perfect,27,AGGA
4 Perfect,27,AGGG
2 Perfect,27,ATAA
2 Perfect,27,ATAC
2 Perfect,27,ATAG
20 Perfect,27,ATAT
1 Perfect,27,ATCT
2 Perfect,27,ATTT
17 Perfect,27,CACA
1 Perfect,27,CACT
1 Perfect,27,CATA
2 Perfect,27,CATC
1 Perfect,27,CATT
3 Perfect,27,CCAT
1 Perfect,27,CCCT
3 Perfect,27,CCTC
1 Perfect,27,CCTG
2 Perfect,27,CCTT
1 Perfect,27,CTCT
2 Perfect,27,CTTC
1 Perfect,27,GAAA
1 Perfect,27,GAAC
2 Perfect,27,GAAG
8 Perfect,27,GAGA
1 Perfect,27,GAGG
2 Perfect,27,GATA
1 Perfect,27,GATG
1 Perfect,27,GGAA
1 Perfect,27,GGAC
1 Perfect,27,GGAG
1 Perfect,27,GGAT
24 Perfect,27,GTGT
1 Perfect,27,TAAA
1 Perfect,27,TAGG
26 Perfect,27,TATA
1 Perfect,27,TATC
1 Perfect,27,TATG
2 Perfect,27,TATT
3 Perfect,27,TCAT
2 Perfect,27,TCTA
15 Perfect,27,TCTC
2 Perfect,27,TCTG
3 Perfect,27,TCTT
1 Perfect,27,TGAA
1 Perfect,27,TGGA
1 Perfect,27,TGTA
1 Perfect,27,TGTC
78 Perfect,27,TGTG
1 Perfect,27,TTAA
1 Perfect,27,TTAT
1 Perfect,27,TTCA
3 Perfect,27,TTCC
1 Perfect,27,TTCT
1 Perfect,27,TTGT
30 Perfect,27,TTTA
14 Perfect,27,TTTC
38 Perfect,27,TTTG
188 Perfect,27,TTTT
162 Perfect,28,AAAA
5 Perfect,28,AAAC
9 Perfect,28,AAAT
3 Perfect,28,AAGG
1 Perfect,28,AATA
1 Perfect,28,ACAA
43 Perfect,28,ACAC
2 Perfect,28,AGAA
8 Perfect,28,AGAG
1 Perfect,28,ATAA
1 Perfect,28,ATAG
23 Perfect,28,ATAT
1 Perfect,28,ATGA
1 Perfect,28,ATGG
13 Perfect,28,ATTT
8 Perfect,28,CAAA
35 Perfect,28,CACA
1 Perfect,28,CATA
1 Perfect,28,CATC
2 Perfect,28,CATT
1 Perfect,28,CCCT
2 Perfect,28,CCTC
2 Perfect,28,CCTT
9 Perfect,28,CTCT
1 Perfect,28,CTTC
1 Perfect,28,CTTT
1 Perfect,28,GAAA
1 Perfect,28,GAAG
1 Perfect,28,GAAT
10 Perfect,28,GAGA
1 Perfect,28,GAGG
1 Perfect,28,GATT
1 Perfect,28,GGGG
47 Perfect,28,GTGT
3 Perfect,28,GTTT
4 Perfect,28,TAAA
1 Perfect,28,TAAT
21 Perfect,28,TATA
2 Perfect,28,TATT
1 Perfect,28,TCCT
1 Perfect,28,TCTA
11 Perfect,28,TCTC
2 Perfect,28,TCTT
2 Perfect,28,TGAA
2 Perfect,28,TGGA
1 Perfect,28,TGGT
30 Perfect,28,TGTG
1 Perfect,28,TTAA
5 Perfect,28,TTAT
2 Perfect,28,TTCA
1 Perfect,28,TTCC
2 Perfect,28,TTTA
2 Perfect,28,TTTC
9 Perfect,28,TTTG
146 Perfect,28,TTTT
136 Perfect,29,AAAA
7 Perfect,29,AAAC
3 Perfect,29,AAAG
6 Perfect,29,AAAT
1 Perfect,29,AACC
1 Perfect,29,AAGG
3 Perfect,29,AATA
1 Perfect,29,AATG
1 Perfect,29,ACAA
50 Perfect,29,ACAC
8 Perfect,29,AGAG
1 Perfect,29,AGAT
1 Perfect,29,AGGA
1 Perfect,29,AGGG
1 Perfect,29,ATAA
4 Perfect,29,ATAC
18 Perfect,29,ATAT
1 Perfect,29,ATCT
2 Perfect,29,ATTC
1 Perfect,29,ATTG
2 Perfect,29,ATTT
3 Perfect,29,CAAA
16 Perfect,29,CACA
1 Perfect,29,CAGG
1 Perfect,29,CATT
1 Perfect,29,CCAT
2 Perfect,29,CCCT
5 Perfect,29,CTCT
1 Perfect,29,CTTT
1 Perfect,29,GAAA
1 Perfect,29,GAAT
1 Perfect,29,GAGA
1 Perfect,29,GATG
1 Perfect,29,GGAA
2 Perfect,29,GGAG
1 Perfect,29,GGAT
17 Perfect,29,GTGT
1 Perfect,29,GTTT
1 Perfect,29,TAAA
15 Perfect,29,TATA
1 Perfect,29,TATC
1 Perfect,29,TATG
10 Perfect,29,TATT
2 Perfect,29,TCAA
1 Perfect,29,TCAT
1 Perfect,29,TCCC
1 Perfect,29,TCCT
10 Perfect,29,TCTC
2 Perfect,29,TCTT
1 Perfect,29,TGAA
1 Perfect,29,TGAT
1 Perfect,29,TGTA
68 Perfect,29,TGTG
5 Perfect,29,TGTT
2 Perfect,29,TTAT
2 Perfect,29,TTCC
1 Perfect,29,TTCT
3 Perfect,29,TTTA
4 Perfect,29,TTTC
3 Perfect,29,TTTG
108 Perfect,29,TTTT
90 Perfect,30,AAAA
3 Perfect,30,AAAC
2 Perfect,30,AAAG
8 Perfect,30,AAAT
1 Perfect,30,AAGG
3 Perfect,30,AATA
2 Perfect,30,AATG
1 Perfect,30,AATT
25 Perfect,30,ACAC
1 Perfect,30,AGAA
1 Perfect,30,AGAG
1 Perfect,30,ATAA
11 Perfect,30,ATAT
1 Perfect,30,ATGA
2 Perfect,30,ATTC
2 Perfect,30,ATTT
21 Perfect,30,CACA
3 Perfect,30,CATC
1 Perfect,30,CCAT
2 Perfect,30,CCTT
2 Perfect,30,CTCT
1 Perfect,30,CTGT
2 Perfect,30,GAAA
1 Perfect,30,GAAG
6 Perfect,30,GAGA
1 Perfect,30,GAGG
2 Perfect,30,GATA
1 Perfect,30,GGAT
42 Perfect,30,GTGT
2 Perfect,30,TAAA
14 Perfect,30,TATA
2 Perfect,30,TCCA
3 Perfect,30,TCTA
5 Perfect,30,TCTC
1 Perfect,30,TCTG
2 Perfect,30,TCTT
1 Perfect,30,TGGA
23 Perfect,30,TGTG
1 Perfect,30,TTAA
10 Perfect,30,TTAT
2 Perfect,30,TTCC
1 Perfect,30,TTGA
1 Perfect,30,TTGG
2 Perfect,30,TTGT
8 Perfect,30,TTTA
2 Perfect,30,TTTG
86 Perfect,30,TTTT
60 Perfect,31,AAAA
22 Perfect,31,AAAC
2 Perfect,31,AAAG
25 Perfect,31,AAAT
1 Perfect,31,AAGA
1 Perfect,31,AATA
60 Perfect,31,ACAC
1 Perfect,31,AGAA
2 Perfect,31,AGAC
6 Perfect,31,AGAG
1 Perfect,31,AGAT
1 Perfect,31,AGGA
2 Perfect,31,AGGG
2 Perfect,31,ATAA
2 Perfect,31,ATAC
1 Perfect,31,ATAG
8 Perfect,31,ATAT
1 Perfect,31,ATGA
2 Perfect,31,ATTT
16 Perfect,31,CACA
1 Perfect,31,CCAC
1 Perfect,31,CCAT
2 Perfect,31,CCTC
1 Perfect,31,CTCT
1 Perfect,31,CTTT
1 Perfect,31,GAAA
3 Perfect,31,GAAG
2 Perfect,31,GAAT
3 Perfect,31,GAGA
1 Perfect,31,GATG
16 Perfect,31,GTGT
1 Perfect,31,TAAG
1 Perfect,31,TAGA
12 Perfect,31,TATA
1 Perfect,31,TATC
1 Perfect,31,TATG
1 Perfect,31,TCAT
1 Perfect,31,TCCC
1 Perfect,31,TCCG
10 Perfect,31,TCTC
3 Perfect,31,TCTG
2 Perfect,31,TGAA
1 Perfect,31,TGGG
53 Perfect,31,TGTG
1 Perfect,31,TGTT
1 Perfect,31,TTAT
1 Perfect,31,TTCA
4 Perfect,31,TTCC
1 Perfect,31,TTCT
14 Perfect,31,TTTA
2 Perfect,31,TTTC
16 Perfect,31,TTTG
60 Perfect,31,TTTT
42 Perfect,32,AAAA
2 Perfect,32,AAAC
1 Perfect,32,AAAT
2 Perfect,32,AATG
31 Perfect,32,ACAC
3 Perfect,32,AGAG
1 Perfect,32,AGAT
14 Perfect,32,ATAT
1 Perfect,32,ATCC
3 Perfect,32,ATTT
2 Perfect,32,CAAA
1 Perfect,32,CAAC
22 Perfect,32,CACA
1 Perfect,32,CCTT
2 Perfect,32,CTCT
1 Perfect,32,CTTC
1 Perfect,32,CTTT
1 Perfect,32,GAAA
1 Perfect,32,GAAG
5 Perfect,32,GAGA
1 Perfect,32,GATT
2 Perfect,32,GGAA
1 Perfect,32,GGAT
1 Perfect,32,GTGG
45 Perfect,32,GTGT
2 Perfect,32,GTTT
5 Perfect,32,TAAA
1 Perfect,32,TAGA
11 Perfect,32,TATA
1 Perfect,32,TATC
1 Perfect,32,TATT
1 Perfect,32,TCCA
2 Perfect,32,TCTC
1 Perfect,32,TGGA
20 Perfect,32,TGTG
1 Perfect,32,TTCA
1 Perfect,32,TTCC
1 Perfect,32,TTCT
5 Perfect,32,TTTA
1 Perfect,32,TTTC
3 Perfect,32,TTTG
35 Perfect,32,TTTT
16 Perfect,33,AAAA
3 Perfect,33,AAAC
1 Perfect,33,AAAG
5 Perfect,33,AAAT
2 Perfect,33,AAGG
2 Perfect,33,AATA
55 Perfect,33,ACAC
8 Perfect,33,AGAG
2 Perfect,33,AGAT
2 Perfect,33,AGGA
1 Perfect,33,ATAC
1 Perfect,33,ATAG
10 Perfect,33,ATAT
2 Perfect,33,ATGA
2 Perfect,33,ATTT
16 Perfect,33,CACA
2 Perfect,33,CCAT
2 Perfect,33,CCTC
4 Perfect,33,CTCT
1 Perfect,33,CTTT
2 Perfect,33,GAAG
3 Perfect,33,GAGA
1 Perfect,33,GGAT
25 Perfect,33,GTGT
1 Perfect,33,TAAA
1 Perfect,33,TAGA
1 Perfect,33,TAGG
11 Perfect,33,TATA
4 Perfect,33,TATT
2 Perfect,33,TCAT
1 Perfect,33,TCCC
1 Perfect,33,TCTA
4 Perfect,33,TCTC
1 Perfect,33,TGAA
1 Perfect,33,TGTA
53 Perfect,33,TGTG
3 Perfect,33,TGTT
1 Perfect,33,TTCA
2 Perfect,33,TTTA
1 Perfect,33,TTTC
1 Perfect,33,TTTG
27 Perfect,33,TTTT
21 Perfect,34,AAAA
1 Perfect,34,AAAC
4 Perfect,34,AAAT
2 Perfect,34,AAGG
4 Perfect,34,AATA
34 Perfect,34,ACAC
2 Perfect,34,AGAG
1 Perfect,34,AGGA
1 Perfect,34,ATAA
2 Perfect,34,ATAC
15 Perfect,34,ATAT
1 Perfect,34,ATCC
1 Perfect,34,ATCT
2 Perfect,34,ATGA
1 Perfect,34,ATGT
1 Perfect,34,ATTT
25 Perfect,34,CACA
1 Perfect,34,CATC
2 Perfect,34,CCTT
2 Perfect,34,CTCT
5 Perfect,34,GAGA
1 Perfect,34,GAGG
2 Perfect,34,GATA
1 Perfect,34,GATG
40 Perfect,34,GTGT
11 Perfect,34,TATA
3 Perfect,34,TATT
1 Perfect,34,TCAA
5 Perfect,34,TCTC
1 Perfect,34,TCTT
23 Perfect,34,TGTG
3 Perfect,34,TTAT
2 Perfect,34,TTGT
5 Perfect,34,TTTA
25 Perfect,34,TTTT
16 Perfect,35,AAAA
14 Perfect,35,AAAC
3 Perfect,35,AAAG
12 Perfect,35,AAAT
1 Perfect,35,AAGG
1 Perfect,35,AATA
2 Perfect,35,AATG
1 Perfect,35,AATT
46 Perfect,35,ACAC
2 Perfect,35,AGAC
6 Perfect,35,AGAG
1 Perfect,35,AGGA
1 Perfect,35,AGGG
3 Perfect,35,ATAC
8 Perfect,35,ATAT
1 Perfect,35,ATCT
2 Perfect,35,ATGG
1 Perfect,35,ATTC
1 Perfect,35,CAAT
13 Perfect,35,CACA
1 Perfect,35,CCAT
1 Perfect,35,CCTC
1 Perfect,35,CTAC
1 Perfect,35,CTCC
1 Perfect,35,CTCT
4 Perfect,35,CTTC
1 Perfect,35,CTTT
1 Perfect,35,GAGA
1 Perfect,35,GATA
1 Perfect,35,GGAG
11 Perfect,35,GTGT
2 Perfect,35,TAAA
14 Perfect,35,TATA
1 Perfect,35,TATC
2 Perfect,35,TATG
1 Perfect,35,TATT
1 Perfect,35,TCCC
2 Perfect,35,TCCT
2 Perfect,35,TCTA
9 Perfect,35,TCTC
4 Perfect,35,TGGA
48 Perfect,35,TGTG
1 Perfect,35,TGTT
1 Perfect,35,TTCC
13 Perfect,35,TTTA
1 Perfect,35,TTTC
4 Perfect,35,TTTG
25 Perfect,35,TTTT
14 Perfect,36,AAAA
1 Perfect,36,AAAC
1 Perfect,36,AAAG
4 Perfect,36,AAAT
2 Perfect,36,AATA
1 Perfect,36,AATC
39 Perfect,36,ACAC
1 Perfect,36,AGAA
3 Perfect,36,AGAG
2 Perfect,36,AGAT
1 Perfect,36,AGGA
1 Perfect,36,ATAG
6 Perfect,36,ATAT
1 Perfect,36,ATCT
1 Perfect,36,ATTT
1 Perfect,36,CAAA
16 Perfect,36,CACA
1 Perfect,36,CAGA
1 Perfect,36,CCTT
2 Perfect,36,CTCT
1 Perfect,36,CTTC
2 Perfect,36,CTTT
1 Perfect,36,GAAA
7 Perfect,36,GAGA
1 Perfect,36,GATA
2 Perfect,36,GGAA
42 Perfect,36,GTGT
1 Perfect,36,GTTT
3 Perfect,36,TAAA
1 Perfect,36,TAAG
11 Perfect,36,TATA
1 Perfect,36,TATC
1 Perfect,36,TATG
3 Perfect,36,TATT
1 Perfect,36,TCCT
1 Perfect,36,TCTA
1 Perfect,36,TCTT
1 Perfect,36,TGAA
13 Perfect,36,TGTG
2 Perfect,36,TTAT
1 Perfect,36,TTCA
2 Perfect,36,TTTA
17 Perfect,36,TTTT
21 Perfect,37,AAAA
1 Perfect,37,AAAC
1 Perfect,37,AAAG
3 Perfect,37,AAAT
1 Perfect,37,AAGG
2 Perfect,37,AATA
1 Perfect,37,AATG
50 Perfect,37,ACAC
1 Perfect,37,AGAA
4 Perfect,37,AGAG
1 Perfect,37,AGGA
1 Perfect,37,AGGG
8 Perfect,37,ATAT
1 Perfect,37,ATGA
1 Perfect,37,ATTC
2 Perfect,37,ATTT
1 Perfect,37,CAAA
9 Perfect,37,CACA
1 Perfect,37,CCTA
1 Perfect,37,CTTC
1 Perfect,37,GAAG
1 Perfect,37,GAAT
1 Perfect,37,GAGA
1 Perfect,37,GATG
1 Perfect,37,GGAG
11 Perfect,37,GTGT
1 Perfect,37,TAGA
10 Perfect,37,TATA
1 Perfect,37,TATC
3 Perfect,37,TATT
2 Perfect,37,TCCC
6 Perfect,37,TCTC
2 Perfect,37,TCTT
1 Perfect,37,TGCC
1 Perfect,37,TGGA
1 Perfect,37,TGGT
39 Perfect,37,TGTG
2 Perfect,37,TGTT
1 Perfect,37,TTAT
30 Perfect,37,TTTT
22 Perfect,38,AAAA
1 Perfect,38,AAAC
5 Perfect,38,AAAT
1 Perfect,38,AAGG
4 Perfect,38,AATA
1 Perfect,38,AATG
26 Perfect,38,ACAC
1 Perfect,38,AGAC
2 Perfect,38,AGAG
1 Perfect,38,AGGA
1 Perfect,38,ATAG
9 Perfect,38,ATAT
4 Perfect,38,ATCT
1 Perfect,38,ATGA
15 Perfect,38,CACA
2 Perfect,38,CTCT
1 Perfect,38,GAAA
6 Perfect,38,GAGA
34 Perfect,38,GTGT
1 Perfect,38,TAAA
1 Perfect,38,TAGA
4 Perfect,38,TATA
1 Perfect,38,TATT
3 Perfect,38,TCTC
1 Perfect,38,TCTT
1 Perfect,38,TGGA
10 Perfect,38,TGTG
3 Perfect,38,TTAT
1 Perfect,38,TTGG
1 Perfect,38,TTGT
1 Perfect,38,TTTA
23 Perfect,38,TTTT
19 Perfect,39,AAAA
3 Perfect,39,AAAC
11 Perfect,39,AAAT
45 Perfect,39,ACAC
4 Perfect,39,AGAG
2 Perfect,39,AGAT
1 Perfect,39,AGGA
1 Perfect,39,AGGG
2 Perfect,39,ATAA
2 Perfect,39,ATAG
12 Perfect,39,ATAT
2 Perfect,39,ATCT
1 Perfect,39,ATGT
1 Perfect,39,ATTT
6 Perfect,39,CACA
2 Perfect,39,CATC
1 Perfect,39,CCAT
1 Perfect,39,CCTG
1 Perfect,39,GAAA
2 Perfect,39,GAAG
1 Perfect,39,GAGA
3 Perfect,39,GATA
10 Perfect,39,GTGT
3 Perfect,39,TAAA
1 Perfect,39,TAGA
12 Perfect,39,TATA
1 Perfect,39,TATC
1 Perfect,39,TATG
1 Perfect,39,TCCA
3 Perfect,39,TCTC
1 Perfect,39,TGGA
30 Perfect,39,TGTG
1 Perfect,39,TTAT
3 Perfect,39,TTCC
1 Perfect,39,TTCT
9 Perfect,39,TTTA
1 Perfect,39,TTTG
24 Perfect,39,TTTT
16 Perfect,40,AAAA
1 Perfect,40,AAAC
1 Perfect,40,AAAG
2 Perfect,40,AATA
31 Perfect,40,ACAC
1 Perfect,40,ACCT
2 Perfect,40,AGAA
1 Perfect,40,AGAG
2 Perfect,40,AGAT
1 Perfect,40,AGGA
1 Perfect,40,ATAA
1 Perfect,40,ATAC
17 Perfect,40,ATAT
1 Perfect,40,ATCT
1 Perfect,40,ATGA
5 Perfect,40,ATTT
15 Perfect,40,CACA
1 Perfect,40,CATC
1 Perfect,40,CTCT
1 Perfect,40,CTTT
1 Perfect,40,GAAA
2 Perfect,40,GAGA
1 Perfect,40,GAGG
1 Perfect,40,GATA
1 Perfect,40,GGAA
1 Perfect,40,GTAT
29 Perfect,40,GTGT
2 Perfect,40,TAAA
1 Perfect,40,TAGA
8 Perfect,40,TATA
5 Perfect,40,TATC
1 Perfect,40,TCTA
1 Perfect,40,TCTC
2 Perfect,40,TCTT
13 Perfect,40,TGTG
1 Perfect,40,TTCA
4 Perfect,40,TTTA
2 Perfect,40,TTTC
15 Perfect,40,TTTT
6 Perfect,41,AAAA
1 Perfect,41,AAAC
2 Perfect,41,AAAG
6 Perfect,41,AAAT
1 Perfect,41,AAGG
2 Perfect,41,AATA
36 Perfect,41,ACAC
2 Perfect,41,AGAA
2 Perfect,41,AGAG
1 Perfect,41,AGAT
2 Perfect,41,AGGA
2 Perfect,41,ATAA
1 Perfect,41,ATAC
1 Perfect,41,ATAG
7 Perfect,41,ATAT
1 Perfect,41,ATCT
4 Perfect,41,ATTT
7 Perfect,41,CACA
2 Perfect,41,CCAT
1 Perfect,41,CCTT
1 Perfect,41,CTCT
2 Perfect,41,CTTC
1 Perfect,41,GAAA
1 Perfect,41,GATA
1 Perfect,41,GTAT
10 Perfect,41,GTGT
3 Perfect,41,TAAA
1 Perfect,41,TAGA
5 Perfect,41,TATA
1 Perfect,41,TATC
4 Perfect,41,TATT
2 Perfect,41,TCTA
5 Perfect,41,TCTC
1 Perfect,41,TGGA
1 Perfect,41,TGTA
34 Perfect,41,TGTG
1 Perfect,41,TTAT
3 Perfect,41,TTCC
2 Perfect,41,TTCT
1 Perfect,41,TTTC
10 Perfect,41,TTTT
5 Perfect,42,AAAA
2 Perfect,42,AAAG
2 Perfect,42,AAAT
1 Perfect,42,AAGG
8 Perfect,42,AATA
30 Perfect,42,ACAC
1 Perfect,42,ACAT
1 Perfect,42,AGAG
3 Perfect,42,AGAT
1 Perfect,42,ATAA
3 Perfect,42,ATAG
15 Perfect,42,ATAT
2 Perfect,42,ATCT
1 Perfect,42,ATTT
15 Perfect,42,CACA
1 Perfect,42,CATC
1 Perfect,42,CCAT
1 Perfect,42,CCTT
1 Perfect,42,CTCT
2 Perfect,42,GAAG
1 Perfect,42,GAGA
3 Perfect,42,GATA
36 Perfect,42,GTGT
1 Perfect,42,TAAA
1 Perfect,42,TACA
3 Perfect,42,TAGA
13 Perfect,42,TATA
2 Perfect,42,TCCT
2 Perfect,42,TCTA
2 Perfect,42,TCTT
1 Perfect,42,TGGA
10 Perfect,42,TGTG
7 Perfect,42,TTAT
2 Perfect,42,TTCA
3 Perfect,42,TTCC
7 Perfect,42,TTTA
11 Perfect,42,TTTT
6 Perfect,43,AAAA
1 Perfect,43,AAAC
1 Perfect,43,AAAG
23 Perfect,43,AAAT
1 Perfect,43,AAGA
1 Perfect,43,AAGG
5 Perfect,43,AATA
25 Perfect,43,ACAC
1 Perfect,43,AGAA
4 Perfect,43,AGAG
4 Perfect,43,AGAT
2 Perfect,43,AGGA
1 Perfect,43,AGGG
1 Perfect,43,ATAC
3 Perfect,43,ATAG
12 Perfect,43,ATAT
2 Perfect,43,ATCT
7 Perfect,43,CACA
1 Perfect,43,CTAT
1 Perfect,43,CTTC
5 Perfect,43,GAAG
1 Perfect,43,GAGA
3 Perfect,43,GATA
2 Perfect,43,GATG
1 Perfect,43,GGAA
11 Perfect,43,GTGT
1 Perfect,43,TAGA
14 Perfect,43,TATA
4 Perfect,43,TATC
1 Perfect,43,TATG
1 Perfect,43,TATT
2 Perfect,43,TCCT
7 Perfect,43,TCTC
2 Perfect,43,TCTT
33 Perfect,43,TGTG
1 Perfect,43,TTAT
2 Perfect,43,TTCC
12 Perfect,43,TTTA
2 Perfect,43,TTTC
1 Perfect,43,TTTG
7 Perfect,43,TTTT
4 Perfect,44,AAAA
2 Perfect,44,AAAG
3 Perfect,44,AAAT
1 Perfect,44,AAGG
2 Perfect,44,AATA
23 Perfect,44,ACAC
1 Perfect,44,AGAG
4 Perfect,44,AGAT
1 Perfect,44,AGGA
1 Perfect,44,ATAA
16 Perfect,44,ATAT
3 Perfect,44,ATCT
4 Perfect,44,ATTT
12 Perfect,44,CACA
1 Perfect,44,CAGC
1 Perfect,44,CATC
2 Perfect,44,CCAT
2 Perfect,44,CTCT
1 Perfect,44,GAAA
2 Perfect,44,GAAG
2 Perfect,44,GAGA
7 Perfect,44,GATA
1 Perfect,44,GATG
1 Perfect,44,GGAT
21 Perfect,44,GTGT
3 Perfect,44,TAAA
2 Perfect,44,TAGA
11 Perfect,44,TATA
5 Perfect,44,TATC
1 Perfect,44,TATG
1 Perfect,44,TATT
3 Perfect,44,TCCA
3 Perfect,44,TCTA
3 Perfect,44,TCTC
1 Perfect,44,TGGA
8 Perfect,44,TGTG
1 Perfect,44,TTAT
2 Perfect,44,TTCC
1 Perfect,44,TTCT
1 Perfect,44,TTTA
1 Perfect,44,TTTC
6 Perfect,44,TTTT
2 Perfect,45,AAAA
3 Perfect,45,AAAT
1 Perfect,45,AAGG
26 Perfect,45,ACAC
1 Perfect,45,AGAG
3 Perfect,45,AGAT
2 Perfect,45,ATAG
11 Perfect,45,ATAT
2 Perfect,45,ATCC
2 Perfect,45,ATCT
2 Perfect,45,ATGG
8 Perfect,45,CACA
1 Perfect,45,CATC
1 Perfect,45,CCAT
2 Perfect,45,CCTT
1 Perfect,45,CTAT
1 Perfect,45,CTCT
1 Perfect,45,GAAA
1 Perfect,45,GAAG
1 Perfect,45,GGAT
7 Perfect,45,GTGT
3 Perfect,45,TAAA
2 Perfect,45,TAGA
17 Perfect,45,TATA
2 Perfect,45,TATC
2 Perfect,45,TATT
1 Perfect,45,TCCC
1 Perfect,45,TCCT
5 Perfect,45,TCTA
1 Perfect,45,TCTC
3 Perfect,45,TCTT
1 Perfect,45,TGTA
24 Perfect,45,TGTG
3 Perfect,45,TTAT
3 Perfect,45,TTCA
1 Perfect,45,TTCC
1 Perfect,45,TTTC
3 Perfect,45,TTTT
1 Perfect,46,AAAA
2 Perfect,46,AAAG
4 Perfect,46,AAAT
3 Perfect,46,AAGG
4 Perfect,46,AATA
20 Perfect,46,ACAC
1 Perfect,46,AGAG
1 Perfect,46,AGAT
1 Perfect,46,AGGA
3 Perfect,46,ATAG
17 Perfect,46,ATAT
2 Perfect,46,ATCT
1 Perfect,46,ATGG
1 Perfect,46,ATGT
1 Perfect,46,ATTT
8 Perfect,46,CACA
2 Perfect,46,CATC
2 Perfect,46,CTCT
1 Perfect,46,GAGA
1 Perfect,46,GAGG
4 Perfect,46,GATA
1 Perfect,46,GGAG
16 Perfect,46,GTGT
1 Perfect,46,TAGA
9 Perfect,46,TATA
2 Perfect,46,TATC
1 Perfect,46,TCCA
3 Perfect,46,TCTA
1 Perfect,46,TCTC
4 Perfect,46,TGTG
1 Perfect,46,TTAT
1 Perfect,46,TTCC
3 Perfect,46,TTTA
5 Perfect,46,TTTT
1 Perfect,47,AAAG
15 Perfect,47,AAAT
27 Perfect,47,ACAC
3 Perfect,47,AGAA
1 Perfect,47,AGAC
5 Perfect,47,AGAG
4 Perfect,47,AGAT
2 Perfect,47,AGGA
3 Perfect,47,ATAG
5 Perfect,47,ATAT
1 Perfect,47,ATCC
1 Perfect,47,ATCT
1 Perfect,47,ATGG
1 Perfect,47,ATTT
1 Perfect,47,CAAG
10 Perfect,47,CACA
1 Perfect,47,CATC
1 Perfect,47,CTCT
2 Perfect,47,CTTC
3 Perfect,47,GAAG
1 Perfect,47,GAGA
2 Perfect,47,GATA
2 Perfect,47,GATG
1 Perfect,47,GGAG
1 Perfect,47,GTAT
4 Perfect,47,GTGT
1 Perfect,47,TAGA
7 Perfect,47,TATA
1 Perfect,47,TATC
1 Perfect,47,TATG
1 Perfect,47,TCTA
1 Perfect,47,TCTG
1 Perfect,47,TCTT
1 Perfect,47,TGTA
14 Perfect,47,TGTG
2 Perfect,47,TTCC
1 Perfect,47,TTCT
15 Perfect,47,TTTA
2 Perfect,47,TTTC
3 Perfect,47,TTTT
3 Perfect,48,AAAA
3 Perfect,48,AAAT
1 Perfect,48,AAGA
5 Perfect,48,ACAC
2 Perfect,48,AGAA
2 Perfect,48,AGAT
1 Perfect,48,ATAA
1 Perfect,48,ATAC
2 Perfect,48,ATAG
11 Perfect,48,ATAT
3 Perfect,48,ATCT
1 Perfect,48,ATGG
3 Perfect,48,ATTT
4 Perfect,48,CACA
1 Perfect,48,CCTT
1 Perfect,48,CTAT
1 Perfect,48,CTTT
3 Perfect,48,GAAA
1 Perfect,48,GAAG
4 Perfect,48,GATA
2 Perfect,48,GGAA
14 Perfect,48,GTGT
4 Perfect,48,TAAA
3 Perfect,48,TAGA
6 Perfect,48,TATA
1 Perfect,48,TATC
1 Perfect,48,TCTA
1 Perfect,48,TCTT
6 Perfect,48,TGTG
1 Perfect,48,TTCC
1 Perfect,48,TTCT
1 Perfect,48,TTTA
4 Perfect,48,TTTT
2 Perfect,49,AAAA
2 Perfect,49,AAAG
2 Perfect,49,AAAT
1 Perfect,49,AAGG
1 Perfect,49,AATA
14 Perfect,49,ACAC
4 Perfect,49,AGAA
1 Perfect,49,AGAG
1 Perfect,49,AGAT
1 Perfect,49,AGGA
1 Perfect,49,AGGG
2 Perfect,49,ATAG
6 Perfect,49,ATAT
1 Perfect,49,ATCC
3 Perfect,49,CACA
1 Perfect,49,CCAT
1 Perfect,49,CTAT
1 Perfect,49,CTCT
1 Perfect,49,CTTC
1 Perfect,49,GAAA
1 Perfect,49,GAAG
1 Perfect,49,GATA
3 Perfect,49,GTGT
2 Perfect,49,TAGA
4 Perfect,49,TATA
2 Perfect,49,TATC
6 Perfect,49,TATT
5 Perfect,49,TCTA
1 Perfect,49,TCTC
3 Perfect,49,TCTT
12 Perfect,49,TGTG
1 Perfect,49,TTCT
1 Perfect,49,TTTA
1 Perfect,49,TTTC
2 Perfect,49,TTTT
1 Perfect,50,AAAA
2 Perfect,50,AAAT
1 Perfect,50,AAGG
1 Perfect,50,AATA
11 Perfect,50,ACAC
3 Perfect,50,AGAA
3 Perfect,50,ATAG
6 Perfect,50,ATAT
1 Perfect,50,ATCC
1 Perfect,50,ATCT
1 Perfect,50,ATGG
3 Perfect,50,CACA
2 Perfect,50,CCTT
2 Perfect,50,CTTT
1 Perfect,50,GAAA
5 Perfect,50,GATA
6 Perfect,50,GTGT
3 Perfect,50,TAGA
4 Perfect,50,TATA
5 Perfect,50,TCTA
2 Perfect,50,TCTT
5 Perfect,50,TGTG
1 Perfect,50,TTCC
1 Perfect,50,TTCT
3 Perfect,50,TTTA
2 Perfect,50,TTTT
2 Perfect,51,AAAA
4 Perfect,51,AAAG
8 Perfect,51,AAAT
2 Perfect,51,AAGG
11 Perfect,51,ACAC
1 Perfect,51,AGAA
3 Perfect,51,AGAG
2 Perfect,51,AGAT
1 Perfect,51,ATAC
1 Perfect,51,ATAG
4 Perfect,51,ATAT
1 Perfect,51,ATCT
2 Perfect,51,CACA
2 Perfect,51,CCAT
1 Perfect,51,CCTG
1 Perfect,51,CTCT
1 Perfect,51,CTTC
2 Perfect,51,GAAG
1 Perfect,51,GAGA
3 Perfect,51,GATA
1 Perfect,51,TAGA
8 Perfect,51,TATA
1 Perfect,51,TATC
2 Perfect,51,TCTT
10 Perfect,51,TGTG
4 Perfect,51,TTCC
1 Perfect,51,TTGC
8 Perfect,51,TTTA
3 Perfect,51,TTTC
1 Perfect,51,TTTT
1 Perfect,52,AAAA
1 Perfect,52,AAAG
1 Perfect,52,AAGA
2 Perfect,52,AAGG
4 Perfect,52,ACAC
2 Perfect,52,AGAA
3 Perfect,52,AGAT
1 Perfect,52,ATAG
4 Perfect,52,ATAT
1 Perfect,52,ATCT
3 Perfect,52,ATTT
2 Perfect,52,CTAT
2 Perfect,52,CTCT
1 Perfect,52,CTTC
2 Perfect,52,GAAA
1 Perfect,52,GAGA
1 Perfect,52,GGAT
2 Perfect,52,GTGT
2 Perfect,52,TAGA
1 Perfect,52,TAGG
3 Perfect,52,TATA
2 Perfect,52,TATC
1 Perfect,52,TCTA
3 Perfect,52,TGTG
1 Perfect,52,TTCT
1 Perfect,52,TTTC
2 Perfect,52,TTTT
2 Perfect,53,AAAA
1 Perfect,53,AAAT
1 Perfect,53,AAGG
7 Perfect,53,ACAC
4 Perfect,53,AGAA
1 Perfect,53,AGAT
2 Perfect,53,AGGA
2 Perfect,53,ATAG
3 Perfect,53,ATAT
2 Perfect,53,ATCT
1 Perfect,53,CACA
4 Perfect,53,CCTT
1 Perfect,53,CTCT
1 Perfect,53,CTTC
1 Perfect,53,GAAA
2 Perfect,53,GAAG
4 Perfect,53,TATA
3 Perfect,53,TATC
1 Perfect,53,TCCT
1 Perfect,53,TCTA
1 Perfect,53,TCTC
1 Perfect,53,TCTT
8 Perfect,53,TGTG
3 Perfect,53,TTCC
1 Perfect,53,TTTA
1 Perfect,53,TTTC
2 Perfect,53,TTTT
1 Perfect,54,AAAG
1 Perfect,54,AAAT
1 Perfect,54,AAGA
2 Perfect,54,AATA
2 Perfect,54,ACAC
3 Perfect,54,AGAA
2 Perfect,54,ATAT
1 Perfect,54,ATCT
1 Perfect,54,CACA
1 Perfect,54,CATC
1 Perfect,54,CCTT
1 Perfect,54,CTTC
2 Perfect,54,CTTT
1 Perfect,54,GAAA
1 Perfect,54,GGAA
3 Perfect,54,GTGT
1 Perfect,54,TAGA
1 Perfect,54,TCCT
2 Perfect,54,TCTA
1 Perfect,54,TCTT
2 Perfect,54,TTAT
1 Perfect,54,TTCT
1 Perfect,54,TTTA
2 Perfect,54,TTTC
4 Perfect,55,AAAG
1 Perfect,55,AAAT
1 Perfect,55,AAGA
1 Perfect,55,AATA
4 Perfect,55,ACAC
3 Perfect,55,AGAA
2 Perfect,55,AGGA
1 Perfect,55,AGGC
2 Perfect,55,ATAG
3 Perfect,55,ATAT
1 Perfect,55,ATTT
2 Perfect,55,CTTC
1 Perfect,55,CTTT
2 Perfect,55,GAAG
1 Perfect,55,GAGA
3 Perfect,55,GATA
1 Perfect,55,GGAA
6 Perfect,55,TATA
1 Perfect,55,TCCT
1 Perfect,55,TCTA
3 Perfect,55,TCTT
6 Perfect,55,TGTG
1 Perfect,55,TTCT
2 Perfect,55,TTTC
1 Perfect,56,AAAA
1 Perfect,56,AAAT
2 Perfect,56,AAGA
1 Perfect,56,AAGC
1 Perfect,56,ACAC
3 Perfect,56,AGAA
2 Perfect,56,AGGA
5 Perfect,56,ATAT
2 Perfect,56,CCTT
4 Perfect,56,GAAA
1 Perfect,56,GAAG
1 Perfect,56,GGAA
2 Perfect,56,GTGT
4 Perfect,56,TATA
1 Perfect,56,TATC
1 Perfect,56,TCCT
2 Perfect,56,TCTT
1 Perfect,56,TTCC
1 Perfect,56,TTCT
1 Perfect,56,TTTC
1 Perfect,56,TTTT
1 Perfect,57,AAAG
2 Perfect,57,AAGA
1 Perfect,57,ACAC
2 Perfect,57,AGAA
1 Perfect,57,AGAG
1 Perfect,57,AGAT
2 Perfect,57,AGGA
1 Perfect,57,ATAG
1 Perfect,57,ATAT
1 Perfect,57,ATCT
1 Perfect,57,CCTT
1 Perfect,57,CTTT
1 Perfect,57,GAAG
1 Perfect,57,GTGT
4 Perfect,57,TATA
3 Perfect,57,TATC
1 Perfect,57,TCTC
2 Perfect,57,TCTT
1 Perfect,57,TTCC
1 Perfect,57,TTCT
1 Perfect,57,TTTC
2 Perfect,57,TTTT
1 Perfect,58,AAAG
1 Perfect,58,AAGA
1 Perfect,58,AAGG
3 Perfect,58,ACAC
2 Perfect,58,AGAA
1 Perfect,58,AGGA
1 Perfect,58,ATAT
1 Perfect,58,ATCT
1 Perfect,58,CCTT
1 Perfect,58,GAAG
1 Perfect,58,GAGA
4 Perfect,58,GGAA
3 Perfect,58,TATA
1 Perfect,58,TATC
1 Perfect,58,TCCT
1 Perfect,58,TCTC
2 Perfect,58,TCTT
3 Perfect,58,TTCC
3 Perfect,58,TTCT
1 Perfect,58,TTTT
1 Perfect,59,AAAG
2 Perfect,59,AAGA
1 Perfect,59,AAGG
2 Perfect,59,AGAG
1 Perfect,59,AGGA
4 Perfect,59,ATAT
1 Perfect,59,ATTT
1 Perfect,59,GAAA
3 Perfect,59,GAAG
1 Perfect,59,GGAA
2 Perfect,59,TCTT
2 Perfect,59,TGTG
1 Perfect,59,TTCT
5 Perfect,59,TTTC
1 Perfect,60,AAAA
4 Perfect,60,AAAG
2 Perfect,60,ACAC
2 Perfect,60,AGGA
5 Perfect,60,ATAT
1 Perfect,60,ATCC
2 Perfect,60,CCTT
1 Perfect,60,CTTC
3 Perfect,60,CTTT
4 Perfect,60,GAAA
1 Perfect,60,GAGA
1 Perfect,60,GATA
1 Perfect,60,GTGT
2 Perfect,60,TATA
1 Perfect,60,TATC
1 Perfect,60,TGTG
2 Perfect,60,TTCC
1 Perfect,60,TTCT
1 Perfect,60,TTTC
1 Perfect,61,AAGA
5 Perfect,61,ATAT
1 Perfect,61,ATCT
1 Perfect,61,CACA
1 Perfect,61,CATC
1 Perfect,61,CTTC
1 Perfect,61,GAAG
1 Perfect,61,TATA
1 Perfect,61,TCTT
1 Perfect,61,TTCC
1 Perfect,61,TTCT
2 Perfect,61,TTTC
2 Perfect,62,AAAG
1 Perfect,62,AAGA
2 Perfect,62,AAGG
1 Perfect,62,AGAA
2 Perfect,62,ATAT
1 Perfect,62,CTAT
1 Perfect,62,CTTT
1 Perfect,62,GAAG
1 Perfect,62,GGAA
2 Perfect,62,GTGT
1 Perfect,62,TATA
1 Perfect,62,TCCT
1 Perfect,62,TCTT
1 Perfect,62,TGTG
1 Perfect,62,TTCC
2 Perfect,62,TTCT
2 Perfect,63,AAAG
1 Perfect,63,ACAC
1 Perfect,63,AGAA
1 Perfect,63,AGGA
1 Perfect,63,ATAT
2 Perfect,63,CTTT
1 Perfect,63,GAAA
2 Perfect,63,TATA
2 Perfect,63,TCTT
1 Perfect,63,TGTG
2 Perfect,63,TTCC
1 Perfect,63,TTTC
1 Perfect,64,AAAG
1 Perfect,64,AAGA
1 Perfect,64,ACAC
1 Perfect,64,AGAT
2 Perfect,64,CCTT
2 Perfect,64,CTTT
1 Perfect,64,GAAG
1 Perfect,64,GGAA
1 Perfect,64,GTGT
3 Perfect,64,TTCC
1 Perfect,64,TTTC
3 Perfect,65,AAAG
1 Perfect,65,AGAA
1 Perfect,65,ATAT
2 Perfect,65,CCTT
1 Perfect,65,CTTT
2 Perfect,65,GAAG
1 Perfect,65,GAGA
1 Perfect,65,TATA
2 Perfect,65,TCTT
3 Perfect,65,TTTC
1 Perfect,66,AAGG
2 Perfect,66,ATAT
1 Perfect,66,CCTT
1 Perfect,66,CTTT
2 Perfect,66,GAAA
2 Perfect,66,GAAG
1 Perfect,66,GGAA
1 Perfect,66,TCCT
2 Perfect,66,TCTT
1 Perfect,66,TTCC
1 Perfect,66,TTCT
2 Perfect,66,TTTC
1 Perfect,67,AAAG
1 Perfect,67,AAGA
1 Perfect,67,AGAA
1 Perfect,67,ATAT
1 Perfect,67,CCTT
1 Perfect,67,CTTC
1 Perfect,67,CTTT
1 Perfect,67,GAAA
3 Perfect,67,TTCC
3 Perfect,67,TTCT
1 Perfect,67,TTTC
2 Perfect,68,AAGG
1 Perfect,68,CTTC
2 Perfect,68,CTTT
1 Perfect,68,GAAA
3 Perfect,68,GGAA
2 Perfect,68,TCTT
2 Perfect,68,TTCC
1 Perfect,68,TTCT
2 Perfect,68,TTTC
3 Perfect,69,AAAG
1 Perfect,69,AAGA
1 Perfect,69,AGAT
1 Perfect,69,AGGA
1 Perfect,69,TCCT
2 Perfect,69,TCTT
2 Perfect,69,TTTC
1 Perfect,70,AAGA
1 Perfect,70,CCTT
1 Perfect,70,CTTC
2 Perfect,70,GAAA
1 Perfect,70,TAGA
2 Perfect,70,TTCC
1 Perfect,70,TTCT
1 Perfect,71,AAAG
1 Perfect,71,CTTC
1 Perfect,71,GAAA
1 Perfect,71,TCTT
1 Perfect,72,AAGA
1 Perfect,72,AGGA
2 Perfect,72,GAAA
1 Perfect,72,GTGT
1 Perfect,72,TTTC
1 Perfect,73,AAGA
2 Perfect,73,AAGG
2 Perfect,73,AGAA
1 Perfect,73,AGGA
1 Perfect,73,TCTT
1 Perfect,74,AAAG
1 Perfect,74,AAGA
1 Perfect,74,CCTT
1 Perfect,74,TTCT
1 Perfect,75,AAAG
1 Perfect,75,TATA
1 Perfect,75,TCTT
1 Perfect,75,TTTC
1 Perfect,76,AAAG
1 Perfect,76,GAAA
1 Perfect,76,TTTC
1 Perfect,77,AAAG
1 Perfect,77,AGAA
1 Perfect,77,CTTT
1 Perfect,77,TCTT
1 Perfect,78,AAAG
1 Perfect,78,CTTT
1 Perfect,78,GAAA
1 Perfect,78,TCCT
2 Perfect,78,TCTT
1 Perfect,78,TTTC
1 Perfect,79,GAGA
1 Perfect,79,TTTC
1 Perfect,80,CTTT
1 Perfect,80,TTCT
1 Perfect,81,AGAA
3 Perfect,81,TCTT
1 Perfect,82,GAAA
1 Perfect,83,AAAG
1 Perfect,83,TTTC
1 Perfect,84,CTTT
2 Perfect,85,TTTC
1 Perfect,86,TTTC
1 Perfect,87,TTTC
1 Perfect,88,CTTT
13518 Perfect,8,AAAA
3021 Perfect,8,AAAC
5919 Perfect,8,AAAG
10631 Perfect,8,AAAT
3179 Perfect,8,AACA
1665 Perfect,8,AACC
32 Perfect,8,AACG
1483 Perfect,8,AACT
3794 Perfect,8,AAGA
1157 Perfect,8,AAGC
2928 Perfect,8,AAGG
1708 Perfect,8,AAGT
6132 Perfect,8,AATA
1106 Perfect,8,AATC
3107 Perfect,8,AATG
5248 Perfect,8,AATT
2207 Perfect,8,ACAA
2092 Perfect,8,ACAC
1941 Perfect,8,ACAG
2637 Perfect,8,ACAT
866 Perfect,8,ACCA
952 Perfect,8,ACCC
21 Perfect,8,ACCG
1114 Perfect,8,ACCT
21 Perfect,8,ACGA
31 Perfect,8,ACGC
37 Perfect,8,ACGG
44 Perfect,8,ACGT
661 Perfect,8,ACTA
1014 Perfect,8,ACTC
1191 Perfect,8,ACTG
1666 Perfect,8,ACTT
5654 Perfect,8,AGAA
1178 Perfect,8,AGAC
3207 Perfect,8,AGAG
1521 Perfect,8,AGAT
1447 Perfect,8,AGCA
998 Perfect,8,AGCC
54 Perfect,8,AGCG
809 Perfect,8,AGCT
2939 Perfect,8,AGGA
2162 Perfect,8,AGGC
2318 Perfect,8,AGGG
1015 Perfect,8,AGGT
1254 Perfect,8,AGTA
749 Perfect,8,AGTC
1535 Perfect,8,AGTG
1326 Perfect,8,AGTT
4344 Perfect,8,ATAA
1312 Perfect,8,ATAC
1140 Perfect,8,ATAG
8074 Perfect,8,ATAT
1166 Perfect,8,ATCA
1006 Perfect,8,ATCC
20 Perfect,8,ATCG
1542 Perfect,8,ATCT
1999 Perfect,8,ATGA
1044 Perfect,8,ATGC
1298 Perfect,8,ATGG
2647 Perfect,8,ATGT
3043 Perfect,8,ATTA
2276 Perfect,8,ATTC
1709 Perfect,8,ATTG
10569 Perfect,8,ATTT
4220 Perfect,8,CAAA
938 Perfect,8,CAAC
1453 Perfect,8,CAAG
1761 Perfect,8,CAAT
3523 Perfect,8,CACA
1760 Perfect,8,CACC
102 Perfect,8,CACG
1593 Perfect,8,CACT
2270 Perfect,8,CAGA
1562 Perfect,8,CAGC
2927 Perfect,8,CAGG
1259 Perfect,8,CAGT
1765 Perfect,8,CATA
1152 Perfect,8,CATC
2017 Perfect,8,CATG
2964 Perfect,8,CATT
1158 Perfect,8,CCAA
1459 Perfect,8,CCAC
2590 Perfect,8,CCAG
1349 Perfect,8,CCAT
2685 Perfect,8,CCCA
275 Perfect,8,CCCC
259 Perfect,8,CCCG
2269 Perfect,8,CCCT
18 Perfect,8,CCGA
164 Perfect,8,CCGC
212 Perfect,8,CCGG
40 Perfect,8,CCGT
730 Perfect,8,CCTA
2208 Perfect,8,CCTC
2955 Perfect,8,CCTG
3040 Perfect,8,CCTT
16 Perfect,8,CGAA
14 Perfect,8,CGAC
58 Perfect,8,CGAG
15 Perfect,8,CGAT
71 Perfect,8,CGCA
971 Perfect,8,CGCC
64 Perfect,8,CGCG
59 Perfect,8,CGCT
61 Perfect,8,CGGA
155 Perfect,8,CGGC
249 Perfect,8,CGGG
22 Perfect,8,CGGT
22 Perfect,8,CGTA
40 Perfect,8,CGTC
120 Perfect,8,CGTG
39 Perfect,8,CGTT
965 Perfect,8,CTAA
740 Perfect,8,CTAC
823 Perfect,8,CTAG
1263 Perfect,8,CTAT
2773 Perfect,8,CTCA
2365 Perfect,8,CTCC
41 Perfect,8,CTCG
3002 Perfect,8,CTCT
1328 Perfect,8,CTGA
1809 Perfect,8,CTGC
2434 Perfect,8,CTGG
1998 Perfect,8,CTGT
1366 Perfect,8,CTTA
3378 Perfect,8,CTTC
1448 Perfect,8,CTTG
6558 Perfect,8,CTTT
6079 Perfect,8,GAAA
228 Perfect,8,GAAC
3356 Perfect,8,GAAG
2277 Perfect,8,GAAT
1218 Perfect,8,GACA
112 Perfect,8,GACC
44 Perfect,8,GACG
727 Perfect,8,GACT
3091 Perfect,8,GAGA
245 Perfect,8,GAGC
2231 Perfect,8,GAGG
992 Perfect,8,GAGT
1144 Perfect,8,GATA
98 Perfect,8,GATC
1241 Perfect,8,GATG
1133 Perfect,8,GATT
880 Perfect,8,GCAA
716 Perfect,8,GCAC
1913 Perfect,8,GCAG
1052 Perfect,8,GCAT
1104 Perfect,8,GCCA
414 Perfect,8,GCCC
128 Perfect,8,GCCG
2261 Perfect,8,GCCT
32 Perfect,8,GCGA
241 Perfect,8,GCGC
169 Perfect,8,GCGG
41 Perfect,8,GCGT
413 Perfect,8,GCTA
270 Perfect,8,GCTC
1545 Perfect,8,GCTG
1130 Perfect,8,GCTT
2612 Perfect,8,GGAA
152 Perfect,8,GGAC
2267 Perfect,8,GGAG
901 Perfect,8,GGAT
1796 Perfect,8,GGCA
357 Perfect,8,GGCC
964 Perfect,8,GGCG
1017 Perfect,8,GGCT
2765 Perfect,8,GGGA
454 Perfect,8,GGGC
301 Perfect,8,GGGG
959 Perfect,8,GGGT
574 Perfect,8,GGTA
99 Perfect,8,GGTC
1658 Perfect,8,GGTG
1651 Perfect,8,GGTT
1204 Perfect,8,GTAA
154 Perfect,8,GTAC
666 Perfect,8,GTAG
1294 Perfect,8,GTAT
828 Perfect,8,GTCA
135 Perfect,8,GTCC
14 Perfect,8,GTCG
1209 Perfect,8,GTCT
1162 Perfect,8,GTGA
727 Perfect,8,GTGC
1404 Perfect,8,GTGG
1959 Perfect,8,GTGT
1157 Perfect,8,GTTA
220 Perfect,8,GTTC
914 Perfect,8,GTTG
2949 Perfect,8,GTTT
6243 Perfect,8,TAAA
1189 Perfect,8,TAAC
1335 Perfect,8,TAAG
3086 Perfect,8,TAAT
1593 Perfect,8,TACA
561 Perfect,8,TACC
26 Perfect,8,TACG
1242 Perfect,8,TACT
1164 Perfect,8,TAGA
442 Perfect,8,TAGC
690 Perfect,8,TAGG
671 Perfect,8,TAGT
6210 Perfect,8,TATA
1062 Perfect,8,TATC
1716 Perfect,8,TATG
6126 Perfect,8,TATT
1312 Perfect,8,TCAA
1121 Perfect,8,TCAC
1414 Perfect,8,TCAG
2041 Perfect,8,TCAT
1766 Perfect,8,TCCA
2764 Perfect,8,TCCC
62 Perfect,8,TCCG
3027 Perfect,8,TCCT
8 Perfect,8,TCGA
23 Perfect,8,TCGC
23 Perfect,8,TCGG
20 Perfect,8,TCGT
1127 Perfect,8,TCTA
3085 Perfect,8,TCTC
2321 Perfect,8,TCTG
3749 Perfect,8,TCTT
2842 Perfect,8,TGAA
758 Perfect,8,TGAC
2700 Perfect,8,TGAG
1082 Perfect,8,TGAT
1552 Perfect,8,TGCA
1737 Perfect,8,TGCC
54 Perfect,8,TGCG
1412 Perfect,8,TGCT
1641 Perfect,8,TGGA
1056 Perfect,8,TGGC
2714 Perfect,8,TGGG
887 Perfect,8,TGGT
1648 Perfect,8,TGTA
1284 Perfect,8,TGTC
3376 Perfect,8,TGTG
3121 Perfect,8,TGTT
3788 Perfect,8,TTAA
1216 Perfect,8,TTAC
1008 Perfect,8,TTAG
4269 Perfect,8,TTAT
2833 Perfect,8,TTCA
2556 Perfect,8,TTCC
24 Perfect,8,TTCG
4990 Perfect,8,TTCT
1314 Perfect,8,TTGA
890 Perfect,8,TTGC
1091 Perfect,8,TTGG
2188 Perfect,8,TTGT
6173 Perfect,8,TTTA
5874 Perfect,8,TTTC
4203 Perfect,8,TTTG
13523 Perfect,8,TTTT
1 Perfect,90,CATC
1 Perfect,94,AAGA
1 Perfect,94,CTTT
1 Perfect,96,AAAG
1 Perfect,99,TTCT
7737 Perfect,9,AAAA
1783 Perfect,9,AAAC
2274 Perfect,9,AAAG
3203 Perfect,9,AAAT
660 Perfect,9,AACA
364 Perfect,9,AACC
13 Perfect,9,AACG
230 Perfect,9,AACT
1795 Perfect,9,AAGA
650 Perfect,9,AAGC
981 Perfect,9,AAGG
428 Perfect,9,AAGT
1744 Perfect,9,AATA
583 Perfect,9,AATC
1097 Perfect,9,AATG
1081 Perfect,9,AATT
1861 Perfect,9,ACAA
2317 Perfect,9,ACAC
742 Perfect,9,ACAG
1120 Perfect,9,ACAT
551 Perfect,9,ACCA
326 Perfect,9,ACCC
181 Perfect,9,ACCT
6 Perfect,9,ACGA
7 Perfect,9,ACGC
10 Perfect,9,ACGG
12 Perfect,9,ACGT
201 Perfect,9,ACTA
638 Perfect,9,ACTC
423 Perfect,9,ACTG
411 Perfect,9,ACTT
3380 Perfect,9,AGAA
866 Perfect,9,AGAC
2161 Perfect,9,AGAG
597 Perfect,9,AGAT
384 Perfect,9,AGCA
402 Perfect,9,AGCC
4 Perfect,9,AGCG
136 Perfect,9,AGCT
1215 Perfect,9,AGGA
676 Perfect,9,AGGC
789 Perfect,9,AGGG
335 Perfect,9,AGGT
485 Perfect,9,AGTA
320 Perfect,9,AGTC
523 Perfect,9,AGTG
427 Perfect,9,AGTT
2203 Perfect,9,ATAA
1166 Perfect,9,ATAC
452 Perfect,9,ATAG
2844 Perfect,9,ATAT
386 Perfect,9,ATCA
414 Perfect,9,ATCC
2 Perfect,9,ATCG
307 Perfect,9,ATCT
973 Perfect,9,ATGA
502 Perfect,9,ATGC
745 Perfect,9,ATGG
578 Perfect,9,ATGT
846 Perfect,9,ATTA
1076 Perfect,9,ATTC
519 Perfect,9,ATTG
2176 Perfect,9,ATTT
408 Perfect,9,CAAA
174 Perfect,9,CAAC
212 Perfect,9,CAAG
158 Perfect,9,CAAT
860 Perfect,9,CACA
350 Perfect,9,CACC
98 Perfect,9,CACG
371 Perfect,9,CACT
324 Perfect,9,CAGA
393 Perfect,9,CAGC
489 Perfect,9,CAGG
184 Perfect,9,CAGT
203 Perfect,9,CATA
252 Perfect,9,CATC
286 Perfect,9,CATG
566 Perfect,9,CATT
228 Perfect,9,CCAA
1863 Perfect,9,CCAC
467 Perfect,9,CCAG
352 Perfect,9,CCAT
660 Perfect,9,CCCA
119 Perfect,9,CCCC
74 Perfect,9,CCCG
608 Perfect,9,CCCT
3 Perfect,9,CCGA
949 Perfect,9,CCGC
55 Perfect,9,CCGG
16 Perfect,9,CCGT
145 Perfect,9,CCTA
974 Perfect,9,CCTC
598 Perfect,9,CCTG
647 Perfect,9,CCTT
5 Perfect,9,CGAA
4 Perfect,9,CGAC
10 Perfect,9,CGAG
7 Perfect,9,CGAT
31 Perfect,9,CGCA
83 Perfect,9,CGCC
44 Perfect,9,CGCG
38 Perfect,9,CGCT
13 Perfect,9,CGGA
40 Perfect,9,CGGC
43 Perfect,9,CGGG
8 Perfect,9,CGGT
2 Perfect,9,CGTA
12 Perfect,9,CGTC
24 Perfect,9,CGTG
6 Perfect,9,CGTT
109 Perfect,9,CTAA
151 Perfect,9,CTAC
142 Perfect,9,CTAG
165 Perfect,9,CTAT
428 Perfect,9,CTCA
842 Perfect,9,CTCC
11 Perfect,9,CTCG
875 Perfect,9,CTCT
228 Perfect,9,CTGA
555 Perfect,9,CTGC
359 Perfect,9,CTGG
316 Perfect,9,CTGT
204 Perfect,9,CTTA
852 Perfect,9,CTTC
228 Perfect,9,CTTG
1009 Perfect,9,CTTT
1060 Perfect,9,GAAA
7 Perfect,9,GAAC
696 Perfect,9,GAAG
550 Perfect,9,GAAT
312 Perfect,9,GACA
10 Perfect,9,GACC
19 Perfect,9,GACG
207 Perfect,9,GACT
870 Perfect,9,GAGA
30 Perfect,9,GAGC
584 Perfect,9,GAGG
342 Perfect,9,GAGT
151 Perfect,9,GATA
3 Perfect,9,GATC
325 Perfect,9,GATG
170 Perfect,9,GATT
222 Perfect,9,GCAA
23 Perfect,9,GCAC
609 Perfect,9,GCAG
308 Perfect,9,GCAT
370 Perfect,9,GCCA
39 Perfect,9,GCCC
40 Perfect,9,GCCG
465 Perfect,9,GCCT
14 Perfect,9,GCGA
49 Perfect,9,GCGC
64 Perfect,9,GCGG
36 Perfect,9,GCGT
124 Perfect,9,GCTA
6 Perfect,9,GCTC
484 Perfect,9,GCTG
216 Perfect,9,GCTT
810 Perfect,9,GGAA
16 Perfect,9,GGAC
968 Perfect,9,GGAG
298 Perfect,9,GGAT
626 Perfect,9,GGCA
47 Perfect,9,GGCC
970 Perfect,9,GGCG
413 Perfect,9,GGCT
884 Perfect,9,GGGA
78 Perfect,9,GGGC
124 Perfect,9,GGGG
350 Perfect,9,GGGT
167 Perfect,9,GGTA
7 Perfect,9,GGTC
1859 Perfect,9,GGTG
154 Perfect,9,GGTT
182 Perfect,9,GTAA
7 Perfect,9,GTAC
147 Perfect,9,GTAG
184 Perfect,9,GTAT
219 Perfect,9,GTCA
9 Perfect,9,GTCC
4 Perfect,9,GTCG
324 Perfect,9,GTCT
457 Perfect,9,GTGA
25 Perfect,9,GTGC
663 Perfect,9,GTGG
870 Perfect,9,GTGT
115 Perfect,9,GTTA
228 Perfect,9,GTTG
412 Perfect,9,GTTT
2163 Perfect,9,TAAA
452 Perfect,9,TAAC
422 Perfect,9,TAAG
1030 Perfect,9,TAAT
559 Perfect,9,TACA
329 Perfect,9,TACC
9 Perfect,9,TACG
385 Perfect,9,TACT
311 Perfect,9,TAGA
153 Perfect,9,TAGC
204 Perfect,9,TAGG
222 Perfect,9,TAGT
2763 Perfect,9,TATA
576 Perfect,9,TATC
1047 Perfect,9,TATG
3087 Perfect,9,TATT
586 Perfect,9,TCAA
518 Perfect,9,TCAC
386 Perfect,9,TCAG
1127 Perfect,9,TCAT
714 Perfect,9,TCCA
765 Perfect,9,TCCC
6 Perfect,9,TCCG
880 Perfect,9,TCCT
3 Perfect,9,TCGA
9 Perfect,9,TCGC
4 Perfect,9,TCGG
13 Perfect,9,TCGT
483 Perfect,9,TCTA
2112 Perfect,9,TCTC
793 Perfect,9,TCTG
2156 Perfect,9,TCTT
973 Perfect,9,TGAA
330 Perfect,9,TGAC
668 Perfect,9,TGAG
545 Perfect,9,TGAT
543 Perfect,9,TGCA
631 Perfect,9,TGCC
7 Perfect,9,TGCG
657 Perfect,9,TGCT
460 Perfect,9,TGGA
401 Perfect,9,TGGC
308 Perfect,9,TGGG
347 Perfect,9,TGGT
1133 Perfect,9,TGTA
836 Perfect,9,TGTC
2208 Perfect,9,TGTG
1721 Perfect,9,TGTT
861 Perfect,9,TTAA
434 Perfect,9,TTAC
199 Perfect,9,TTAG
1776 Perfect,9,TTAT
922 Perfect,9,TTCA
1178 Perfect,9,TTCC
10 Perfect,9,TTCG
1805 Perfect,9,TTCT
369 Perfect,9,TTGA
375 Perfect,9,TTGC
549 Perfect,9,TTGG
675 Perfect,9,TTGT
2195 Perfect,9,TTTA
3375 Perfect,9,TTTC
1863 Perfect,9,TTTG
7793 Perfect,9,TTTT
