2928379 Imperfect,3,AA
2492320 Imperfect,3,AC
2522645 Imperfect,3,AG
2041048 Imperfect,3,AT
1576161 Imperfect,3,CA
1734786 Imperfect,3,CC
373190 Imperfect,3,CG
1665679 Imperfect,3,CT
1665911 Imperfect,3,GA
371741 Imperfect,3,GC
1733449 Imperfect,3,GG
1576656 Imperfect,3,GT
2043307 Imperfect,3,TA
2531232 Imperfect,3,TC
2499116 Imperfect,3,TG
2939565 Imperfect,3,TT
7786 Perfect,10,AA
772 Perfect,10,AC
841 Perfect,10,AG
1828 Perfect,10,AT
1245 Perfect,10,CA
155 Perfect,10,CC
11 Perfect,10,CG
777 Perfect,10,CT
824 Perfect,10,GA
50 Perfect,10,GC
130 Perfect,10,GG
709 Perfect,10,GT
1848 Perfect,10,TA
802 Perfect,10,TC
1203 Perfect,10,TG
8118 Perfect,10,TT
4972 Perfect,11,AA
1249 Perfect,11,AC
809 Perfect,11,AG
1160 Perfect,11,AT
429 Perfect,11,CA
83 Perfect,11,CC
22 Perfect,11,CG
281 Perfect,11,CT
298 Perfect,11,GA
21 Perfect,11,GC
96 Perfect,11,GG
484 Perfect,11,GT
1066 Perfect,11,TA
780 Perfect,11,TC
1207 Perfect,11,TG
5151 Perfect,11,TT
3998 Perfect,12,AA
347 Perfect,12,AC
263 Perfect,12,AG
710 Perfect,12,AT
519 Perfect,12,CA
48 Perfect,12,CC
5 Perfect,12,CG
250 Perfect,12,CT
333 Perfect,12,GA
18 Perfect,12,GC
52 Perfect,12,GG
348 Perfect,12,GT
731 Perfect,12,TA
287 Perfect,12,TC
462 Perfect,12,TG
4036 Perfect,12,TT
3618 Perfect,13,AA
645 Perfect,13,AC
433 Perfect,13,AG
534 Perfect,13,AT
201 Perfect,13,CA
44 Perfect,13,CC
10 Perfect,13,CG
107 Perfect,13,CT
127 Perfect,13,GA
12 Perfect,13,GC
42 Perfect,13,GG
208 Perfect,13,GT
460 Perfect,13,TA
401 Perfect,13,TC
619 Perfect,13,TG
3650 Perfect,13,TT
3250 Perfect,14,AA
218 Perfect,14,AC
123 Perfect,14,AG
338 Perfect,14,AT
223 Perfect,14,CA
22 Perfect,14,CC
126 Perfect,14,CT
143 Perfect,14,GA
10 Perfect,14,GC
16 Perfect,14,GG
192 Perfect,14,GT
377 Perfect,14,TA
150 Perfect,14,TC
241 Perfect,14,TG
3140 Perfect,14,TT
2962 Perfect,15,AA
374 Perfect,15,AC
271 Perfect,15,AG
285 Perfect,15,AT
100 Perfect,15,CA
11 Perfect,15,CC
5 Perfect,15,CG
57 Perfect,15,CT
76 Perfect,15,GA
8 Perfect,15,GC
11 Perfect,15,GG
107 Perfect,15,GT
281 Perfect,15,TA
253 Perfect,15,TC
339 Perfect,15,TG
2818 Perfect,15,TT
2412 Perfect,16,AA
137 Perfect,16,AC
82 Perfect,16,AG
207 Perfect,16,AT
111 Perfect,16,CA
8 Perfect,16,CC
1 Perfect,16,CG
90 Perfect,16,CT
97 Perfect,16,GA
6 Perfect,16,GC
5 Perfect,16,GG
126 Perfect,16,GT
173 Perfect,16,TA
91 Perfect,16,TC
125 Perfect,16,TG
2465 Perfect,16,TT
2001 Perfect,17,AA
235 Perfect,17,AC
141 Perfect,17,AG
140 Perfect,17,AT
56 Perfect,17,CA
4 Perfect,17,CC
1 Perfect,17,CG
22 Perfect,17,CT
37 Perfect,17,GA
2 Perfect,17,GC
6 Perfect,17,GG
63 Perfect,17,GT
136 Perfect,17,TA
151 Perfect,17,TC
189 Perfect,17,TG
1970 Perfect,17,TT
1571 Perfect,18,AA
79 Perfect,18,AC
40 Perfect,18,AG
132 Perfect,18,AT
83 Perfect,18,CA
4 Perfect,18,CC
2 Perfect,18,CG
43 Perfect,18,CT
56 Perfect,18,GA
1 Perfect,18,GC
5 Perfect,18,GG
92 Perfect,18,GT
137 Perfect,18,TA
63 Perfect,18,TC
79 Perfect,18,TG
1589 Perfect,18,TT
1373 Perfect,19,AA
146 Perfect,19,AC
88 Perfect,19,AG
105 Perfect,19,AT
46 Perfect,19,CA
2 Perfect,19,CC
3 Perfect,19,CG
27 Perfect,19,CT
34 Perfect,19,GA
2 Perfect,19,GC
39 Perfect,19,GT
98 Perfect,19,TA
98 Perfect,19,TC
145 Perfect,19,TG
1330 Perfect,19,TT
1170 Perfect,20,AA
67 Perfect,20,AC
33 Perfect,20,AG
92 Perfect,20,AT
53 Perfect,20,CA
3 Perfect,20,CC
24 Perfect,20,CT
43 Perfect,20,GA
1 Perfect,20,GC
85 Perfect,20,GT
78 Perfect,20,TA
50 Perfect,20,TC
54 Perfect,20,TG
1161 Perfect,20,TT
1014 Perfect,21,AA
124 Perfect,21,AC
51 Perfect,21,AG
70 Perfect,21,AT
41 Perfect,21,CA
1 Perfect,21,CC
1 Perfect,21,CG
14 Perfect,21,CT
18 Perfect,21,GA
1 Perfect,21,GG
51 Perfect,21,GT
68 Perfect,21,TA
57 Perfect,21,TC
97 Perfect,21,TG
1004 Perfect,21,TT
977 Perfect,22,AA
73 Perfect,22,AC
16 Perfect,22,AG
51 Perfect,22,AT
42 Perfect,22,CA
20 Perfect,22,CT
32 Perfect,22,GA
56 Perfect,22,GT
44 Perfect,22,TA
20 Perfect,22,TC
46 Perfect,22,TG
993 Perfect,22,TT
786 Perfect,23,AA
97 Perfect,23,AC
38 Perfect,23,AG
56 Perfect,23,AT
31 Perfect,23,CA
13 Perfect,23,CT
12 Perfect,23,GA
1 Perfect,23,GC
1 Perfect,23,GG
25 Perfect,23,GT
38 Perfect,23,TA
31 Perfect,23,TC
114 Perfect,23,TG
846 Perfect,23,TT
746 Perfect,24,AA
59 Perfect,24,AC
14 Perfect,24,AG
49 Perfect,24,AT
34 Perfect,24,CA
2 Perfect,24,CG
13 Perfect,24,CT
25 Perfect,24,GA
1 Perfect,24,GC
52 Perfect,24,GT
34 Perfect,24,TA
27 Perfect,24,TC
54 Perfect,24,TG
704 Perfect,24,TT
563 Perfect,25,AA
94 Perfect,25,AC
26 Perfect,25,AG
39 Perfect,25,AT
29 Perfect,25,CA
8 Perfect,25,CT
4 Perfect,25,GA
42 Perfect,25,GT
41 Perfect,25,TA
23 Perfect,25,TC
85 Perfect,25,TG
604 Perfect,25,TT
422 Perfect,26,AA
60 Perfect,26,AC
10 Perfect,26,AG
40 Perfect,26,AT
53 Perfect,26,CA
15 Perfect,26,CT
14 Perfect,26,GA
1 Perfect,26,GC
84 Perfect,26,GT
23 Perfect,26,TA
12 Perfect,26,TC
31 Perfect,26,TG
461 Perfect,26,TT
359 Perfect,27,AA
87 Perfect,27,AC
13 Perfect,27,AG
31 Perfect,27,AT
27 Perfect,27,CA
7 Perfect,27,CT
8 Perfect,27,GA
2 Perfect,27,GG
18 Perfect,27,GT
37 Perfect,27,TA
18 Perfect,27,TC
95 Perfect,27,TG
333 Perfect,27,TT
265 Perfect,28,AA
56 Perfect,28,AC
10 Perfect,28,AG
27 Perfect,28,AT
30 Perfect,28,CA
9 Perfect,28,CT
11 Perfect,28,GA
48 Perfect,28,GT
15 Perfect,28,TA
8 Perfect,28,TC
38 Perfect,28,TG
246 Perfect,28,TT
209 Perfect,29,AA
102 Perfect,29,AC
11 Perfect,29,AG
23 Perfect,29,AT
29 Perfect,29,CA
10 Perfect,29,CT
3 Perfect,29,GA
30 Perfect,29,GT
20 Perfect,29,TA
21 Perfect,29,TC
83 Perfect,29,TG
228 Perfect,29,TT
142 Perfect,30,AA
58 Perfect,30,AC
9 Perfect,30,AG
27 Perfect,30,AT
48 Perfect,30,CA
10 Perfect,30,CT
11 Perfect,30,GA
69 Perfect,30,GT
21 Perfect,30,TA
6 Perfect,30,TC
33 Perfect,30,TG
162 Perfect,30,TT
85 Perfect,31,AA
81 Perfect,31,AC
8 Perfect,31,AG
23 Perfect,31,AT
36 Perfect,31,CA
7 Perfect,31,CT
4 Perfect,31,GA
27 Perfect,31,GT
20 Perfect,31,TA
10 Perfect,31,TC
85 Perfect,31,TG
99 Perfect,31,TT
72 Perfect,32,AA
59 Perfect,32,AC
7 Perfect,32,AG
22 Perfect,32,AT
34 Perfect,32,CA
4 Perfect,32,CT
5 Perfect,32,GA
65 Perfect,32,GT
22 Perfect,32,TA
5 Perfect,32,TC
35 Perfect,32,TG
68 Perfect,32,TT
56 Perfect,33,AA
83 Perfect,33,AC
13 Perfect,33,AG
18 Perfect,33,AT
18 Perfect,33,CA
6 Perfect,33,CT
3 Perfect,33,GA
30 Perfect,33,GT
14 Perfect,33,TA
7 Perfect,33,TC
78 Perfect,33,TG
47 Perfect,33,TT
42 Perfect,34,AA
63 Perfect,34,AC
2 Perfect,34,AG
24 Perfect,34,AT
24 Perfect,34,CA
1 Perfect,34,CT
5 Perfect,34,GA
59 Perfect,34,GT
9 Perfect,34,TA
5 Perfect,34,TC
28 Perfect,34,TG
37 Perfect,34,TT
34 Perfect,35,AA
74 Perfect,35,AC
6 Perfect,35,AG
15 Perfect,35,AT
28 Perfect,35,CA
2 Perfect,35,CT
3 Perfect,35,GA
20 Perfect,35,GT
19 Perfect,35,TA
6 Perfect,35,TC
72 Perfect,35,TG
42 Perfect,35,TT
31 Perfect,36,AA
55 Perfect,36,AC
4 Perfect,36,AG
11 Perfect,36,AT
26 Perfect,36,CA
1 Perfect,36,CT
3 Perfect,36,GA
47 Perfect,36,GT
15 Perfect,36,TA
5 Perfect,36,TC
23 Perfect,36,TG
44 Perfect,36,TT
34 Perfect,37,AA
91 Perfect,37,AC
13 Perfect,37,AG
15 Perfect,37,AT
24 Perfect,37,CA
2 Perfect,37,CT
3 Perfect,37,GA
25 Perfect,37,GT
14 Perfect,37,TA
11 Perfect,37,TC
60 Perfect,37,TG
35 Perfect,37,TT
33 Perfect,38,AA
38 Perfect,38,AC
2 Perfect,38,AG
16 Perfect,38,AT
26 Perfect,38,CA
3 Perfect,38,CT
5 Perfect,38,GA
62 Perfect,38,GT
7 Perfect,38,TA
1 Perfect,38,TC
22 Perfect,38,TG
26 Perfect,38,TT
18 Perfect,39,AA
67 Perfect,39,AC
5 Perfect,39,AG
13 Perfect,39,AT
24 Perfect,39,CA
2 Perfect,39,CT
2 Perfect,39,GA
11 Perfect,39,GT
6 Perfect,39,TA
9 Perfect,39,TC
60 Perfect,39,TG
18 Perfect,39,TT
22 Perfect,40,AA
51 Perfect,40,AC
3 Perfect,40,AG
14 Perfect,40,AT
19 Perfect,40,CA
7 Perfect,40,CT
5 Perfect,40,GA
53 Perfect,40,GT
20 Perfect,40,TA
2 Perfect,40,TC
22 Perfect,40,TG
13 Perfect,40,TT
12 Perfect,41,AA
62 Perfect,41,AC
7 Perfect,41,AG
10 Perfect,41,AT
21 Perfect,41,CA
2 Perfect,41,CT
1 Perfect,41,GA
15 Perfect,41,GT
15 Perfect,41,TA
5 Perfect,41,TC
65 Perfect,41,TG
14 Perfect,41,TT
7 Perfect,42,AA
52 Perfect,42,AC
2 Perfect,42,AG
16 Perfect,42,AT
17 Perfect,42,CA
2 Perfect,42,GA
43 Perfect,42,GT
12 Perfect,42,TA
4 Perfect,42,TC
22 Perfect,42,TG
11 Perfect,42,TT
6 Perfect,43,AA
50 Perfect,43,AC
7 Perfect,43,AG
20 Perfect,43,AT
17 Perfect,43,CA
2 Perfect,43,CT
2 Perfect,43,GA
16 Perfect,43,GT
12 Perfect,43,TA
8 Perfect,43,TC
47 Perfect,43,TG
6 Perfect,43,TT
6 Perfect,44,AA
26 Perfect,44,AC
1 Perfect,44,AG
16 Perfect,44,AT
18 Perfect,44,CA
3 Perfect,44,CT
6 Perfect,44,GA
38 Perfect,44,GT
17 Perfect,44,TA
4 Perfect,44,TC
24 Perfect,44,TG
4 Perfect,44,TT
3 Perfect,45,AA
39 Perfect,45,AC
2 Perfect,45,AG
13 Perfect,45,AT
16 Perfect,45,CA
13 Perfect,45,GT
26 Perfect,45,TA
5 Perfect,45,TC
46 Perfect,45,TG
5 Perfect,45,TT
9 Perfect,46,AA
28 Perfect,46,AC
1 Perfect,46,AG
14 Perfect,46,AT
17 Perfect,46,CA
2 Perfect,46,CT
2 Perfect,46,GA
32 Perfect,46,GT
19 Perfect,46,TA
2 Perfect,46,TC
9 Perfect,46,TG
6 Perfect,46,TT
5 Perfect,47,AA
47 Perfect,47,AC
1 Perfect,47,AG
12 Perfect,47,AT
7 Perfect,47,CA
3 Perfect,47,CT
5 Perfect,47,GT
19 Perfect,47,TA
4 Perfect,47,TC
36 Perfect,47,TG
6 Perfect,47,TT
4 Perfect,48,AA
20 Perfect,48,AC
1 Perfect,48,AG
9 Perfect,48,AT
9 Perfect,48,CA
3 Perfect,48,GA
26 Perfect,48,GT
9 Perfect,48,TA
2 Perfect,48,TC
10 Perfect,48,TG
5 Perfect,48,TT
3 Perfect,49,AA
35 Perfect,49,AC
2 Perfect,49,AG
8 Perfect,49,AT
2 Perfect,49,CA
6 Perfect,49,GT
8 Perfect,49,TA
2 Perfect,49,TC
33 Perfect,49,TG
1 Perfect,49,TT
1119761 Perfect,4,AA
300852 Perfect,4,AC
616878 Perfect,4,AG
663120 Perfect,4,AT
626002 Perfect,4,CA
436238 Perfect,4,CC
20842 Perfect,4,CG
618358 Perfect,4,CT
608838 Perfect,4,GA
95094 Perfect,4,GC
434420 Perfect,4,GG
302041 Perfect,4,GT
488963 Perfect,4,TA
609219 Perfect,4,TC
628356 Perfect,4,TG
1122479 Perfect,4,TT
3 Perfect,50,AA
11 Perfect,50,AC
8 Perfect,50,AT
11 Perfect,50,CA
1 Perfect,50,CT
2 Perfect,50,GA
17 Perfect,50,GT
11 Perfect,50,TA
1 Perfect,50,TC
2 Perfect,50,TG
6 Perfect,50,TT
3 Perfect,51,AA
20 Perfect,51,AC
3 Perfect,51,AG
9 Perfect,51,AT
4 Perfect,51,CA
1 Perfect,51,CT
1 Perfect,51,GT
4 Perfect,51,TA
1 Perfect,51,TC
16 Perfect,51,TG
3 Perfect,51,TT
1 Perfect,52,AA
10 Perfect,52,AC
1 Perfect,52,AG
4 Perfect,52,AT
1 Perfect,52,CA
1 Perfect,52,GA
9 Perfect,52,GT
5 Perfect,52,TA
4 Perfect,52,TC
3 Perfect,52,TG
2 Perfect,52,TT
11 Perfect,53,AC
1 Perfect,53,AG
2 Perfect,53,AT
2 Perfect,53,CA
1 Perfect,53,GA
2 Perfect,53,GT
2 Perfect,53,TA
1 Perfect,53,TC
19 Perfect,53,TG
1 Perfect,53,TT
3 Perfect,54,AA
3 Perfect,54,AC
6 Perfect,54,AT
1 Perfect,54,CA
1 Perfect,54,GA
4 Perfect,54,GT
3 Perfect,54,TA
3 Perfect,54,TG
3 Perfect,54,TT
15 Perfect,55,AC
1 Perfect,55,AG
6 Perfect,55,AT
1 Perfect,55,GT
2 Perfect,55,TA
3 Perfect,55,TC
7 Perfect,55,TG
1 Perfect,55,TT
2 Perfect,56,AA
1 Perfect,56,AC
5 Perfect,56,AT
3 Perfect,56,GT
1 Perfect,56,TA
1 Perfect,56,TC
6 Perfect,57,AC
1 Perfect,57,AG
3 Perfect,57,AT
1 Perfect,57,GA
1 Perfect,57,GT
4 Perfect,57,TA
4 Perfect,57,TG
1 Perfect,57,TT
1 Perfect,58,AC
1 Perfect,58,CA
1 Perfect,58,GA
3 Perfect,58,GT
1 Perfect,58,TG
2 Perfect,59,AC
1 Perfect,59,AG
1 Perfect,59,AT
1 Perfect,59,CT
1 Perfect,59,GA
1 Perfect,59,TA
1 Perfect,59,TC
4 Perfect,59,TG
434862 Perfect,5,AA
189161 Perfect,5,AC
266279 Perfect,5,AG
169132 Perfect,5,AT
116223 Perfect,5,CA
105432 Perfect,5,CC
14306 Perfect,5,CG
115635 Perfect,5,CT
115391 Perfect,5,GA
14275 Perfect,5,GC
104808 Perfect,5,GG
115558 Perfect,5,GT
170078 Perfect,5,TA
266912 Perfect,5,TC
190240 Perfect,5,TG
438283 Perfect,5,TT
1 Perfect,60,AC
1 Perfect,60,AT
1 Perfect,60,GT
2 Perfect,60,TA
2 Perfect,60,TC
1 Perfect,61,AG
1 Perfect,62,AT
5 Perfect,62,TA
4 Perfect,63,AT
1 Perfect,64,AC
1 Perfect,64,AG
1 Perfect,64,AT
3 Perfect,64,TA
1 Perfect,65,AC
1 Perfect,65,AT
1 Perfect,66,GT
1 Perfect,66,TC
1 Perfect,67,AC
2 Perfect,67,AT
1 Perfect,67,TA
1 Perfect,67,TG
2 Perfect,68,AC
1 Perfect,69,AA
1 Perfect,69,AC
135056 Perfect,6,AA
22769 Perfect,6,AC
50194 Perfect,6,AG
64455 Perfect,6,AT
46532 Perfect,6,CA
20364 Perfect,6,CC
1039 Perfect,6,CG
50522 Perfect,6,CT
39824 Perfect,6,GA
2574 Perfect,6,GC
20386 Perfect,6,GG
22312 Perfect,6,GT
47937 Perfect,6,TA
40303 Perfect,6,TC
46688 Perfect,6,TG
134779 Perfect,6,TT
1 Perfect,72,AC
1 Perfect,73,GA
1 Perfect,74,AT
1 Perfect,74,CA
1 Perfect,75,AG
1 Perfect,78,AG
56896 Perfect,7,AA
16778 Perfect,7,AC
22039 Perfect,7,AG
22133 Perfect,7,AT
11076 Perfect,7,CA
2941 Perfect,7,CC
600 Perfect,7,CG
11749 Perfect,7,CT
11500 Perfect,7,GA
614 Perfect,7,GC
3295 Perfect,7,GG
10946 Perfect,7,GT
22481 Perfect,7,TA
22018 Perfect,7,TC
17191 Perfect,7,TG
56450 Perfect,7,TT
1 Perfect,82,TC
21037 Perfect,8,AA
2895 Perfect,8,AC
5099 Perfect,8,AG
10901 Perfect,8,AT
5189 Perfect,8,CA
595 Perfect,8,CC
135 Perfect,8,CG
5134 Perfect,8,CT
4823 Perfect,8,GA
488 Perfect,8,GC
617 Perfect,8,GG
3007 Perfect,8,GT
8309 Perfect,8,TA
4916 Perfect,8,TC
5153 Perfect,8,TG
21155 Perfect,8,TT
12231 Perfect,9,AA
3293 Perfect,9,AC
3471 Perfect,9,AG
3983 Perfect,9,AT
1418 Perfect,9,CA
220 Perfect,9,CC
104 Perfect,9,CG
1422 Perfect,9,CT
1479 Perfect,9,GA
89 Perfect,9,GC
217 Perfect,9,GG
1485 Perfect,9,GT
3793 Perfect,9,TA
3481 Perfect,9,TC
3273 Perfect,9,TG
12079 Perfect,9,TT
