484775 Imperfect,3,AA
403810 Imperfect,3,AC
408889 Imperfect,3,AG
2 Imperfect,3,AM
338385 Imperfect,3,AT
241552 Imperfect,3,CA
253792 Imperfect,3,CC
60394 Imperfect,3,CG
1 Imperfect,3,CR
246570 Imperfect,3,CT
246277 Imperfect,3,GA
60746 Imperfect,3,GC
253336 Imperfect,3,GG
239063 Imperfect,3,GT
336953 Imperfect,3,TA
407491 Imperfect,3,TC
402844 Imperfect,3,TG
483937 Imperfect,3,TT
1249 Perfect,10,AA
176 Perfect,10,AC
110 Perfect,10,AG
369 Perfect,10,AT
268 Perfect,10,CA
23 Perfect,10,CC
2 Perfect,10,CG
123 Perfect,10,CT
132 Perfect,10,GA
6 Perfect,10,GC
24 Perfect,10,GG
140 Perfect,10,GT
359 Perfect,10,TA
122 Perfect,10,TC
252 Perfect,10,TG
1223 Perfect,10,TT
755 Perfect,11,AA
256 Perfect,11,AC
136 Perfect,11,AG
215 Perfect,11,AT
176 Perfect,11,CA
16 Perfect,11,CC
4 Perfect,11,CG
32 Perfect,11,CT
41 Perfect,11,GA
6 Perfect,11,GC
12 Perfect,11,GG
140 Perfect,11,GT
202 Perfect,11,TA
155 Perfect,11,TC
222 Perfect,11,TG
752 Perfect,11,TT
534 Perfect,12,AA
70 Perfect,12,AC
36 Perfect,12,AG
166 Perfect,12,AT
119 Perfect,12,CA
5 Perfect,12,CC
41 Perfect,12,CT
40 Perfect,12,GA
4 Perfect,12,GC
5 Perfect,12,GG
89 Perfect,12,GT
126 Perfect,12,TA
68 Perfect,12,TC
106 Perfect,12,TG
593 Perfect,12,TT
472 Perfect,13,AA
118 Perfect,13,AC
76 Perfect,13,AG
87 Perfect,13,AT
61 Perfect,13,CA
3 Perfect,13,CC
2 Perfect,13,CG
23 Perfect,13,CT
18 Perfect,13,GA
3 Perfect,13,GC
7 Perfect,13,GG
45 Perfect,13,GT
87 Perfect,13,TA
88 Perfect,13,TC
115 Perfect,13,TG
481 Perfect,13,TT
415 Perfect,14,AA
46 Perfect,14,AC
13 Perfect,14,AG
72 Perfect,14,AT
54 Perfect,14,CA
4 Perfect,14,CC
1 Perfect,14,CG
23 Perfect,14,CT
27 Perfect,14,GA
1 Perfect,14,GC
1 Perfect,14,GG
33 Perfect,14,GT
84 Perfect,14,TA
31 Perfect,14,TC
38 Perfect,14,TG
396 Perfect,14,TT
380 Perfect,15,AA
63 Perfect,15,AC
49 Perfect,15,AG
51 Perfect,15,AT
22 Perfect,15,CA
3 Perfect,15,CC
2 Perfect,15,CG
12 Perfect,15,CT
11 Perfect,15,GA
26 Perfect,15,GT
44 Perfect,15,TA
59 Perfect,15,TC
70 Perfect,15,TG
376 Perfect,15,TT
343 Perfect,16,AA
20 Perfect,16,AC
6 Perfect,16,AG
33 Perfect,16,AT
24 Perfect,16,CA
5 Perfect,16,CC
5 Perfect,16,CT
13 Perfect,16,GA
10 Perfect,16,GT
38 Perfect,16,TA
18 Perfect,16,TC
23 Perfect,16,TG
346 Perfect,16,TT
262 Perfect,17,AA
32 Perfect,17,AC
24 Perfect,17,AG
27 Perfect,17,AT
11 Perfect,17,CA
2 Perfect,17,CC
11 Perfect,17,CT
13 Perfect,17,GA
1 Perfect,17,GC
11 Perfect,17,GT
26 Perfect,17,TA
29 Perfect,17,TC
32 Perfect,17,TG
264 Perfect,17,TT
199 Perfect,18,AA
15 Perfect,18,AC
2 Perfect,18,AG
19 Perfect,18,AT
17 Perfect,18,CA
4 Perfect,18,CC
9 Perfect,18,CT
6 Perfect,18,GA
1 Perfect,18,GC
18 Perfect,18,GT
18 Perfect,18,TA
14 Perfect,18,TC
14 Perfect,18,TG
206 Perfect,18,TT
168 Perfect,19,AA
20 Perfect,19,AC
12 Perfect,19,AG
22 Perfect,19,AT
10 Perfect,19,CA
4 Perfect,19,CT
4 Perfect,19,GA
10 Perfect,19,GT
10 Perfect,19,TA
19 Perfect,19,TC
34 Perfect,19,TG
164 Perfect,19,TT
143 Perfect,20,AA
15 Perfect,20,AC
2 Perfect,20,AG
16 Perfect,20,AT
8 Perfect,20,CA
2 Perfect,20,CT
5 Perfect,20,GA
9 Perfect,20,GT
19 Perfect,20,TA
6 Perfect,20,TC
17 Perfect,20,TG
134 Perfect,20,TT
135 Perfect,21,AA
21 Perfect,21,AC
13 Perfect,21,AG
17 Perfect,21,AT
3 Perfect,21,CA
5 Perfect,21,CT
1 Perfect,21,GA
2 Perfect,21,GT
13 Perfect,21,TA
11 Perfect,21,TC
26 Perfect,21,TG
148 Perfect,21,TT
122 Perfect,22,AA
7 Perfect,22,AC
2 Perfect,22,AG
8 Perfect,22,AT
5 Perfect,22,CA
1 Perfect,22,CG
4 Perfect,22,CT
8 Perfect,22,GA
12 Perfect,22,GT
13 Perfect,22,TA
8 Perfect,22,TC
5 Perfect,22,TG
112 Perfect,22,TT
127 Perfect,23,AA
25 Perfect,23,AC
5 Perfect,23,AG
11 Perfect,23,AT
6 Perfect,23,CA
2 Perfect,23,CT
3 Perfect,23,GA
6 Perfect,23,GT
7 Perfect,23,TA
4 Perfect,23,TC
19 Perfect,23,TG
134 Perfect,23,TT
85 Perfect,24,AA
16 Perfect,24,AC
1 Perfect,24,AG
12 Perfect,24,AT
7 Perfect,24,CA
5 Perfect,24,CT
2 Perfect,24,GA
16 Perfect,24,GT
7 Perfect,24,TA
1 Perfect,24,TC
3 Perfect,24,TG
86 Perfect,24,TT
63 Perfect,25,AA
18 Perfect,25,AC
4 Perfect,25,AG
14 Perfect,25,AT
9 Perfect,25,CA
1 Perfect,25,CT
3 Perfect,25,GA
7 Perfect,25,GT
13 Perfect,25,TA
8 Perfect,25,TC
19 Perfect,25,TG
87 Perfect,25,TT
51 Perfect,26,AA
13 Perfect,26,AC
2 Perfect,26,AG
3 Perfect,26,AT
4 Perfect,26,CA
4 Perfect,26,GA
11 Perfect,26,GT
4 Perfect,26,TA
4 Perfect,26,TC
5 Perfect,26,TG
77 Perfect,26,TT
40 Perfect,27,AA
7 Perfect,27,AC
3 Perfect,27,AG
5 Perfect,27,AT
6 Perfect,27,CA
1 Perfect,27,GA
8 Perfect,27,GT
5 Perfect,27,TA
4 Perfect,27,TC
23 Perfect,27,TG
46 Perfect,27,TT
33 Perfect,28,AA
16 Perfect,28,AC
1 Perfect,28,AG
7 Perfect,28,AT
6 Perfect,28,CA
1 Perfect,28,CT
1 Perfect,28,GA
10 Perfect,28,GT
4 Perfect,28,TA
3 Perfect,28,TC
2 Perfect,28,TG
53 Perfect,28,TT
23 Perfect,29,AA
18 Perfect,29,AC
9 Perfect,29,AT
6 Perfect,29,CA
4 Perfect,29,GT
3 Perfect,29,TA
5 Perfect,29,TC
5 Perfect,29,TG
21 Perfect,29,TT
13 Perfect,30,AA
6 Perfect,30,AC
2 Perfect,30,AG
3 Perfect,30,AT
2 Perfect,30,CA
3 Perfect,30,CT
9 Perfect,30,GT
7 Perfect,30,TA
6 Perfect,30,TG
24 Perfect,30,TT
13 Perfect,31,AA
17 Perfect,31,AC
3 Perfect,31,AT
3 Perfect,31,CA
1 Perfect,31,GA
3 Perfect,31,GT
6 Perfect,31,TA
5 Perfect,31,TC
20 Perfect,31,TG
20 Perfect,31,TT
8 Perfect,32,AA
7 Perfect,32,AC
1 Perfect,32,AG
11 Perfect,32,AT
7 Perfect,32,CA
2 Perfect,32,GA
17 Perfect,32,GT
5 Perfect,32,TA
2 Perfect,32,TC
2 Perfect,32,TG
15 Perfect,32,TT
13 Perfect,33,AA
20 Perfect,33,AC
1 Perfect,33,AG
1 Perfect,33,AT
5 Perfect,33,CA
5 Perfect,33,GT
5 Perfect,33,TA
2 Perfect,33,TC
12 Perfect,33,TG
6 Perfect,33,TT
3 Perfect,34,AA
9 Perfect,34,AC
1 Perfect,34,AG
4 Perfect,34,AT
4 Perfect,34,CA
1 Perfect,34,GA
11 Perfect,34,GT
1 Perfect,34,TC
6 Perfect,34,TG
3 Perfect,34,TT
2 Perfect,35,AA
16 Perfect,35,AC
1 Perfect,35,AG
3 Perfect,35,AT
2 Perfect,35,CA
2 Perfect,35,GT
1 Perfect,35,TA
3 Perfect,35,TC
20 Perfect,35,TG
4 Perfect,35,TT
6 Perfect,36,AA
3 Perfect,36,AC
1 Perfect,36,AT
4 Perfect,36,CA
1 Perfect,36,GA
13 Perfect,36,GT
2 Perfect,36,TA
7 Perfect,36,TG
8 Perfect,36,TT
8 Perfect,37,AA
13 Perfect,37,AC
3 Perfect,37,AG
2 Perfect,37,AT
5 Perfect,37,CA
1 Perfect,37,CT
2 Perfect,37,GT
3 Perfect,37,TA
4 Perfect,37,TC
12 Perfect,37,TG
5 Perfect,37,TT
3 Perfect,38,AA
8 Perfect,38,AC
1 Perfect,38,AG
2 Perfect,38,AT
5 Perfect,38,CA
1 Perfect,38,CT
11 Perfect,38,GT
3 Perfect,38,TA
3 Perfect,38,TC
6 Perfect,38,TG
6 Perfect,38,TT
4 Perfect,39,AA
15 Perfect,39,AC
1 Perfect,39,AG
3 Perfect,39,AT
3 Perfect,39,CA
1 Perfect,39,GT
3 Perfect,39,TA
1 Perfect,39,TC
15 Perfect,39,TG
3 Perfect,39,TT
2 Perfect,40,AA
6 Perfect,40,AC
1 Perfect,40,GA
8 Perfect,40,GT
2 Perfect,40,TA
4 Perfect,40,TG
4 Perfect,40,TT
5 Perfect,41,AA
12 Perfect,41,AC
1 Perfect,41,AG
1 Perfect,41,AT
3 Perfect,41,CA
3 Perfect,41,GT
3 Perfect,41,TA
2 Perfect,41,TC
13 Perfect,41,TG
4 Perfect,41,TT
2 Perfect,42,AA
3 Perfect,42,AC
1 Perfect,42,AT
2 Perfect,42,CA
1 Perfect,42,CT
9 Perfect,42,GT
3 Perfect,42,TA
6 Perfect,42,TG
1 Perfect,43,AA
5 Perfect,43,AC
1 Perfect,43,AT
5 Perfect,43,GT
1 Perfect,43,TA
1 Perfect,43,TC
6 Perfect,43,TG
3 Perfect,43,TT
2 Perfect,44,AA
5 Perfect,44,AC
2 Perfect,44,AT
1 Perfect,44,CA
4 Perfect,44,GT
1 Perfect,44,TA
1 Perfect,44,TG
1 Perfect,44,TT
1 Perfect,45,AA
12 Perfect,45,AC
1 Perfect,45,AG
1 Perfect,45,AT
4 Perfect,45,GT
4 Perfect,45,TA
10 Perfect,45,TG
4 Perfect,46,AA
3 Perfect,46,AC
1 Perfect,46,AG
1 Perfect,46,AT
1 Perfect,46,CA
3 Perfect,46,GT
3 Perfect,46,TG
2 Perfect,47,AA
13 Perfect,47,AC
1 Perfect,47,CA
1 Perfect,47,GT
1 Perfect,47,TA
1 Perfect,47,TC
6 Perfect,47,TG
4 Perfect,48,AC
2 Perfect,48,AT
2 Perfect,48,CA
1 Perfect,48,CT
1 Perfect,48,TA
3 Perfect,48,TG
1 Perfect,48,TT
1 Perfect,49,AA
1 Perfect,49,AC
1 Perfect,49,AG
1 Perfect,49,AT
1 Perfect,49,CA
1 Perfect,49,TA
7 Perfect,49,TG
1 Perfect,49,TT
192453 Perfect,4,AA
49874 Perfect,4,AC
90659 Perfect,4,AG
117005 Perfect,4,AT
102792 Perfect,4,CA
64758 Perfect,4,CC
4107 Perfect,4,CG
91084 Perfect,4,CT
92209 Perfect,4,GA
15438 Perfect,4,GC
64921 Perfect,4,GG
49959 Perfect,4,GT
80883 Perfect,4,TA
92064 Perfect,4,TC
102232 Perfect,4,TG
191600 Perfect,4,TT
1 Perfect,50,AA
1 Perfect,50,AC
3 Perfect,50,AT
2 Perfect,50,CA
1 Perfect,50,CT
2 Perfect,50,GT
2 Perfect,50,TA
1 Perfect,50,TG
3 Perfect,51,AC
1 Perfect,51,AT
2 Perfect,51,GT
1 Perfect,51,TA
1 Perfect,51,TG
1 Perfect,52,AC
4 Perfect,52,AT
1 Perfect,52,CA
2 Perfect,52,TA
2 Perfect,52,TG
1 Perfect,52,TT
1 Perfect,53,AC
1 Perfect,53,AG
1 Perfect,53,AT
1 Perfect,53,GT
2 Perfect,53,TG
1 Perfect,53,TT
1 Perfect,54,GT
1 Perfect,55,AC
1 Perfect,55,AG
1 Perfect,55,AT
1 Perfect,55,CA
1 Perfect,55,TA
1 Perfect,55,TG
1 Perfect,55,TT
2 Perfect,56,AC
1 Perfect,56,AT
1 Perfect,56,GT
1 Perfect,56,TG
1 Perfect,57,AT
2 Perfect,57,TG
1 Perfect,58,AT
1 Perfect,59,AT
1 Perfect,59,TA
1 Perfect,59,TG
73503 Perfect,5,AA
32335 Perfect,5,AC
40102 Perfect,5,AG
29048 Perfect,5,AT
18275 Perfect,5,CA
15728 Perfect,5,CC
2310 Perfect,5,CG
16863 Perfect,5,CT
16768 Perfect,5,GA
2191 Perfect,5,GC
16031 Perfect,5,GG
18080 Perfect,5,GT
29484 Perfect,5,TA
39728 Perfect,5,TC
31946 Perfect,5,TG
73515 Perfect,5,TT
1 Perfect,60,AC
1 Perfect,60,GT
1 Perfect,60,TA
1 Perfect,61,CT
1 Perfect,61,GA
1 Perfect,61,TA
1 Perfect,62,AC
1 Perfect,62,GA
1 Perfect,65,GT
1 Perfect,69,TA
22091 Perfect,6,AA
4015 Perfect,6,AC
7260 Perfect,6,AG
11870 Perfect,6,AT
8261 Perfect,6,CA
3128 Perfect,6,CC
202 Perfect,6,CG
7177 Perfect,6,CT
5823 Perfect,6,GA
449 Perfect,6,GC
3090 Perfect,6,GG
3973 Perfect,6,GT
8143 Perfect,6,TA
5915 Perfect,6,TC
7973 Perfect,6,TG
21726 Perfect,6,TT
9169 Perfect,7,AA
3114 Perfect,7,AC
3406 Perfect,7,AG
4110 Perfect,7,AT
1967 Perfect,7,CA
513 Perfect,7,CC
102 Perfect,7,CG
1636 Perfect,7,CT
1679 Perfect,7,GA
107 Perfect,7,GC
469 Perfect,7,GG
2034 Perfect,7,GT
4099 Perfect,7,TA
3321 Perfect,7,TC
2950 Perfect,7,TG
9011 Perfect,7,TT
1 Perfect,80,TA
1 Perfect,89,GA
3375 Perfect,8,AA
641 Perfect,8,AC
743 Perfect,8,AG
2003 Perfect,8,AT
1116 Perfect,8,CA
123 Perfect,8,CC
23 Perfect,8,CG
728 Perfect,8,CT
757 Perfect,8,GA
78 Perfect,8,GC
82 Perfect,8,GG
578 Perfect,8,GT
1549 Perfect,8,TA
742 Perfect,8,TC
1051 Perfect,8,TG
3392 Perfect,8,TT
1 Perfect,95,AT
1 Perfect,98,AC
1923 Perfect,9,AA
693 Perfect,9,AC
632 Perfect,9,AG
694 Perfect,9,AT
431 Perfect,9,CA
42 Perfect,9,CC
12 Perfect,9,CG
221 Perfect,9,CT
213 Perfect,9,GA
13 Perfect,9,GC
50 Perfect,9,GG
350 Perfect,9,GT
752 Perfect,9,TA
577 Perfect,9,TC
639 Perfect,9,TG
1904 Perfect,9,TT
