465347 Imperfect,5,AAAA
223576 Imperfect,5,AAAC
225461 Imperfect,5,AAAG
311066 Imperfect,5,AAAT
159624 Imperfect,5,AACA
121101 Imperfect,5,AACC
14110 Imperfect,5,AACG
117485 Imperfect,5,AACT
205188 Imperfect,5,AAGA
137437 Imperfect,5,AAGC
138129 Imperfect,5,AAGG
122405 Imperfect,5,AAGT
212653 Imperfect,5,AATA
152771 Imperfect,5,AATC
171719 Imperfect,5,AATG
198203 Imperfect,5,AATT
303296 Imperfect,5,ACAA
180037 Imperfect,5,ACAC
210179 Imperfect,5,ACAG
184441 Imperfect,5,ACAT
139390 Imperfect,5,ACCA
124366 Imperfect,5,ACCC
11761 Imperfect,5,ACCG
91569 Imperfect,5,ACCT
19580 Imperfect,5,ACGA
13841 Imperfect,5,ACGC
18071 Imperfect,5,ACGG
20164 Imperfect,5,ACGT
135158 Imperfect,5,ACTA
126695 Imperfect,5,ACTC
142192 Imperfect,5,ACTG
125270 Imperfect,5,ACTT
373265 Imperfect,5,AGAA
159299 Imperfect,5,AGAC
214865 Imperfect,5,AGAG
159237 Imperfect,5,AGAT
166845 Imperfect,5,AGCA
144851 Imperfect,5,AGCC
15763 Imperfect,5,AGCG
115329 Imperfect,5,AGCT
202445 Imperfect,5,AGGA
133599 Imperfect,5,AGGC
127946 Imperfect,5,AGGG
100513 Imperfect,5,AGGT
139077 Imperfect,5,AGTA
111496 Imperfect,5,AGTC
137461 Imperfect,5,AGTG
118955 Imperfect,5,AGTT
299202 Imperfect,5,ATAA
166051 Imperfect,5,ATAC
140617 Imperfect,5,ATAG
196339 Imperfect,5,ATAT
145615 Imperfect,5,ATCA
117514 Imperfect,5,ATCC
12250 Imperfect,5,ATCG
103632 Imperfect,5,ATCT
202407 Imperfect,5,ATGA
131535 Imperfect,5,ATGC
149840 Imperfect,5,ATGG
135908 Imperfect,5,ATGT
193298 Imperfect,5,ATTA
172897 Imperfect,5,ATTC
134271 Imperfect,5,ATTG
209054 Imperfect,5,ATTT
101019 Imperfect,5,CAAA
70651 Imperfect,5,CAAC
66538 Imperfect,5,CAAG
71711 Imperfect,5,CAAT
86175 Imperfect,5,CACA
68230 Imperfect,5,CACC
24618 Imperfect,5,CACG
92188 Imperfect,5,CACT
68091 Imperfect,5,CAGA
124730 Imperfect,5,CAGC
109398 Imperfect,5,CAGG
71789 Imperfect,5,CAGT
59039 Imperfect,5,CATA
79166 Imperfect,5,CATC
90468 Imperfect,5,CATG
121922 Imperfect,5,CATT
87188 Imperfect,5,CCAA
114414 Imperfect,5,CCAC
123763 Imperfect,5,CCAG
109545 Imperfect,5,CCAT
89866 Imperfect,5,CCCA
66608 Imperfect,5,CCCC
10312 Imperfect,5,CCCG
79342 Imperfect,5,CCCT
7049 Imperfect,5,CCGA
20973 Imperfect,5,CCGC
12821 Imperfect,5,CCGG
17188 Imperfect,5,CCGT
60583 Imperfect,5,CCTA
111185 Imperfect,5,CCTC
81776 Imperfect,5,CCTG
107651 Imperfect,5,CCTT
13541 Imperfect,5,CGAA
10061 Imperfect,5,CGAC
11425 Imperfect,5,CGAG
16589 Imperfect,5,CGAT
13473 Imperfect,5,CGCA
21280 Imperfect,5,CGCC
6889 Imperfect,5,CGCG
15325 Imperfect,5,CGCT
8291 Imperfect,5,CGGA
21693 Imperfect,5,CGGC
17214 Imperfect,5,CGGG
8891 Imperfect,5,CGGT
8529 Imperfect,5,CGTA
12027 Imperfect,5,CGTC
19544 Imperfect,5,CGTG
14932 Imperfect,5,CGTT
56788 Imperfect,5,CTAA
57013 Imperfect,5,CTAC
50545 Imperfect,5,CTAG
59102 Imperfect,5,CTAT
93486 Imperfect,5,CTCA
128564 Imperfect,5,CTCC
9375 Imperfect,5,CTCG
95278 Imperfect,5,CTCT
76505 Imperfect,5,CTGA
85967 Imperfect,5,CTGC
89049 Imperfect,5,CTGG
78214 Imperfect,5,CTGT
62894 Imperfect,5,CTTA
111748 Imperfect,5,CTTC
72100 Imperfect,5,CTTG
122957 Imperfect,5,CTTT
135454 Imperfect,5,GAAA
11721 Imperfect,5,GAAC
98571 Imperfect,5,GAAG
123130 Imperfect,5,GAAT
84424 Imperfect,5,GACA
7225 Imperfect,5,GACC
14036 Imperfect,5,GACG
78922 Imperfect,5,GACT
100826 Imperfect,5,GAGA
9663 Imperfect,5,GAGC
76919 Imperfect,5,GAGG
88756 Imperfect,5,GAGT
62189 Imperfect,5,GATA
12681 Imperfect,5,GATC
100119 Imperfect,5,GATG
84599 Imperfect,5,GATT
99026 Imperfect,5,GCAA
16845 Imperfect,5,GCAC
106164 Imperfect,5,GCAG
107612 Imperfect,5,GCAT
114160 Imperfect,5,GCCA
16590 Imperfect,5,GCCC
17730 Imperfect,5,GCCG
143938 Imperfect,5,GCCT
14554 Imperfect,5,GCGA
6286 Imperfect,5,GCGC
16491 Imperfect,5,GCGG
26334 Imperfect,5,GCGT
60893 Imperfect,5,GCTA
9924 Imperfect,5,GCTC
160400 Imperfect,5,GCTG
90564 Imperfect,5,GCTT
135570 Imperfect,5,GGAA
9586 Imperfect,5,GGAC
150496 Imperfect,5,GGAG
85268 Imperfect,5,GGAT
106435 Imperfect,5,GGCA
16298 Imperfect,5,GGCC
17781 Imperfect,5,GGCG
115013 Imperfect,5,GGCT
100741 Imperfect,5,GGGA
18696 Imperfect,5,GGGC
67446 Imperfect,5,GGGG
76780 Imperfect,5,GGGT
66991 Imperfect,5,GGTA
7059 Imperfect,5,GGTC
107529 Imperfect,5,GGTG
81596 Imperfect,5,GGTT
68372 Imperfect,5,GTAA
5426 Imperfect,5,GTAC
58047 Imperfect,5,GTAG
64134 Imperfect,5,GTAT
88447 Imperfect,5,GTCA
6336 Imperfect,5,GTCC
8196 Imperfect,5,GTCG
77815 Imperfect,5,GTCT
125203 Imperfect,5,GTGA
11198 Imperfect,5,GTGC
106848 Imperfect,5,GTGG
101344 Imperfect,5,GTGT
64283 Imperfect,5,GTTA
11109 Imperfect,5,GTTC
82615 Imperfect,5,GTTG
113874 Imperfect,5,GTTT
220467 Imperfect,5,TAAA
113100 Imperfect,5,TAAC
113469 Imperfect,5,TAAG
225953 Imperfect,5,TAAT
142677 Imperfect,5,TACA
97425 Imperfect,5,TACC
17472 Imperfect,5,TACG
143468 Imperfect,5,TACT
108950 Imperfect,5,TAGA
109847 Imperfect,5,TAGC
81782 Imperfect,5,TAGG
136261 Imperfect,5,TAGT
208513 Imperfect,5,TATA
152953 Imperfect,5,TATC
160692 Imperfect,5,TATG
384984 Imperfect,5,TATT
160935 Imperfect,5,TCAA
158909 Imperfect,5,TCAC
139231 Imperfect,5,TCAG
216377 Imperfect,5,TCAT
154848 Imperfect,5,TCCA
134088 Imperfect,5,TCCC
14388 Imperfect,5,TCCG
179262 Imperfect,5,TCCT
12613 Imperfect,5,TCGA
17120 Imperfect,5,TCGC
11263 Imperfect,5,TCGG
18260 Imperfect,5,TCGT
155657 Imperfect,5,TCTA
219525 Imperfect,5,TCTC
194455 Imperfect,5,TCTG
312660 Imperfect,5,TCTT
183226 Imperfect,5,TGAA
113378 Imperfect,5,TGAC
119238 Imperfect,5,TGAG
186373 Imperfect,5,TGAT
138405 Imperfect,5,TGCA
145769 Imperfect,5,TGCC
11843 Imperfect,5,TGCG
168518 Imperfect,5,TGCT
128381 Imperfect,5,TGGA
146286 Imperfect,5,TGGC
108625 Imperfect,5,TGGG
143719 Imperfect,5,TGGT
193522 Imperfect,5,TGTA
171859 Imperfect,5,TGTC
166251 Imperfect,5,TGTG
284895 Imperfect,5,TGTT
170834 Imperfect,5,TTAA
112359 Imperfect,5,TTAC
104120 Imperfect,5,TTAG
208614 Imperfect,5,TTAT
173732 Imperfect,5,TTCA
177153 Imperfect,5,TTCC
14810 Imperfect,5,TTCG
215221 Imperfect,5,TTCT
128538 Imperfect,5,TTGA
139224 Imperfect,5,TTGC
112971 Imperfect,5,TTGG
165076 Imperfect,5,TTGT
248276 Imperfect,5,TTTA
294044 Imperfect,5,TTTC
230737 Imperfect,5,TTTG
470591 Imperfect,5,TTTT
144011 Imperfect,6,AAAA
63856 Imperfect,6,AAAC
80950 Imperfect,6,AAAG
92698 Imperfect,6,AAAT
104989 Imperfect,6,AACA
46327 Imperfect,6,AACC
6931 Imperfect,6,AACG
44022 Imperfect,6,AACT
132853 Imperfect,6,AAGA
59916 Imperfect,6,AAGC
70427 Imperfect,6,AAGG
48462 Imperfect,6,AAGT
119868 Imperfect,6,AATA
50124 Imperfect,6,AATC
70556 Imperfect,6,AATG
68263 Imperfect,6,AATT
26524 Imperfect,6,ACAA
21288 Imperfect,6,ACAC
19067 Imperfect,6,ACAG
19593 Imperfect,6,ACAT
22194 Imperfect,6,ACCA
20102 Imperfect,6,ACCC
1633 Imperfect,6,ACCG
17456 Imperfect,6,ACCT
3026 Imperfect,6,ACGA
3212 Imperfect,6,ACGC
2546 Imperfect,6,ACGG
3399 Imperfect,6,ACGT
14227 Imperfect,6,ACTA
17907 Imperfect,6,ACTC
15600 Imperfect,6,ACTG
17421 Imperfect,6,ACTT
51596 Imperfect,6,AGAA
36795 Imperfect,6,AGAC
36857 Imperfect,6,AGAG
21719 Imperfect,6,AGAT
39319 Imperfect,6,AGCA
41540 Imperfect,6,AGCC
7127 Imperfect,6,AGCG
21042 Imperfect,6,AGCT
50005 Imperfect,6,AGGA
41876 Imperfect,6,AGGC
31244 Imperfect,6,AGGG
22622 Imperfect,6,AGGT
22678 Imperfect,6,AGTA
28120 Imperfect,6,AGTC
49706 Imperfect,6,AGTG
21692 Imperfect,6,AGTT
70948 Imperfect,6,ATAA
44326 Imperfect,6,ATAC
32452 Imperfect,6,ATAG
72517 Imperfect,6,ATAT
45307 Imperfect,6,ATCA
35867 Imperfect,6,ATCC
4005 Imperfect,6,ATCG
40025 Imperfect,6,ATCT
48351 Imperfect,6,ATGA
35391 Imperfect,6,ATGC
34360 Imperfect,6,ATGG
57425 Imperfect,6,ATGT
45116 Imperfect,6,ATTA
42061 Imperfect,6,ATTC
32312 Imperfect,6,ATTG
68796 Imperfect,6,ATTT
40745 Imperfect,6,CAAA
23338 Imperfect,6,CAAC
25720 Imperfect,6,CAAG
27294 Imperfect,6,CAAT
42320 Imperfect,6,CACA
34141 Imperfect,6,CACC
4056 Imperfect,6,CACG
26630 Imperfect,6,CACT
37341 Imperfect,6,CAGA
38303 Imperfect,6,CAGC
44886 Imperfect,6,CAGG
25948 Imperfect,6,CAGT
30654 Imperfect,6,CATA
24837 Imperfect,6,CATC
29993 Imperfect,6,CATG
38686 Imperfect,6,CATT
15531 Imperfect,6,CCAA
25263 Imperfect,6,CCAC
47139 Imperfect,6,CCAG
23393 Imperfect,6,CCAT
30024 Imperfect,6,CCCA
12848 Imperfect,6,CCCC
8034 Imperfect,6,CCCG
21185 Imperfect,6,CCCT
3152 Imperfect,6,CCGA
6522 Imperfect,6,CCGC
7021 Imperfect,6,CCGG
2922 Imperfect,6,CCGT
12929 Imperfect,6,CCTA
59136 Imperfect,6,CCTC
22426 Imperfect,6,CCTG
26414 Imperfect,6,CCTT
379 Imperfect,6,CGAA
415 Imperfect,6,CGAC
717 Imperfect,6,CGAG
365 Imperfect,6,CGAT
618 Imperfect,6,CGCA
3702 Imperfect,6,CGCC
517 Imperfect,6,CGCG
620 Imperfect,6,CGCT
617 Imperfect,6,CGGA
1491 Imperfect,6,CGGC
3584 Imperfect,6,CGGG
369 Imperfect,6,CGGT
236 Imperfect,6,CGTA
716 Imperfect,6,CGTC
851 Imperfect,6,CGTG
356 Imperfect,6,CGTT
21165 Imperfect,6,CTAA
23500 Imperfect,6,CTAC
18556 Imperfect,6,CTAG
26621 Imperfect,6,CTAT
46439 Imperfect,6,CTCA
32019 Imperfect,6,CTCC
4295 Imperfect,6,CTCG
46014 Imperfect,6,CTCT
28377 Imperfect,6,CTGA
53959 Imperfect,6,CTGC
39299 Imperfect,6,CTGG
49810 Imperfect,6,CTGT
21613 Imperfect,6,CTTA
44877 Imperfect,6,CTTC
31197 Imperfect,6,CTTG
54378 Imperfect,6,CTTT
42568 Imperfect,6,GAAA
2665 Imperfect,6,GAAC
29440 Imperfect,6,GAAG
31769 Imperfect,6,GAAT
46167 Imperfect,6,GACA
2184 Imperfect,6,GACC
5851 Imperfect,6,GACG
23227 Imperfect,6,GACT
40663 Imperfect,6,GAGA
2913 Imperfect,6,GAGC
25493 Imperfect,6,GAGG
24933 Imperfect,6,GAGT
24605 Imperfect,6,GATA
3575 Imperfect,6,GATC
30721 Imperfect,6,GATG
18515 Imperfect,6,GATT
12389 Imperfect,6,GCAA
2689 Imperfect,6,GCAC
13734 Imperfect,6,GCAG
14029 Imperfect,6,GCAT
16587 Imperfect,6,GCCA
2346 Imperfect,6,GCCC
2192 Imperfect,6,GCCG
14741 Imperfect,6,GCCT
2211 Imperfect,6,GCGA
1154 Imperfect,6,GCGC
4296 Imperfect,6,GCGG
3211 Imperfect,6,GCGT
11118 Imperfect,6,GCTA
1760 Imperfect,6,GCTC
15695 Imperfect,6,GCTG
12512 Imperfect,6,GCTT
28396 Imperfect,6,GGAA
2440 Imperfect,6,GGAC
24178 Imperfect,6,GGAG
22726 Imperfect,6,GGAT
39167 Imperfect,6,GGCA
7054 Imperfect,6,GGCC
8214 Imperfect,6,GGCG
53271 Imperfect,6,GGCT
59691 Imperfect,6,GGGA
4727 Imperfect,6,GGGC
13123 Imperfect,6,GGGG
21924 Imperfect,6,GGGT
15604 Imperfect,6,GGTA
2813 Imperfect,6,GGTC
36375 Imperfect,6,GGTG
16670 Imperfect,6,GGTT
19572 Imperfect,6,GTAA
2951 Imperfect,6,GTAC
16538 Imperfect,6,GTAG
28144 Imperfect,6,GTAT
19948 Imperfect,6,GTCA
2336 Imperfect,6,GTCC
1740 Imperfect,6,GTCG
30731 Imperfect,6,GTCT
19620 Imperfect,6,GTGA
1941 Imperfect,6,GTGC
18413 Imperfect,6,GTGG
27854 Imperfect,6,GTGT
13088 Imperfect,6,GTTA
2188 Imperfect,6,GTTC
19273 Imperfect,6,GTTG
29181 Imperfect,6,GTTT
62172 Imperfect,6,TAAA
22885 Imperfect,6,TAAC
25141 Imperfect,6,TAAG
43131 Imperfect,6,TAAT
52464 Imperfect,6,TACA
26475 Imperfect,6,TACC
5387 Imperfect,6,TACG
31770 Imperfect,6,TACT
35031 Imperfect,6,TAGA
24128 Imperfect,6,TAGC
26401 Imperfect,6,TAGG
27645 Imperfect,6,TAGT
61230 Imperfect,6,TATA
27290 Imperfect,6,TATC
37859 Imperfect,6,TATG
58762 Imperfect,6,TATT
16391 Imperfect,6,TCAA
26334 Imperfect,6,TCAC
18731 Imperfect,6,TCAG
34441 Imperfect,6,TCAT
31900 Imperfect,6,TCCA
26880 Imperfect,6,TCCC
5591 Imperfect,6,TCCG
37434 Imperfect,6,TCCT
4139 Imperfect,6,TCGA
6466 Imperfect,6,TCGC
2313 Imperfect,6,TCGG
3959 Imperfect,6,TCGT
19309 Imperfect,6,TCTA
31385 Imperfect,6,TCTC
30121 Imperfect,6,TCTG
37979 Imperfect,6,TCTT
38067 Imperfect,6,TGAA
25215 Imperfect,6,TGAC
23198 Imperfect,6,TGAG
30071 Imperfect,6,TGAT
31426 Imperfect,6,TGCA
47862 Imperfect,6,TGCC
4509 Imperfect,6,TGCG
36014 Imperfect,6,TGCT
29426 Imperfect,6,TGGA
36720 Imperfect,6,TGGC
33777 Imperfect,6,TGGG
26185 Imperfect,6,TGGT
24596 Imperfect,6,TGTA
28438 Imperfect,6,TGTC
36147 Imperfect,6,TGTG
38449 Imperfect,6,TGTT
70008 Imperfect,6,TTAA
45792 Imperfect,6,TTAC
40380 Imperfect,6,TTAG
134071 Imperfect,6,TTAT
76122 Imperfect,6,TTCA
69077 Imperfect,6,TTCC
7051 Imperfect,6,TTCG
127626 Imperfect,6,TTCT
59447 Imperfect,6,TTGA
57527 Imperfect,6,TTGC
46125 Imperfect,6,TTGG
100759 Imperfect,6,TTGT
88477 Imperfect,6,TTTA
90883 Imperfect,6,TTTC
70092 Imperfect,6,TTTG
146320 Imperfect,6,TTTT
39967 Imperfect,7,AAAA
41586 Imperfect,7,AAAC
53386 Imperfect,7,AAAG
50924 Imperfect,7,AAAT
7901 Imperfect,7,AACA
5358 Imperfect,7,AACC
927 Imperfect,7,AACG
4718 Imperfect,7,AACT
12192 Imperfect,7,AAGA
10747 Imperfect,7,AAGC
12301 Imperfect,7,AAGG
6189 Imperfect,7,AAGT
19287 Imperfect,7,AATA
15246 Imperfect,7,AATC
14636 Imperfect,7,AATG
12633 Imperfect,7,AATT
10118 Imperfect,7,ACAA
11546 Imperfect,7,ACAC
13793 Imperfect,7,ACAG
11562 Imperfect,7,ACAT
2651 Imperfect,7,ACCA
3109 Imperfect,7,ACCC
406 Imperfect,7,ACCG
2311 Imperfect,7,ACCT
93 Imperfect,7,ACGA
90 Imperfect,7,ACGC
137 Imperfect,7,ACGG
70 Imperfect,7,ACGT
3478 Imperfect,7,ACTA
5905 Imperfect,7,ACTC
6102 Imperfect,7,ACTG
5163 Imperfect,7,ACTT
14528 Imperfect,7,AGAA
18234 Imperfect,7,AGAC
14653 Imperfect,7,AGAG
7921 Imperfect,7,AGAT
2940 Imperfect,7,AGCA
4355 Imperfect,7,AGCC
749 Imperfect,7,AGCG
2719 Imperfect,7,AGCT
7962 Imperfect,7,AGGA
19986 Imperfect,7,AGGC
7783 Imperfect,7,AGGG
5164 Imperfect,7,AGGT
5199 Imperfect,7,AGTA
5896 Imperfect,7,AGTC
5869 Imperfect,7,AGTG
3453 Imperfect,7,AGTT
16947 Imperfect,7,ATAA
17636 Imperfect,7,ATAC
10501 Imperfect,7,ATAG
19831 Imperfect,7,ATAT
2493 Imperfect,7,ATCA
6801 Imperfect,7,ATCC
570 Imperfect,7,ATCG
3503 Imperfect,7,ATCT
8093 Imperfect,7,ATGA
6458 Imperfect,7,ATGC
8596 Imperfect,7,ATGG
5796 Imperfect,7,ATGT
12921 Imperfect,7,ATTA
14962 Imperfect,7,ATTC
15279 Imperfect,7,ATTG
19789 Imperfect,7,ATTT
7707 Imperfect,7,CAAA
6452 Imperfect,7,CAAC
13336 Imperfect,7,CAAG
6696 Imperfect,7,CAAT
6082 Imperfect,7,CACA
4824 Imperfect,7,CACC
1305 Imperfect,7,CACG
3990 Imperfect,7,CACT
5214 Imperfect,7,CAGA
7170 Imperfect,7,CAGC
8142 Imperfect,7,CAGG
5671 Imperfect,7,CAGT
5770 Imperfect,7,CATA
8647 Imperfect,7,CATC
6603 Imperfect,7,CATG
8345 Imperfect,7,CATT
3763 Imperfect,7,CCAA
5674 Imperfect,7,CCAC
9155 Imperfect,7,CCAG
4300 Imperfect,7,CCAT
9040 Imperfect,7,CCCA
1597 Imperfect,7,CCCC
2213 Imperfect,7,CCCG
7886 Imperfect,7,CCCT
120 Imperfect,7,CCGA
330 Imperfect,7,CCGC
771 Imperfect,7,CCGG
279 Imperfect,7,CCGT
4861 Imperfect,7,CCTA
7756 Imperfect,7,CCTC
20031 Imperfect,7,CCTG
7783 Imperfect,7,CCTT
55 Imperfect,7,CGAA
56 Imperfect,7,CGAC
121 Imperfect,7,CGAG
55 Imperfect,7,CGAT
373 Imperfect,7,CGCA
255 Imperfect,7,CGCC
206 Imperfect,7,CGCG
205 Imperfect,7,CGCT
287 Imperfect,7,CGGA
752 Imperfect,7,CGGC
399 Imperfect,7,CGGG
123 Imperfect,7,CGGT
84 Imperfect,7,CGTA
102 Imperfect,7,CGTC
109 Imperfect,7,CGTG
90 Imperfect,7,CGTT
3637 Imperfect,7,CTAA
3783 Imperfect,7,CTAC
4928 Imperfect,7,CTAG
2996 Imperfect,7,CTAT
9198 Imperfect,7,CTCA
6758 Imperfect,7,CTCC
3565 Imperfect,7,CTCG
6544 Imperfect,7,CTCT
5696 Imperfect,7,CTGA
8115 Imperfect,7,CTGC
7409 Imperfect,7,CTGG
5105 Imperfect,7,CTGT
6169 Imperfect,7,CTTA
12240 Imperfect,7,CTTC
10900 Imperfect,7,CTTG
12056 Imperfect,7,CTTT
10500 Imperfect,7,GAAA
1171 Imperfect,7,GAAC
13914 Imperfect,7,GAAG
10129 Imperfect,7,GAAT
2369 Imperfect,7,GACA
246 Imperfect,7,GACC
362 Imperfect,7,GACG
1961 Imperfect,7,GACT
6371 Imperfect,7,GAGA
3634 Imperfect,7,GAGC
6707 Imperfect,7,GAGG
9323 Imperfect,7,GAGT
3435 Imperfect,7,GATA
576 Imperfect,7,GATC
6717 Imperfect,7,GATG
2544 Imperfect,7,GATT
3102 Imperfect,7,GCAA
882 Imperfect,7,GCAC
4583 Imperfect,7,GCAG
4997 Imperfect,7,GCAT
3369 Imperfect,7,GCCA
2107 Imperfect,7,GCCC
666 Imperfect,7,GCCG
3342 Imperfect,7,GCCT
206 Imperfect,7,GCGA
180 Imperfect,7,GCGC
236 Imperfect,7,GCGG
356 Imperfect,7,GCGT
2665 Imperfect,7,GCTA
727 Imperfect,7,GCTC
4539 Imperfect,7,GCTG
2830 Imperfect,7,GCTT
6102 Imperfect,7,GGAA
743 Imperfect,7,GGAC
5245 Imperfect,7,GGAG
5409 Imperfect,7,GGAT
3392 Imperfect,7,GGCA
671 Imperfect,7,GGCC
2106 Imperfect,7,GGCG
3432 Imperfect,7,GGCT
8083 Imperfect,7,GGGA
2201 Imperfect,7,GGGC
1628 Imperfect,7,GGGG
9154 Imperfect,7,GGGT
2377 Imperfect,7,GGTA
399 Imperfect,7,GGTC
3267 Imperfect,7,GGTG
2611 Imperfect,7,GGTT
3188 Imperfect,7,GTAA
769 Imperfect,7,GTAC
3482 Imperfect,7,GTAG
3357 Imperfect,7,GTAT
2045 Imperfect,7,GTCA
319 Imperfect,7,GTCC
263 Imperfect,7,GTCG
2321 Imperfect,7,GTCT
4028 Imperfect,7,GTGA
1239 Imperfect,7,GTGC
4827 Imperfect,7,GTGG
6067 Imperfect,7,GTGT
4864 Imperfect,7,GTTA
911 Imperfect,7,GTTC
5515 Imperfect,7,GTTG
7899 Imperfect,7,GTTT
13311 Imperfect,7,TAAA
8294 Imperfect,7,TAAC
9435 Imperfect,7,TAAG
11809 Imperfect,7,TAAT
3364 Imperfect,7,TACA
3509 Imperfect,7,TACC
742 Imperfect,7,TACG
3269 Imperfect,7,TACT
2953 Imperfect,7,TAGA
5057 Imperfect,7,TAGC
3943 Imperfect,7,TAGG
3834 Imperfect,7,TAGT
19735 Imperfect,7,TATA
10844 Imperfect,7,TATC
18072 Imperfect,7,TATG
17097 Imperfect,7,TATT
4689 Imperfect,7,TCAA
7412 Imperfect,7,TCAC
6369 Imperfect,7,TCAG
7648 Imperfect,7,TCAT
5304 Imperfect,7,TCCA
5482 Imperfect,7,TCCC
809 Imperfect,7,TCCG
6167 Imperfect,7,TCCT
51 Imperfect,7,TCGA
98 Imperfect,7,TCGC
49 Imperfect,7,TCGG
60 Imperfect,7,TCGT
8122 Imperfect,7,TCTA
14630 Imperfect,7,TCTC
18006 Imperfect,7,TCTG
14588 Imperfect,7,TCTT
7654 Imperfect,7,TGAA
6411 Imperfect,7,TGAC
7661 Imperfect,7,TGAG
4635 Imperfect,7,TGAT
4974 Imperfect,7,TGCA
4605 Imperfect,7,TGCC
896 Imperfect,7,TGCG
2961 Imperfect,7,TGCT
4293 Imperfect,7,TGGA
9351 Imperfect,7,TGGC
5736 Imperfect,7,TGGG
3842 Imperfect,7,TGGT
11695 Imperfect,7,TGTA
13852 Imperfect,7,TGTC
11702 Imperfect,7,TGTG
10140 Imperfect,7,TGTT
11958 Imperfect,7,TTAA
9658 Imperfect,7,TTAC
8364 Imperfect,7,TTAG
13365 Imperfect,7,TTAT
10115 Imperfect,7,TTCA
13802 Imperfect,7,TTCC
1244 Imperfect,7,TTCG
10313 Imperfect,7,TTCT
6806 Imperfect,7,TTGA
13215 Imperfect,7,TTGC
6569 Imperfect,7,TTGG
7787 Imperfect,7,TTGT
51513 Imperfect,7,TTTA
54365 Imperfect,7,TTTC
42067 Imperfect,7,TTTG
40581 Imperfect,7,TTTT
4890 Perfect,10,AAAA
1409 Perfect,10,AAAC
1028 Perfect,10,AAAG
1377 Perfect,10,AAAT
513 Perfect,10,AACA
148 Perfect,10,AACC
9 Perfect,10,AACG
89 Perfect,10,AACT
1114 Perfect,10,AAGA
254 Perfect,10,AAGC
506 Perfect,10,AAGG
182 Perfect,10,AAGT
919 Perfect,10,AATA
231 Perfect,10,AATC
809 Perfect,10,AATG
415 Perfect,10,AATT
129 Perfect,10,ACAA
409 Perfect,10,ACAC
97 Perfect,10,ACAG
128 Perfect,10,ACAT
64 Perfect,10,ACCA
70 Perfect,10,ACCC
1 Perfect,10,ACCG
34 Perfect,10,ACCT
5 Perfect,10,ACGA
13 Perfect,10,ACGC
1 Perfect,10,ACGG
3 Perfect,10,ACGT
19 Perfect,10,ACTA
79 Perfect,10,ACTC
38 Perfect,10,ACTG
52 Perfect,10,ACTT
467 Perfect,10,AGAA
179 Perfect,10,AGAC
510 Perfect,10,AGAG
133 Perfect,10,AGAT
102 Perfect,10,AGCA
177 Perfect,10,AGCC
3 Perfect,10,AGCG
62 Perfect,10,AGCT
332 Perfect,10,AGGA
1065 Perfect,10,AGGC
249 Perfect,10,AGGG
83 Perfect,10,AGGT
69 Perfect,10,AGTA
101 Perfect,10,AGTC
189 Perfect,10,AGTG
59 Perfect,10,AGTT
688 Perfect,10,ATAA
387 Perfect,10,ATAC
169 Perfect,10,ATAG
1762 Perfect,10,ATAT
243 Perfect,10,ATCA
160 Perfect,10,ATCC
1 Perfect,10,ATCG
183 Perfect,10,ATCT
372 Perfect,10,ATGA
241 Perfect,10,ATGC
175 Perfect,10,ATGG
347 Perfect,10,ATGT
223 Perfect,10,ATTA
382 Perfect,10,ATTC
276 Perfect,10,ATTG
675 Perfect,10,ATTT
223 Perfect,10,CAAA
106 Perfect,10,CAAC
103 Perfect,10,CAAG
115 Perfect,10,CAAT
658 Perfect,10,CACA
104 Perfect,10,CACC
6 Perfect,10,CACG
114 Perfect,10,CACT
148 Perfect,10,CAGA
105 Perfect,10,CAGC
168 Perfect,10,CAGG
92 Perfect,10,CAGT
147 Perfect,10,CATA
94 Perfect,10,CATC
183 Perfect,10,CATG
267 Perfect,10,CATT
46 Perfect,10,CCAA
165 Perfect,10,CCAC
133 Perfect,10,CCAG
93 Perfect,10,CCAT
200 Perfect,10,CCCA
90 Perfect,10,CCCC
34 Perfect,10,CCCG
229 Perfect,10,CCCT
3 Perfect,10,CCGA
27 Perfect,10,CCGC
16 Perfect,10,CCGG
5 Perfect,10,CCGT
46 Perfect,10,CCTA
467 Perfect,10,CCTC
172 Perfect,10,CCTG
246 Perfect,10,CCTT
1 Perfect,10,CGAC
1 Perfect,10,CGAG
1 Perfect,10,CGCA
10 Perfect,10,CGCC
4 Perfect,10,CGCG
2 Perfect,10,CGCT
2 Perfect,10,CGGA
7 Perfect,10,CGGC
8 Perfect,10,CGGG
2 Perfect,10,CGTC
6 Perfect,10,CGTT
55 Perfect,10,CTAA
80 Perfect,10,CTAC
53 Perfect,10,CTAG
108 Perfect,10,CTAT
148 Perfect,10,CTCA
286 Perfect,10,CTCC
6 Perfect,10,CTCG
457 Perfect,10,CTCT
100 Perfect,10,CTGA
1074 Perfect,10,CTGC
185 Perfect,10,CTGG
178 Perfect,10,CTGT
65 Perfect,10,CTTA
340 Perfect,10,CTTC
133 Perfect,10,CTTG
488 Perfect,10,CTTT
370 Perfect,10,GAAA
2 Perfect,10,GAAC
272 Perfect,10,GAAG
184 Perfect,10,GAAT
127 Perfect,10,GACA
1 Perfect,10,GACC
6 Perfect,10,GACG
79 Perfect,10,GACT
476 Perfect,10,GAGA
5 Perfect,10,GAGC
242 Perfect,10,GAGG
82 Perfect,10,GAGT
71 Perfect,10,GATA
2 Perfect,10,GATC
101 Perfect,10,GATG
76 Perfect,10,GATT
39 Perfect,10,GCAA
15 Perfect,10,GCAC
106 Perfect,10,GCAG
46 Perfect,10,GCAT
62 Perfect,10,GCCA
11 Perfect,10,GCCC
8 Perfect,10,GCCG
78 Perfect,10,GCCT
4 Perfect,10,GCGA
26 Perfect,10,GCGC
11 Perfect,10,GCGG
10 Perfect,10,GCGT
16 Perfect,10,GCTA
5 Perfect,10,GCTC
57 Perfect,10,GCTG
40 Perfect,10,GCTT
254 Perfect,10,GGAA
8 Perfect,10,GGAC
228 Perfect,10,GGAG
89 Perfect,10,GGAT
195 Perfect,10,GGCA
15 Perfect,10,GGCC
41 Perfect,10,GGCG
129 Perfect,10,GGCT
482 Perfect,10,GGGA
26 Perfect,10,GGGC
106 Perfect,10,GGGG
148 Perfect,10,GGGT
50 Perfect,10,GGTA
2 Perfect,10,GGTC
179 Perfect,10,GGTG
42 Perfect,10,GGTT
46 Perfect,10,GTAA
3 Perfect,10,GTAC
46 Perfect,10,GTAG
118 Perfect,10,GTAT
52 Perfect,10,GTCA
4 Perfect,10,GTCC
1 Perfect,10,GTCG
102 Perfect,10,GTCT
76 Perfect,10,GTGA
2 Perfect,10,GTGC
75 Perfect,10,GTGG
444 Perfect,10,GTGT
21 Perfect,10,GTTA
67 Perfect,10,GTTG
147 Perfect,10,GTTT
690 Perfect,10,TAAA
72 Perfect,10,TAAC
97 Perfect,10,TAAG
275 Perfect,10,TAAT
276 Perfect,10,TACA
70 Perfect,10,TACC
3 Perfect,10,TACG
89 Perfect,10,TACT
146 Perfect,10,TAGA
50 Perfect,10,TAGC
79 Perfect,10,TAGG
65 Perfect,10,TAGT
1880 Perfect,10,TATA
127 Perfect,10,TATC
296 Perfect,10,TATG
678 Perfect,10,TATT
68 Perfect,10,TCAA
86 Perfect,10,TCAC
67 Perfect,10,TCAG
198 Perfect,10,TCAT
93 Perfect,10,TCCA
269 Perfect,10,TCCC
4 Perfect,10,TCCG
247 Perfect,10,TCCT
2 Perfect,10,TCGA
3 Perfect,10,TCGC
1 Perfect,10,TCGG
1 Perfect,10,TCGT
76 Perfect,10,TCTA
442 Perfect,10,TCTC
151 Perfect,10,TCTG
367 Perfect,10,TCTT
296 Perfect,10,TGAA
97 Perfect,10,TGAC
109 Perfect,10,TGAG
118 Perfect,10,TGAT
192 Perfect,10,TGCA
159 Perfect,10,TGCC
16 Perfect,10,TGCG
97 Perfect,10,TGCT
121 Perfect,10,TGGA
133 Perfect,10,TGGC
107 Perfect,10,TGGG
88 Perfect,10,TGGT
142 Perfect,10,TGTA
150 Perfect,10,TGTC
608 Perfect,10,TGTG
220 Perfect,10,TGTT
461 Perfect,10,TTAA
202 Perfect,10,TTAC
102 Perfect,10,TTAG
1444 Perfect,10,TTAT
826 Perfect,10,TTCA
539 Perfect,10,TTCC
2 Perfect,10,TTCG
974 Perfect,10,TTCT
240 Perfect,10,TTGA
232 Perfect,10,TTGC
152 Perfect,10,TTGG
1384 Perfect,10,TTGT
854 Perfect,10,TTTA
1156 Perfect,10,TTTC
523 Perfect,10,TTTG
5064 Perfect,10,TTTT
1 Perfect,111,TTCT
2843 Perfect,11,AAAA
1112 Perfect,11,AAAC
1408 Perfect,11,AAAG
1312 Perfect,11,AAAT
46 Perfect,11,AACA
20 Perfect,11,AACC
3 Perfect,11,AACG
9 Perfect,11,AACT
168 Perfect,11,AAGA
58 Perfect,11,AAGC
165 Perfect,11,AAGG
28 Perfect,11,AAGT
304 Perfect,11,AATA
176 Perfect,11,AATC
236 Perfect,11,AATG
135 Perfect,11,AATT
61 Perfect,11,ACAA
857 Perfect,11,ACAC
84 Perfect,11,ACAG
176 Perfect,11,ACAT
7 Perfect,11,ACCA
57 Perfect,11,ACCC
2 Perfect,11,ACCG
14 Perfect,11,ACCT
9 Perfect,11,ACTA
329 Perfect,11,ACTC
24 Perfect,11,ACTG
17 Perfect,11,ACTT
254 Perfect,11,AGAA
124 Perfect,11,AGAC
528 Perfect,11,AGAG
76 Perfect,11,AGAT
18 Perfect,11,AGCA
34 Perfect,11,AGCC
1 Perfect,11,AGCG
12 Perfect,11,AGCT
107 Perfect,11,AGGA
87 Perfect,11,AGGC
154 Perfect,11,AGGG
23 Perfect,11,AGGT
20 Perfect,11,AGTA
36 Perfect,11,AGTC
308 Perfect,11,AGTG
11 Perfect,11,AGTT
308 Perfect,11,ATAA
422 Perfect,11,ATAC
141 Perfect,11,ATAG
1178 Perfect,11,ATAT
12 Perfect,11,ATCA
60 Perfect,11,ATCC
65 Perfect,11,ATCT
95 Perfect,11,ATGA
97 Perfect,11,ATGC
56 Perfect,11,ATGG
51 Perfect,11,ATGT
133 Perfect,11,ATTA
239 Perfect,11,ATTC
189 Perfect,11,ATTG
339 Perfect,11,ATTT
88 Perfect,11,CAAA
42 Perfect,11,CAAC
49 Perfect,11,CAAG
37 Perfect,11,CAAT
231 Perfect,11,CACA
37 Perfect,11,CACC
26 Perfect,11,CACG
43 Perfect,11,CACT
24 Perfect,11,CAGA
39 Perfect,11,CAGC
66 Perfect,11,CAGG
21 Perfect,11,CAGT
55 Perfect,11,CATA
58 Perfect,11,CATC
107 Perfect,11,CATG
87 Perfect,11,CATT
25 Perfect,11,CCAA
45 Perfect,11,CCAC
59 Perfect,11,CCAG
32 Perfect,11,CCAT
73 Perfect,11,CCCA
70 Perfect,11,CCCC
19 Perfect,11,CCCG
74 Perfect,11,CCCT
6 Perfect,11,CCGC
5 Perfect,11,CCGG
24 Perfect,11,CCTA
128 Perfect,11,CCTC
92 Perfect,11,CCTG
96 Perfect,11,CCTT
2 Perfect,11,CGAG
2 Perfect,11,CGCA
4 Perfect,11,CGCC
7 Perfect,11,CGCG
1 Perfect,11,CGGA
12 Perfect,11,CGGC
2 Perfect,11,CGGG
1 Perfect,11,CGTT
8 Perfect,11,CTAA
30 Perfect,11,CTAC
24 Perfect,11,CTAG
34 Perfect,11,CTAT
59 Perfect,11,CTCA
150 Perfect,11,CTCC
17 Perfect,11,CTCG
198 Perfect,11,CTCT
22 Perfect,11,CTGA
84 Perfect,11,CTGC
39 Perfect,11,CTGG
31 Perfect,11,CTGT
28 Perfect,11,CTTA
180 Perfect,11,CTTC
61 Perfect,11,CTTG
169 Perfect,11,CTTT
259 Perfect,11,GAAA
3 Perfect,11,GAAC
196 Perfect,11,GAAG
127 Perfect,11,GAAT
14 Perfect,11,GACA
1 Perfect,11,GACC
9 Perfect,11,GACT
172 Perfect,11,GAGA
20 Perfect,11,GAGC
117 Perfect,11,GAGG
61 Perfect,11,GAGT
65 Perfect,11,GATA
2 Perfect,11,GATC
75 Perfect,11,GATG
18 Perfect,11,GATT
22 Perfect,11,GCAA
2 Perfect,11,GCAC
25 Perfect,11,GCAG
22 Perfect,11,GCAT
20 Perfect,11,GCCA
5 Perfect,11,GCCC
7 Perfect,11,GCCG
24 Perfect,11,GCCT
1 Perfect,11,GCGA
11 Perfect,11,GCGC
2 Perfect,11,GCGG
3 Perfect,11,GCGT
15 Perfect,11,GCTA
38 Perfect,11,GCTG
11 Perfect,11,GCTT
97 Perfect,11,GGAA
1 Perfect,11,GGAC
106 Perfect,11,GGAG
28 Perfect,11,GGAT
31 Perfect,11,GGCA
9 Perfect,11,GGCC
5 Perfect,11,GGCG
23 Perfect,11,GGCT
86 Perfect,11,GGGA
4 Perfect,11,GGGC
67 Perfect,11,GGGG
86 Perfect,11,GGGT
18 Perfect,11,GGTA
1 Perfect,11,GGTC
54 Perfect,11,GGTG
9 Perfect,11,GGTT
14 Perfect,11,GTAA
4 Perfect,11,GTAC
10 Perfect,11,GTAG
33 Perfect,11,GTAT
8 Perfect,11,GTCA
1 Perfect,11,GTCG
15 Perfect,11,GTCT
36 Perfect,11,GTGA
31 Perfect,11,GTGC
36 Perfect,11,GTGG
210 Perfect,11,GTGT
16 Perfect,11,GTTA
1 Perfect,11,GTTC
31 Perfect,11,GTTG
50 Perfect,11,GTTT
239 Perfect,11,TAAA
19 Perfect,11,TAAC
57 Perfect,11,TAAG
91 Perfect,11,TAAT
28 Perfect,11,TACA
17 Perfect,11,TACC
3 Perfect,11,TACG
28 Perfect,11,TACT
25 Perfect,11,TAGA
23 Perfect,11,TAGC
41 Perfect,11,TAGG
13 Perfect,11,TAGT
1062 Perfect,11,TATA
140 Perfect,11,TATC
464 Perfect,11,TATG
297 Perfect,11,TATT
35 Perfect,11,TCAA
46 Perfect,11,TCAC
36 Perfect,11,TCAG
110 Perfect,11,TCAT
43 Perfect,11,TCCA
117 Perfect,11,TCCC
2 Perfect,11,TCCG
102 Perfect,11,TCCT
1 Perfect,11,TCGG
62 Perfect,11,TCTA
483 Perfect,11,TCTC
109 Perfect,11,TCTG
294 Perfect,11,TCTT
129 Perfect,11,TGAA
34 Perfect,11,TGAC
41 Perfect,11,TGAG
37 Perfect,11,TGAT
26 Perfect,11,TGCA
39 Perfect,11,TGCC
3 Perfect,11,TGCG
19 Perfect,11,TGCT
24 Perfect,11,TGGA
64 Perfect,11,TGGC
35 Perfect,11,TGGG
17 Perfect,11,TGGT
192 Perfect,11,TGTA
80 Perfect,11,TGTC
878 Perfect,11,TGTG
65 Perfect,11,TGTT
98 Perfect,11,TTAA
64 Perfect,11,TTAC
27 Perfect,11,TTAG
239 Perfect,11,TTAT
105 Perfect,11,TTCA
212 Perfect,11,TTCC
3 Perfect,11,TTCG
274 Perfect,11,TTCT
45 Perfect,11,TTGA
54 Perfect,11,TTGC
43 Perfect,11,TTGG
88 Perfect,11,TTGT
1364 Perfect,11,TTTA
1374 Perfect,11,TTTC
1164 Perfect,11,TTTG
2960 Perfect,11,TTTT
1 Perfect,120,TCTT
1 Perfect,125,TTCT
2149 Perfect,12,AAAA
119 Perfect,12,AAAC
157 Perfect,12,AAAG
341 Perfect,12,AAAT
39 Perfect,12,AACA
8 Perfect,12,AACC
9 Perfect,12,AACT
97 Perfect,12,AAGA
10 Perfect,12,AAGC
37 Perfect,12,AAGG
12 Perfect,12,AAGT
112 Perfect,12,AATA
10 Perfect,12,AATC
79 Perfect,12,AATG
66 Perfect,12,AATT
30 Perfect,12,ACAA
207 Perfect,12,ACAC
8 Perfect,12,ACAG
43 Perfect,12,ACAT
16 Perfect,12,ACCA
9 Perfect,12,ACCC
1 Perfect,12,ACCG
4 Perfect,12,ACCT
1 Perfect,12,ACGG
2 Perfect,12,ACTA
16 Perfect,12,ACTC
4 Perfect,12,ACTG
9 Perfect,12,ACTT
110 Perfect,12,AGAA
9 Perfect,12,AGAC
168 Perfect,12,AGAG
46 Perfect,12,AGAT
7 Perfect,12,AGCA
6 Perfect,12,AGCC
1 Perfect,12,AGCG
8 Perfect,12,AGCT
38 Perfect,12,AGGA
214 Perfect,12,AGGC
39 Perfect,12,AGGG
4 Perfect,12,AGGT
4 Perfect,12,AGTA
7 Perfect,12,AGTC
40 Perfect,12,AGTG
4 Perfect,12,AGTT
89 Perfect,12,ATAA
38 Perfect,12,ATAC
27 Perfect,12,ATAG
673 Perfect,12,ATAT
18 Perfect,12,ATCA
7 Perfect,12,ATCC
36 Perfect,12,ATCT
30 Perfect,12,ATGA
10 Perfect,12,ATGC
15 Perfect,12,ATGG
31 Perfect,12,ATGT
28 Perfect,12,ATTA
43 Perfect,12,ATTC
16 Perfect,12,ATTG
364 Perfect,12,ATTT
185 Perfect,12,CAAA
21 Perfect,12,CAAC
14 Perfect,12,CAAG
16 Perfect,12,CAAT
283 Perfect,12,CACA
4 Perfect,12,CACC
26 Perfect,12,CACT
16 Perfect,12,CAGA
8 Perfect,12,CAGC
18 Perfect,12,CAGG
10 Perfect,12,CAGT
45 Perfect,12,CATA
29 Perfect,12,CATC
31 Perfect,12,CATG
77 Perfect,12,CATT
10 Perfect,12,CCAA
12 Perfect,12,CCAC
15 Perfect,12,CCAG
10 Perfect,12,CCAT
17 Perfect,12,CCCA
30 Perfect,12,CCCC
4 Perfect,12,CCCG
28 Perfect,12,CCCT
3 Perfect,12,CCGT
8 Perfect,12,CCTA
45 Perfect,12,CCTC
18 Perfect,12,CCTG
43 Perfect,12,CCTT
1 Perfect,12,CGAG
4 Perfect,12,CGCC
5 Perfect,12,CGCG
1 Perfect,12,CGGC
1 Perfect,12,CGGG
2 Perfect,12,CGTG
5 Perfect,12,CTAA
7 Perfect,12,CTAC
2 Perfect,12,CTAG
25 Perfect,12,CTAT
18 Perfect,12,CTCA
64 Perfect,12,CTCC
149 Perfect,12,CTCT
12 Perfect,12,CTGA
12 Perfect,12,CTGC
13 Perfect,12,CTGG
12 Perfect,12,CTGT
4 Perfect,12,CTTA
60 Perfect,12,CTTC
7 Perfect,12,CTTG
149 Perfect,12,CTTT
174 Perfect,12,GAAA
2 Perfect,12,GAAC
66 Perfect,12,GAAG
47 Perfect,12,GAAT
8 Perfect,12,GACA
2 Perfect,12,GACT
180 Perfect,12,GAGA
5 Perfect,12,GAGC
56 Perfect,12,GAGG
18 Perfect,12,GAGT
43 Perfect,12,GATA
1 Perfect,12,GATC
22 Perfect,12,GATG
12 Perfect,12,GATT
8 Perfect,12,GCAA
4 Perfect,12,GCAC
12 Perfect,12,GCAG
14 Perfect,12,GCAT
9 Perfect,12,GCCA
2 Perfect,12,GCCC
188 Perfect,12,GCCT
7 Perfect,12,GCGC
2 Perfect,12,GCGG
5 Perfect,12,GCTA
4 Perfect,12,GCTC
9 Perfect,12,GCTG
8 Perfect,12,GCTT
47 Perfect,12,GGAA
1 Perfect,12,GGAC
62 Perfect,12,GGAG
9 Perfect,12,GGAT
5 Perfect,12,GGCA
1 Perfect,12,GGCC
2 Perfect,12,GGCG
10 Perfect,12,GGCT
47 Perfect,12,GGGA
2 Perfect,12,GGGC
39 Perfect,12,GGGG
12 Perfect,12,GGGT
11 Perfect,12,GGTG
9 Perfect,12,GGTT
4 Perfect,12,GTAA
7 Perfect,12,GTAG
43 Perfect,12,GTAT
4 Perfect,12,GTCA
11 Perfect,12,GTCT
11 Perfect,12,GTGA
6 Perfect,12,GTGC
9 Perfect,12,GTGG
220 Perfect,12,GTGT
2 Perfect,12,GTTA
10 Perfect,12,GTTG
100 Perfect,12,GTTT
195 Perfect,12,TAAA
2 Perfect,12,TAAC
3 Perfect,12,TAAG
28 Perfect,12,TAAT
32 Perfect,12,TACA
2 Perfect,12,TACC
6 Perfect,12,TACT
18 Perfect,12,TAGA
6 Perfect,12,TAGC
2 Perfect,12,TAGG
1 Perfect,12,TAGT
664 Perfect,12,TATA
45 Perfect,12,TATC
36 Perfect,12,TATG
105 Perfect,12,TATT
13 Perfect,12,TCAA
6 Perfect,12,TCAC
5 Perfect,12,TCAG
35 Perfect,12,TCAT
14 Perfect,12,TCCA
50 Perfect,12,TCCC
42 Perfect,12,TCCT
18 Perfect,12,TCTA
182 Perfect,12,TCTC
32 Perfect,12,TCTG
92 Perfect,12,TCTT
87 Perfect,12,TGAA
4 Perfect,12,TGAC
13 Perfect,12,TGAG
8 Perfect,12,TGAT
19 Perfect,12,TGCA
9 Perfect,12,TGCC
1 Perfect,12,TGCG
12 Perfect,12,TGCT
16 Perfect,12,TGGA
5 Perfect,12,TGGC
11 Perfect,12,TGGG
5 Perfect,12,TGGT
34 Perfect,12,TGTA
10 Perfect,12,TGTC
245 Perfect,12,TGTG
43 Perfect,12,TGTT
39 Perfect,12,TTAA
7 Perfect,12,TTAC
6 Perfect,12,TTAG
113 Perfect,12,TTAT
83 Perfect,12,TTCA
54 Perfect,12,TTCC
124 Perfect,12,TTCT
4 Perfect,12,TTGA
4 Perfect,12,TTGC
16 Perfect,12,TTGG
22 Perfect,12,TTGT
197 Perfect,12,TTTA
170 Perfect,12,TTTC
174 Perfect,12,TTTG
2186 Perfect,12,TTTT
1921 Perfect,13,AAAA
114 Perfect,13,AAAC
119 Perfect,13,AAAG
150 Perfect,13,AAAT
16 Perfect,13,AACA
5 Perfect,13,AACC
1 Perfect,13,AACT
51 Perfect,13,AAGA
7 Perfect,13,AAGC
34 Perfect,13,AAGG
3 Perfect,13,AAGT
70 Perfect,13,AATA
2 Perfect,13,AATC
30 Perfect,13,AATG
18 Perfect,13,AATT
47 Perfect,13,ACAA
429 Perfect,13,ACAC
17 Perfect,13,ACAG
52 Perfect,13,ACAT
6 Perfect,13,ACCA
1 Perfect,13,ACCC
1 Perfect,13,ACCT
5 Perfect,13,ACTC
4 Perfect,13,ACTG
4 Perfect,13,ACTT
142 Perfect,13,AGAA
17 Perfect,13,AGAC
268 Perfect,13,AGAG
27 Perfect,13,AGAT
4 Perfect,13,AGCA
7 Perfect,13,AGCC
2 Perfect,13,AGCT
31 Perfect,13,AGGA
2 Perfect,13,AGGC
42 Perfect,13,AGGG
3 Perfect,13,AGGT
3 Perfect,13,AGTA
4 Perfect,13,AGTC
4 Perfect,13,AGTG
2 Perfect,13,AGTT
96 Perfect,13,ATAA
62 Perfect,13,ATAC
19 Perfect,13,ATAG
455 Perfect,13,ATAT
5 Perfect,13,ATCA
8 Perfect,13,ATCC
15 Perfect,13,ATCT
20 Perfect,13,ATGA
11 Perfect,13,ATGC
6 Perfect,13,ATGG
10 Perfect,13,ATGT
18 Perfect,13,ATTA
64 Perfect,13,ATTC
6 Perfect,13,ATTG
69 Perfect,13,ATTT
13 Perfect,13,CAAA
4 Perfect,13,CAAC
2 Perfect,13,CAAG
3 Perfect,13,CAAT
112 Perfect,13,CACA
6 Perfect,13,CACC
1 Perfect,13,CACG
2 Perfect,13,CACT
4 Perfect,13,CAGA
6 Perfect,13,CAGC
3 Perfect,13,CAGG
4 Perfect,13,CATA
4 Perfect,13,CATC
15 Perfect,13,CATT
2 Perfect,13,CCAA
3 Perfect,13,CCAC
3 Perfect,13,CCAG
12 Perfect,13,CCAT
5 Perfect,13,CCCA
22 Perfect,13,CCCC
13 Perfect,13,CCCT
3 Perfect,13,CCGC
1 Perfect,13,CCTA
43 Perfect,13,CCTC
5 Perfect,13,CCTG
40 Perfect,13,CCTT
2 Perfect,13,CGCA
3 Perfect,13,CGCC
5 Perfect,13,CGCG
1 Perfect,13,CGCT
1 Perfect,13,CGTT
2 Perfect,13,CTAC
1 Perfect,13,CTAG
10 Perfect,13,CTAT
10 Perfect,13,CTCA
39 Perfect,13,CTCC
76 Perfect,13,CTCT
1 Perfect,13,CTGA
4 Perfect,13,CTGC
2 Perfect,13,CTGG
6 Perfect,13,CTGT
2 Perfect,13,CTTA
24 Perfect,13,CTTC
1 Perfect,13,CTTG
34 Perfect,13,CTTT
31 Perfect,13,GAAA
28 Perfect,13,GAAG
17 Perfect,13,GAAT
2 Perfect,13,GACA
2 Perfect,13,GACT
80 Perfect,13,GAGA
12 Perfect,13,GAGG
2 Perfect,13,GAGT
10 Perfect,13,GATA
3 Perfect,13,GATG
1 Perfect,13,GATT
1 Perfect,13,GCAA
1 Perfect,13,GCAC
6 Perfect,13,GCAG
3 Perfect,13,GCAT
6 Perfect,13,GCCA
1 Perfect,13,GCCG
4 Perfect,13,GCCT
5 Perfect,13,GCGC
1 Perfect,13,GCGG
1 Perfect,13,GCGT
1 Perfect,13,GCTA
5 Perfect,13,GCTG
2 Perfect,13,GCTT
26 Perfect,13,GGAA
46 Perfect,13,GGAG
4 Perfect,13,GGAT
6 Perfect,13,GGCA
2 Perfect,13,GGCC
4 Perfect,13,GGCG
9 Perfect,13,GGCT
29 Perfect,13,GGGA
17 Perfect,13,GGGG
4 Perfect,13,GGGT
3 Perfect,13,GGTA
2 Perfect,13,GGTG
2 Perfect,13,GGTT
3 Perfect,13,GTAA
4 Perfect,13,GTAG
3 Perfect,13,GTAT
3 Perfect,13,GTCT
6 Perfect,13,GTGA
4 Perfect,13,GTGC
11 Perfect,13,GTGG
86 Perfect,13,GTGT
3 Perfect,13,GTTG
8 Perfect,13,GTTT
61 Perfect,13,TAAA
2 Perfect,13,TAAC
4 Perfect,13,TAAG
16 Perfect,13,TAAT
7 Perfect,13,TACA
1 Perfect,13,TACC
3 Perfect,13,TACT
20 Perfect,13,TAGA
2 Perfect,13,TAGC
2 Perfect,13,TAGG
1 Perfect,13,TAGT
464 Perfect,13,TATA
25 Perfect,13,TATC
43 Perfect,13,TATG
166 Perfect,13,TATT
6 Perfect,13,TCAA
6 Perfect,13,TCAC
2 Perfect,13,TCAG
31 Perfect,13,TCAT
6 Perfect,13,TCCA
43 Perfect,13,TCCC
30 Perfect,13,TCCT
14 Perfect,13,TCTA
264 Perfect,13,TCTC
14 Perfect,13,TCTG
131 Perfect,13,TCTT
63 Perfect,13,TGAA
1 Perfect,13,TGAC
8 Perfect,13,TGAG
9 Perfect,13,TGAT
13 Perfect,13,TGCA
11 Perfect,13,TGCC
11 Perfect,13,TGCT
9 Perfect,13,TGGA
2 Perfect,13,TGGC
6 Perfect,13,TGGG
5 Perfect,13,TGGT
52 Perfect,13,TGTA
19 Perfect,13,TGTC
481 Perfect,13,TGTG
89 Perfect,13,TGTT
17 Perfect,13,TTAA
3 Perfect,13,TTAC
4 Perfect,13,TTAG
59 Perfect,13,TTAT
26 Perfect,13,TTCA
55 Perfect,13,TTCC
47 Perfect,13,TTCT
5 Perfect,13,TTGA
6 Perfect,13,TTGC
10 Perfect,13,TTGG
15 Perfect,13,TTGT
112 Perfect,13,TTTA
144 Perfect,13,TTTC
51 Perfect,13,TTTG
1989 Perfect,13,TTTT
1 Perfect,144,CCTT
1544 Perfect,14,AAAA
109 Perfect,14,AAAC
96 Perfect,14,AAAG
155 Perfect,14,AAAT
61 Perfect,14,AACA
14 Perfect,14,AACC
1 Perfect,14,AACT
70 Perfect,14,AAGA
6 Perfect,14,AAGC
46 Perfect,14,AAGG
2 Perfect,14,AAGT
77 Perfect,14,AATA
7 Perfect,14,AATC
33 Perfect,14,AATG
28 Perfect,14,AATT
5 Perfect,14,ACAA
114 Perfect,14,ACAC
3 Perfect,14,ACAG
2 Perfect,14,ACAT
2 Perfect,14,ACCA
3 Perfect,14,ACCC
3 Perfect,14,ACTA
1 Perfect,14,ACTT
53 Perfect,14,AGAA
2 Perfect,14,AGAC
88 Perfect,14,AGAG
8 Perfect,14,AGAT
1 Perfect,14,AGCA
1 Perfect,14,AGCT
16 Perfect,14,AGGA
7 Perfect,14,AGGC
23 Perfect,14,AGGG
2 Perfect,14,AGTA
5 Perfect,14,AGTG
1 Perfect,14,AGTT
25 Perfect,14,ATAA
10 Perfect,14,ATAC
24 Perfect,14,ATAG
310 Perfect,14,ATAT
13 Perfect,14,ATCC
20 Perfect,14,ATCT
12 Perfect,14,ATGA
5 Perfect,14,ATGC
14 Perfect,14,ATGG
16 Perfect,14,ATGT
13 Perfect,14,ATTA
17 Perfect,14,ATTC
3 Perfect,14,ATTG
23 Perfect,14,ATTT
14 Perfect,14,CAAA
2 Perfect,14,CAAC
2 Perfect,14,CAAG
158 Perfect,14,CACA
4 Perfect,14,CACC
2 Perfect,14,CACT
2 Perfect,14,CAGA
2 Perfect,14,CAGC
1 Perfect,14,CAGG
1 Perfect,14,CAGT
2 Perfect,14,CATA
5 Perfect,14,CATC
8 Perfect,14,CATG
38 Perfect,14,CATT
1 Perfect,14,CCAG
2 Perfect,14,CCAT
4 Perfect,14,CCCA
12 Perfect,14,CCCC
1 Perfect,14,CCCG
13 Perfect,14,CCCT
1 Perfect,14,CCGG
25 Perfect,14,CCTC
2 Perfect,14,CCTG
19 Perfect,14,CCTT
2 Perfect,14,CGCG
2 Perfect,14,CTAA
3 Perfect,14,CTAC
1 Perfect,14,CTAG
3 Perfect,14,CTAT
1 Perfect,14,CTCA
22 Perfect,14,CTCC
76 Perfect,14,CTCT
4 Perfect,14,CTGA
3 Perfect,14,CTGC
2 Perfect,14,CTGG
2 Perfect,14,CTGT
1 Perfect,14,CTTA
24 Perfect,14,CTTC
2 Perfect,14,CTTG
32 Perfect,14,CTTT
40 Perfect,14,GAAA
22 Perfect,14,GAAG
8 Perfect,14,GAAT
2 Perfect,14,GACA
1 Perfect,14,GACT
92 Perfect,14,GAGA
22 Perfect,14,GAGG
4 Perfect,14,GAGT
13 Perfect,14,GATA
4 Perfect,14,GATG
3 Perfect,14,GATT
1 Perfect,14,GCAA
1 Perfect,14,GCCA
2 Perfect,14,GCCT
1 Perfect,14,GCGA
5 Perfect,14,GCGC
1 Perfect,14,GCTA
24 Perfect,14,GGAA
12 Perfect,14,GGAG
2 Perfect,14,GGAT
3 Perfect,14,GGCA
1 Perfect,14,GGCT
28 Perfect,14,GGGA
2 Perfect,14,GGGC
5 Perfect,14,GGGG
6 Perfect,14,GGGT
2 Perfect,14,GGTA
6 Perfect,14,GGTG
2 Perfect,14,GTAA
8 Perfect,14,GTAT
4 Perfect,14,GTCT
2 Perfect,14,GTGG
122 Perfect,14,GTGT
5 Perfect,14,GTTT
43 Perfect,14,TAAA
1 Perfect,14,TAAG
4 Perfect,14,TAAT
10 Perfect,14,TACA
1 Perfect,14,TACC
15 Perfect,14,TAGA
4 Perfect,14,TAGC
2 Perfect,14,TAGG
354 Perfect,14,TATA
23 Perfect,14,TATC
12 Perfect,14,TATG
53 Perfect,14,TATT
4 Perfect,14,TCAA
2 Perfect,14,TCAT
12 Perfect,14,TCCA
28 Perfect,14,TCCC
35 Perfect,14,TCCT
1 Perfect,14,TCGA
7 Perfect,14,TCTA
115 Perfect,14,TCTC
2 Perfect,14,TCTG
39 Perfect,14,TCTT
31 Perfect,14,TGAA
2 Perfect,14,TGAG
2 Perfect,14,TGAT
5 Perfect,14,TGCA
2 Perfect,14,TGCC
2 Perfect,14,TGCT
6 Perfect,14,TGGA
3 Perfect,14,TGGC
4 Perfect,14,TGTA
4 Perfect,14,TGTC
138 Perfect,14,TGTG
11 Perfect,14,TGTT
32 Perfect,14,TTAA
1 Perfect,14,TTAC
2 Perfect,14,TTAG
139 Perfect,14,TTAT
40 Perfect,14,TTCA
50 Perfect,14,TTCC
82 Perfect,14,TTCT
4 Perfect,14,TTGA
6 Perfect,14,TTGC
9 Perfect,14,TTGG
121 Perfect,14,TTGT
94 Perfect,14,TTTA
71 Perfect,14,TTTC
45 Perfect,14,TTTG
1705 Perfect,14,TTTT
1486 Perfect,15,AAAA
529 Perfect,15,AAAC
305 Perfect,15,AAAG
404 Perfect,15,AAAT
2 Perfect,15,AACA
1 Perfect,15,AACC
18 Perfect,15,AAGA
5 Perfect,15,AAGC
25 Perfect,15,AAGG
1 Perfect,15,AAGT
34 Perfect,15,AATA
6 Perfect,15,AATC
25 Perfect,15,AATG
10 Perfect,15,AATT
2 Perfect,15,ACAA
261 Perfect,15,ACAC
4 Perfect,15,ACAG
15 Perfect,15,ACAT
1 Perfect,15,ACCA
1 Perfect,15,ACCC
1 Perfect,15,ACCT
2 Perfect,15,ACTC
1 Perfect,15,ACTG
36 Perfect,15,AGAA
11 Perfect,15,AGAC
175 Perfect,15,AGAG
11 Perfect,15,AGAT
1 Perfect,15,AGCC
1 Perfect,15,AGCT
16 Perfect,15,AGGA
5 Perfect,15,AGGC
29 Perfect,15,AGGG
1 Perfect,15,AGGT
2 Perfect,15,AGTG
25 Perfect,15,ATAA
34 Perfect,15,ATAC
14 Perfect,15,ATAG
240 Perfect,15,ATAT
7 Perfect,15,ATCC
13 Perfect,15,ATCT
8 Perfect,15,ATGA
2 Perfect,15,ATGC
8 Perfect,15,ATGG
2 Perfect,15,ATGT
8 Perfect,15,ATTA
26 Perfect,15,ATTC
6 Perfect,15,ATTG
34 Perfect,15,ATTT
11 Perfect,15,CAAA
4 Perfect,15,CAAC
3 Perfect,15,CAAG
3 Perfect,15,CAAT
61 Perfect,15,CACA
1 Perfect,15,CACC
3 Perfect,15,CACG
1 Perfect,15,CACT
1 Perfect,15,CAGC
1 Perfect,15,CAGG
1 Perfect,15,CAGT
5 Perfect,15,CATA
3 Perfect,15,CATC
4 Perfect,15,CATG
8 Perfect,15,CATT
1 Perfect,15,CCAC
2 Perfect,15,CCAG
3 Perfect,15,CCAT
1 Perfect,15,CCCA
5 Perfect,15,CCCC
2 Perfect,15,CCCG
5 Perfect,15,CCCT
24 Perfect,15,CCTC
4 Perfect,15,CCTG
5 Perfect,15,CCTT
1 Perfect,15,CGCC
2 Perfect,15,CGCG
1 Perfect,15,CGCT
2 Perfect,15,CTAC
2 Perfect,15,CTAG
6 Perfect,15,CTAT
2 Perfect,15,CTCA
14 Perfect,15,CTCC
2 Perfect,15,CTCG
60 Perfect,15,CTCT
1 Perfect,15,CTGA
2 Perfect,15,CTGC
3 Perfect,15,CTGG
1 Perfect,15,CTTA
30 Perfect,15,CTTC
7 Perfect,15,CTTG
14 Perfect,15,CTTT
35 Perfect,15,GAAA
2 Perfect,15,GAAC
32 Perfect,15,GAAG
7 Perfect,15,GAAT
46 Perfect,15,GAGA
1 Perfect,15,GAGC
16 Perfect,15,GAGG
1 Perfect,15,GAGT
13 Perfect,15,GATA
7 Perfect,15,GATG
1 Perfect,15,GATT
1 Perfect,15,GCAG
1 Perfect,15,GCAT
1 Perfect,15,GCCA
1 Perfect,15,GCGT
2 Perfect,15,GCTG
22 Perfect,15,GGAA
1 Perfect,15,GGAC
34 Perfect,15,GGAG
1 Perfect,15,GGAT
1 Perfect,15,GGCC
1 Perfect,15,GGCG
1 Perfect,15,GGCT
4 Perfect,15,GGGA
1 Perfect,15,GGGC
2 Perfect,15,GGGG
1 Perfect,15,GGGT
1 Perfect,15,GTCC
1 Perfect,15,GTCT
1 Perfect,15,GTGA
2 Perfect,15,GTGC
2 Perfect,15,GTGG
46 Perfect,15,GTGT
2 Perfect,15,GTTG
6 Perfect,15,GTTT
23 Perfect,15,TAAA
1 Perfect,15,TAAC
2 Perfect,15,TAAG
8 Perfect,15,TAAT
1 Perfect,15,TACC
6 Perfect,15,TAGA
3 Perfect,15,TAGC
5 Perfect,15,TAGG
219 Perfect,15,TATA
24 Perfect,15,TATC
42 Perfect,15,TATG
17 Perfect,15,TATT
3 Perfect,15,TCAA
2 Perfect,15,TCAC
3 Perfect,15,TCAG
27 Perfect,15,TCAT
3 Perfect,15,TCCA
20 Perfect,15,TCCC
1 Perfect,15,TCCG
11 Perfect,15,TCCT
14 Perfect,15,TCTA
189 Perfect,15,TCTC
16 Perfect,15,TCTG
39 Perfect,15,TCTT
15 Perfect,15,TGAA
3 Perfect,15,TGAG
2 Perfect,15,TGAT
2 Perfect,15,TGCT
1 Perfect,15,TGGA
1 Perfect,15,TGGC
4 Perfect,15,TGGG
1 Perfect,15,TGGT
15 Perfect,15,TGTA
4 Perfect,15,TGTC
226 Perfect,15,TGTG
3 Perfect,15,TGTT
6 Perfect,15,TTAA
1 Perfect,15,TTAC
1 Perfect,15,TTAG
38 Perfect,15,TTAT
7 Perfect,15,TTCA
30 Perfect,15,TTCC
1 Perfect,15,TTCG
24 Perfect,15,TTCT
3 Perfect,15,TTGA
4 Perfect,15,TTGC
3 Perfect,15,TTGG
13 Perfect,15,TTGT
367 Perfect,15,TTTA
327 Perfect,15,TTTC
540 Perfect,15,TTTG
1530 Perfect,15,TTTT
1 Perfect,167,ATAT
1283 Perfect,16,AAAA
33 Perfect,16,AAAC
45 Perfect,16,AAAG
71 Perfect,16,AAAT
3 Perfect,16,AACA
23 Perfect,16,AAGA
3 Perfect,16,AAGC
8 Perfect,16,AAGG
29 Perfect,16,AATA
1 Perfect,16,AATC
6 Perfect,16,AATG
25 Perfect,16,AATT
3 Perfect,16,ACAA
71 Perfect,16,ACAC
1 Perfect,16,ACAG
5 Perfect,16,ACAT
1 Perfect,16,ACCT
1 Perfect,16,ACTC
21 Perfect,16,AGAA
3 Perfect,16,AGAC
66 Perfect,16,AGAG
6 Perfect,16,AGAT
1 Perfect,16,AGCC
2 Perfect,16,AGCT
6 Perfect,16,AGGA
5 Perfect,16,AGGC
2 Perfect,16,AGGG
2 Perfect,16,AGGT
2 Perfect,16,AGTG
16 Perfect,16,ATAA
6 Perfect,16,ATAC
5 Perfect,16,ATAG
176 Perfect,16,ATAT
1 Perfect,16,ATCA
4 Perfect,16,ATCC
8 Perfect,16,ATCT
5 Perfect,16,ATGA
1 Perfect,16,ATGC
1 Perfect,16,ATGG
5 Perfect,16,ATGT
5 Perfect,16,ATTA
10 Perfect,16,ATTC
74 Perfect,16,ATTT
67 Perfect,16,CAAA
67 Perfect,16,CACA
1 Perfect,16,CACG
1 Perfect,16,CAGA
6 Perfect,16,CATA
6 Perfect,16,CATC
7 Perfect,16,CATT
1 Perfect,16,CCAA
8 Perfect,16,CCAC
1 Perfect,16,CCAG
3 Perfect,16,CCAT
6 Perfect,16,CCCC
5 Perfect,16,CCCT
1 Perfect,16,CCGC
13 Perfect,16,CCTC
17 Perfect,16,CCTT
1 Perfect,16,CGCA
6 Perfect,16,CTAT
4 Perfect,16,CTCC
36 Perfect,16,CTCT
1 Perfect,16,CTGC
21 Perfect,16,CTTC
42 Perfect,16,CTTT
22 Perfect,16,GAAA
22 Perfect,16,GAAG
5 Perfect,16,GAAT
2 Perfect,16,GACA
1 Perfect,16,GACT
66 Perfect,16,GAGA
17 Perfect,16,GAGG
1 Perfect,16,GAGT
12 Perfect,16,GATA
8 Perfect,16,GATG
1 Perfect,16,GCAG
1 Perfect,16,GCAT
1 Perfect,16,GCCG
6 Perfect,16,GCCT
4 Perfect,16,GCGC
1 Perfect,16,GCTG
19 Perfect,16,GGAA
10 Perfect,16,GGAG
3 Perfect,16,GGAT
3 Perfect,16,GGCA
1 Perfect,16,GGCT
5 Perfect,16,GGGA
3 Perfect,16,GGGG
1 Perfect,16,GGGT
3 Perfect,16,GGTT
1 Perfect,16,GTAG
8 Perfect,16,GTAT
2 Perfect,16,GTCT
1 Perfect,16,GTGC
48 Perfect,16,GTGT
1 Perfect,16,GTTG
38 Perfect,16,GTTT
60 Perfect,16,TAAA
2 Perfect,16,TAAT
2 Perfect,16,TACA
1 Perfect,16,TACC
7 Perfect,16,TAGA
191 Perfect,16,TATA
7 Perfect,16,TATC
4 Perfect,16,TATG
24 Perfect,16,TATT
2 Perfect,16,TCAA
1 Perfect,16,TCAG
7 Perfect,16,TCAT
1 Perfect,16,TCCA
5 Perfect,16,TCCC
11 Perfect,16,TCCT
11 Perfect,16,TCTA
74 Perfect,16,TCTC
1 Perfect,16,TCTG
19 Perfect,16,TCTT
16 Perfect,16,TGAA
1 Perfect,16,TGAT
3 Perfect,16,TGCA
3 Perfect,16,TGGA
1 Perfect,16,TGGC
1 Perfect,16,TGTA
2 Perfect,16,TGTC
92 Perfect,16,TGTG
4 Perfect,16,TGTT
3 Perfect,16,TTAA
15 Perfect,16,TTAT
15 Perfect,16,TTCA
13 Perfect,16,TTCC
23 Perfect,16,TTCT
1 Perfect,16,TTGG
46 Perfect,16,TTTA
31 Perfect,16,TTTC
65 Perfect,16,TTTG
1260 Perfect,16,TTTT
928 Perfect,17,AAAA
37 Perfect,17,AAAC
57 Perfect,17,AAAG
63 Perfect,17,AAAT
5 Perfect,17,AACA
9 Perfect,17,AAGA
16 Perfect,17,AAGG
15 Perfect,17,AATA
3 Perfect,17,AATC
9 Perfect,17,AATG
6 Perfect,17,AATT
22 Perfect,17,ACAA
148 Perfect,17,ACAC
1 Perfect,17,ACAG
10 Perfect,17,ACAT
2 Perfect,17,ACCT
1 Perfect,17,ACTT
40 Perfect,17,AGAA
3 Perfect,17,AGAC
105 Perfect,17,AGAG
4 Perfect,17,AGAT
26 Perfect,17,AGGA
1 Perfect,17,AGGC
16 Perfect,17,AGGG
22 Perfect,17,ATAA
8 Perfect,17,ATAC
9 Perfect,17,ATAG
129 Perfect,17,ATAT
2 Perfect,17,ATCC
10 Perfect,17,ATCT
3 Perfect,17,ATGA
2 Perfect,17,ATGG
20 Perfect,17,ATTC
2 Perfect,17,ATTG
10 Perfect,17,ATTT
2 Perfect,17,CAAA
1 Perfect,17,CAAG
37 Perfect,17,CACA
1 Perfect,17,CAGA
1 Perfect,17,CAGG
2 Perfect,17,CATA
2 Perfect,17,CATC
1 Perfect,17,CATG
4 Perfect,17,CATT
1 Perfect,17,CCAA
2 Perfect,17,CCAC
4 Perfect,17,CCCC
3 Perfect,17,CCCT
1 Perfect,17,CCTA
8 Perfect,17,CCTC
1 Perfect,17,CCTG
7 Perfect,17,CCTT
1 Perfect,17,CGCC
1 Perfect,17,CGCG
1 Perfect,17,CGGG
1 Perfect,17,CTAG
2 Perfect,17,CTAT
4 Perfect,17,CTCC
32 Perfect,17,CTCT
9 Perfect,17,CTTC
9 Perfect,17,CTTT
9 Perfect,17,GAAA
15 Perfect,17,GAAG
1 Perfect,17,GAAT
20 Perfect,17,GAGA
4 Perfect,17,GAGG
4 Perfect,17,GATA
2 Perfect,17,GATG
1 Perfect,17,GATT
1 Perfect,17,GCCT
1 Perfect,17,GCTG
4 Perfect,17,GGAA
6 Perfect,17,GGAG
1 Perfect,17,GGAT
1 Perfect,17,GGCA
1 Perfect,17,GGCC
2 Perfect,17,GGGA
1 Perfect,17,GGGC
6 Perfect,17,GGGG
2 Perfect,17,GGTT
1 Perfect,17,GTAG
1 Perfect,17,GTAT
1 Perfect,17,GTGG
22 Perfect,17,GTGT
3 Perfect,17,GTTT
12 Perfect,17,TAAA
3 Perfect,17,TAAC
1 Perfect,17,TACA
1 Perfect,17,TACC
3 Perfect,17,TAGA
133 Perfect,17,TATA
7 Perfect,17,TATC
9 Perfect,17,TATG
62 Perfect,17,TATT
5 Perfect,17,TCAA
4 Perfect,17,TCAT
4 Perfect,17,TCCA
13 Perfect,17,TCCC
10 Perfect,17,TCCT
5 Perfect,17,TCTA
91 Perfect,17,TCTC
2 Perfect,17,TCTG
41 Perfect,17,TCTT
12 Perfect,17,TGAA
1 Perfect,17,TGAT
1 Perfect,17,TGCC
1 Perfect,17,TGCT
3 Perfect,17,TGGA
1 Perfect,17,TGGG
1 Perfect,17,TGGT
11 Perfect,17,TGTA
2 Perfect,17,TGTC
160 Perfect,17,TGTG
37 Perfect,17,TGTT
3 Perfect,17,TTAA
2 Perfect,17,TTAC
28 Perfect,17,TTAT
3 Perfect,17,TTCA
13 Perfect,17,TTCC
10 Perfect,17,TTCT
2 Perfect,17,TTGA
25 Perfect,17,TTTA
31 Perfect,17,TTTC
21 Perfect,17,TTTG
989 Perfect,17,TTTT
786 Perfect,18,AAAA
48 Perfect,18,AAAC
28 Perfect,18,AAAG
60 Perfect,18,AAAT
21 Perfect,18,AACA
3 Perfect,18,AACC
1 Perfect,18,AACT
26 Perfect,18,AAGA
22 Perfect,18,AAGG
1 Perfect,18,AAGT
39 Perfect,18,AATA
1 Perfect,18,AATC
4 Perfect,18,AATG
15 Perfect,18,AATT
1 Perfect,18,ACAA
51 Perfect,18,ACAC
1 Perfect,18,ACCT
6 Perfect,18,AGAA
1 Perfect,18,AGAC
34 Perfect,18,AGAG
2 Perfect,18,AGAT
1 Perfect,18,AGCA
4 Perfect,18,AGGA
1 Perfect,18,AGGC
7 Perfect,18,AGGG
12 Perfect,18,ATAA
1 Perfect,18,ATAC
8 Perfect,18,ATAG
107 Perfect,18,ATAT
1 Perfect,18,ATCA
2 Perfect,18,ATCC
7 Perfect,18,ATCT
1 Perfect,18,ATGA
3 Perfect,18,ATGG
2 Perfect,18,ATGT
2 Perfect,18,ATTA
3 Perfect,18,ATTC
5 Perfect,18,ATTT
5 Perfect,18,CAAA
1 Perfect,18,CAAG
61 Perfect,18,CACA
1 Perfect,18,CAGA
1 Perfect,18,CAGG
1 Perfect,18,CAGT
5 Perfect,18,CATA
1 Perfect,18,CATC
6 Perfect,18,CATT
1 Perfect,18,CCAG
2 Perfect,18,CCCC
32 Perfect,18,CCTC
13 Perfect,18,CCTT
1 Perfect,18,CGCG
1 Perfect,18,CTAG
2 Perfect,18,CTCC
1 Perfect,18,CTCG
37 Perfect,18,CTCT
3 Perfect,18,CTGT
2 Perfect,18,CTTC
7 Perfect,18,CTTT
10 Perfect,18,GAAA
6 Perfect,18,GAAG
1 Perfect,18,GACT
39 Perfect,18,GAGA
8 Perfect,18,GAGG
1 Perfect,18,GAGT
5 Perfect,18,GATA
1 Perfect,18,GATG
1 Perfect,18,GATT
1 Perfect,18,GCCC
3 Perfect,18,GCGC
7 Perfect,18,GGAA
12 Perfect,18,GGGA
1 Perfect,18,GGGG
1 Perfect,18,GGGT
2 Perfect,18,GTAT
68 Perfect,18,GTGT
11 Perfect,18,TAAA
1 Perfect,18,TAAG
2 Perfect,18,TACA
6 Perfect,18,TAGA
1 Perfect,18,TAGG
113 Perfect,18,TATA
2 Perfect,18,TATC
1 Perfect,18,TATG
12 Perfect,18,TATT
2 Perfect,18,TCAA
3 Perfect,18,TCAT
2 Perfect,18,TCCA
12 Perfect,18,TCCC
11 Perfect,18,TCCT
6 Perfect,18,TCTA
39 Perfect,18,TCTC
11 Perfect,18,TCTT
4 Perfect,18,TGAA
2 Perfect,18,TGGA
3 Perfect,18,TGTA
54 Perfect,18,TGTG
5 Perfect,18,TGTT
11 Perfect,18,TTAA
1 Perfect,18,TTAC
76 Perfect,18,TTAT
9 Perfect,18,TTCA
24 Perfect,18,TTCC
20 Perfect,18,TTCT
1 Perfect,18,TTGA
1 Perfect,18,TTGC
3 Perfect,18,TTGG
51 Perfect,18,TTGT
33 Perfect,18,TTTA
26 Perfect,18,TTTC
24 Perfect,18,TTTG
779 Perfect,18,TTTT
630 Perfect,19,AAAA
279 Perfect,19,AAAC
131 Perfect,19,AAAG
183 Perfect,19,AAAT
1 Perfect,19,AACA
1 Perfect,19,AACC
5 Perfect,19,AAGA
1 Perfect,19,AAGC
10 Perfect,19,AAGG
7 Perfect,19,AATA
1 Perfect,19,AATC
6 Perfect,19,AATG
4 Perfect,19,AATT
2 Perfect,19,ACAA
111 Perfect,19,ACAC
2 Perfect,19,ACAG
2 Perfect,19,ACAT
1 Perfect,19,ACCG
13 Perfect,19,AGAA
11 Perfect,19,AGAC
69 Perfect,19,AGAG
11 Perfect,19,AGGA
11 Perfect,19,AGGG
1 Perfect,19,AGTG
6 Perfect,19,ATAA
14 Perfect,19,ATAC
5 Perfect,19,ATAG
89 Perfect,19,ATAT
3 Perfect,19,ATCC
7 Perfect,19,ATCT
2 Perfect,19,ATGA
2 Perfect,19,ATGG
1 Perfect,19,ATGT
2 Perfect,19,ATTA
7 Perfect,19,ATTC
1 Perfect,19,ATTG
12 Perfect,19,ATTT
3 Perfect,19,CAAA
21 Perfect,19,CACA
1 Perfect,19,CACC
2 Perfect,19,CACG
1 Perfect,19,CACT
1 Perfect,19,CAGA
1 Perfect,19,CATA
1 Perfect,19,CATC
2 Perfect,19,CATG
3 Perfect,19,CATT
1 Perfect,19,CCAT
2 Perfect,19,CCCC
3 Perfect,19,CCCT
6 Perfect,19,CCTC
1 Perfect,19,CCTG
5 Perfect,19,CCTT
4 Perfect,19,CTAC
1 Perfect,19,CTAG
1 Perfect,19,CTAT
7 Perfect,19,CTCC
13 Perfect,19,CTCT
1 Perfect,19,CTGC
12 Perfect,19,CTTC
4 Perfect,19,CTTT
6 Perfect,19,GAAA
20 Perfect,19,GAAG
18 Perfect,19,GAGA
8 Perfect,19,GAGG
8 Perfect,19,GATA
3 Perfect,19,GATG
2 Perfect,19,GATT
8 Perfect,19,GGAA
9 Perfect,19,GGAG
1 Perfect,19,GGAT
1 Perfect,19,GGCA
1 Perfect,19,GGCT
2 Perfect,19,GGGA
1 Perfect,19,GTCT
1 Perfect,19,GTGC
36 Perfect,19,GTGT
2 Perfect,19,GTTG
4 Perfect,19,GTTT
12 Perfect,19,TAAA
2 Perfect,19,TAAT
1 Perfect,19,TAGA
2 Perfect,19,TAGC
4 Perfect,19,TAGG
88 Perfect,19,TATA
13 Perfect,19,TATC
12 Perfect,19,TATG
6 Perfect,19,TATT
2 Perfect,19,TCAT
1 Perfect,19,TCCA
8 Perfect,19,TCCC
1 Perfect,19,TCCG
4 Perfect,19,TCCT
1 Perfect,19,TCTA
83 Perfect,19,TCTC
7 Perfect,19,TCTG
18 Perfect,19,TCTT
5 Perfect,19,TGAA
2 Perfect,19,TGGA
1 Perfect,19,TGGG
1 Perfect,19,TGTC
106 Perfect,19,TGTG
4 Perfect,19,TTAA
12 Perfect,19,TTAT
19 Perfect,19,TTCC
3 Perfect,19,TTCT
1 Perfect,19,TTGG
1 Perfect,19,TTGT
216 Perfect,19,TTTA
158 Perfect,19,TTTC
249 Perfect,19,TTTG
620 Perfect,19,TTTT
557 Perfect,20,AAAA
11 Perfect,20,AAAC
15 Perfect,20,AAAG
35 Perfect,20,AAAT
8 Perfect,20,AAGA
10 Perfect,20,AAGG
12 Perfect,20,AATA
2 Perfect,20,AATG
7 Perfect,20,AATT
45 Perfect,20,ACAC
4 Perfect,20,AGAA
1 Perfect,20,AGAC
19 Perfect,20,AGAG
3 Perfect,20,AGAT
4 Perfect,20,AGGA
1 Perfect,20,AGGC
5 Perfect,20,AGGG
3 Perfect,20,ATAA
2 Perfect,20,ATAG
68 Perfect,20,ATAT
2 Perfect,20,ATCT
2 Perfect,20,ATGA
1 Perfect,20,ATGG
31 Perfect,20,ATTT
38 Perfect,20,CAAA
36 Perfect,20,CACA
1 Perfect,20,CATA
2 Perfect,20,CATC
2 Perfect,20,CATT
1 Perfect,20,CCAT
1 Perfect,20,CCCC
1 Perfect,20,CCCT
6 Perfect,20,CCTC
1 Perfect,20,CCTG
5 Perfect,20,CCTT
1 Perfect,20,CTAA
1 Perfect,20,CTAC
1 Perfect,20,CTCC
26 Perfect,20,CTCT
6 Perfect,20,CTTC
12 Perfect,20,CTTT
7 Perfect,20,GAAA
6 Perfect,20,GAAG
1 Perfect,20,GAAT
29 Perfect,20,GAGA
5 Perfect,20,GAGG
5 Perfect,20,GATA
3 Perfect,20,GATT
2 Perfect,20,GCTT
8 Perfect,20,GGAA
2 Perfect,20,GGAG
2 Perfect,20,GGAT
1 Perfect,20,GGCG
3 Perfect,20,GTAG
1 Perfect,20,GTAT
1 Perfect,20,GTCT
1 Perfect,20,GTGA
1 Perfect,20,GTGG
30 Perfect,20,GTGT
2 Perfect,20,GTTG
12 Perfect,20,GTTT
20 Perfect,20,TAAA
1 Perfect,20,TAAT
3 Perfect,20,TAGA
74 Perfect,20,TATA
8 Perfect,20,TATC
2 Perfect,20,TATG
8 Perfect,20,TATT
2 Perfect,20,TCAT
1 Perfect,20,TCCA
2 Perfect,20,TCCC
6 Perfect,20,TCCT
4 Perfect,20,TCTA
41 Perfect,20,TCTC
1 Perfect,20,TCTG
7 Perfect,20,TCTT
1 Perfect,20,TGAA
2 Perfect,20,TGAT
2 Perfect,20,TGGA
1 Perfect,20,TGTC
45 Perfect,20,TGTG
2 Perfect,20,TGTT
1 Perfect,20,TTAA
8 Perfect,20,TTAT
6 Perfect,20,TTCA
6 Perfect,20,TTCC
3 Perfect,20,TTCT
5 Perfect,20,TTGT
14 Perfect,20,TTTA
8 Perfect,20,TTTC
27 Perfect,20,TTTG
529 Perfect,20,TTTT
485 Perfect,21,AAAA
14 Perfect,21,AAAC
20 Perfect,21,AAAG
38 Perfect,21,AAAT
2 Perfect,21,AAGA
1 Perfect,21,AAGC
6 Perfect,21,AAGG
10 Perfect,21,AATA
5 Perfect,21,ACAA
87 Perfect,21,ACAC
1 Perfect,21,ACAG
12 Perfect,21,AGAA
2 Perfect,21,AGAC
49 Perfect,21,AGAG
1 Perfect,21,AGCC
14 Perfect,21,AGGA
1 Perfect,21,AGGC
5 Perfect,21,AGGG
5 Perfect,21,ATAA
2 Perfect,21,ATAC
2 Perfect,21,ATAG
48 Perfect,21,ATAT
1 Perfect,21,ATCA
3 Perfect,21,ATCC
1 Perfect,21,ATGA
1 Perfect,21,ATTA
2 Perfect,21,ATTC
4 Perfect,21,ATTG
9 Perfect,21,ATTT
2 Perfect,21,CAAA
35 Perfect,21,CACA
1 Perfect,21,CATC
1 Perfect,21,CCAG
1 Perfect,21,CCAT
5 Perfect,21,CCTC
3 Perfect,21,CCTT
1 Perfect,21,CTAT
1 Perfect,21,CTCA
13 Perfect,21,CTCT
3 Perfect,21,CTTC
5 Perfect,21,GAAG
13 Perfect,21,GAGA
2 Perfect,21,GAGG
1 Perfect,21,GATA
1 Perfect,21,GATG
1 Perfect,21,GATT
1 Perfect,21,GCCA
1 Perfect,21,GCGC
1 Perfect,21,GCTG
7 Perfect,21,GGAA
3 Perfect,21,GGAG
2 Perfect,21,GGAT
1 Perfect,21,GGCA
1 Perfect,21,GGCG
2 Perfect,21,GGGA
1 Perfect,21,GGGG
22 Perfect,21,GTGT
1 Perfect,21,GTTT
4 Perfect,21,TAAA
1 Perfect,21,TACA
3 Perfect,21,TAGA
69 Perfect,21,TATA
4 Perfect,21,TATC
1 Perfect,21,TATG
36 Perfect,21,TATT
1 Perfect,21,TCAA
1 Perfect,21,TCAT
3 Perfect,21,TCCA
7 Perfect,21,TCCC
6 Perfect,21,TCCT
3 Perfect,21,TCTA
31 Perfect,21,TCTC
12 Perfect,21,TCTT
3 Perfect,21,TGAA
2 Perfect,21,TGAT
1 Perfect,21,TGGA
4 Perfect,21,TGTA
68 Perfect,21,TGTG
17 Perfect,21,TGTT
12 Perfect,21,TTAT
1 Perfect,21,TTCA
7 Perfect,21,TTCC
4 Perfect,21,TTCT
1 Perfect,21,TTGT
7 Perfect,21,TTTA
15 Perfect,21,TTTC
8 Perfect,21,TTTG
466 Perfect,21,TTTT
442 Perfect,22,AAAA
12 Perfect,22,AAAC
11 Perfect,22,AAAG
39 Perfect,22,AAAT
8 Perfect,22,AACA
1 Perfect,22,AACC
7 Perfect,22,AAGA
13 Perfect,22,AAGG
32 Perfect,22,AATA
1 Perfect,22,AATG
2 Perfect,22,AATT
38 Perfect,22,ACAC
2 Perfect,22,AGAA
13 Perfect,22,AGAG
3 Perfect,22,AGGG
1 Perfect,22,AGGT
2 Perfect,22,ATAC
3 Perfect,22,ATAG
57 Perfect,22,ATAT
1 Perfect,22,ATCA
2 Perfect,22,ATCC
4 Perfect,22,ATCT
2 Perfect,22,ATGA
2 Perfect,22,ATGG
1 Perfect,22,ATTC
4 Perfect,22,ATTT
5 Perfect,22,CAAA
30 Perfect,22,CACA
1 Perfect,22,CATC
3 Perfect,22,CATT
1 Perfect,22,CCAG
3 Perfect,22,CCTC
1 Perfect,22,CCTT
1 Perfect,22,CTAC
1 Perfect,22,CTAG
1 Perfect,22,CTAT
1 Perfect,22,CTCC
11 Perfect,22,CTCT
3 Perfect,22,CTTC
2 Perfect,22,CTTT
3 Perfect,22,GAAA
3 Perfect,22,GAAG
1 Perfect,22,GAAT
27 Perfect,22,GAGA
4 Perfect,22,GAGG
1 Perfect,22,GAGT
2 Perfect,22,GATA
5 Perfect,22,GGAA
2 Perfect,22,GGGA
47 Perfect,22,GTGT
2 Perfect,22,GTTT
7 Perfect,22,TAAA
1 Perfect,22,TACC
44 Perfect,22,TATA
3 Perfect,22,TATC
11 Perfect,22,TATT
1 Perfect,22,TCAT
3 Perfect,22,TCCC
2 Perfect,22,TCCT
3 Perfect,22,TCTA
35 Perfect,22,TCTC
2 Perfect,22,TCTT
4 Perfect,22,TGAA
1 Perfect,22,TGTC
30 Perfect,22,TGTG
3 Perfect,22,TGTT
6 Perfect,22,TTAA
28 Perfect,22,TTAT
7 Perfect,22,TTCC
10 Perfect,22,TTCT
1 Perfect,22,TTGC
21 Perfect,22,TTGT
23 Perfect,22,TTTA
5 Perfect,22,TTTC
6 Perfect,22,TTTG
448 Perfect,22,TTTT
408 Perfect,23,AAAA
116 Perfect,23,AAAC
47 Perfect,23,AAAG
97 Perfect,23,AAAT
1 Perfect,23,AAGA
2 Perfect,23,AAGG
1 Perfect,23,AATC
3 Perfect,23,AATG
98 Perfect,23,ACAC
2 Perfect,23,ACAG
3 Perfect,23,ACAT
8 Perfect,23,AGAA
5 Perfect,23,AGAC
33 Perfect,23,AGAG
1 Perfect,23,AGAT
1 Perfect,23,AGCC
5 Perfect,23,AGGA
7 Perfect,23,AGGG
2 Perfect,23,ATAA
1 Perfect,23,ATAC
4 Perfect,23,ATAG
36 Perfect,23,ATAT
5 Perfect,23,ATCT
1 Perfect,23,ATGA
1 Perfect,23,ATTA
2 Perfect,23,ATTC
2 Perfect,23,ATTT
6 Perfect,23,CAAA
1 Perfect,23,CAAC
21 Perfect,23,CACA
4 Perfect,23,CATC
2 Perfect,23,CATT
1 Perfect,23,CCAG
1 Perfect,23,CCTC
2 Perfect,23,CCTT
4 Perfect,23,CTAC
1 Perfect,23,CTAG
3 Perfect,23,CTCC
11 Perfect,23,CTCT
1 Perfect,23,CTGC
2 Perfect,23,CTTC
1 Perfect,23,CTTG
1 Perfect,23,CTTT
2 Perfect,23,GAAA
11 Perfect,23,GAAG
9 Perfect,23,GAGA
1 Perfect,23,GAGC
2 Perfect,23,GAGG
2 Perfect,23,GATA
3 Perfect,23,GATG
1 Perfect,23,GCGC
2 Perfect,23,GGAA
2 Perfect,23,GGAG
1 Perfect,23,GTGA
1 Perfect,23,GTGC
24 Perfect,23,GTGT
3 Perfect,23,TAAA
1 Perfect,23,TAGA
1 Perfect,23,TAGC
51 Perfect,23,TATA
2 Perfect,23,TATC
7 Perfect,23,TATG
2 Perfect,23,TATT
1 Perfect,23,TCAC
1 Perfect,23,TCAT
1 Perfect,23,TCCT
4 Perfect,23,TCTA
27 Perfect,23,TCTC
3 Perfect,23,TCTG
3 Perfect,23,TCTT
1 Perfect,23,TGAA
1 Perfect,23,TGTC
75 Perfect,23,TGTG
2 Perfect,23,TGTT
8 Perfect,23,TTAT
9 Perfect,23,TTCC
1 Perfect,23,TTCT
1 Perfect,23,TTGA
2 Perfect,23,TTGT
111 Perfect,23,TTTA
59 Perfect,23,TTTC
132 Perfect,23,TTTG
366 Perfect,23,TTTT
300 Perfect,24,AAAA
11 Perfect,24,AAAC
4 Perfect,24,AAAG
16 Perfect,24,AAAT
1 Perfect,24,AACC
3 Perfect,24,AAGA
1 Perfect,24,AAGC
3 Perfect,24,AAGG
4 Perfect,24,AATA
3 Perfect,24,AATC
1 Perfect,24,AATG
3 Perfect,24,AATT
38 Perfect,24,ACAC
1 Perfect,24,ACAT
18 Perfect,24,AGAG
1 Perfect,24,AGAT
1 Perfect,24,AGGA
2 Perfect,24,AGGC
1 Perfect,24,AGGG
1 Perfect,24,ATAG
33 Perfect,24,ATAT
1 Perfect,24,ATCA
1 Perfect,24,ATCC
1 Perfect,24,ATCT
3 Perfect,24,ATGA
1 Perfect,24,ATGT
1 Perfect,24,ATTC
1 Perfect,24,ATTG
20 Perfect,24,ATTT
14 Perfect,24,CAAA
1 Perfect,24,CAAT
30 Perfect,24,CACA
1 Perfect,24,CATA
3 Perfect,24,CATC
1 Perfect,24,CATT
1 Perfect,24,CCCC
2 Perfect,24,CCCT
2 Perfect,24,CCTC
4 Perfect,24,CCTT
1 Perfect,24,CTAT
15 Perfect,24,CTCT
2 Perfect,24,CTTC
7 Perfect,24,CTTT
3 Perfect,24,GAAA
2 Perfect,24,GAAG
25 Perfect,24,GAGA
5 Perfect,24,GAGG
5 Perfect,24,GATA
2 Perfect,24,GATG
1 Perfect,24,GATT
1 Perfect,24,GCTT
3 Perfect,24,GGAA
2 Perfect,24,GGAG
1 Perfect,24,GGAT
1 Perfect,24,GGGA
1 Perfect,24,GGGC
1 Perfect,24,GGTG
39 Perfect,24,GTGT
8 Perfect,24,GTTT
12 Perfect,24,TAAA
2 Perfect,24,TAGA
45 Perfect,24,TATA
5 Perfect,24,TATC
3 Perfect,24,TATT
2 Perfect,24,TCCA
3 Perfect,24,TCCT
1 Perfect,24,TCTA
8 Perfect,24,TCTC
5 Perfect,24,TCTT
1 Perfect,24,TGAA
2 Perfect,24,TGGA
1 Perfect,24,TGTC
32 Perfect,24,TGTG
1 Perfect,24,TGTT
1 Perfect,24,TTAG
3 Perfect,24,TTAT
3 Perfect,24,TTCA
4 Perfect,24,TTCC
1 Perfect,24,TTGG
7 Perfect,24,TTTA
4 Perfect,24,TTTC
14 Perfect,24,TTTG
318 Perfect,24,TTTT
291 Perfect,25,AAAA
7 Perfect,25,AAAC
6 Perfect,25,AAAG
17 Perfect,25,AAAT
1 Perfect,25,AACA
1 Perfect,25,AAGA
1 Perfect,25,AAGG
2 Perfect,25,AATA
1 Perfect,25,AATG
1 Perfect,25,ACAA
78 Perfect,25,ACAC
5 Perfect,25,AGAA
2 Perfect,25,AGAC
24 Perfect,25,AGAG
1 Perfect,25,AGAT
3 Perfect,25,AGGA
3 Perfect,25,AGGG
5 Perfect,25,ATAA
27 Perfect,25,ATAT
1 Perfect,25,ATCT
2 Perfect,25,ATGA
2 Perfect,25,ATTC
2 Perfect,25,ATTG
2 Perfect,25,ATTT
2 Perfect,25,CAAA
1 Perfect,25,CAAC
22 Perfect,25,CACA
1 Perfect,25,CCAT
1 Perfect,25,CCTC
1 Perfect,25,CCTG
1 Perfect,25,CTAT
10 Perfect,25,CTCT
2 Perfect,25,CTTC
2 Perfect,25,CTTT
1 Perfect,25,GAAG
10 Perfect,25,GAGA
1 Perfect,25,GAGG
1 Perfect,25,GATG
1 Perfect,25,GCAA
1 Perfect,25,GCCC
2 Perfect,25,GGAA
3 Perfect,25,GGAG
28 Perfect,25,GTGT
2 Perfect,25,TAAA
1 Perfect,25,TAAT
1 Perfect,25,TACA
36 Perfect,25,TATA
2 Perfect,25,TATC
1 Perfect,25,TATG
16 Perfect,25,TATT
2 Perfect,25,TCAT
1 Perfect,25,TCCA
1 Perfect,25,TCCT
28 Perfect,25,TCTC
10 Perfect,25,TCTT
1 Perfect,25,TGCT
1 Perfect,25,TGTC
66 Perfect,25,TGTG
11 Perfect,25,TGTT
1 Perfect,25,TTAA
2 Perfect,25,TTAT
2 Perfect,25,TTCC
1 Perfect,25,TTGA
2 Perfect,25,TTGT
5 Perfect,25,TTTA
5 Perfect,25,TTTC
3 Perfect,25,TTTG
261 Perfect,25,TTTT
231 Perfect,26,AAAA
7 Perfect,26,AAAC
3 Perfect,26,AAAG
20 Perfect,26,AAAT
6 Perfect,26,AAGA
3 Perfect,26,AAGG
10 Perfect,26,AATA
1 Perfect,26,AATG
1 Perfect,26,ACAA
38 Perfect,26,ACAC
1 Perfect,26,ACCA
1 Perfect,26,AGAA
7 Perfect,26,AGAG
2 Perfect,26,AGGA
1 Perfect,26,AGGG
1 Perfect,26,ATAA
1 Perfect,26,ATAG
23 Perfect,26,ATAT
1 Perfect,26,ATCC
2 Perfect,26,ATCT
2 Perfect,26,ATGA
1 Perfect,26,ATGG
1 Perfect,26,ATTA
2 Perfect,26,ATTT
1 Perfect,26,CAAA
38 Perfect,26,CACA
1 Perfect,26,CAGT
1 Perfect,26,CATA
2 Perfect,26,CATC
2 Perfect,26,CATT
1 Perfect,26,CCCC
1 Perfect,26,CCCT
1 Perfect,26,CCTC
1 Perfect,26,CTCC
13 Perfect,26,CTCT
4 Perfect,26,GAAA
16 Perfect,26,GAGA
2 Perfect,26,GAGG
1 Perfect,26,GATA
1 Perfect,26,GGAG
1 Perfect,26,GGAT
1 Perfect,26,GTAT
41 Perfect,26,GTGT
1 Perfect,26,GTTT
1 Perfect,26,TAAA
1 Perfect,26,TAGA
26 Perfect,26,TATA
3 Perfect,26,TATC
3 Perfect,26,TATT
2 Perfect,26,TCAA
1 Perfect,26,TCCC
1 Perfect,26,TCCT
5 Perfect,26,TCTA
12 Perfect,26,TCTC
1 Perfect,26,TCTT
1 Perfect,26,TGAA
2 Perfect,26,TGGA
17 Perfect,26,TGTG
3 Perfect,26,TTAA
5 Perfect,26,TTAT
1 Perfect,26,TTCA
5 Perfect,26,TTCC
2 Perfect,26,TTCT
2 Perfect,26,TTGA
13 Perfect,26,TTGT
12 Perfect,26,TTTA
4 Perfect,26,TTTC
2 Perfect,26,TTTG
211 Perfect,26,TTTT
182 Perfect,27,AAAA
43 Perfect,27,AAAC
17 Perfect,27,AAAG
40 Perfect,27,AAAT
1 Perfect,27,AACA
1 Perfect,27,AACT
1 Perfect,27,AAGA
3 Perfect,27,AAGG
3 Perfect,27,AATA
1 Perfect,27,AATT
67 Perfect,27,ACAC
1 Perfect,27,ACAG
1 Perfect,27,ACAT
3 Perfect,27,AGAA
7 Perfect,27,AGAC
23 Perfect,27,AGAG
1 Perfect,27,AGAT
3 Perfect,27,AGGA
1 Perfect,27,AGGC
3 Perfect,27,AGGG
2 Perfect,27,ATAA
1 Perfect,27,ATAC
2 Perfect,27,ATAG
26 Perfect,27,ATAT
1 Perfect,27,ATCC
1 Perfect,27,ATCT
1 Perfect,27,ATGA
1 Perfect,27,ATGT
1 Perfect,27,ATTC
1 Perfect,27,ATTG
2 Perfect,27,ATTT
2 Perfect,27,CAAA
24 Perfect,27,CACA
2 Perfect,27,CATT
2 Perfect,27,CCTC
1 Perfect,27,CCTT
1 Perfect,27,CTAG
5 Perfect,27,CTCT
2 Perfect,27,CTTC
2 Perfect,27,GAAA
4 Perfect,27,GAAG
8 Perfect,27,GAGA
1 Perfect,27,GAGG
1 Perfect,27,GATG
1 Perfect,27,GGAA
1 Perfect,27,GGAG
1 Perfect,27,GGAT
1 Perfect,27,GGGA
13 Perfect,27,GTGT
1 Perfect,27,GTTT
3 Perfect,27,TAAA
1 Perfect,27,TAGA
34 Perfect,27,TATA
1 Perfect,27,TATC
5 Perfect,27,TATG
1 Perfect,27,TCAT
1 Perfect,27,TCCC
1 Perfect,27,TCCT
2 Perfect,27,TCTA
23 Perfect,27,TCTC
5 Perfect,27,TCTG
2 Perfect,27,TGAA
1 Perfect,27,TGAG
1 Perfect,27,TGTA
87 Perfect,27,TGTG
1 Perfect,27,TTAT
6 Perfect,27,TTCC
1 Perfect,27,TTCT
1 Perfect,27,TTGA
1 Perfect,27,TTGT
25 Perfect,27,TTTA
25 Perfect,27,TTTC
51 Perfect,27,TTTG
176 Perfect,27,TTTT
154 Perfect,28,AAAA
6 Perfect,28,AAAC
3 Perfect,28,AAAG
6 Perfect,28,AAAT
1 Perfect,28,AAGA
1 Perfect,28,AAGG
3 Perfect,28,AATA
1 Perfect,28,AATC
39 Perfect,28,ACAC
8 Perfect,28,AGAG
1 Perfect,28,AGGA
1 Perfect,28,AGGG
1 Perfect,28,ATAA
1 Perfect,28,ATAG
24 Perfect,28,ATAT
1 Perfect,28,ATCT
7 Perfect,28,ATTT
6 Perfect,28,CAAA
1 Perfect,28,CAAT
29 Perfect,28,CACA
1 Perfect,28,CATC
2 Perfect,28,CCTC
8 Perfect,28,CTCT
1 Perfect,28,CTTC
5 Perfect,28,CTTT
1 Perfect,28,GAAA
1 Perfect,28,GAAG
21 Perfect,28,GAGA
1 Perfect,28,GATA
2 Perfect,28,GATG
1 Perfect,28,GCTG
1 Perfect,28,GTCT
45 Perfect,28,GTGT
8 Perfect,28,GTTT
6 Perfect,28,TAAA
19 Perfect,28,TATA
5 Perfect,28,TATC
5 Perfect,28,TATT
16 Perfect,28,TCTC
3 Perfect,28,TCTT
2 Perfect,28,TGAA
2 Perfect,28,TGAT
21 Perfect,28,TGTG
1 Perfect,28,TGTT
2 Perfect,28,TTAT
1 Perfect,28,TTCC
2 Perfect,28,TTCT
3 Perfect,28,TTTA
3 Perfect,28,TTTC
9 Perfect,28,TTTG
130 Perfect,28,TTTT
105 Perfect,29,AAAA
2 Perfect,29,AAAC
5 Perfect,29,AAAG
6 Perfect,29,AAAT
2 Perfect,29,AAGG
3 Perfect,29,AATA
67 Perfect,29,ACAC
2 Perfect,29,AGAA
16 Perfect,29,AGAG
1 Perfect,29,AGGA
4 Perfect,29,AGGG
2 Perfect,29,ATAA
17 Perfect,29,ATAT
1 Perfect,29,ATCT
1 Perfect,29,ATGG
1 Perfect,29,CAAA
23 Perfect,29,CACA
1 Perfect,29,CATT
2 Perfect,29,CCTT
1 Perfect,29,CTAT
10 Perfect,29,CTCT
2 Perfect,29,CTTT
2 Perfect,29,GAAG
3 Perfect,29,GAGA
2 Perfect,29,GATA
1 Perfect,29,GGAT
1 Perfect,29,GGGG
23 Perfect,29,GTGT
1 Perfect,29,TAAT
2 Perfect,29,TAGA
28 Perfect,29,TATA
1 Perfect,29,TATC
1 Perfect,29,TATG
7 Perfect,29,TATT
1 Perfect,29,TCAA
1 Perfect,29,TCAT
1 Perfect,29,TCCC
1 Perfect,29,TCCT
9 Perfect,29,TCTC
5 Perfect,29,TCTT
1 Perfect,29,TGTA
69 Perfect,29,TGTG
5 Perfect,29,TGTT
4 Perfect,29,TTAT
1 Perfect,29,TTCA
2 Perfect,29,TTCC
2 Perfect,29,TTTA
100 Perfect,29,TTTT
75 Perfect,30,AAAA
2 Perfect,30,AAAC
2 Perfect,30,AAAG
11 Perfect,30,AAAT
1 Perfect,30,AAGC
3 Perfect,30,AAGG
6 Perfect,30,AATA
2 Perfect,30,AATG
1 Perfect,30,AATT
35 Perfect,30,ACAC
4 Perfect,30,AGAG
1 Perfect,30,AGGA
2 Perfect,30,AGGG
19 Perfect,30,ATAT
1 Perfect,30,ATCT
1 Perfect,30,ATGG
1 Perfect,30,ATTT
23 Perfect,30,CACA
1 Perfect,30,CATT
1 Perfect,30,CCTT
1 Perfect,30,CTAC
1 Perfect,30,CTAT
5 Perfect,30,CTCT
2 Perfect,30,CTTT
1 Perfect,30,GAAA
2 Perfect,30,GAAG
13 Perfect,30,GAGA
2 Perfect,30,GAGG
3 Perfect,30,GATA
2 Perfect,30,GATG
1 Perfect,30,GGAA
39 Perfect,30,GTGT
2 Perfect,30,TAAA
1 Perfect,30,TAAG
1 Perfect,30,TAGA
19 Perfect,30,TATA
2 Perfect,30,TATC
1 Perfect,30,TCCC
13 Perfect,30,TCTC
22 Perfect,30,TGTG
1 Perfect,30,TTAA
12 Perfect,30,TTAT
1 Perfect,30,TTCA
1 Perfect,30,TTCC
2 Perfect,30,TTCT
4 Perfect,30,TTGT
6 Perfect,30,TTTA
2 Perfect,30,TTTC
70 Perfect,30,TTTT
56 Perfect,31,AAAA
13 Perfect,31,AAAC
8 Perfect,31,AAAG
17 Perfect,31,AAAT
1 Perfect,31,AACC
1 Perfect,31,AAGG
1 Perfect,31,AATA
1 Perfect,31,AATG
1 Perfect,31,AATT
66 Perfect,31,ACAC
4 Perfect,31,AGAA
10 Perfect,31,AGAG
1 Perfect,31,AGGA
1 Perfect,31,AGGC
1 Perfect,31,AGGG
1 Perfect,31,ATAC
1 Perfect,31,ATAG
30 Perfect,31,ATAT
1 Perfect,31,ATGG
2 Perfect,31,ATTC
1 Perfect,31,ATTT
13 Perfect,31,CACA
1 Perfect,31,CATT
1 Perfect,31,CCTC
1 Perfect,31,CCTG
3 Perfect,31,CCTT
5 Perfect,31,CTCT
2 Perfect,31,GAAG
4 Perfect,31,GAGA
1 Perfect,31,GATA
1 Perfect,31,GATG
15 Perfect,31,GTGT
1 Perfect,31,TACA
17 Perfect,31,TATA
2 Perfect,31,TATC
1 Perfect,31,TATT
1 Perfect,31,TCAT
1 Perfect,31,TCCT
12 Perfect,31,TCTC
2 Perfect,31,TCTG
2 Perfect,31,TCTT
51 Perfect,31,TGTG
1 Perfect,31,TTAT
1 Perfect,31,TTCT
1 Perfect,31,TTGT
17 Perfect,31,TTTA
6 Perfect,31,TTTC
16 Perfect,31,TTTG
43 Perfect,31,TTTT
32 Perfect,32,AAAA
2 Perfect,32,AAAC
2 Perfect,32,AAAG
1 Perfect,32,AAAT
1 Perfect,32,AAGG
1 Perfect,32,AATA
1 Perfect,32,AATG
46 Perfect,32,ACAC
1 Perfect,32,AGAA
7 Perfect,32,AGAG
20 Perfect,32,ATAT
1 Perfect,32,ATGA
3 Perfect,32,ATTT
2 Perfect,32,CAAA
22 Perfect,32,CACA
1 Perfect,32,CCAA
1 Perfect,32,CCTT
4 Perfect,32,CTCT
2 Perfect,32,GAAA
9 Perfect,32,GAGA
1 Perfect,32,GAGG
2 Perfect,32,GGAA
37 Perfect,32,GTGT
1 Perfect,32,GTTT
1 Perfect,32,TAAA
20 Perfect,32,TATA
2 Perfect,32,TATC
3 Perfect,32,TATT
1 Perfect,32,TCCA
1 Perfect,32,TCCT
2 Perfect,32,TCTA
7 Perfect,32,TCTC
21 Perfect,32,TGTG
2 Perfect,32,TTAT
1 Perfect,32,TTCA
1 Perfect,32,TTCC
2 Perfect,32,TTTA
3 Perfect,32,TTTC
1 Perfect,32,TTTG
33 Perfect,32,TTTT
27 Perfect,33,AAAA
1 Perfect,33,AAAG
4 Perfect,33,AAAT
1 Perfect,33,AACA
1 Perfect,33,AAGG
57 Perfect,33,ACAC
1 Perfect,33,AGAA
10 Perfect,33,AGAG
2 Perfect,33,AGAT
1 Perfect,33,AGGA
15 Perfect,33,ATAT
1 Perfect,33,ATCC
1 Perfect,33,ATCT
1 Perfect,33,ATGA
2 Perfect,33,ATTC
2 Perfect,33,ATTT
10 Perfect,33,CACA
1 Perfect,33,CATT
1 Perfect,33,CTCT
1 Perfect,33,GAAG
2 Perfect,33,GAGA
1 Perfect,33,GATA
1 Perfect,33,GGAT
18 Perfect,33,GTGT
1 Perfect,33,TAAA
19 Perfect,33,TATA
7 Perfect,33,TATT
1 Perfect,33,TCAA
1 Perfect,33,TCAT
1 Perfect,33,TCCC
9 Perfect,33,TCTC
4 Perfect,33,TCTT
1 Perfect,33,TGCC
62 Perfect,33,TGTG
3 Perfect,33,TTAT
1 Perfect,33,TTCA
1 Perfect,33,TTCT
2 Perfect,33,TTTA
1 Perfect,33,TTTC
29 Perfect,33,TTTT
28 Perfect,34,AAAA
3 Perfect,34,AAAC
6 Perfect,34,AAAT
2 Perfect,34,AAGG
4 Perfect,34,AATA
1 Perfect,34,AATT
48 Perfect,34,ACAC
2 Perfect,34,AGAA
6 Perfect,34,AGAG
1 Perfect,34,AGAT
1 Perfect,34,AGGG
10 Perfect,34,ATAT
21 Perfect,34,CACA
1 Perfect,34,CATT
2 Perfect,34,CTAT
8 Perfect,34,CTCT
3 Perfect,34,GAAA
1 Perfect,34,GAAG
5 Perfect,34,GAGA
1 Perfect,34,GATG
1 Perfect,34,GGAA
45 Perfect,34,GTGT
3 Perfect,34,TAAA
2 Perfect,34,TAGA
20 Perfect,34,TATA
2 Perfect,34,TATC
1 Perfect,34,TATT
2 Perfect,34,TCCC
1 Perfect,34,TCCT
4 Perfect,34,TCTC
1 Perfect,34,TGAA
1 Perfect,34,TGGA
27 Perfect,34,TGTG
4 Perfect,34,TTAT
1 Perfect,34,TTCA
1 Perfect,34,TTCC
1 Perfect,34,TTGA
1 Perfect,34,TTGT
3 Perfect,34,TTTA
1 Perfect,34,TTTC
1 Perfect,34,TTTG
22 Perfect,34,TTTT
23 Perfect,35,AAAA
7 Perfect,35,AAAC
4 Perfect,35,AAAG
10 Perfect,35,AAAT
3 Perfect,35,AATA
1 Perfect,35,AATT
65 Perfect,35,ACAC
1 Perfect,35,AGAA
2 Perfect,35,AGAC
6 Perfect,35,AGAG
1 Perfect,35,AGGA
1 Perfect,35,AGGG
3 Perfect,35,ATAC
1 Perfect,35,ATAG
19 Perfect,35,ATAT
2 Perfect,35,ATCT
13 Perfect,35,CACA
1 Perfect,35,CTCC
2 Perfect,35,CTCT
1 Perfect,35,CTTC
2 Perfect,35,GAAG
3 Perfect,35,GAGA
1 Perfect,35,GATA
1 Perfect,35,GATG
1 Perfect,35,GGAT
1 Perfect,35,GTAT
16 Perfect,35,GTGT
2 Perfect,35,TAAA
1 Perfect,35,TAGA
13 Perfect,35,TATA
2 Perfect,35,TATC
1 Perfect,35,TATG
1 Perfect,35,TATT
9 Perfect,35,TCTC
1 Perfect,35,TCTG
1 Perfect,35,TCTT
48 Perfect,35,TGTG
15 Perfect,35,TTTA
2 Perfect,35,TTTC
4 Perfect,35,TTTG
22 Perfect,35,TTTT
16 Perfect,36,AAAA
2 Perfect,36,AAAC
2 Perfect,36,AAAG
4 Perfect,36,AAAT
3 Perfect,36,AAGG
1 Perfect,36,AATA
46 Perfect,36,ACAC
1 Perfect,36,AGAA
2 Perfect,36,AGAG
2 Perfect,36,AGAT
1 Perfect,36,AGGC
1 Perfect,36,AGGG
1 Perfect,36,ATAA
1 Perfect,36,ATAC
1 Perfect,36,ATAG
11 Perfect,36,ATAT
1 Perfect,36,ATGT
5 Perfect,36,ATTT
20 Perfect,36,CACA
1 Perfect,36,CCTC
1 Perfect,36,CCTT
4 Perfect,36,CTCT
2 Perfect,36,CTTT
5 Perfect,36,GAGA
1 Perfect,36,GAGG
1 Perfect,36,GATA
1 Perfect,36,GGAA
31 Perfect,36,GTGT
5 Perfect,36,GTTT
1 Perfect,36,TAAA
11 Perfect,36,TATA
6 Perfect,36,TATC
1 Perfect,36,TATG
4 Perfect,36,TCTC
17 Perfect,36,TGTG
1 Perfect,36,TTCT
3 Perfect,36,TTTA
4 Perfect,36,TTTG
20 Perfect,36,TTTT
16 Perfect,37,AAAA
3 Perfect,37,AAAC
4 Perfect,37,AAAG
1 Perfect,37,AAAT
3 Perfect,37,AATA
60 Perfect,37,ACAC
7 Perfect,37,AGAG
3 Perfect,37,AGAT
3 Perfect,37,AGGG
2 Perfect,37,ATAA
18 Perfect,37,ATAT
1 Perfect,37,ATCT
1 Perfect,37,ATGG
1 Perfect,37,ATTC
1 Perfect,37,CAAA
9 Perfect,37,CACA
1 Perfect,37,CCTC
3 Perfect,37,CTCT
3 Perfect,37,GAGA
2 Perfect,37,GATA
1 Perfect,37,GGGA
17 Perfect,37,GTGT
1 Perfect,37,TAGG
11 Perfect,37,TATA
7 Perfect,37,TATT
1 Perfect,37,TCCC
1 Perfect,37,TCTA
4 Perfect,37,TCTC
3 Perfect,37,TCTT
1 Perfect,37,TGAA
1 Perfect,37,TGGT
53 Perfect,37,TGTG
4 Perfect,37,TTAT
2 Perfect,37,TTTA
23 Perfect,37,TTTT
23 Perfect,38,AAAA
1 Perfect,38,AAAG
3 Perfect,38,AAAT
1 Perfect,38,AACC
5 Perfect,38,AATA
36 Perfect,38,ACAC
4 Perfect,38,AGAG
1 Perfect,38,AGGA
1 Perfect,38,ATAA
18 Perfect,38,ATAT
1 Perfect,38,ATCC
1 Perfect,38,ATCT
1 Perfect,38,ATTT
14 Perfect,38,CACA
1 Perfect,38,CTCC
6 Perfect,38,CTCT
1 Perfect,38,CTTC
1 Perfect,38,CTTT
2 Perfect,38,GAGA
1 Perfect,38,GATA
1 Perfect,38,GGAA
40 Perfect,38,GTGT
3 Perfect,38,TAAA
13 Perfect,38,TATA
1 Perfect,38,TATC
1 Perfect,38,TATT
2 Perfect,38,TCTA
6 Perfect,38,TCTC
25 Perfect,38,TGTG
5 Perfect,38,TTAT
1 Perfect,38,TTCA
2 Perfect,38,TTCC
1 Perfect,38,TTCT
1 Perfect,38,TTGT
5 Perfect,38,TTTA
1 Perfect,38,TTTG
15 Perfect,38,TTTT
15 Perfect,39,AAAA
14 Perfect,39,AAAT
3 Perfect,39,AAGG
1 Perfect,39,AATA
48 Perfect,39,ACAC
2 Perfect,39,AGAA
5 Perfect,39,AGAG
1 Perfect,39,AGAT
2 Perfect,39,AGGA
1 Perfect,39,ATAC
1 Perfect,39,ATAG
9 Perfect,39,ATAT
2 Perfect,39,ATCT
1 Perfect,39,ATTC
1 Perfect,39,ATTT
17 Perfect,39,CACA
1 Perfect,39,CATC
1 Perfect,39,CCTT
2 Perfect,39,CTCT
1 Perfect,39,CTTC
2 Perfect,39,GAAG
3 Perfect,39,GATA
1 Perfect,39,GGAT
14 Perfect,39,GTGT
3 Perfect,39,TAAA
14 Perfect,39,TATA
5 Perfect,39,TATC
1 Perfect,39,TATT
1 Perfect,39,TCTA
6 Perfect,39,TCTC
2 Perfect,39,TCTT
49 Perfect,39,TGTG
10 Perfect,39,TTTA
4 Perfect,39,TTTC
1 Perfect,39,TTTG
17 Perfect,39,TTTT
17 Perfect,40,AAAA
3 Perfect,40,AAAT
2 Perfect,40,AAGG
38 Perfect,40,ACAC
1 Perfect,40,ACCT
2 Perfect,40,AGAG
4 Perfect,40,ATAA
1 Perfect,40,ATAG
13 Perfect,40,ATAT
1 Perfect,40,ATGG
4 Perfect,40,ATTT
15 Perfect,40,CACA
1 Perfect,40,CATA
1 Perfect,40,CATC
1 Perfect,40,CCTC
1 Perfect,40,CTCT
2 Perfect,40,CTTC
1 Perfect,40,CTTT
9 Perfect,40,GAGA
1 Perfect,40,GATA
1 Perfect,40,GCCT
1 Perfect,40,GGAA
36 Perfect,40,GTGT
5 Perfect,40,TAAA
12 Perfect,40,TATA
4 Perfect,40,TATC
1 Perfect,40,TATG
2 Perfect,40,TATT
1 Perfect,40,TCCA
2 Perfect,40,TCTC
1 Perfect,40,TGGA
10 Perfect,40,TGTG
1 Perfect,40,TTCA
2 Perfect,40,TTCC
6 Perfect,40,TTTA
1 Perfect,40,TTTC
1 Perfect,40,TTTG
11 Perfect,40,TTTT
11 Perfect,41,AAAA
1 Perfect,41,AAAC
1 Perfect,41,AAAG
6 Perfect,41,AAAT
2 Perfect,41,AATA
45 Perfect,41,ACAC
4 Perfect,41,AGAG
1 Perfect,41,AGAT
1 Perfect,41,AGGG
1 Perfect,41,ATAA
3 Perfect,41,ATAG
13 Perfect,41,ATAT
2 Perfect,41,ATCT
1 Perfect,41,ATTT
13 Perfect,41,CACA
1 Perfect,41,CCTT
3 Perfect,41,CTCT
1 Perfect,41,CTTT
1 Perfect,41,GAAA
1 Perfect,41,GAGA
1 Perfect,41,GATG
1 Perfect,41,GGAA
19 Perfect,41,GTGT
1 Perfect,41,TAGA
13 Perfect,41,TATA
1 Perfect,41,TATC
8 Perfect,41,TATT
1 Perfect,41,TCAC
1 Perfect,41,TCCA
3 Perfect,41,TCTA
5 Perfect,41,TCTC
1 Perfect,41,TGGA
56 Perfect,41,TGTG
1 Perfect,41,TGTT
2 Perfect,41,TTAT
2 Perfect,41,TTCC
3 Perfect,41,TTTA
1 Perfect,41,TTTC
6 Perfect,41,TTTT
3 Perfect,42,AAAA
1 Perfect,42,AAAG
11 Perfect,42,AAAT
1 Perfect,42,AAGA
6 Perfect,42,AAGG
4 Perfect,42,AATA
36 Perfect,42,ACAC
1 Perfect,42,AGAC
3 Perfect,42,AGAG
1 Perfect,42,AGAT
2 Perfect,42,AGGA
7 Perfect,42,ATAG
23 Perfect,42,ATAT
2 Perfect,42,ATCT
2 Perfect,42,ATTT
18 Perfect,42,CACA
2 Perfect,42,CTAT
1 Perfect,42,CTCC
1 Perfect,42,CTTT
1 Perfect,42,GAAA
2 Perfect,42,GAGA
3 Perfect,42,GATA
1 Perfect,42,GGAG
26 Perfect,42,GTGT
1 Perfect,42,TAGA
12 Perfect,42,TATA
1 Perfect,42,TATG
5 Perfect,42,TCTA
5 Perfect,42,TCTC
14 Perfect,42,TGTG
12 Perfect,42,TTAT
2 Perfect,42,TTCC
2 Perfect,42,TTTA
5 Perfect,42,TTTT
3 Perfect,43,AAAA
2 Perfect,43,AAAG
25 Perfect,43,AAAT
1 Perfect,43,AAGC
1 Perfect,43,AAGG
45 Perfect,43,ACAC
3 Perfect,43,AGAG
2 Perfect,43,AGAT
1 Perfect,43,AGGA
1 Perfect,43,ATAG
13 Perfect,43,ATAT
7 Perfect,43,ATCT
15 Perfect,43,CACA
2 Perfect,43,CTCT
1 Perfect,43,CTTC
1 Perfect,43,GAAG
2 Perfect,43,GAGA
5 Perfect,43,GATA
2 Perfect,43,GGAA
9 Perfect,43,GTGT
15 Perfect,43,TATA
1 Perfect,43,TATC
2 Perfect,43,TATT
1 Perfect,43,TCCC
2 Perfect,43,TCTA
2 Perfect,43,TCTC
2 Perfect,43,TCTG
43 Perfect,43,TGTG
4 Perfect,43,TTCC
18 Perfect,43,TTTA
4 Perfect,43,TTTC
7 Perfect,43,TTTT
1 Perfect,44,AAAA
1 Perfect,44,AAAG
7 Perfect,44,AAAT
2 Perfect,44,AAGA
1 Perfect,44,AATA
29 Perfect,44,ACAC
1 Perfect,44,AGAA
2 Perfect,44,AGAG
2 Perfect,44,AGAT
1 Perfect,44,ATAC
15 Perfect,44,ATAT
4 Perfect,44,ATCT
6 Perfect,44,ATTT
12 Perfect,44,CACA
1 Perfect,44,CATC
2 Perfect,44,CCTT
1 Perfect,44,CTAT
1 Perfect,44,CTTC
3 Perfect,44,CTTT
4 Perfect,44,GAGA
3 Perfect,44,GATA
1 Perfect,44,GGAA
20 Perfect,44,GTGT
3 Perfect,44,TAAA
3 Perfect,44,TAGA
18 Perfect,44,TATA
5 Perfect,44,TATC
2 Perfect,44,TATT
2 Perfect,44,TCTC
6 Perfect,44,TGTG
1 Perfect,44,TTAT
2 Perfect,44,TTCC
7 Perfect,44,TTTA
4 Perfect,44,TTTT
5 Perfect,45,AAAA
1 Perfect,45,AAAG
8 Perfect,45,AAAT
1 Perfect,45,AAGA
1 Perfect,45,AAGG
3 Perfect,45,AATA
30 Perfect,45,ACAC
2 Perfect,45,AGAG
3 Perfect,45,AGAT
1 Perfect,45,ATAA
1 Perfect,45,ATAG
19 Perfect,45,ATAT
1 Perfect,45,ATCC
1 Perfect,45,ATGG
1 Perfect,45,ATTT
8 Perfect,45,CACA
1 Perfect,45,CCAT
1 Perfect,45,CCTT
3 Perfect,45,CTAT
1 Perfect,45,CTTT
1 Perfect,45,GATA
7 Perfect,45,GTGT
2 Perfect,45,TAGA
17 Perfect,45,TATA
4 Perfect,45,TATC
4 Perfect,45,TATT
4 Perfect,45,TCTA
8 Perfect,45,TCTC
1 Perfect,45,TCTT
2 Perfect,45,TGTA
33 Perfect,45,TGTG
3 Perfect,45,TTAT
1 Perfect,45,TTCT
2 Perfect,45,TTTA
1 Perfect,45,TTTC
7 Perfect,45,TTTT
3 Perfect,46,AAAA
1 Perfect,46,AAAG
6 Perfect,46,AAAT
2 Perfect,46,AAGA
3 Perfect,46,AAGG
2 Perfect,46,AATA
24 Perfect,46,ACAC
1 Perfect,46,ATAC
1 Perfect,46,ATAG
21 Perfect,46,ATAT
3 Perfect,46,ATCT
1 Perfect,46,ATGT
14 Perfect,46,CACA
1 Perfect,46,CTAT
2 Perfect,46,CTCT
2 Perfect,46,CTTT
1 Perfect,46,GAAG
2 Perfect,46,GAGA
6 Perfect,46,GATA
24 Perfect,46,GTGT
1 Perfect,46,TACA
5 Perfect,46,TAGA
8 Perfect,46,TATA
1 Perfect,46,TATC
3 Perfect,46,TCTA
1 Perfect,46,TCTC
14 Perfect,46,TGTG
4 Perfect,46,TTAT
3 Perfect,46,TTCC
9 Perfect,46,TTTA
3 Perfect,46,TTTT
5 Perfect,47,AAAA
13 Perfect,47,AAAT
2 Perfect,47,AATA
29 Perfect,47,ACAC
1 Perfect,47,AGAA
1 Perfect,47,AGAG
3 Perfect,47,AGAT
1 Perfect,47,AGGA
4 Perfect,47,ATAG
13 Perfect,47,ATAT
5 Perfect,47,ATCT
1 Perfect,47,ATTT
5 Perfect,47,CACA
2 Perfect,47,CTCT
3 Perfect,47,GATA
1 Perfect,47,GATG
1 Perfect,47,GGAG
8 Perfect,47,GTGT
1 Perfect,47,TAAA
2 Perfect,47,TAGA
14 Perfect,47,TATA
3 Perfect,47,TATC
3 Perfect,47,TATG
1 Perfect,47,TCCC
5 Perfect,47,TCTA
6 Perfect,47,TCTC
2 Perfect,47,TCTT
32 Perfect,47,TGTG
3 Perfect,47,TTCC
16 Perfect,47,TTTA
1 Perfect,47,TTTC
1 Perfect,47,TTTT
2 Perfect,48,AAAA
5 Perfect,48,AAAT
3 Perfect,48,AAGG
16 Perfect,48,ACAC
1 Perfect,48,AGAA
1 Perfect,48,AGAG
2 Perfect,48,AGAT
1 Perfect,48,AGGA
15 Perfect,48,ATAT
1 Perfect,48,ATCC
1 Perfect,48,ATCT
5 Perfect,48,ATTT
8 Perfect,48,CACA
1 Perfect,48,CCAT
2 Perfect,48,CCTT
2 Perfect,48,CTAT
1 Perfect,48,CTCT
1 Perfect,48,CTTC
3 Perfect,48,GAAA
1 Perfect,48,GAAG
3 Perfect,48,GAGA
8 Perfect,48,GATA
1 Perfect,48,GGAT
1 Perfect,48,GTAT
17 Perfect,48,GTGT
1 Perfect,48,TAAA
11 Perfect,48,TATA
7 Perfect,48,TATC
1 Perfect,48,TATT
4 Perfect,48,TCTA
3 Perfect,48,TCTC
3 Perfect,48,TGGA
1 Perfect,48,TGTA
10 Perfect,48,TGTG
1 Perfect,48,TTAT
2 Perfect,48,TTCC
1 Perfect,48,TTTC
2 Perfect,48,TTTT
4 Perfect,49,AAAA
2 Perfect,49,AAAG
4 Perfect,49,AAAT
1 Perfect,49,AAGA
1 Perfect,49,AAGG
1 Perfect,49,AATA
20 Perfect,49,ACAC
2 Perfect,49,AGAA
4 Perfect,49,AGAG
3 Perfect,49,AGAT
1 Perfect,49,ATAA
4 Perfect,49,ATAG
2 Perfect,49,ATAT
2 Perfect,49,ATCT
4 Perfect,49,CACA
1 Perfect,49,CATC
1 Perfect,49,CCTT
3 Perfect,49,CTAT
1 Perfect,49,CTCT
1 Perfect,49,CTTC
1 Perfect,49,GAAA
8 Perfect,49,GTGT
1 Perfect,49,TAGA
4 Perfect,49,TATA
1 Perfect,49,TATC
3 Perfect,49,TATT
1 Perfect,49,TCCT
2 Perfect,49,TCTC
3 Perfect,49,TCTT
1 Perfect,49,TGTA
19 Perfect,49,TGTG
1 Perfect,49,TTAT
2 Perfect,49,TTCT
2 Perfect,49,TTTC
1 Perfect,50,AAAA
1 Perfect,50,AAAT
1 Perfect,50,AATA
6 Perfect,50,ACAC
3 Perfect,50,AGAA
1 Perfect,50,ATAA
3 Perfect,50,ATAG
12 Perfect,50,ATAT
5 Perfect,50,ATCT
5 Perfect,50,CACA
2 Perfect,50,CTTT
1 Perfect,50,GAAA
1 Perfect,50,GAAG
2 Perfect,50,GAGA
11 Perfect,50,GTGT
5 Perfect,50,TAGA
2 Perfect,50,TATA
2 Perfect,50,TATC
1 Perfect,50,TCCA
2 Perfect,50,TCTA
6 Perfect,50,TCTC
1 Perfect,50,TCTT
7 Perfect,50,TGTG
3 Perfect,50,TTAT
3 Perfect,50,TTCC
1 Perfect,50,TTCT
2 Perfect,50,TTTA
2 Perfect,51,AAAA
3 Perfect,51,AAAG
12 Perfect,51,AAAT
3 Perfect,51,AAGA
9 Perfect,51,ACAC
2 Perfect,51,AGAA
2 Perfect,51,AGAG
1 Perfect,51,AGAT
3 Perfect,51,AGGA
2 Perfect,51,ATAG
2 Perfect,51,ATAT
4 Perfect,51,ATCT
2 Perfect,51,CACA
2 Perfect,51,CCTT
2 Perfect,51,CTTC
2 Perfect,51,GAAG
1 Perfect,51,GAGA
1 Perfect,51,GATA
3 Perfect,51,GTGT
7 Perfect,51,TATA
1 Perfect,51,TATC
2 Perfect,51,TCTA
1 Perfect,51,TCTT
10 Perfect,51,TGTG
1 Perfect,51,TTCC
1 Perfect,51,TTCT
8 Perfect,51,TTTA
7 Perfect,51,TTTC
1 Perfect,51,TTTT
2 Perfect,52,AAAA
2 Perfect,52,AAAT
1 Perfect,52,AATA
1 Perfect,52,ACAC
2 Perfect,52,AGAA
2 Perfect,52,AGGA
1 Perfect,52,ATAC
6 Perfect,52,ATAT
1 Perfect,52,ATCC
1 Perfect,52,ATTT
4 Perfect,52,CACA
1 Perfect,52,CCTT
1 Perfect,52,CTCT
1 Perfect,52,CTTC
2 Perfect,52,CTTT
4 Perfect,52,GAAA
2 Perfect,52,GAAG
3 Perfect,52,GATA
6 Perfect,52,GTGT
2 Perfect,52,TAGA
3 Perfect,52,TATA
2 Perfect,52,TATC
1 Perfect,52,TCCT
1 Perfect,52,TCTC
1 Perfect,52,TCTT
4 Perfect,52,TGTG
1 Perfect,52,TTCC
2 Perfect,52,TTTC
5 Perfect,53,AAAG
1 Perfect,53,AAGG
13 Perfect,53,ACAC
2 Perfect,53,AGAA
1 Perfect,53,AGAT
1 Perfect,53,AGGA
1 Perfect,53,ATAC
1 Perfect,53,ATAG
6 Perfect,53,ATAT
2 Perfect,53,CCTT
1 Perfect,53,CTTC
1 Perfect,53,CTTT
2 Perfect,53,GAAA
1 Perfect,53,GAAG
1 Perfect,53,GATA
1 Perfect,53,GGAA
2 Perfect,53,GTGT
1 Perfect,53,TAGA
1 Perfect,53,TATA
1 Perfect,53,TATC
3 Perfect,53,TCTA
1 Perfect,53,TCTC
3 Perfect,53,TCTT
5 Perfect,53,TGTG
1 Perfect,53,TTAT
3 Perfect,53,TTCC
1 Perfect,53,TTTC
2 Perfect,53,TTTT
1 Perfect,54,AAAG
1 Perfect,54,AAGA
2 Perfect,54,AAGG
3 Perfect,54,ACAC
1 Perfect,54,AGAA
2 Perfect,54,AGAG
1 Perfect,54,AGGA
1 Perfect,54,AGGT
4 Perfect,54,ATAT
1 Perfect,54,ATCT
1 Perfect,54,CACA
1 Perfect,54,CTTC
2 Perfect,54,CTTT
1 Perfect,54,GAAA
1 Perfect,54,GAAG
1 Perfect,54,GAGA
2 Perfect,54,GATA
4 Perfect,54,GTGT
1 Perfect,54,TAGA
1 Perfect,54,TATA
1 Perfect,54,TCTA
2 Perfect,54,TCTC
1 Perfect,54,TCTT
3 Perfect,54,TGTG
4 Perfect,54,TTCC
3 Perfect,54,TTCT
2 Perfect,54,TTTA
1 Perfect,54,TTTC
1 Perfect,54,TTTT
2 Perfect,55,AAAG
2 Perfect,55,AAAT
1 Perfect,55,AAGA
1 Perfect,55,AAGG
4 Perfect,55,ACAC
1 Perfect,55,AGAG
1 Perfect,55,ATAC
2 Perfect,55,ATAG
3 Perfect,55,ATAT
1 Perfect,55,ATCT
1 Perfect,55,ATTT
1 Perfect,55,CACA
1 Perfect,55,CTCT
1 Perfect,55,CTTC
2 Perfect,55,GAAG
1 Perfect,55,GAGA
1 Perfect,55,GATA
3 Perfect,55,TATA
1 Perfect,55,TCTA
1 Perfect,55,TCTC
2 Perfect,55,TGTG
1 Perfect,55,TTCC
1 Perfect,55,TTCT
4 Perfect,55,TTTA
4 Perfect,55,TTTC
1 Perfect,56,AAAA
1 Perfect,56,AAAG
2 Perfect,56,AAGA
6 Perfect,56,ACAC
2 Perfect,56,AGAT
1 Perfect,56,AGGA
2 Perfect,56,ATAT
1 Perfect,56,ATTT
1 Perfect,56,CACA
3 Perfect,56,CCTT
1 Perfect,56,CTCT
2 Perfect,56,CTTC
2 Perfect,56,CTTT
1 Perfect,56,GAAA
1 Perfect,56,GAAG
2 Perfect,56,GAGA
3 Perfect,56,GATA
1 Perfect,56,GGAA
3 Perfect,56,GTGT
1 Perfect,56,TATA
1 Perfect,56,TCCT
2 Perfect,56,TCTA
1 Perfect,56,TCTC
1 Perfect,56,TCTT
1 Perfect,56,TTCT
4 Perfect,56,TTTC
2 Perfect,56,TTTT
5 Perfect,57,AAAG
1 Perfect,57,AAGG
2 Perfect,57,ACAC
3 Perfect,57,AGAA
1 Perfect,57,AGGA
3 Perfect,57,ATAT
1 Perfect,57,CCTT
1 Perfect,57,CTTT
1 Perfect,57,GAAA
1 Perfect,57,GAAG
3 Perfect,57,TATA
1 Perfect,57,TATC
1 Perfect,57,TCCT
4 Perfect,57,TCTT
5 Perfect,57,TGTG
2 Perfect,57,TTCC
4 Perfect,57,TTCT
3 Perfect,57,TTTC
3 Perfect,58,AAAG
2 Perfect,58,AAGA
4 Perfect,58,AAGG
2 Perfect,58,ACAC
1 Perfect,58,ATAG
3 Perfect,58,ATAT
1 Perfect,58,CACA
1 Perfect,58,CCTT
1 Perfect,58,CTTC
1 Perfect,58,GAAA
1 Perfect,58,GAGA
1 Perfect,58,GATA
1 Perfect,58,GGAA
1 Perfect,58,GTGT
1 Perfect,58,TATA
1 Perfect,58,TCCT
1 Perfect,58,TCTA
2 Perfect,58,TCTC
1 Perfect,58,TGTG
2 Perfect,58,TTCC
1 Perfect,58,TTCT
3 Perfect,59,AAAG
1 Perfect,59,AAGA
1 Perfect,59,AAGG
1 Perfect,59,ACAC
5 Perfect,59,AGAA
3 Perfect,59,AGAG
3 Perfect,59,ATAT
1 Perfect,59,ATCT
2 Perfect,59,CTTC
2 Perfect,59,GAAG
1 Perfect,59,GATA
1 Perfect,59,GGAA
1 Perfect,59,GTGT
2 Perfect,59,TATA
1 Perfect,59,TATC
4 Perfect,59,TCTT
2 Perfect,59,TGTG
1 Perfect,59,TTCC
2 Perfect,59,TTTC
1 Perfect,60,ACAC
3 Perfect,60,ATAT
3 Perfect,60,CTTT
3 Perfect,60,GAAA
1 Perfect,60,GGAA
3 Perfect,60,GTGT
1 Perfect,60,TATA
1 Perfect,60,TATC
1 Perfect,60,TCCT
1 Perfect,60,TCTA
1 Perfect,60,TTCC
1 Perfect,60,TTTC
1 Perfect,60,TTTT
2 Perfect,61,AAAG
2 Perfect,61,ACAC
1 Perfect,61,CCTT
1 Perfect,61,TATA
3 Perfect,61,TCTT
1 Perfect,61,TGTG
1 Perfect,61,TTCT
1 Perfect,61,TTTC
2 Perfect,62,AAAG
3 Perfect,62,AAGA
1 Perfect,62,AAGG
1 Perfect,62,AGAA
2 Perfect,62,AGAG
5 Perfect,62,ATAT
2 Perfect,62,CTTC
2 Perfect,62,CTTT
3 Perfect,62,GAAA
1 Perfect,62,GAGA
2 Perfect,62,GGAA
1 Perfect,62,GTGT
1 Perfect,62,TTCT
4 Perfect,62,TTTC
3 Perfect,63,AAAG
2 Perfect,63,AAGA
1 Perfect,63,AAGG
1 Perfect,63,AGAA
1 Perfect,63,AGGA
1 Perfect,63,CTCT
1 Perfect,63,CTTT
1 Perfect,63,GAAG
3 Perfect,63,TATA
2 Perfect,63,TCTT
2 Perfect,63,TGTG
4 Perfect,63,TTTC
2 Perfect,64,AAAG
2 Perfect,64,AAGA
1 Perfect,64,ATAT
1 Perfect,64,CACA
1 Perfect,64,CTAT
2 Perfect,64,CTTC
2 Perfect,64,GAAA
2 Perfect,64,GAGA
2 Perfect,64,GGAA
2 Perfect,64,TCTC
1 Perfect,64,TTCT
1 Perfect,64,TTTC
4 Perfect,65,AAAG
2 Perfect,65,AGAA
1 Perfect,65,AGGA
1 Perfect,65,ATCT
1 Perfect,65,CACA
1 Perfect,65,GAAG
1 Perfect,65,GTGT
1 Perfect,65,TCTC
3 Perfect,65,TCTT
1 Perfect,65,TTCC
1 Perfect,65,TTCT
2 Perfect,65,TTTC
1 Perfect,66,AAAG
1 Perfect,66,AAGA
1 Perfect,66,AGAA
1 Perfect,66,ATAT
1 Perfect,66,CTTT
1 Perfect,66,GAAG
1 Perfect,66,TCTC
1 Perfect,66,TCTT
1 Perfect,66,TTCC
3 Perfect,66,TTTC
1 Perfect,67,AAGG
1 Perfect,67,AGAA
1 Perfect,67,CTTT
1 Perfect,67,GAAA
3 Perfect,67,GAAG
1 Perfect,67,GGAA
1 Perfect,67,TGTG
1 Perfect,67,TTCC
2 Perfect,67,TTTC
1 Perfect,68,AAAA
4 Perfect,68,AAAG
1 Perfect,68,AAGG
3 Perfect,68,CTTT
4 Perfect,68,GAAA
1 Perfect,68,TATA
1 Perfect,68,TTCC
1 Perfect,68,TTCT
2 Perfect,68,TTTC
1 Perfect,69,AAAG
1 Perfect,69,AAGA
1 Perfect,69,AGAA
2 Perfect,69,AGGA
1 Perfect,69,GGAA
1 Perfect,69,TGTG
1 Perfect,69,TTCC
3 Perfect,69,TTTC
3 Perfect,70,AAAG
1 Perfect,70,AAGA
1 Perfect,70,CTTT
1 Perfect,70,GAAA
1 Perfect,70,TCTT
3 Perfect,70,TTCC
2 Perfect,70,TTTC
2 Perfect,71,AAAG
1 Perfect,71,AAGA
2 Perfect,71,AGAA
1 Perfect,71,AGAG
2 Perfect,71,CTTT
1 Perfect,71,TATA
2 Perfect,71,TCTT
1 Perfect,71,TTCT
1 Perfect,71,TTTC
1 Perfect,72,AAAG
1 Perfect,72,AAGA
1 Perfect,72,AGAA
1 Perfect,72,ATAT
1 Perfect,72,CCTT
1 Perfect,72,GAAA
2 Perfect,72,TTCT
2 Perfect,72,TTTC
1 Perfect,73,AAGA
1 Perfect,73,AGAA
1 Perfect,73,AGGA
2 Perfect,73,GAAA
1 Perfect,73,TATA
2 Perfect,73,TCTT
2 Perfect,73,TTTC
1 Perfect,74,AAAG
1 Perfect,74,AAGA
1 Perfect,74,AAGG
1 Perfect,74,CCTT
1 Perfect,74,CTTT
1 Perfect,74,GAAA
1 Perfect,74,TTTC
1 Perfect,75,AAAG
1 Perfect,75,CTTT
1 Perfect,76,ATAT
2 Perfect,76,CTTT
1 Perfect,76,GAAA
1 Perfect,76,TTTC
3 Perfect,77,AAAG
2 Perfect,77,CCTT
1 Perfect,78,AAGG
1 Perfect,78,CTTT
1 Perfect,78,TTCC
2 Perfect,78,TTTC
1 Perfect,79,AAAG
1 Perfect,79,GAAA
1 Perfect,79,TTTC
1 Perfect,80,GAAA
1 Perfect,80,TTTC
1 Perfect,81,AAAG
1 Perfect,81,CTTT
1 Perfect,81,GAAA
1 Perfect,82,TTTC
1 Perfect,84,GAAA
1 Perfect,86,AAGA
1 Perfect,87,TCTT
14378 Perfect,8,AAAA
3068 Perfect,8,AAAC
6236 Perfect,8,AAAG
10687 Perfect,8,AAAT
3870 Perfect,8,AACA
2220 Perfect,8,AACC
24 Perfect,8,AACG
1388 Perfect,8,AACT
3748 Perfect,8,AAGA
1202 Perfect,8,AAGC
3234 Perfect,8,AAGG
1729 Perfect,8,AAGT
6164 Perfect,8,AATA
1151 Perfect,8,AATC
2900 Perfect,8,AATG
5478 Perfect,8,AATT
2645 Perfect,8,ACAA
1857 Perfect,8,ACAC
1799 Perfect,8,ACAG
2802 Perfect,8,ACAT
921 Perfect,8,ACCA
973 Perfect,8,ACCC
15 Perfect,8,ACCG
1023 Perfect,8,ACCT
17 Perfect,8,ACGA
34 Perfect,8,ACGC
21 Perfect,8,ACGG
69 Perfect,8,ACGT
667 Perfect,8,ACTA
961 Perfect,8,ACTC
1094 Perfect,8,ACTG
1670 Perfect,8,ACTT
5126 Perfect,8,AGAA
1155 Perfect,8,AGAC
2769 Perfect,8,AGAG
1605 Perfect,8,AGAT
1361 Perfect,8,AGCA
832 Perfect,8,AGCC
35 Perfect,8,AGCG
942 Perfect,8,AGCT
2681 Perfect,8,AGGA
2215 Perfect,8,AGGC
2149 Perfect,8,AGGG
1019 Perfect,8,AGGT
1310 Perfect,8,AGTA
694 Perfect,8,AGTC
1327 Perfect,8,AGTG
1389 Perfect,8,AGTT
4262 Perfect,8,ATAA
1412 Perfect,8,ATAC
1501 Perfect,8,ATAG
10176 Perfect,8,ATAT
1227 Perfect,8,ATCA
1033 Perfect,8,ATCC
10 Perfect,8,ATCG
1550 Perfect,8,ATCT
2110 Perfect,8,ATGA
1060 Perfect,8,ATGC
1211 Perfect,8,ATGG
2815 Perfect,8,ATGT
3106 Perfect,8,ATTA
2452 Perfect,8,ATTC
1953 Perfect,8,ATTG
10950 Perfect,8,ATTT
4848 Perfect,8,CAAA
1051 Perfect,8,CAAC
1428 Perfect,8,CAAG
1972 Perfect,8,CAAT
2796 Perfect,8,CACA
1398 Perfect,8,CACC
86 Perfect,8,CACG
1400 Perfect,8,CACT
2287 Perfect,8,CAGA
1312 Perfect,8,CAGC
2415 Perfect,8,CAGG
1144 Perfect,8,CAGT
1861 Perfect,8,CATA
1221 Perfect,8,CATC
1902 Perfect,8,CATG
3085 Perfect,8,CATT
1214 Perfect,8,CCAA
1112 Perfect,8,CCAC
2118 Perfect,8,CCAG
1295 Perfect,8,CCAT
2566 Perfect,8,CCCA
350 Perfect,8,CCCC
228 Perfect,8,CCCG
2048 Perfect,8,CCCT
17 Perfect,8,CCGA
101 Perfect,8,CCGC
167 Perfect,8,CCGG
21 Perfect,8,CCGT
724 Perfect,8,CCTA
1926 Perfect,8,CCTC
2444 Perfect,8,CCTG
3377 Perfect,8,CCTT
23 Perfect,8,CGAA
12 Perfect,8,CGAC
39 Perfect,8,CGAG
15 Perfect,8,CGAT
43 Perfect,8,CGCA
1001 Perfect,8,CGCC
34 Perfect,8,CGCG
42 Perfect,8,CGCT
48 Perfect,8,CGGA
72 Perfect,8,CGGC
227 Perfect,8,CGGG
14 Perfect,8,CGGT
19 Perfect,8,CGTA
35 Perfect,8,CGTC
94 Perfect,8,CGTG
38 Perfect,8,CGTT
1007 Perfect,8,CTAA
701 Perfect,8,CTAC
1257 Perfect,8,CTAG
1474 Perfect,8,CTAT
3349 Perfect,8,CTCA
2083 Perfect,8,CTCC
36 Perfect,8,CTCG
2726 Perfect,8,CTCT
1435 Perfect,8,CTGA
1564 Perfect,8,CTGC
2136 Perfect,8,CTGG
1724 Perfect,8,CTGT
1400 Perfect,8,CTTA
3660 Perfect,8,CTTC
1465 Perfect,8,CTTG
6534 Perfect,8,CTTT
6333 Perfect,8,GAAA
232 Perfect,8,GAAC
3580 Perfect,8,GAAG
2385 Perfect,8,GAAT
1164 Perfect,8,GACA
109 Perfect,8,GACC
36 Perfect,8,GACG
709 Perfect,8,GACT
3121 Perfect,8,GAGA
226 Perfect,8,GAGC
2077 Perfect,8,GAGG
934 Perfect,8,GAGT
1333 Perfect,8,GATA
97 Perfect,8,GATC
1226 Perfect,8,GATG
1257 Perfect,8,GATT
886 Perfect,8,GCAA
621 Perfect,8,GCAC
1597 Perfect,8,GCAG
1080 Perfect,8,GCAT
1008 Perfect,8,GCCA
271 Perfect,8,GCCC
77 Perfect,8,GCCG
2321 Perfect,8,GCCT
17 Perfect,8,GCGA
164 Perfect,8,GCGC
124 Perfect,8,GCGG
29 Perfect,8,GCGT
462 Perfect,8,GCTA
191 Perfect,8,GCTC
1331 Perfect,8,GCTG
1209 Perfect,8,GCTT
2358 Perfect,8,GGAA
130 Perfect,8,GGAC
2108 Perfect,8,GGAG
1000 Perfect,8,GGAT
1468 Perfect,8,GGCA
249 Perfect,8,GGCC
923 Perfect,8,GGCG
869 Perfect,8,GGCT
3177 Perfect,8,GGGA
276 Perfect,8,GGGC
325 Perfect,8,GGGG
900 Perfect,8,GGGT
625 Perfect,8,GGTA
70 Perfect,8,GGTC
1445 Perfect,8,GGTG
2240 Perfect,8,GGTT
1221 Perfect,8,GTAA
145 Perfect,8,GTAC
660 Perfect,8,GTAG
1429 Perfect,8,GTAT
730 Perfect,8,GTCA
98 Perfect,8,GTCC
16 Perfect,8,GTCG
1140 Perfect,8,GTCT
1095 Perfect,8,GTGA
625 Perfect,8,GTGC
1159 Perfect,8,GTGG
1873 Perfect,8,GTGT
1502 Perfect,8,GTTA
243 Perfect,8,GTTC
1006 Perfect,8,GTTG
3086 Perfect,8,GTTT
6142 Perfect,8,TAAA
1433 Perfect,8,TAAC
1396 Perfect,8,TAAG
3027 Perfect,8,TAAT
1719 Perfect,8,TACA
572 Perfect,8,TACC
14 Perfect,8,TACG
1295 Perfect,8,TACT
1290 Perfect,8,TAGA
453 Perfect,8,TAGC
733 Perfect,8,TAGG
715 Perfect,8,TAGT
7349 Perfect,8,TATA
1253 Perfect,8,TATC
1776 Perfect,8,TATG
6148 Perfect,8,TATT
1347 Perfect,8,TCAA
1151 Perfect,8,TCAC
1428 Perfect,8,TCAG
2066 Perfect,8,TCAT
1799 Perfect,8,TCCA
3186 Perfect,8,TCCC
58 Perfect,8,TCCG
2633 Perfect,8,TCCT
12 Perfect,8,TCGA
20 Perfect,8,TCGC
23 Perfect,8,TCGG
15 Perfect,8,TCGT
1143 Perfect,8,TCTA
2964 Perfect,8,TCTC
2380 Perfect,8,TCTG
3730 Perfect,8,TCTT
2894 Perfect,8,TGAA
773 Perfect,8,TGAC
3385 Perfect,8,TGAG
1144 Perfect,8,TGAT
1522 Perfect,8,TGCA
1442 Perfect,8,TGCC
34 Perfect,8,TGCG
1324 Perfect,8,TGCT
1730 Perfect,8,TGGA
1002 Perfect,8,TGGC
2541 Perfect,8,TGGG
899 Perfect,8,TGGT
1700 Perfect,8,TGTA
1254 Perfect,8,TGTC
2813 Perfect,8,TGTG
3774 Perfect,8,TGTT
3593 Perfect,8,TTAA
1116 Perfect,8,TTAC
1053 Perfect,8,TTAG
4287 Perfect,8,TTAT
2834 Perfect,8,TTCA
2396 Perfect,8,TTCC
132 Perfect,8,TTCG
5352 Perfect,8,TTCT
1763 Perfect,8,TTGA
908 Perfect,8,TTGC
1205 Perfect,8,TTGG
2618 Perfect,8,TTGT
6280 Perfect,8,TTTA
6298 Perfect,8,TTTC
4971 Perfect,8,TTTG
14419 Perfect,8,TTTT
1 Perfect,91,TTTC
1 Perfect,92,AAAG
1 Perfect,93,CTTT
1 Perfect,94,TCTT
8027 Perfect,9,AAAA
1685 Perfect,9,AAAC
2157 Perfect,9,AAAG
3139 Perfect,9,AAAT
710 Perfect,9,AACA
315 Perfect,9,AACC
4 Perfect,9,AACG
256 Perfect,9,AACT
1893 Perfect,9,AAGA
724 Perfect,9,AAGC
893 Perfect,9,AAGG
365 Perfect,9,AAGT
1786 Perfect,9,AATA
564 Perfect,9,AATC
1077 Perfect,9,AATG
956 Perfect,9,AATT
2560 Perfect,9,ACAA
2173 Perfect,9,ACAC
791 Perfect,9,ACAG
1146 Perfect,9,ACAT
815 Perfect,9,ACCA
344 Perfect,9,ACCC
176 Perfect,9,ACCT
4 Perfect,9,ACGA
11 Perfect,9,ACGC
6 Perfect,9,ACGG
6 Perfect,9,ACGT
187 Perfect,9,ACTA
884 Perfect,9,ACTC
419 Perfect,9,ACTG
374 Perfect,9,ACTT
3760 Perfect,9,AGAA
873 Perfect,9,AGAC
2099 Perfect,9,AGAG
615 Perfect,9,AGAT
393 Perfect,9,AGCA
360 Perfect,9,AGCC
6 Perfect,9,AGCG
188 Perfect,9,AGCT
1226 Perfect,9,AGGA
594 Perfect,9,AGGC
730 Perfect,9,AGGG
381 Perfect,9,AGGT
453 Perfect,9,AGTA
368 Perfect,9,AGTC
483 Perfect,9,AGTG
531 Perfect,9,AGTT
2189 Perfect,9,ATAA
1236 Perfect,9,ATAC
555 Perfect,9,ATAG
3607 Perfect,9,ATAT
482 Perfect,9,ATCA
420 Perfect,9,ATCC
6 Perfect,9,ATCG
329 Perfect,9,ATCT
1073 Perfect,9,ATGA
557 Perfect,9,ATGC
1113 Perfect,9,ATGG
528 Perfect,9,ATGT
800 Perfect,9,ATTA
985 Perfect,9,ATTC
576 Perfect,9,ATTG
2151 Perfect,9,ATTT
441 Perfect,9,CAAA
158 Perfect,9,CAAC
176 Perfect,9,CAAG
167 Perfect,9,CAAT
654 Perfect,9,CACA
279 Perfect,9,CACC
24 Perfect,9,CACG
305 Perfect,9,CACT
253 Perfect,9,CAGA
294 Perfect,9,CAGC
341 Perfect,9,CAGG
199 Perfect,9,CAGT
210 Perfect,9,CATA
224 Perfect,9,CATC
256 Perfect,9,CATG
511 Perfect,9,CATT
258 Perfect,9,CCAA
1555 Perfect,9,CCAC
369 Perfect,9,CCAG
285 Perfect,9,CCAT
579 Perfect,9,CCCA
167 Perfect,9,CCCC
54 Perfect,9,CCCG
501 Perfect,9,CCCT
5 Perfect,9,CCGA
1010 Perfect,9,CCGC
27 Perfect,9,CCGG
14 Perfect,9,CCGT
176 Perfect,9,CCTA
743 Perfect,9,CCTC
447 Perfect,9,CCTG
645 Perfect,9,CCTT
2 Perfect,9,CGAC
10 Perfect,9,CGAG
2 Perfect,9,CGAT
29 Perfect,9,CGCA
51 Perfect,9,CGCC
34 Perfect,9,CGCG
23 Perfect,9,CGCT
5 Perfect,9,CGGA
19 Perfect,9,CGGC
18 Perfect,9,CGGG
7 Perfect,9,CGGT
5 Perfect,9,CGTA
8 Perfect,9,CGTC
35 Perfect,9,CGTG
8 Perfect,9,CGTT
112 Perfect,9,CTAA
167 Perfect,9,CTAC
195 Perfect,9,CTAG
168 Perfect,9,CTAT
409 Perfect,9,CTCA
916 Perfect,9,CTCC
17 Perfect,9,CTCG
778 Perfect,9,CTCT
243 Perfect,9,CTGA
468 Perfect,9,CTGC
399 Perfect,9,CTGG
257 Perfect,9,CTGT
170 Perfect,9,CTTA
707 Perfect,9,CTTC
239 Perfect,9,CTTG
1062 Perfect,9,CTTT
969 Perfect,9,GAAA
9 Perfect,9,GAAC
615 Perfect,9,GAAG
481 Perfect,9,GAAT
275 Perfect,9,GACA
2 Perfect,9,GACC
12 Perfect,9,GACG
188 Perfect,9,GACT
799 Perfect,9,GAGA
17 Perfect,9,GAGC
494 Perfect,9,GAGG
316 Perfect,9,GAGT
160 Perfect,9,GATA
5 Perfect,9,GATC
278 Perfect,9,GATG
191 Perfect,9,GATT
234 Perfect,9,GCAA
22 Perfect,9,GCAC
444 Perfect,9,GCAG
263 Perfect,9,GCAT
362 Perfect,9,GCCA
20 Perfect,9,GCCC
25 Perfect,9,GCCG
337 Perfect,9,GCCT
16 Perfect,9,GCGA
28 Perfect,9,GCGC
40 Perfect,9,GCGG
17 Perfect,9,GCGT
180 Perfect,9,GCTA
5 Perfect,9,GCTC
377 Perfect,9,GCTG
210 Perfect,9,GCTT
702 Perfect,9,GGAA
8 Perfect,9,GGAC
759 Perfect,9,GGAG
238 Perfect,9,GGAT
453 Perfect,9,GGCA
37 Perfect,9,GGCC
964 Perfect,9,GGCG
303 Perfect,9,GGCT
884 Perfect,9,GGGA
52 Perfect,9,GGGC
152 Perfect,9,GGGG
261 Perfect,9,GGGT
157 Perfect,9,GGTA
7 Perfect,9,GGTC
1657 Perfect,9,GGTG
143 Perfect,9,GGTT
215 Perfect,9,GTAA
4 Perfect,9,GTAC
162 Perfect,9,GTAG
211 Perfect,9,GTAT
208 Perfect,9,GTCA
2 Perfect,9,GTCC
7 Perfect,9,GTCG
271 Perfect,9,GTCT
407 Perfect,9,GTGA
26 Perfect,9,GTGC
569 Perfect,9,GTGG
587 Perfect,9,GTGT
117 Perfect,9,GTTA
3 Perfect,9,GTTC
258 Perfect,9,GTTG
444 Perfect,9,GTTT
2121 Perfect,9,TAAA
542 Perfect,9,TAAC
403 Perfect,9,TAAG
1005 Perfect,9,TAAT
577 Perfect,9,TACA
375 Perfect,9,TACC
7 Perfect,9,TACG
365 Perfect,9,TACT
305 Perfect,9,TAGA
186 Perfect,9,TAGC
192 Perfect,9,TAGG
311 Perfect,9,TAGT
3602 Perfect,9,TATA
639 Perfect,9,TATC
1138 Perfect,9,TATG
3131 Perfect,9,TATT
579 Perfect,9,TCAA
506 Perfect,9,TCAC
434 Perfect,9,TCAG
1021 Perfect,9,TCAT
1130 Perfect,9,TCCA
749 Perfect,9,TCCC
1 Perfect,9,TCCG
922 Perfect,9,TCCT
6 Perfect,9,TCGA
9 Perfect,9,TCGC
1 Perfect,9,TCGG
3 Perfect,9,TCGT
583 Perfect,9,TCTA
2189 Perfect,9,TCTC
773 Perfect,9,TCTG
2214 Perfect,9,TCTT
1029 Perfect,9,TGAA
365 Perfect,9,TGAC
815 Perfect,9,TGAG
554 Perfect,9,TGAT
532 Perfect,9,TGCA
562 Perfect,9,TGCC
7 Perfect,9,TGCG
718 Perfect,9,TGCT
386 Perfect,9,TGGA
395 Perfect,9,TGGC
344 Perfect,9,TGGG
332 Perfect,9,TGGT
1261 Perfect,9,TGTA
892 Perfect,9,TGTC
2216 Perfect,9,TGTG
1762 Perfect,9,TGTT
778 Perfect,9,TTAA
404 Perfect,9,TTAC
192 Perfect,9,TTAG
1772 Perfect,9,TTAT
1002 Perfect,9,TTCA
1101 Perfect,9,TTCC
4 Perfect,9,TTCG
1861 Perfect,9,TTCT
419 Perfect,9,TTGA
366 Perfect,9,TTGC
806 Perfect,9,TTGG
711 Perfect,9,TTGT
2340 Perfect,9,TTTA
3678 Perfect,9,TTTC
2550 Perfect,9,TTTG
8105 Perfect,9,TTTT
