108712 Imperfect,5,AAAA
53434 Imperfect,5,AAAC
50437 Imperfect,5,AAAG
75034 Imperfect,5,AAAT
35404 Imperfect,5,AACA
27758 Imperfect,5,AACC
3742 Imperfect,5,AACG
24397 Imperfect,5,AACT
46985 Imperfect,5,AAGA
33031 Imperfect,5,AAGC
31108 Imperfect,5,AAGG
27970 Imperfect,5,AAGT
49259 Imperfect,5,AATA
35857 Imperfect,5,AATC
38321 Imperfect,5,AATG
49014 Imperfect,5,AATT
68616 Imperfect,5,ACAA
44698 Imperfect,5,ACAC
51063 Imperfect,5,ACAG
1 Imperfect,5,ACAM
40767 Imperfect,5,ACAT
29308 Imperfect,5,ACCA
29369 Imperfect,5,ACCC
3348 Imperfect,5,ACCG
19272 Imperfect,5,ACCT
5201 Imperfect,5,ACGA
4713 Imperfect,5,ACGC
5674 Imperfect,5,ACGG
5194 Imperfect,5,ACGT
31297 Imperfect,5,ACTA
30304 Imperfect,5,ACTC
33026 Imperfect,5,ACTG
28611 Imperfect,5,ACTT
86055 Imperfect,5,AGAA
36032 Imperfect,5,AGAC
49728 Imperfect,5,AGAG
35922 Imperfect,5,AGAT
37327 Imperfect,5,AGCA
35311 Imperfect,5,AGCC
4420 Imperfect,5,AGCG
26575 Imperfect,5,AGCT
46892 Imperfect,5,AGGA
31970 Imperfect,5,AGGC
29771 Imperfect,5,AGGG
21652 Imperfect,5,AGGT
32811 Imperfect,5,AGTA
26738 Imperfect,5,AGTC
32928 Imperfect,5,AGTG
28082 Imperfect,5,AGTT
1 Imperfect,5,AMAA
1 Imperfect,5,AMAC
69014 Imperfect,5,ATAA
37255 Imperfect,5,ATAC
30364 Imperfect,5,ATAG
42144 Imperfect,5,ATAT
31742 Imperfect,5,ATCA
27684 Imperfect,5,ATCC
3298 Imperfect,5,ATCG
22643 Imperfect,5,ATCT
45992 Imperfect,5,ATGA
31533 Imperfect,5,ATGC
34232 Imperfect,5,ATGG
30714 Imperfect,5,ATGT
45980 Imperfect,5,ATTA
39355 Imperfect,5,ATTC
29256 Imperfect,5,ATTG
49901 Imperfect,5,ATTT
22887 Imperfect,5,CAAA
16867 Imperfect,5,CAAC
17023 Imperfect,5,CAAG
16324 Imperfect,5,CAAT
24772 Imperfect,5,CACA
20127 Imperfect,5,CACC
8439 Imperfect,5,CACG
24913 Imperfect,5,CACT
17426 Imperfect,5,CAGA
38169 Imperfect,5,CAGC
32382 Imperfect,5,CAGG
18167 Imperfect,5,CAGT
12895 Imperfect,5,CATA
19993 Imperfect,5,CATC
22952 Imperfect,5,CATG
35924 Imperfect,5,CATT
20150 Imperfect,5,CCAA
31722 Imperfect,5,CCAC
33786 Imperfect,5,CCAG
26268 Imperfect,5,CCAT
23552 Imperfect,5,CCCA
19505 Imperfect,5,CCCC
4522 Imperfect,5,CCCG
21514 Imperfect,5,CCCT
2458 Imperfect,5,CCGA
7628 Imperfect,5,CCGC
5275 Imperfect,5,CCGG
5624 Imperfect,5,CCGT
13241 Imperfect,5,CCTA
31545 Imperfect,5,CCTC
24823 Imperfect,5,CCTG
25767 Imperfect,5,CCTT
3573 Imperfect,5,CGAA
3169 Imperfect,5,CGAC
3855 Imperfect,5,CGAG
4593 Imperfect,5,CGAT
4910 Imperfect,5,CGCA
7785 Imperfect,5,CGCC
2865 Imperfect,5,CGCG
5752 Imperfect,5,CGCT
2909 Imperfect,5,CGGA
8205 Imperfect,5,CGGC
6542 Imperfect,5,CGGG
3239 Imperfect,5,CGGT
2406 Imperfect,5,CGTA
4885 Imperfect,5,CGTC
6995 Imperfect,5,CGTG
5012 Imperfect,5,CGTT
13207 Imperfect,5,CTAA
12078 Imperfect,5,CTAC
10464 Imperfect,5,CTAG
12577 Imperfect,5,CTAT
25461 Imperfect,5,CTCA
35594 Imperfect,5,CTCC
3265 Imperfect,5,CTCG
24637 Imperfect,5,CTCT
20405 Imperfect,5,CTGA
25609 Imperfect,5,CTGC
24543 Imperfect,5,CTGG
21811 Imperfect,5,CTGT
15187 Imperfect,5,CTTA
28380 Imperfect,5,CTTC
17714 Imperfect,5,CTTG
29850 Imperfect,5,CTTT
32665 Imperfect,5,GAAA
3828 Imperfect,5,GAAC
25140 Imperfect,5,GAAG
28685 Imperfect,5,GAAT
23306 Imperfect,5,GACA
2631 Imperfect,5,GACC
5016 Imperfect,5,GACG
19374 Imperfect,5,GACT
25889 Imperfect,5,GAGA
4042 Imperfect,5,GAGC
22263 Imperfect,5,GAGG
23907 Imperfect,5,GAGT
13102 Imperfect,5,GATA
3528 Imperfect,5,GATC
24285 Imperfect,5,GATG
18628 Imperfect,5,GATT
23543 Imperfect,5,GCAA
5880 Imperfect,5,GCAC
32214 Imperfect,5,GCAG
26912 Imperfect,5,GCAT
30549 Imperfect,5,GCCA
6302 Imperfect,5,GCCC
6742 Imperfect,5,GCCG
40126 Imperfect,5,GCCT
4863 Imperfect,5,GCGA
2509 Imperfect,5,GCGC
6850 Imperfect,5,GCGG
9148 Imperfect,5,GCGT
13062 Imperfect,5,GCTA
3320 Imperfect,5,GCTC
44515 Imperfect,5,GCTG
21723 Imperfect,5,GCTT
33390 Imperfect,5,GGAA
3774 Imperfect,5,GGAC
41731 Imperfect,5,GGAG
20911 Imperfect,5,GGAT
29058 Imperfect,5,GGCA
6069 Imperfect,5,GGCC
6451 Imperfect,5,GGCG
32478 Imperfect,5,GGCT
26076 Imperfect,5,GGGA
6714 Imperfect,5,GGGC
19722 Imperfect,5,GGGG
21769 Imperfect,5,GGGT
14335 Imperfect,5,GGTA
2205 Imperfect,5,GGTC
29565 Imperfect,5,GGTG
18316 Imperfect,5,GGTT
16003 Imperfect,5,GTAA
1540 Imperfect,5,GTAC
13138 Imperfect,5,GTAG
13792 Imperfect,5,GTAT
23096 Imperfect,5,GTCA
2400 Imperfect,5,GTCC
2952 Imperfect,5,GTCG
19966 Imperfect,5,GTCT
33975 Imperfect,5,GTGA
4074 Imperfect,5,GTGC
28373 Imperfect,5,GTGG
28639 Imperfect,5,GTGT
14713 Imperfect,5,GTTA
2952 Imperfect,5,GTTC
19677 Imperfect,5,GTTG
25728 Imperfect,5,GTTT
51590 Imperfect,5,TAAA
26391 Imperfect,5,TAAC
25336 Imperfect,5,TAAG
54771 Imperfect,5,TAAT
32931 Imperfect,5,TACA
22037 Imperfect,5,TACC
4486 Imperfect,5,TACG
33134 Imperfect,5,TACT
23421 Imperfect,5,TAGA
25489 Imperfect,5,TAGC
17185 Imperfect,5,TAGG
28099 Imperfect,5,TAGT
46255 Imperfect,5,TATA
33727 Imperfect,5,TATC
35930 Imperfect,5,TATG
90588 Imperfect,5,TATT
35017 Imperfect,5,TCAA
39218 Imperfect,5,TCAC
32232 Imperfect,5,TCAG
48844 Imperfect,5,TCAT
43521 Imperfect,5,TCCA
31774 Imperfect,5,TCCC
4909 Imperfect,5,TCCG
40394 Imperfect,5,TCCT
3774 Imperfect,5,TCGA
4887 Imperfect,5,TCGC
3277 Imperfect,5,TCGG
4760 Imperfect,5,TCGT
33983 Imperfect,5,TCTA
50646 Imperfect,5,TCTC
46138 Imperfect,5,TCTG
67770 Imperfect,5,TCTT
40845 Imperfect,5,TGAA
26699 Imperfect,5,TGAC
28641 Imperfect,5,TGAG
41770 Imperfect,5,TGAT
32067 Imperfect,5,TGCA
35265 Imperfect,5,TGCC
3848 Imperfect,5,TGCG
39619 Imperfect,5,TGCT
27752 Imperfect,5,TGGA
35376 Imperfect,5,TGGC
24389 Imperfect,5,TGGG
31615 Imperfect,5,TGGT
43052 Imperfect,5,TGTA
39960 Imperfect,5,TGTC
39712 Imperfect,5,TGTG
67140 Imperfect,5,TGTT
41287 Imperfect,5,TTAA
26182 Imperfect,5,TTAC
24421 Imperfect,5,TTAG
46199 Imperfect,5,TTAT
39975 Imperfect,5,TTCA
41940 Imperfect,5,TTCC
4053 Imperfect,5,TTCG
48963 Imperfect,5,TTCT
27152 Imperfect,5,TTGA
31313 Imperfect,5,TTGC
23631 Imperfect,5,TTGG
35346 Imperfect,5,TTGT
57316 Imperfect,5,TTTA
68207 Imperfect,5,TTTC
50825 Imperfect,5,TTTG
108199 Imperfect,5,TTTT
32833 Imperfect,6,AAAA
14135 Imperfect,6,AAAC
17789 Imperfect,6,AAAG
21857 Imperfect,6,AAAT
23859 Imperfect,6,AACA
9652 Imperfect,6,AACC
1736 Imperfect,6,AACG
9811 Imperfect,6,AACT
30206 Imperfect,6,AAGA
13532 Imperfect,6,AAGC
16113 Imperfect,6,AAGG
11655 Imperfect,6,AAGT
27274 Imperfect,6,AATA
10826 Imperfect,6,AATC
15937 Imperfect,6,AATG
16295 Imperfect,6,AATT
5773 Imperfect,6,ACAA
6249 Imperfect,6,ACAC
4694 Imperfect,6,ACAG
4301 Imperfect,6,ACAT
4816 Imperfect,6,ACCA
5119 Imperfect,6,ACCC
492 Imperfect,6,ACCG
3582 Imperfect,6,ACCT
832 Imperfect,6,ACGA
1208 Imperfect,6,ACGC
900 Imperfect,6,ACGG
937 Imperfect,6,ACGT
3090 Imperfect,6,ACTA
4857 Imperfect,6,ACTC
4009 Imperfect,6,ACTG
4255 Imperfect,6,ACTT
12235 Imperfect,6,AGAA
9543 Imperfect,6,AGAC
9013 Imperfect,6,AGAG
4734 Imperfect,6,AGAT
9384 Imperfect,6,AGCA
10909 Imperfect,6,AGCC
2189 Imperfect,6,AGCG
4420 Imperfect,6,AGCT
12131 Imperfect,6,AGGA
10878 Imperfect,6,AGGC
8003 Imperfect,6,AGGG
5067 Imperfect,6,AGGT
5243 Imperfect,6,AGTA
6561 Imperfect,6,AGTC
12952 Imperfect,6,AGTG
4624 Imperfect,6,AGTT
15779 Imperfect,6,ATAA
10204 Imperfect,6,ATAC
6910 Imperfect,6,ATAG
16333 Imperfect,6,ATAT
9421 Imperfect,6,ATCA
7903 Imperfect,6,ATCC
973 Imperfect,6,ATCG
8508 Imperfect,6,ATCT
11161 Imperfect,6,ATGA
8428 Imperfect,6,ATGC
6962 Imperfect,6,ATGG
12925 Imperfect,6,ATGT
10936 Imperfect,6,ATTA
9845 Imperfect,6,ATTC
6672 Imperfect,6,ATTG
15708 Imperfect,6,ATTT
9637 Imperfect,6,CAAA
5306 Imperfect,6,CAAC
6209 Imperfect,6,CAAG
6142 Imperfect,6,CAAT
11852 Imperfect,6,CACA
8952 Imperfect,6,CACC
1718 Imperfect,6,CACG
7024 Imperfect,6,CACT
9104 Imperfect,6,CAGA
9541 Imperfect,6,CAGC
11500 Imperfect,6,CAGG
6626 Imperfect,6,CAGT
6957 Imperfect,6,CATA
6661 Imperfect,6,CATC
7476 Imperfect,6,CATG
9237 Imperfect,6,CATT
4006 Imperfect,6,CCAA
7152 Imperfect,6,CCAC
14221 Imperfect,6,CCAG
6235 Imperfect,6,CCAT
8296 Imperfect,6,CCCA
3668 Imperfect,6,CCCC
2883 Imperfect,6,CCCG
6635 Imperfect,6,CCCT
1033 Imperfect,6,CCGA
2605 Imperfect,6,CCGC
2716 Imperfect,6,CCGG
1424 Imperfect,6,CCGT
2815 Imperfect,6,CCTA
17232 Imperfect,6,CCTC
7559 Imperfect,6,CCTG
7460 Imperfect,6,CCTT
176 Imperfect,6,CGAA
204 Imperfect,6,CGAC
305 Imperfect,6,CGAG
129 Imperfect,6,CGAT
337 Imperfect,6,CGCA
1339 Imperfect,6,CGCC
315 Imperfect,6,CGCG
264 Imperfect,6,CGCT
300 Imperfect,6,CGGA
665 Imperfect,6,CGGC
1303 Imperfect,6,CGGG
170 Imperfect,6,CGGT
117 Imperfect,6,CGTA
321 Imperfect,6,CGTC
409 Imperfect,6,CGTG
168 Imperfect,6,CGTT
4716 Imperfect,6,CTAA
5223 Imperfect,6,CTAC
3876 Imperfect,6,CTAG
5655 Imperfect,6,CTAT
11785 Imperfect,6,CTCA
8374 Imperfect,6,CTCC
1339 Imperfect,6,CTCG
10766 Imperfect,6,CTCT
6683 Imperfect,6,CTGA
14355 Imperfect,6,CTGC
9699 Imperfect,6,CTGG
12851 Imperfect,6,CTGT
5105 Imperfect,6,CTTA
11141 Imperfect,6,CTTC
7597 Imperfect,6,CTTG
12841 Imperfect,6,CTTT
9738 Imperfect,6,GAAA
816 Imperfect,6,GAAC
7138 Imperfect,6,GAAG
7097 Imperfect,6,GAAT
11958 Imperfect,6,GACA
668 Imperfect,6,GACC
1883 Imperfect,6,GACG
5838 Imperfect,6,GACT
9448 Imperfect,6,GAGA
868 Imperfect,6,GAGC
6411 Imperfect,6,GAGG
5865 Imperfect,6,GAGT
5028 Imperfect,6,GATA
1072 Imperfect,6,GATC
7641 Imperfect,6,GATG
4321 Imperfect,6,GATT
3485 Imperfect,6,GCAA
1099 Imperfect,6,GCAC
4603 Imperfect,6,GCAG
3790 Imperfect,6,GCAT
4853 Imperfect,6,GCCA
993 Imperfect,6,GCCC
1214 Imperfect,6,GCCG
5003 Imperfect,6,GCCT
832 Imperfect,6,GCGA
557 Imperfect,6,GCGC
1548 Imperfect,6,GCGG
1294 Imperfect,6,GCGT
1845 Imperfect,6,GCTA
675 Imperfect,6,GCTC
4925 Imperfect,6,GCTG
3573 Imperfect,6,GCTT
7965 Imperfect,6,GGAA
1258 Imperfect,6,GGAC
7396 Imperfect,6,GGAG
6165 Imperfect,6,GGAT
12338 Imperfect,6,GGCA
2654 Imperfect,6,GGCC
3161 Imperfect,6,GGCG
15571 Imperfect,6,GGCT
16966 Imperfect,6,GGGA
1788 Imperfect,6,GGGC
3573 Imperfect,6,GGGG
6282 Imperfect,6,GGGT
3366 Imperfect,6,GGTA
948 Imperfect,6,GGTC
9579 Imperfect,6,GGTG
4252 Imperfect,6,GGTT
4797 Imperfect,6,GTAA
779 Imperfect,6,GTAC
3312 Imperfect,6,GTAG
6229 Imperfect,6,GTAT
4949 Imperfect,6,GTCA
843 Imperfect,6,GTCC
527 Imperfect,6,GTCG
7095 Imperfect,6,GTCT
5250 Imperfect,6,GTGA
786 Imperfect,6,GTGC
4312 Imperfect,6,GTGG
7365 Imperfect,6,GTGT
3004 Imperfect,6,GTTA
659 Imperfect,6,GTTC
4252 Imperfect,6,GTTG
6530 Imperfect,6,GTTT
15008 Imperfect,6,TAAA
5027 Imperfect,6,TAAC
5901 Imperfect,6,TAAG
10788 Imperfect,6,TAAT
11336 Imperfect,6,TACA
5182 Imperfect,6,TACC
1447 Imperfect,6,TACG
7569 Imperfect,6,TACT
7755 Imperfect,6,TAGA
5087 Imperfect,6,TAGC
5094 Imperfect,6,TAGG
6280 Imperfect,6,TAGT
12649 Imperfect,6,TATA
5995 Imperfect,6,TATC
8234 Imperfect,6,TATG
14109 Imperfect,6,TATT
3723 Imperfect,6,TCAA
6724 Imperfect,6,TCAC
4729 Imperfect,6,TCAG
8010 Imperfect,6,TCAT
7756 Imperfect,6,TCCA
6549 Imperfect,6,TCCC
1772 Imperfect,6,TCCG
8360 Imperfect,6,TCCT
1198 Imperfect,6,TCGA
1992 Imperfect,6,TCGC
785 Imperfect,6,TCGG
1118 Imperfect,6,TCGT
4165 Imperfect,6,TCTA
7610 Imperfect,6,TCTC
7909 Imperfect,6,TCTG
9048 Imperfect,6,TCTT
8972 Imperfect,6,TGAA
6347 Imperfect,6,TGAC
6601 Imperfect,6,TGAG
6402 Imperfect,6,TGAT
7916 Imperfect,6,TGCA
12411 Imperfect,6,TGCC
1848 Imperfect,6,TGCG
8230 Imperfect,6,TGCT
7070 Imperfect,6,TGGA
8942 Imperfect,6,TGGC
8758 Imperfect,6,TGGG
5647 Imperfect,6,TGGT
5362 Imperfect,6,TGTA
7379 Imperfect,6,TGTC
10268 Imperfect,6,TGTG
8879 Imperfect,6,TGTT
16714 Imperfect,6,TTAA
11045 Imperfect,6,TTAC
8644 Imperfect,6,TTAG
30773 Imperfect,6,TTAT
17178 Imperfect,6,TTCA
16372 Imperfect,6,TTCC
1694 Imperfect,6,TTCG
27725 Imperfect,6,TTCT
12482 Imperfect,6,TTGA
12817 Imperfect,6,TTGC
9363 Imperfect,6,TTGG
22977 Imperfect,6,TTGT
19092 Imperfect,6,TTTA
20301 Imperfect,6,TTTC
14559 Imperfect,6,TTTG
32327 Imperfect,6,TTTT
9174 Imperfect,7,AAAA
10009 Imperfect,7,AAAC
12138 Imperfect,7,AAAG
11813 Imperfect,7,AAAT
1571 Imperfect,7,AACA
1109 Imperfect,7,AACC
229 Imperfect,7,AACG
915 Imperfect,7,AACT
2830 Imperfect,7,AAGA
2411 Imperfect,7,AAGC
2949 Imperfect,7,AAGG
1413 Imperfect,7,AAGT
4249 Imperfect,7,AATA
3130 Imperfect,7,AATC
3489 Imperfect,7,AATG
3098 Imperfect,7,AATT
2482 Imperfect,7,ACAA
3118 Imperfect,7,ACAC
3115 Imperfect,7,ACAG
2612 Imperfect,7,ACAT
712 Imperfect,7,ACCA
866 Imperfect,7,ACCC
131 Imperfect,7,ACCG
527 Imperfect,7,ACCT
35 Imperfect,7,ACGA
55 Imperfect,7,ACGC
63 Imperfect,7,ACGG
37 Imperfect,7,ACGT
764 Imperfect,7,ACTA
1511 Imperfect,7,ACTC
1434 Imperfect,7,ACTG
1155 Imperfect,7,ACTT
3237 Imperfect,7,AGAA
4643 Imperfect,7,AGAC
3408 Imperfect,7,AGAG
1774 Imperfect,7,AGAT
727 Imperfect,7,AGCA
1189 Imperfect,7,AGCC
251 Imperfect,7,AGCG
448 Imperfect,7,AGCT
2249 Imperfect,7,AGGA
5813 Imperfect,7,AGGC
2099 Imperfect,7,AGGG
1162 Imperfect,7,AGGT
1273 Imperfect,7,AGTA
1424 Imperfect,7,AGTC
1499 Imperfect,7,AGTG
789 Imperfect,7,AGTT
3926 Imperfect,7,ATAA
3901 Imperfect,7,ATAC
2346 Imperfect,7,ATAG
4146 Imperfect,7,ATAT
556 Imperfect,7,ATCA
1274 Imperfect,7,ATCC
139 Imperfect,7,ATCG
806 Imperfect,7,ATCT
2195 Imperfect,7,ATGA
1730 Imperfect,7,ATGC
1814 Imperfect,7,ATGG
1380 Imperfect,7,ATGT
3129 Imperfect,7,ATTA
3456 Imperfect,7,ATTC
2933 Imperfect,7,ATTG
4108 Imperfect,7,ATTT
1693 Imperfect,7,CAAA
1380 Imperfect,7,CAAC
2923 Imperfect,7,CAAG
1377 Imperfect,7,CAAT
1985 Imperfect,7,CACA
1336 Imperfect,7,CACC
527 Imperfect,7,CACG
1250 Imperfect,7,CACT
1513 Imperfect,7,CAGA
2109 Imperfect,7,CAGC
2297 Imperfect,7,CAGG
1338 Imperfect,7,CAGT
1369 Imperfect,7,CATA
1750 Imperfect,7,CATC
1605 Imperfect,7,CATG
2117 Imperfect,7,CATT
1009 Imperfect,7,CCAA
1576 Imperfect,7,CCAC
2372 Imperfect,7,CCAG
1287 Imperfect,7,CCAT
2425 Imperfect,7,CCCA
513 Imperfect,7,CCCC
907 Imperfect,7,CCCG
2337 Imperfect,7,CCCT
65 Imperfect,7,CCGA
155 Imperfect,7,CCGC
247 Imperfect,7,CCGG
82 Imperfect,7,CCGT
1185 Imperfect,7,CCTA
2168 Imperfect,7,CCTC
5635 Imperfect,7,CCTG
2157 Imperfect,7,CCTT
15 Imperfect,7,CGAA
31 Imperfect,7,CGAC
36 Imperfect,7,CGAG
20 Imperfect,7,CGAT
129 Imperfect,7,CGCA
123 Imperfect,7,CGCC
102 Imperfect,7,CGCG
88 Imperfect,7,CGCT
81 Imperfect,7,CGGA
261 Imperfect,7,CGGC
136 Imperfect,7,CGGG
57 Imperfect,7,CGGT
36 Imperfect,7,CGTA
65 Imperfect,7,CGTC
59 Imperfect,7,CGTG
47 Imperfect,7,CGTT
649 Imperfect,7,CTAA
863 Imperfect,7,CTAC
1059 Imperfect,7,CTAG
625 Imperfect,7,CTAT
2491 Imperfect,7,CTCA
1802 Imperfect,7,CTCC
1153 Imperfect,7,CTCG
1637 Imperfect,7,CTCT
1346 Imperfect,7,CTGA
2279 Imperfect,7,CTGC
1994 Imperfect,7,CTGG
1477 Imperfect,7,CTGT
1517 Imperfect,7,CTTA
2827 Imperfect,7,CTTC
2377 Imperfect,7,CTTG
2731 Imperfect,7,CTTT
2430 Imperfect,7,GAAA
333 Imperfect,7,GAAC
2896 Imperfect,7,GAAG
2259 Imperfect,7,GAAT
563 Imperfect,7,GACA
106 Imperfect,7,GACC
140 Imperfect,7,GACG
515 Imperfect,7,GACT
1679 Imperfect,7,GAGA
1094 Imperfect,7,GAGC
1766 Imperfect,7,GAGG
2503 Imperfect,7,GAGT
766 Imperfect,7,GATA
143 Imperfect,7,GATC
1195 Imperfect,7,GATG
537 Imperfect,7,GATT
803 Imperfect,7,GCAA
362 Imperfect,7,GCAC
1273 Imperfect,7,GCAG
1340 Imperfect,7,GCAT
1282 Imperfect,7,GCCA
708 Imperfect,7,GCCC
364 Imperfect,7,GCCG
1144 Imperfect,7,GCCT
88 Imperfect,7,GCGA
107 Imperfect,7,GCGC
135 Imperfect,7,GCGG
147 Imperfect,7,GCGT
477 Imperfect,7,GCTA
263 Imperfect,7,GCTC
1107 Imperfect,7,GCTG
764 Imperfect,7,GCTT
1683 Imperfect,7,GGAA
273 Imperfect,7,GGAC
1501 Imperfect,7,GGAG
1343 Imperfect,7,GGAT
1071 Imperfect,7,GGCA
370 Imperfect,7,GGCC
684 Imperfect,7,GGCG
1259 Imperfect,7,GGCT
2350 Imperfect,7,GGGA
886 Imperfect,7,GGGC
469 Imperfect,7,GGGG
2448 Imperfect,7,GGGT
501 Imperfect,7,GGTA
126 Imperfect,7,GGTC
855 Imperfect,7,GGTG
689 Imperfect,7,GGTT
731 Imperfect,7,GTAA
189 Imperfect,7,GTAC
687 Imperfect,7,GTAG
688 Imperfect,7,GTAT
502 Imperfect,7,GTCA
127 Imperfect,7,GTCC
108 Imperfect,7,GTCG
537 Imperfect,7,GTCT
1324 Imperfect,7,GTGA
588 Imperfect,7,GTGC
1435 Imperfect,7,GTGG
2046 Imperfect,7,GTGT
923 Imperfect,7,GTTA
296 Imperfect,7,GTTC
1109 Imperfect,7,GTTG
1508 Imperfect,7,GTTT
3267 Imperfect,7,TAAA
1940 Imperfect,7,TAAC
2328 Imperfect,7,TAAG
2875 Imperfect,7,TAAT
725 Imperfect,7,TACA
730 Imperfect,7,TACC
179 Imperfect,7,TACG
664 Imperfect,7,TACT
664 Imperfect,7,TAGA
1041 Imperfect,7,TAGC
863 Imperfect,7,TAGG
665 Imperfect,7,TAGT
4139 Imperfect,7,TATA
2345 Imperfect,7,TATC
3957 Imperfect,7,TATG
4111 Imperfect,7,TATT
1150 Imperfect,7,TCAA
1663 Imperfect,7,TCAC
1555 Imperfect,7,TCAG
1684 Imperfect,7,TCAT
1427 Imperfect,7,TCCA
1532 Imperfect,7,TCCC
283 Imperfect,7,TCCG
1659 Imperfect,7,TCCT
19 Imperfect,7,TCGA
35 Imperfect,7,TCGC
28 Imperfect,7,TCGG
28 Imperfect,7,TCGT
1757 Imperfect,7,TCTA
3323 Imperfect,7,TCTC
4834 Imperfect,7,TCTG
3363 Imperfect,7,TCTT
1655 Imperfect,7,TGAA
1620 Imperfect,7,TGAC
1758 Imperfect,7,TGAG
1140 Imperfect,7,TGAT
1363 Imperfect,7,TGCA
1338 Imperfect,7,TGCC
317 Imperfect,7,TGCG
773 Imperfect,7,TGCT
1236 Imperfect,7,TGGA
2399 Imperfect,7,TGGC
1557 Imperfect,7,TGGG
1031 Imperfect,7,TGGT
2597 Imperfect,7,TGTA
2910 Imperfect,7,TGTC
2951 Imperfect,7,TGTG
2399 Imperfect,7,TGTT
2922 Imperfect,7,TTAA
2412 Imperfect,7,TTAC
1832 Imperfect,7,TTAG
3260 Imperfect,7,TTAT
2543 Imperfect,7,TTCA
2841 Imperfect,7,TTCC
313 Imperfect,7,TTCG
2447 Imperfect,7,TTCT
1291 Imperfect,7,TTGA
2922 Imperfect,7,TTGC
1382 Imperfect,7,TTGG
1636 Imperfect,7,TTGT
11656 Imperfect,7,TTTA
12173 Imperfect,7,TTTC
9881 Imperfect,7,TTTG
9026 Imperfect,7,TTTT
1250 Perfect,10,AAAA
229 Perfect,10,AAAC
260 Perfect,10,AAAG
288 Perfect,10,AAAT
109 Perfect,10,AACA
29 Perfect,10,AACC
1 Perfect,10,AACG
17 Perfect,10,AACT
305 Perfect,10,AAGA
45 Perfect,10,AAGC
105 Perfect,10,AAGG
51 Perfect,10,AAGT
212 Perfect,10,AATA
53 Perfect,10,AATC
155 Perfect,10,AATG
116 Perfect,10,AATT
27 Perfect,10,ACAA
176 Perfect,10,ACAC
22 Perfect,10,ACAG
37 Perfect,10,ACAT
13 Perfect,10,ACCA
25 Perfect,10,ACCC
14 Perfect,10,ACCT
1 Perfect,10,ACGC
2 Perfect,10,ACGT
6 Perfect,10,ACTA
28 Perfect,10,ACTC
7 Perfect,10,ACTG
18 Perfect,10,ACTT
126 Perfect,10,AGAA
42 Perfect,10,AGAC
110 Perfect,10,AGAG
31 Perfect,10,AGAT
23 Perfect,10,AGCA
42 Perfect,10,AGCC
14 Perfect,10,AGCT
115 Perfect,10,AGGA
307 Perfect,10,AGGC
67 Perfect,10,AGGG
17 Perfect,10,AGGT
19 Perfect,10,AGTA
28 Perfect,10,AGTC
49 Perfect,10,AGTG
9 Perfect,10,AGTT
184 Perfect,10,ATAA
94 Perfect,10,ATAC
35 Perfect,10,ATAG
380 Perfect,10,ATAT
46 Perfect,10,ATCA
35 Perfect,10,ATCC
40 Perfect,10,ATCT
93 Perfect,10,ATGA
54 Perfect,10,ATGC
45 Perfect,10,ATGG
79 Perfect,10,ATGT
58 Perfect,10,ATTA
90 Perfect,10,ATTC
34 Perfect,10,ATTG
199 Perfect,10,ATTT
57 Perfect,10,CAAA
25 Perfect,10,CAAC
26 Perfect,10,CAAG
22 Perfect,10,CAAT
269 Perfect,10,CACA
36 Perfect,10,CACC
4 Perfect,10,CACG
29 Perfect,10,CACT
31 Perfect,10,CAGA
43 Perfect,10,CAGC
34 Perfect,10,CAGG
15 Perfect,10,CAGT
34 Perfect,10,CATA
55 Perfect,10,CATC
50 Perfect,10,CATG
71 Perfect,10,CATT
10 Perfect,10,CCAA
58 Perfect,10,CCAC
50 Perfect,10,CCAG
24 Perfect,10,CCAT
71 Perfect,10,CCCA
23 Perfect,10,CCCC
19 Perfect,10,CCCG
74 Perfect,10,CCCT
1 Perfect,10,CCGA
15 Perfect,10,CCGC
7 Perfect,10,CCGG
4 Perfect,10,CCGT
13 Perfect,10,CCTA
141 Perfect,10,CCTC
69 Perfect,10,CCTG
66 Perfect,10,CCTT
1 Perfect,10,CGAG
6 Perfect,10,CGCC
2 Perfect,10,CGCG
2 Perfect,10,CGCT
1 Perfect,10,CGGA
4 Perfect,10,CGGG
15 Perfect,10,CTAA
18 Perfect,10,CTAC
14 Perfect,10,CTAG
23 Perfect,10,CTAT
39 Perfect,10,CTCA
84 Perfect,10,CTCC
2 Perfect,10,CTCG
123 Perfect,10,CTCT
22 Perfect,10,CTGA
329 Perfect,10,CTGC
34 Perfect,10,CTGG
36 Perfect,10,CTGT
12 Perfect,10,CTTA
91 Perfect,10,CTTC
34 Perfect,10,CTTG
116 Perfect,10,CTTT
101 Perfect,10,GAAA
2 Perfect,10,GAAC
66 Perfect,10,GAAG
43 Perfect,10,GAAT
36 Perfect,10,GACA
1 Perfect,10,GACC
1 Perfect,10,GACG
13 Perfect,10,GACT
132 Perfect,10,GAGA
2 Perfect,10,GAGC
64 Perfect,10,GAGG
34 Perfect,10,GAGT
29 Perfect,10,GATA
2 Perfect,10,GATC
25 Perfect,10,GATG
19 Perfect,10,GATT
11 Perfect,10,GCAA
4 Perfect,10,GCAC
26 Perfect,10,GCAG
14 Perfect,10,GCAT
29 Perfect,10,GCCA
4 Perfect,10,GCCG
33 Perfect,10,GCCT
4 Perfect,10,GCGA
6 Perfect,10,GCGC
9 Perfect,10,GCGG
1 Perfect,10,GCGT
2 Perfect,10,GCTA
31 Perfect,10,GCTG
13 Perfect,10,GCTT
79 Perfect,10,GGAA
92 Perfect,10,GGAG
29 Perfect,10,GGAT
74 Perfect,10,GGCA
9 Perfect,10,GGCC
19 Perfect,10,GGCG
40 Perfect,10,GGCT
128 Perfect,10,GGGA
14 Perfect,10,GGGC
24 Perfect,10,GGGG
49 Perfect,10,GGGT
8 Perfect,10,GGTA
57 Perfect,10,GGTG
14 Perfect,10,GGTT
14 Perfect,10,GTAA
11 Perfect,10,GTAG
34 Perfect,10,GTAT
21 Perfect,10,GTCA
2 Perfect,10,GTCC
27 Perfect,10,GTCT
20 Perfect,10,GTGA
4 Perfect,10,GTGC
30 Perfect,10,GTGG
141 Perfect,10,GTGT
4 Perfect,10,GTTA
11 Perfect,10,GTTG
30 Perfect,10,GTTT
163 Perfect,10,TAAA
26 Perfect,10,TAAC
22 Perfect,10,TAAG
75 Perfect,10,TAAT
70 Perfect,10,TACA
15 Perfect,10,TACC
2 Perfect,10,TACG
27 Perfect,10,TACT
30 Perfect,10,TAGA
4 Perfect,10,TAGC
18 Perfect,10,TAGG
15 Perfect,10,TAGT
364 Perfect,10,TATA
36 Perfect,10,TATC
79 Perfect,10,TATG
169 Perfect,10,TATT
20 Perfect,10,TCAA
23 Perfect,10,TCAC
13 Perfect,10,TCAG
49 Perfect,10,TCAT
34 Perfect,10,TCCA
68 Perfect,10,TCCC
70 Perfect,10,TCCT
2 Perfect,10,TCGA
3 Perfect,10,TCGC
2 Perfect,10,TCGG
10 Perfect,10,TCTA
122 Perfect,10,TCTC
37 Perfect,10,TCTG
99 Perfect,10,TCTT
66 Perfect,10,TGAA
25 Perfect,10,TGAC
49 Perfect,10,TGAG
27 Perfect,10,TGAT
64 Perfect,10,TGCA
41 Perfect,10,TGCC
2 Perfect,10,TGCG
25 Perfect,10,TGCT
36 Perfect,10,TGGA
25 Perfect,10,TGGC
29 Perfect,10,TGGG
25 Perfect,10,TGGT
48 Perfect,10,TGTA
41 Perfect,10,TGTC
254 Perfect,10,TGTG
42 Perfect,10,TGTT
131 Perfect,10,TTAA
51 Perfect,10,TTAC
24 Perfect,10,TTAG
317 Perfect,10,TTAT
138 Perfect,10,TTCA
120 Perfect,10,TTCC
227 Perfect,10,TTCT
47 Perfect,10,TTGA
45 Perfect,10,TTGC
41 Perfect,10,TTGG
216 Perfect,10,TTGT
209 Perfect,10,TTTA
282 Perfect,10,TTTC
101 Perfect,10,TTTG
1224 Perfect,10,TTTT
756 Perfect,11,AAAA
262 Perfect,11,AAAC
346 Perfect,11,AAAG
320 Perfect,11,AAAT
13 Perfect,11,AACA
10 Perfect,11,AACC
5 Perfect,11,AACT
36 Perfect,11,AAGA
19 Perfect,11,AAGC
54 Perfect,11,AAGG
4 Perfect,11,AAGT
100 Perfect,11,AATA
35 Perfect,11,AATC
67 Perfect,11,AATG
32 Perfect,11,AATT
20 Perfect,11,ACAA
256 Perfect,11,ACAC
24 Perfect,11,ACAG
51 Perfect,11,ACAT
1 Perfect,11,ACCA
10 Perfect,11,ACCC
4 Perfect,11,ACCT
1 Perfect,11,ACGC
2 Perfect,11,ACTA
81 Perfect,11,ACTC
8 Perfect,11,ACTG
4 Perfect,11,ACTT
78 Perfect,11,AGAA
49 Perfect,11,AGAC
136 Perfect,11,AGAG
18 Perfect,11,AGAT
3 Perfect,11,AGCA
10 Perfect,11,AGCC
1 Perfect,11,AGCG
4 Perfect,11,AGCT
45 Perfect,11,AGGA
41 Perfect,11,AGGC
69 Perfect,11,AGGG
4 Perfect,11,AGGT
7 Perfect,11,AGTA
6 Perfect,11,AGTC
86 Perfect,11,AGTG
1 Perfect,11,AGTT
84 Perfect,11,ATAA
83 Perfect,11,ATAC
29 Perfect,11,ATAG
223 Perfect,11,ATAT
2 Perfect,11,ATCA
19 Perfect,11,ATCC
2 Perfect,11,ATCG
16 Perfect,11,ATCT
25 Perfect,11,ATGA
25 Perfect,11,ATGC
19 Perfect,11,ATGG
14 Perfect,11,ATGT
36 Perfect,11,ATTA
61 Perfect,11,ATTC
35 Perfect,11,ATTG
81 Perfect,11,ATTT
14 Perfect,11,CAAA
9 Perfect,11,CAAC
14 Perfect,11,CAAG
9 Perfect,11,CAAT
176 Perfect,11,CACA
6 Perfect,11,CACC
8 Perfect,11,CACG
23 Perfect,11,CACT
14 Perfect,11,CAGA
12 Perfect,11,CAGC
31 Perfect,11,CAGG
2 Perfect,11,CAGT
10 Perfect,11,CATA
26 Perfect,11,CATC
19 Perfect,11,CATG
30 Perfect,11,CATT
7 Perfect,11,CCAA
40 Perfect,11,CCAC
15 Perfect,11,CCAG
26 Perfect,11,CCAT
31 Perfect,11,CCCA
16 Perfect,11,CCCC
9 Perfect,11,CCCG
31 Perfect,11,CCCT
4 Perfect,11,CCGC
1 Perfect,11,CCGG
5 Perfect,11,CCTA
37 Perfect,11,CCTC
26 Perfect,11,CCTG
27 Perfect,11,CCTT
1 Perfect,11,CGAC
1 Perfect,11,CGAG
1 Perfect,11,CGCC
4 Perfect,11,CGCG
1 Perfect,11,CGCT
1 Perfect,11,CGGC
5 Perfect,11,CGGG
9 Perfect,11,CGTC
1 Perfect,11,CGTT
3 Perfect,11,CTAA
2 Perfect,11,CTAC
9 Perfect,11,CTAG
12 Perfect,11,CTAT
19 Perfect,11,CTCA
36 Perfect,11,CTCC
4 Perfect,11,CTCG
32 Perfect,11,CTCT
3 Perfect,11,CTGA
25 Perfect,11,CTGC
9 Perfect,11,CTGG
6 Perfect,11,CTGT
5 Perfect,11,CTTA
39 Perfect,11,CTTC
9 Perfect,11,CTTG
41 Perfect,11,CTTT
60 Perfect,11,GAAA
1 Perfect,11,GAAC
58 Perfect,11,GAAG
33 Perfect,11,GAAT
5 Perfect,11,GACA
1 Perfect,11,GACC
1 Perfect,11,GACG
1 Perfect,11,GACT
41 Perfect,11,GAGA
5 Perfect,11,GAGC
39 Perfect,11,GAGG
23 Perfect,11,GAGT
20 Perfect,11,GATA
1 Perfect,11,GATC
13 Perfect,11,GATG
10 Perfect,11,GATT
13 Perfect,11,GCAA
1 Perfect,11,GCAC
9 Perfect,11,GCAG
6 Perfect,11,GCAT
6 Perfect,11,GCCA
3 Perfect,11,GCCC
6 Perfect,11,GCCG
9 Perfect,11,GCCT
6 Perfect,11,GCGC
2 Perfect,11,GCGG
2 Perfect,11,GCGT
3 Perfect,11,GCTA
1 Perfect,11,GCTC
8 Perfect,11,GCTG
4 Perfect,11,GCTT
30 Perfect,11,GGAA
42 Perfect,11,GGAG
11 Perfect,11,GGAT
11 Perfect,11,GGCA
3 Perfect,11,GGCC
2 Perfect,11,GGCG
15 Perfect,11,GGCT
26 Perfect,11,GGGA
7 Perfect,11,GGGC
12 Perfect,11,GGGG
15 Perfect,11,GGGT
5 Perfect,11,GGTA
14 Perfect,11,GGTG
1 Perfect,11,GGTT
1 Perfect,11,GTAA
7 Perfect,11,GTAG
11 Perfect,11,GTAT
5 Perfect,11,GTCA
8 Perfect,11,GTCT
51 Perfect,11,GTGA
8 Perfect,11,GTGC
14 Perfect,11,GTGG
145 Perfect,11,GTGT
2 Perfect,11,GTTA
1 Perfect,11,GTTC
10 Perfect,11,GTTG
7 Perfect,11,GTTT
69 Perfect,11,TAAA
11 Perfect,11,TAAC
11 Perfect,11,TAAG
34 Perfect,11,TAAT
2 Perfect,11,TACA
3 Perfect,11,TACC
1 Perfect,11,TACT
4 Perfect,11,TAGA
1 Perfect,11,TAGC
11 Perfect,11,TAGG
2 Perfect,11,TAGT
203 Perfect,11,TATA
26 Perfect,11,TATC
110 Perfect,11,TATG
86 Perfect,11,TATT
8 Perfect,11,TCAA
17 Perfect,11,TCAC
20 Perfect,11,TCAG
43 Perfect,11,TCAT
26 Perfect,11,TCCA
41 Perfect,11,TCCC
3 Perfect,11,TCCG
27 Perfect,11,TCCT
9 Perfect,11,TCTA
155 Perfect,11,TCTC
63 Perfect,11,TCTG
76 Perfect,11,TCTT
33 Perfect,11,TGAA
8 Perfect,11,TGAC
17 Perfect,11,TGAG
9 Perfect,11,TGAT
7 Perfect,11,TGCA
9 Perfect,11,TGCC
3 Perfect,11,TGCG
5 Perfect,11,TGCT
12 Perfect,11,TGGA
16 Perfect,11,TGGC
28 Perfect,11,TGGG
7 Perfect,11,TGGT
51 Perfect,11,TGTA
27 Perfect,11,TGTC
222 Perfect,11,TGTG
15 Perfect,11,TGTT
22 Perfect,11,TTAA
13 Perfect,11,TTAC
10 Perfect,11,TTAG
48 Perfect,11,TTAT
18 Perfect,11,TTCA
39 Perfect,11,TTCC
53 Perfect,11,TTCT
7 Perfect,11,TTGA
14 Perfect,11,TTGC
16 Perfect,11,TTGG
25 Perfect,11,TTGT
289 Perfect,11,TTTA
345 Perfect,11,TTTC
269 Perfect,11,TTTG
753 Perfect,11,TTTT
534 Perfect,12,AAAA
26 Perfect,12,AAAC
49 Perfect,12,AAAG
83 Perfect,12,AAAT
4 Perfect,12,AACA
4 Perfect,12,AACC
22 Perfect,12,AAGA
3 Perfect,12,AAGC
9 Perfect,12,AAGG
35 Perfect,12,AATA
4 Perfect,12,AATC
13 Perfect,12,AATG
23 Perfect,12,AATT
4 Perfect,12,ACAA
70 Perfect,12,ACAC
1 Perfect,12,ACAG
16 Perfect,12,ACAT
1 Perfect,12,ACCA
6 Perfect,12,ACCC
3 Perfect,12,ACCT
1 Perfect,12,ACGC
13 Perfect,12,ACTC
1 Perfect,12,ACTG
3 Perfect,12,ACTT
26 Perfect,12,AGAA
3 Perfect,12,AGAC
36 Perfect,12,AGAG
5 Perfect,12,AGAT
6 Perfect,12,AGCA
3 Perfect,12,AGCC
1 Perfect,12,AGCT
13 Perfect,12,AGGA
6 Perfect,12,AGGC
12 Perfect,12,AGGG
3 Perfect,12,AGGT
1 Perfect,12,AGTA
1 Perfect,12,AGTC
13 Perfect,12,AGTG
1 Perfect,12,AGTT
25 Perfect,12,ATAA
11 Perfect,12,ATAC
4 Perfect,12,ATAG
166 Perfect,12,ATAT
6 Perfect,12,ATCA
6 Perfect,12,ATCC
13 Perfect,12,ATCT
10 Perfect,12,ATGA
5 Perfect,12,ATGC
4 Perfect,12,ATGG
6 Perfect,12,ATGT
11 Perfect,12,ATTA
18 Perfect,12,ATTC
5 Perfect,12,ATTG
78 Perfect,12,ATTT
47 Perfect,12,CAAA
1 Perfect,12,CAAC
5 Perfect,12,CAAG
3 Perfect,12,CAAT
119 Perfect,12,CACA
3 Perfect,12,CACC
9 Perfect,12,CACT
3 Perfect,12,CAGA
6 Perfect,12,CAGC
3 Perfect,12,CAGG
2 Perfect,12,CAGT
6 Perfect,12,CATA
22 Perfect,12,CATC
6 Perfect,12,CATG
15 Perfect,12,CATT
5 Perfect,12,CCAC
6 Perfect,12,CCAG
9 Perfect,12,CCAT
6 Perfect,12,CCCA
5 Perfect,12,CCCC
20 Perfect,12,CCCT
2 Perfect,12,CCGC
1 Perfect,12,CCTA
13 Perfect,12,CCTC
16 Perfect,12,CCTG
16 Perfect,12,CCTT
1 Perfect,12,CGCC
2 Perfect,12,CGGC
1 Perfect,12,CGGG
1 Perfect,12,CGGT
1 Perfect,12,CTAC
6 Perfect,12,CTAT
2 Perfect,12,CTCA
15 Perfect,12,CTCC
41 Perfect,12,CTCT
1 Perfect,12,CTGA
9 Perfect,12,CTGC
1 Perfect,12,CTGG
5 Perfect,12,CTGT
15 Perfect,12,CTTC
37 Perfect,12,CTTT
54 Perfect,12,GAAA
1 Perfect,12,GAAC
20 Perfect,12,GAAG
9 Perfect,12,GAAT
6 Perfect,12,GACA
40 Perfect,12,GAGA
21 Perfect,12,GAGG
2 Perfect,12,GAGT
10 Perfect,12,GATA
1 Perfect,12,GATC
17 Perfect,12,GATG
3 Perfect,12,GATT
3 Perfect,12,GCAA
2 Perfect,12,GCAC
4 Perfect,12,GCAG
1 Perfect,12,GCAT
1 Perfect,12,GCCA
2 Perfect,12,GCCC
18 Perfect,12,GCCT
4 Perfect,12,GCGC
1 Perfect,12,GCTG
4 Perfect,12,GCTT
19 Perfect,12,GGAA
16 Perfect,12,GGAG
5 Perfect,12,GGAT
1 Perfect,12,GGCA
1 Perfect,12,GGCC
3 Perfect,12,GGCG
2 Perfect,12,GGCT
15 Perfect,12,GGGA
2 Perfect,12,GGGC
5 Perfect,12,GGGG
2 Perfect,12,GGGT
3 Perfect,12,GGTG
1 Perfect,12,GGTT
1 Perfect,12,GTAA
5 Perfect,12,GTAG
1 Perfect,12,GTCA
2 Perfect,12,GTCT
13 Perfect,12,GTGA
2 Perfect,12,GTGC
9 Perfect,12,GTGG
89 Perfect,12,GTGT
4 Perfect,12,GTTG
37 Perfect,12,GTTT
43 Perfect,12,TAAA
5 Perfect,12,TAAT
9 Perfect,12,TACA
2 Perfect,12,TACT
3 Perfect,12,TAGA
1 Perfect,12,TAGG
126 Perfect,12,TATA
15 Perfect,12,TATC
6 Perfect,12,TATG
34 Perfect,12,TATT
2 Perfect,12,TCAA
3 Perfect,12,TCAC
8 Perfect,12,TCAG
10 Perfect,12,TCAT
9 Perfect,12,TCCA
21 Perfect,12,TCCC
15 Perfect,12,TCCT
3 Perfect,12,TCTA
68 Perfect,12,TCTC
8 Perfect,12,TCTG
19 Perfect,12,TCTT
24 Perfect,12,TGAA
2 Perfect,12,TGAC
4 Perfect,12,TGAG
2 Perfect,12,TGAT
10 Perfect,12,TGCA
2 Perfect,12,TGCC
2 Perfect,12,TGCT
3 Perfect,12,TGGA
4 Perfect,12,TGGC
7 Perfect,12,TGGG
3 Perfect,12,TGGT
9 Perfect,12,TGTA
2 Perfect,12,TGTC
107 Perfect,12,TGTG
1 Perfect,12,TGTT
18 Perfect,12,TTAA
3 Perfect,12,TTAC
25 Perfect,12,TTAT
21 Perfect,12,TTCA
19 Perfect,12,TTCC
20 Perfect,12,TTCT
1 Perfect,12,TTGC
8 Perfect,12,TTGG
8 Perfect,12,TTGT
49 Perfect,12,TTTA
54 Perfect,12,TTTC
47 Perfect,12,TTTG
594 Perfect,12,TTTT
472 Perfect,13,AAAA
22 Perfect,13,AAAC
49 Perfect,13,AAAG
46 Perfect,13,AAAT
4 Perfect,13,AACA
2 Perfect,13,AACC
14 Perfect,13,AAGA
9 Perfect,13,AAGG
16 Perfect,13,AATA
2 Perfect,13,AATC
10 Perfect,13,AATG
4 Perfect,13,AATT
13 Perfect,13,ACAA
118 Perfect,13,ACAC
2 Perfect,13,ACAG
13 Perfect,13,ACAT
1 Perfect,13,ACCA
1 Perfect,13,ACCC
1 Perfect,13,ACCT
1 Perfect,13,ACTA
1 Perfect,13,ACTC
2 Perfect,13,ACTT
39 Perfect,13,AGAA
7 Perfect,13,AGAC
76 Perfect,13,AGAG
11 Perfect,13,AGAT
5 Perfect,13,AGCA
1 Perfect,13,AGCC
1 Perfect,13,AGCT
12 Perfect,13,AGGA
2 Perfect,13,AGGC
21 Perfect,13,AGGG
1 Perfect,13,AGTC
1 Perfect,13,AGTG
1 Perfect,13,AGTT
26 Perfect,13,ATAA
8 Perfect,13,ATAC
4 Perfect,13,ATAG
87 Perfect,13,ATAT
2 Perfect,13,ATCA
7 Perfect,13,ATCC
6 Perfect,13,ATCT
7 Perfect,13,ATGA
1 Perfect,13,ATGC
3 Perfect,13,ATGG
2 Perfect,13,ATGT
3 Perfect,13,ATTA
12 Perfect,13,ATTC
1 Perfect,13,ATTG
20 Perfect,13,ATTT
2 Perfect,13,CAAA
1 Perfect,13,CAAC
61 Perfect,13,CACA
3 Perfect,13,CACC
2 Perfect,13,CACT
2 Perfect,13,CAGC
2 Perfect,13,CAGG
1 Perfect,13,CAGT
2 Perfect,13,CATA
5 Perfect,13,CATC
1 Perfect,13,CATG
12 Perfect,13,CATT
2 Perfect,13,CCAA
3 Perfect,13,CCAC
3 Perfect,13,CCAG
2 Perfect,13,CCAT
3 Perfect,13,CCCA
3 Perfect,13,CCCC
1 Perfect,13,CCCG
12 Perfect,13,CCCT
1 Perfect,13,CCGC
12 Perfect,13,CCTC
18 Perfect,13,CCTT
1 Perfect,13,CGCA
2 Perfect,13,CGCG
1 Perfect,13,CGGG
1 Perfect,13,CTAC
1 Perfect,13,CTAG
4 Perfect,13,CTAT
3 Perfect,13,CTCA
7 Perfect,13,CTCC
23 Perfect,13,CTCT
1 Perfect,13,CTTA
10 Perfect,13,CTTC
10 Perfect,13,CTTT
5 Perfect,13,GAAA
11 Perfect,13,GAAG
3 Perfect,13,GAAT
1 Perfect,13,GACT
18 Perfect,13,GAGA
6 Perfect,13,GAGG
1 Perfect,13,GAGT
4 Perfect,13,GATA
1 Perfect,13,GATC
5 Perfect,13,GATG
1 Perfect,13,GCAA
1 Perfect,13,GCAG
1 Perfect,13,GCAT
3 Perfect,13,GCGC
2 Perfect,13,GCGG
14 Perfect,13,GGAA
19 Perfect,13,GGAG
6 Perfect,13,GGAT
1 Perfect,13,GGCA
2 Perfect,13,GGCG
4 Perfect,13,GGCT
7 Perfect,13,GGGA
7 Perfect,13,GGGG
1 Perfect,13,GGGT
1 Perfect,13,GGTA
4 Perfect,13,GGTG
2 Perfect,13,GGTT
2 Perfect,13,GTAG
1 Perfect,13,GTAT
4 Perfect,13,GTCA
1 Perfect,13,GTCT
5 Perfect,13,GTGA
2 Perfect,13,GTGG
45 Perfect,13,GTGT
2 Perfect,13,GTTG
2 Perfect,13,GTTT
23 Perfect,13,TAAA
2 Perfect,13,TAAC
1 Perfect,13,TAAT
4 Perfect,13,TACA
2 Perfect,13,TACC
4 Perfect,13,TACT
9 Perfect,13,TAGA
1 Perfect,13,TAGT
87 Perfect,13,TATA
3 Perfect,13,TATC
15 Perfect,13,TATG
45 Perfect,13,TATT
2 Perfect,13,TCAA
1 Perfect,13,TCAC
7 Perfect,13,TCAT
10 Perfect,13,TCCA
13 Perfect,13,TCCC
7 Perfect,13,TCCT
6 Perfect,13,TCTA
88 Perfect,13,TCTC
3 Perfect,13,TCTG
27 Perfect,13,TCTT
20 Perfect,13,TGAA
3 Perfect,13,TGAT
3 Perfect,13,TGCA
4 Perfect,13,TGCT
3 Perfect,13,TGGA
5 Perfect,13,TGGG
2 Perfect,13,TGGT
18 Perfect,13,TGTA
8 Perfect,13,TGTC
115 Perfect,13,TGTG
18 Perfect,13,TGTT
4 Perfect,13,TTAA
22 Perfect,13,TTAT
6 Perfect,13,TTCA
18 Perfect,13,TTCC
8 Perfect,13,TTCT
1 Perfect,13,TTGA
1 Perfect,13,TTGG
4 Perfect,13,TTGT
27 Perfect,13,TTTA
44 Perfect,13,TTTC
14 Perfect,13,TTTG
481 Perfect,13,TTTT
415 Perfect,14,AAAA
22 Perfect,14,AAAC
20 Perfect,14,AAAG
32 Perfect,14,AAAT
12 Perfect,14,AACA
2 Perfect,14,AACC
17 Perfect,14,AAGA
16 Perfect,14,AAGG
1 Perfect,14,AAGT
21 Perfect,14,AATA
1 Perfect,14,AATC
8 Perfect,14,AATG
9 Perfect,14,AATT
1 Perfect,14,ACAA
46 Perfect,14,ACAC
1 Perfect,14,ACAG
1 Perfect,14,ACCC
16 Perfect,14,AGAA
1 Perfect,14,AGAC
13 Perfect,14,AGAG
2 Perfect,14,AGAT
1 Perfect,14,AGCT
4 Perfect,14,AGGA
3 Perfect,14,AGGC
7 Perfect,14,AGGG
2 Perfect,14,AGTC
1 Perfect,14,AGTG
6 Perfect,14,ATAA
1 Perfect,14,ATAC
1 Perfect,14,ATAG
72 Perfect,14,ATAT
1 Perfect,14,ATCA
2 Perfect,14,ATCC
3 Perfect,14,ATCT
2 Perfect,14,ATGA
2 Perfect,14,ATGC
3 Perfect,14,ATGG
1 Perfect,14,ATGT
3 Perfect,14,ATTA
3 Perfect,14,ATTC
3 Perfect,14,ATTG
6 Perfect,14,ATTT
8 Perfect,14,CAAA
1 Perfect,14,CAAC
54 Perfect,14,CACA
1 Perfect,14,CAGG
1 Perfect,14,CAGT
1 Perfect,14,CATA
10 Perfect,14,CATC
2 Perfect,14,CATG
6 Perfect,14,CATT
1 Perfect,14,CCAC
1 Perfect,14,CCAG
4 Perfect,14,CCCC
1 Perfect,14,CCCG
6 Perfect,14,CCCT
2 Perfect,14,CCTC
8 Perfect,14,CCTT
5 Perfect,14,CGCC
1 Perfect,14,CGCG
1 Perfect,14,CTAC
1 Perfect,14,CTAT
5 Perfect,14,CTCC
23 Perfect,14,CTCT
1 Perfect,14,CTGG
3 Perfect,14,CTGT
5 Perfect,14,CTTC
13 Perfect,14,CTTT
9 Perfect,14,GAAA
8 Perfect,14,GAAG
7 Perfect,14,GAAT
1 Perfect,14,GACA
1 Perfect,14,GACT
27 Perfect,14,GAGA
7 Perfect,14,GAGG
1 Perfect,14,GAGT
3 Perfect,14,GATA
1 Perfect,14,GATG
1 Perfect,14,GATT
1 Perfect,14,GCGC
7 Perfect,14,GGAA
2 Perfect,14,GGAG
2 Perfect,14,GGAT
1 Perfect,14,GGCA
1 Perfect,14,GGCT
3 Perfect,14,GGGA
2 Perfect,14,GGGC
1 Perfect,14,GGGG
4 Perfect,14,GGGT
1 Perfect,14,GGTG
2 Perfect,14,GTAT
3 Perfect,14,GTCA
1 Perfect,14,GTGG
33 Perfect,14,GTGT
1 Perfect,14,GTTT
12 Perfect,14,TAAA
3 Perfect,14,TAAT
2 Perfect,14,TACA
1 Perfect,14,TACT
8 Perfect,14,TAGA
3 Perfect,14,TAGG
1 Perfect,14,TAGT
84 Perfect,14,TATA
3 Perfect,14,TATC
3 Perfect,14,TATG
11 Perfect,14,TATT
3 Perfect,14,TCAC
2 Perfect,14,TCAT
3 Perfect,14,TCCA
7 Perfect,14,TCCC
8 Perfect,14,TCCT
4 Perfect,14,TCTA
31 Perfect,14,TCTC
2 Perfect,14,TCTG
12 Perfect,14,TCTT
7 Perfect,14,TGAA
1 Perfect,14,TGAG
2 Perfect,14,TGCA
1 Perfect,14,TGCC
1 Perfect,14,TGCT
3 Perfect,14,TGGA
1 Perfect,14,TGTA
2 Perfect,14,TGTC
38 Perfect,14,TGTG
5 Perfect,14,TGTT
13 Perfect,14,TTAA
1 Perfect,14,TTAG
40 Perfect,14,TTAT
6 Perfect,14,TTCA
13 Perfect,14,TTCC
20 Perfect,14,TTCT
1 Perfect,14,TTGA
1 Perfect,14,TTGC
4 Perfect,14,TTGG
23 Perfect,14,TTGT
24 Perfect,14,TTTA
27 Perfect,14,TTTC
12 Perfect,14,TTTG
396 Perfect,14,TTTT
380 Perfect,15,AAAA
129 Perfect,15,AAAC
80 Perfect,15,AAAG
94 Perfect,15,AAAT
1 Perfect,15,AACA
2 Perfect,15,AACC
5 Perfect,15,AAGA
1 Perfect,15,AAGC
9 Perfect,15,AAGG
11 Perfect,15,AATA
1 Perfect,15,AATC
6 Perfect,15,AATG
3 Perfect,15,AATT
1 Perfect,15,ACAA
63 Perfect,15,ACAC
1 Perfect,15,ACAG
4 Perfect,15,ACAT
1 Perfect,15,ACTC
11 Perfect,15,AGAA
6 Perfect,15,AGAC
49 Perfect,15,AGAG
2 Perfect,15,AGAT
4 Perfect,15,AGGA
16 Perfect,15,AGGG
4 Perfect,15,AGTC
2 Perfect,15,AGTG
7 Perfect,15,ATAA
6 Perfect,15,ATAC
6 Perfect,15,ATAG
52 Perfect,15,ATAT
6 Perfect,15,ATCC
13 Perfect,15,ATCT
1 Perfect,15,ATGA
1 Perfect,15,ATGC
1 Perfect,15,ATGG
1 Perfect,15,ATTA
4 Perfect,15,ATTC
3 Perfect,15,ATTG
8 Perfect,15,ATTT
2 Perfect,15,CAAA
1 Perfect,15,CAAC
22 Perfect,15,CACA
1 Perfect,15,CACC
1 Perfect,15,CACG
1 Perfect,15,CACT
2 Perfect,15,CAGC
1 Perfect,15,CAGG
1 Perfect,15,CAGT
1 Perfect,15,CATA
10 Perfect,15,CATC
1 Perfect,15,CATG
2 Perfect,15,CATT
1 Perfect,15,CCAA
5 Perfect,15,CCAC
5 Perfect,15,CCAT
3 Perfect,15,CCCC
3 Perfect,15,CCCT
11 Perfect,15,CCTC
5 Perfect,15,CCTT
1 Perfect,15,CGCC
2 Perfect,15,CGCG
2 Perfect,15,CTAC
3 Perfect,15,CTCC
12 Perfect,15,CTCT
8 Perfect,15,CTTC
3 Perfect,15,CTTT
6 Perfect,15,GAAA
16 Perfect,15,GAAG
1 Perfect,15,GAAT
11 Perfect,15,GAGA
3 Perfect,15,GAGG
1 Perfect,15,GAGT
7 Perfect,15,GATA
1 Perfect,15,GATG
3 Perfect,15,GGAA
1 Perfect,15,GGAC
14 Perfect,15,GGAG
5 Perfect,15,GGAT
1 Perfect,15,GGCA
1 Perfect,15,GGCG
2 Perfect,15,GGGA
4 Perfect,15,GTGA
1 Perfect,15,GTGC
1 Perfect,15,GTGG
26 Perfect,15,GTGT
1 Perfect,15,GTTG
1 Perfect,15,GTTT
6 Perfect,15,TAAA
1 Perfect,15,TAGC
4 Perfect,15,TAGG
44 Perfect,15,TATA
7 Perfect,15,TATC
8 Perfect,15,TATG
10 Perfect,15,TATT
1 Perfect,15,TCAA
1 Perfect,15,TCAC
2 Perfect,15,TCAT
7 Perfect,15,TCCA
8 Perfect,15,TCCC
4 Perfect,15,TCCT
2 Perfect,15,TCTA
59 Perfect,15,TCTC
10 Perfect,15,TCTG
15 Perfect,15,TCTT
6 Perfect,15,TGAA
1 Perfect,15,TGAC
3 Perfect,15,TGAG
1 Perfect,15,TGAT
4 Perfect,15,TGGA
1 Perfect,15,TGGG
1 Perfect,15,TGGT
5 Perfect,15,TGTA
2 Perfect,15,TGTC
70 Perfect,15,TGTG
1 Perfect,15,TGTT
3 Perfect,15,TTAA
1 Perfect,15,TTAG
11 Perfect,15,TTAT
4 Perfect,15,TTCA
16 Perfect,15,TTCC
1 Perfect,15,TTCG
4 Perfect,15,TTCT
2 Perfect,15,TTGC
4 Perfect,15,TTGG
1 Perfect,15,TTGT
87 Perfect,15,TTTA
89 Perfect,15,TTTC
111 Perfect,15,TTTG
376 Perfect,15,TTTT
343 Perfect,16,AAAA
6 Perfect,16,AAAC
12 Perfect,16,AAAG
16 Perfect,16,AAAT
5 Perfect,16,AAGA
7 Perfect,16,AAGG
6 Perfect,16,AATA
1 Perfect,16,AATC
2 Perfect,16,AATG
4 Perfect,16,AATT
2 Perfect,16,ACAA
20 Perfect,16,ACAC
1 Perfect,16,ACTT
6 Perfect,16,AGAA
6 Perfect,16,AGAG
3 Perfect,16,AGAT
7 Perfect,16,AGGA
1 Perfect,16,AGGC
4 Perfect,16,AGGG
1 Perfect,16,AGTT
1 Perfect,16,ATAA
1 Perfect,16,ATAC
1 Perfect,16,ATAG
33 Perfect,16,ATAT
1 Perfect,16,ATCC
5 Perfect,16,ATCT
3 Perfect,16,ATGA
2 Perfect,16,ATGG
1 Perfect,16,ATGT
1 Perfect,16,ATTA
2 Perfect,16,ATTG
12 Perfect,16,ATTT
15 Perfect,16,CAAA
1 Perfect,16,CAAT
24 Perfect,16,CACA
1 Perfect,16,CAGA
8 Perfect,16,CATC
2 Perfect,16,CATT
1 Perfect,16,CCAA
3 Perfect,16,CCAT
5 Perfect,16,CCCC
4 Perfect,16,CCTC
4 Perfect,16,CCTT
2 Perfect,16,CTAT
1 Perfect,16,CTCC
5 Perfect,16,CTCT
3 Perfect,16,CTTC
10 Perfect,16,CTTT
13 Perfect,16,GAAA
4 Perfect,16,GAAG
2 Perfect,16,GAAT
13 Perfect,16,GAGA
5 Perfect,16,GAGG
1 Perfect,16,GAGT
4 Perfect,16,GATA
2 Perfect,16,GATG
1 Perfect,16,GCAG
2 Perfect,16,GCCT
3 Perfect,16,GGAA
4 Perfect,16,GGAG
1 Perfect,16,GGAT
3 Perfect,16,GGGA
10 Perfect,16,GTAG
2 Perfect,16,GTAT
1 Perfect,16,GTCA
5 Perfect,16,GTCT
10 Perfect,16,GTGT
12 Perfect,16,GTTT
14 Perfect,16,TAAA
1 Perfect,16,TACA
2 Perfect,16,TAGA
38 Perfect,16,TATA
4 Perfect,16,TATC
5 Perfect,16,TATT
1 Perfect,16,TCAC
2 Perfect,16,TCAG
2 Perfect,16,TCAT
4 Perfect,16,TCCA
4 Perfect,16,TCCC
1 Perfect,16,TCCG
3 Perfect,16,TCCT
1 Perfect,16,TCTA
18 Perfect,16,TCTC
5 Perfect,16,TCTT
4 Perfect,16,TGAA
1 Perfect,16,TGAT
1 Perfect,16,TGCA
1 Perfect,16,TGGG
1 Perfect,16,TGTA
23 Perfect,16,TGTG
2 Perfect,16,TTAA
6 Perfect,16,TTAT
2 Perfect,16,TTCA
8 Perfect,16,TTCC
4 Perfect,16,TTCT
1 Perfect,16,TTGA
1 Perfect,16,TTGG
19 Perfect,16,TTTA
6 Perfect,16,TTTC
27 Perfect,16,TTTG
346 Perfect,16,TTTT
262 Perfect,17,AAAA
6 Perfect,17,AAAC
6 Perfect,17,AAAG
8 Perfect,17,AAAT
1 Perfect,17,AACA
1 Perfect,17,AACT
1 Perfect,17,AAGA
6 Perfect,17,AAGG
6 Perfect,17,AATA
1 Perfect,17,AATC
1 Perfect,17,AATG
1 Perfect,17,AATT
8 Perfect,17,ACAA
32 Perfect,17,ACAC
1 Perfect,17,ACAT
12 Perfect,17,AGAA
24 Perfect,17,AGAG
1 Perfect,17,AGAT
7 Perfect,17,AGGA
11 Perfect,17,AGGG
1 Perfect,17,AGTT
11 Perfect,17,ATAA
2 Perfect,17,ATAC
1 Perfect,17,ATAG
27 Perfect,17,ATAT
8 Perfect,17,ATCC
1 Perfect,17,ATCT
1 Perfect,17,ATGA
1 Perfect,17,ATGG
1 Perfect,17,ATTA
2 Perfect,17,ATTT
11 Perfect,17,CACA
2 Perfect,17,CATT
2 Perfect,17,CCAC
2 Perfect,17,CCAT
2 Perfect,17,CCCC
1 Perfect,17,CCCT
1 Perfect,17,CCGC
5 Perfect,17,CCTC
3 Perfect,17,CCTT
1 Perfect,17,CTAT
1 Perfect,17,CTCA
2 Perfect,17,CTCC
11 Perfect,17,CTCT
2 Perfect,17,CTTC
3 Perfect,17,CTTT
2 Perfect,17,GAAA
7 Perfect,17,GAAG
13 Perfect,17,GAGA
1 Perfect,17,GAGC
1 Perfect,17,GAGG
1 Perfect,17,GATG
1 Perfect,17,GCGC
4 Perfect,17,GGAG
2 Perfect,17,GGAT
1 Perfect,17,GGGA
11 Perfect,17,GTGT
1 Perfect,17,GTTT
1 Perfect,17,TAAA
1 Perfect,17,TAGA
26 Perfect,17,TATA
2 Perfect,17,TATC
3 Perfect,17,TATG
18 Perfect,17,TATT
3 Perfect,17,TCAA
1 Perfect,17,TCAG
1 Perfect,17,TCAT
4 Perfect,17,TCCA
9 Perfect,17,TCCC
3 Perfect,17,TCCT
2 Perfect,17,TCTA
29 Perfect,17,TCTC
9 Perfect,17,TCTT
1 Perfect,17,TGAA
1 Perfect,17,TGAG
1 Perfect,17,TGCT
2 Perfect,17,TGTA
32 Perfect,17,TGTG
10 Perfect,17,TGTT
5 Perfect,17,TTAT
2 Perfect,17,TTCA
4 Perfect,17,TTCC
2 Perfect,17,TTCT
1 Perfect,17,TTGT
2 Perfect,17,TTTA
5 Perfect,17,TTTC
7 Perfect,17,TTTG
264 Perfect,17,TTTT
199 Perfect,18,AAAA
8 Perfect,18,AAAC
4 Perfect,18,AAAG
24 Perfect,18,AAAT
2 Perfect,18,AACA
4 Perfect,18,AAGA
4 Perfect,18,AAGG
12 Perfect,18,AATA
1 Perfect,18,AATG
6 Perfect,18,AATT
1 Perfect,18,ACAA
15 Perfect,18,ACAC
4 Perfect,18,AGAA
2 Perfect,18,AGAG
4 Perfect,18,AGGA
2 Perfect,18,AGGG
1 Perfect,18,ATAA
19 Perfect,18,ATAT
2 Perfect,18,ATCC
2 Perfect,18,ATCT
2 Perfect,18,ATGA
1 Perfect,18,ATGG
1 Perfect,18,ATGT
3 Perfect,18,ATTC
4 Perfect,18,ATTT
2 Perfect,18,CAAA
17 Perfect,18,CACA
1 Perfect,18,CACC
2 Perfect,18,CAGC
1 Perfect,18,CATA
6 Perfect,18,CATC
2 Perfect,18,CCAG
4 Perfect,18,CCCC
1 Perfect,18,CCTT
1 Perfect,18,CTAT
1 Perfect,18,CTCC
9 Perfect,18,CTCT
1 Perfect,18,CTGC
4 Perfect,18,CTGT
4 Perfect,18,CTTT
5 Perfect,18,GAAA
1 Perfect,18,GAAG
6 Perfect,18,GAGA
3 Perfect,18,GAGG
5 Perfect,18,GATA
1 Perfect,18,GCGC
5 Perfect,18,GGAA
1 Perfect,18,GGAG
2 Perfect,18,GGAT
1 Perfect,18,GGTG
2 Perfect,18,GTAT
18 Perfect,18,GTGT
5 Perfect,18,TAAA
1 Perfect,18,TAGA
18 Perfect,18,TATA
4 Perfect,18,TATC
1 Perfect,18,TCCA
1 Perfect,18,TCCT
1 Perfect,18,TCTA
14 Perfect,18,TCTC
1 Perfect,18,TCTT
1 Perfect,18,TGAG
2 Perfect,18,TGGT
1 Perfect,18,TGTC
14 Perfect,18,TGTG
2 Perfect,18,TTAA
1 Perfect,18,TTAC
18 Perfect,18,TTAT
5 Perfect,18,TTCC
7 Perfect,18,TTCT
1 Perfect,18,TTGA
2 Perfect,18,TTGG
9 Perfect,18,TTGT
13 Perfect,18,TTTA
4 Perfect,18,TTTC
3 Perfect,18,TTTG
206 Perfect,18,TTTT
168 Perfect,19,AAAA
68 Perfect,19,AAAC
36 Perfect,19,AAAG
55 Perfect,19,AAAT
1 Perfect,19,AAGA
1 Perfect,19,AAGC
6 Perfect,19,AAGG
2 Perfect,19,AATA
2 Perfect,19,AATG
1 Perfect,19,ACAA
20 Perfect,19,ACAC
1 Perfect,19,ACTC
10 Perfect,19,AGAA
5 Perfect,19,AGAC
12 Perfect,19,AGAG
2 Perfect,19,AGGA
2 Perfect,19,AGGC
9 Perfect,19,AGGG
1 Perfect,19,AGTC
3 Perfect,19,ATAA
1 Perfect,19,ATAC
1 Perfect,19,ATAG
22 Perfect,19,ATAT
1 Perfect,19,ATCT
1 Perfect,19,ATGC
1 Perfect,19,ATGG
1 Perfect,19,ATTA
1 Perfect,19,ATTC
5 Perfect,19,ATTT
3 Perfect,19,CAAA
10 Perfect,19,CACA
1 Perfect,19,CAGC
3 Perfect,19,CATC
4 Perfect,19,CCAC
1 Perfect,19,CCAT
2 Perfect,19,CCTC
5 Perfect,19,CCTT
1 Perfect,19,CTAC
2 Perfect,19,CTAG
1 Perfect,19,CTAT
1 Perfect,19,CTCC
4 Perfect,19,CTCT
2 Perfect,19,CTTC
1 Perfect,19,CTTG
1 Perfect,19,CTTT
2 Perfect,19,GAAA
10 Perfect,19,GAAG
4 Perfect,19,GAGA
1 Perfect,19,GAGC
3 Perfect,19,GATA
2 Perfect,19,GATG
2 Perfect,19,GGAA
7 Perfect,19,GGAG
10 Perfect,19,GTGT
1 Perfect,19,GTTT
2 Perfect,19,TAAA
1 Perfect,19,TAAT
1 Perfect,19,TACC
1 Perfect,19,TAGA
2 Perfect,19,TAGC
10 Perfect,19,TATA
4 Perfect,19,TATC
3 Perfect,19,TATG
1 Perfect,19,TATT
1 Perfect,19,TCAT
1 Perfect,19,TCCA
2 Perfect,19,TCCC
4 Perfect,19,TCCT
2 Perfect,19,TCTA
19 Perfect,19,TCTC
2 Perfect,19,TCTG
2 Perfect,19,TGAA
1 Perfect,19,TGGA
1 Perfect,19,TGGT
34 Perfect,19,TGTG
3 Perfect,19,TTAT
7 Perfect,19,TTCC
1 Perfect,19,TTGA
2 Perfect,19,TTGG
1 Perfect,19,TTGT
45 Perfect,19,TTTA
29 Perfect,19,TTTC
63 Perfect,19,TTTG
164 Perfect,19,TTTT
143 Perfect,20,AAAA
4 Perfect,20,AAAC
3 Perfect,20,AAAG
13 Perfect,20,AAAT
1 Perfect,20,AAGA
3 Perfect,20,AAGG
3 Perfect,20,AATA
2 Perfect,20,AATT
15 Perfect,20,ACAC
1 Perfect,20,ACCA
3 Perfect,20,AGAA
2 Perfect,20,AGAG
1 Perfect,20,AGAT
2 Perfect,20,AGGA
2 Perfect,20,AGGG
2 Perfect,20,ATAA
16 Perfect,20,ATAT
1 Perfect,20,ATCT
2 Perfect,20,ATGG
14 Perfect,20,ATTT
9 Perfect,20,CAAA
8 Perfect,20,CACA
2 Perfect,20,CATA
1 Perfect,20,CCAT
1 Perfect,20,CCCT
1 Perfect,20,CCTC
2 Perfect,20,CCTT
1 Perfect,20,CTAT
1 Perfect,20,CTCC
2 Perfect,20,CTCT
1 Perfect,20,CTTC
2 Perfect,20,CTTT
3 Perfect,20,GAAA
7 Perfect,20,GAAG
5 Perfect,20,GAGA
1 Perfect,20,GAGG
1 Perfect,20,GATA
1 Perfect,20,GATG
1 Perfect,20,GCTT
3 Perfect,20,GGAA
2 Perfect,20,GGAG
2 Perfect,20,GTAG
9 Perfect,20,GTGT
5 Perfect,20,GTTT
3 Perfect,20,TAAA
1 Perfect,20,TAAT
1 Perfect,20,TAGA
19 Perfect,20,TATA
1 Perfect,20,TATT
2 Perfect,20,TCCA
2 Perfect,20,TCCT
6 Perfect,20,TCTC
1 Perfect,20,TCTT
1 Perfect,20,TGCC
2 Perfect,20,TGGA
17 Perfect,20,TGTG
1 Perfect,20,TTAT
2 Perfect,20,TTCA
3 Perfect,20,TTCC
1 Perfect,20,TTCT
1 Perfect,20,TTGG
1 Perfect,20,TTGT
10 Perfect,20,TTTA
1 Perfect,20,TTTC
7 Perfect,20,TTTG
134 Perfect,20,TTTT
135 Perfect,21,AAAA
8 Perfect,21,AAAC
3 Perfect,21,AAAG
7 Perfect,21,AAAT
2 Perfect,21,AAGA
1 Perfect,21,AAGG
8 Perfect,21,AATA
2 Perfect,21,ACAA
21 Perfect,21,ACAC
1 Perfect,21,ACAT
3 Perfect,21,AGAA
13 Perfect,21,AGAG
2 Perfect,21,AGGA
3 Perfect,21,AGGG
1 Perfect,21,AGTC
4 Perfect,21,ATAA
17 Perfect,21,ATAT
1 Perfect,21,ATCC
2 Perfect,21,ATTG
2 Perfect,21,CAAA
3 Perfect,21,CACA
1 Perfect,21,CATT
2 Perfect,21,CCTT
1 Perfect,21,CTAT
5 Perfect,21,CTCT
1 Perfect,21,CTTC
1 Perfect,21,GAAG
1 Perfect,21,GAGA
1 Perfect,21,GATA
2 Perfect,21,GATG
1 Perfect,21,GGAA
2 Perfect,21,GGAG
1 Perfect,21,GGAT
2 Perfect,21,GTGT
1 Perfect,21,GTTG
1 Perfect,21,TAAA
1 Perfect,21,TAGC
13 Perfect,21,TATA
2 Perfect,21,TATC
1 Perfect,21,TATG
9 Perfect,21,TATT
1 Perfect,21,TCAG
1 Perfect,21,TCAT
3 Perfect,21,TCCA
2 Perfect,21,TCCC
11 Perfect,21,TCTC
5 Perfect,21,TCTT
1 Perfect,21,TGTC
26 Perfect,21,TGTG
5 Perfect,21,TGTT
3 Perfect,21,TTAT
3 Perfect,21,TTCC
2 Perfect,21,TTTA
3 Perfect,21,TTTC
3 Perfect,21,TTTG
148 Perfect,21,TTTT
122 Perfect,22,AAAA
5 Perfect,22,AAAC
12 Perfect,22,AAAT
1 Perfect,22,AACC
1 Perfect,22,AAGA
4 Perfect,22,AAGG
4 Perfect,22,AATA
1 Perfect,22,AATT
1 Perfect,22,ACAA
7 Perfect,22,ACAC
2 Perfect,22,AGAG
2 Perfect,22,AGGG
2 Perfect,22,ATAG
8 Perfect,22,ATAT
2 Perfect,22,ATGT
1 Perfect,22,ATTC
1 Perfect,22,ATTT
1 Perfect,22,CAAA
5 Perfect,22,CACA
1 Perfect,22,CACT
6 Perfect,22,CATC
2 Perfect,22,CATT
1 Perfect,22,CCAT
1 Perfect,22,CCCT
2 Perfect,22,CCGT
1 Perfect,22,CCTT
1 Perfect,22,CGCG
1 Perfect,22,CTCC
4 Perfect,22,CTCT
1 Perfect,22,CTTC
2 Perfect,22,GAAA
1 Perfect,22,GAAG
8 Perfect,22,GAGA
2 Perfect,22,GATA
1 Perfect,22,GATG
1 Perfect,22,GGAA
1 Perfect,22,GGCA
12 Perfect,22,GTGT
1 Perfect,22,GTTG
1 Perfect,22,TACA
1 Perfect,22,TAGA
1 Perfect,22,TAGG
13 Perfect,22,TATA
1 Perfect,22,TCCA
1 Perfect,22,TCCT
8 Perfect,22,TCTC
1 Perfect,22,TCTT
1 Perfect,22,TGAA
5 Perfect,22,TGTG
1 Perfect,22,TGTT
2 Perfect,22,TTAA
1 Perfect,22,TTAC
11 Perfect,22,TTAT
1 Perfect,22,TTCA
2 Perfect,22,TTCT
4 Perfect,22,TTGT
5 Perfect,22,TTTA
2 Perfect,22,TTTC
1 Perfect,22,TTTG
112 Perfect,22,TTTT
127 Perfect,23,AAAA
27 Perfect,23,AAAC
7 Perfect,23,AAAG
18 Perfect,23,AAAT
1 Perfect,23,AACC
3 Perfect,23,AAGG
2 Perfect,23,AATA
1 Perfect,23,ACAA
25 Perfect,23,ACAC
1 Perfect,23,AGAA
1 Perfect,23,AGAC
5 Perfect,23,AGAG
2 Perfect,23,AGAT
1 Perfect,23,AGGC
4 Perfect,23,AGGG
1 Perfect,23,ATAA
1 Perfect,23,ATAG
11 Perfect,23,ATAT
2 Perfect,23,ATCT
1 Perfect,23,ATGG
1 Perfect,23,ATTC
1 Perfect,23,CAAA
6 Perfect,23,CACA
2 Perfect,23,CATC
2 Perfect,23,CCAA
1 Perfect,23,CCAT
2 Perfect,23,CCTT
1 Perfect,23,CTAT
1 Perfect,23,CTCC
2 Perfect,23,CTCT
1 Perfect,23,CTTC
1 Perfect,23,GAAA
4 Perfect,23,GAAG
3 Perfect,23,GAGA
1 Perfect,23,GATA
1 Perfect,23,GCAG
2 Perfect,23,GGAG
6 Perfect,23,GTGT
1 Perfect,23,GTTG
1 Perfect,23,TAAA
1 Perfect,23,TACA
7 Perfect,23,TATA
2 Perfect,23,TATC
1 Perfect,23,TATT
2 Perfect,23,TCAA
1 Perfect,23,TCAC
2 Perfect,23,TCCC
4 Perfect,23,TCTC
3 Perfect,23,TCTT
19 Perfect,23,TGTG
1 Perfect,23,TTAC
2 Perfect,23,TTAT
1 Perfect,23,TTCC
3 Perfect,23,TTGG
1 Perfect,23,TTGT
18 Perfect,23,TTTA
15 Perfect,23,TTTC
20 Perfect,23,TTTG
134 Perfect,23,TTTT
85 Perfect,24,AAAA
6 Perfect,24,AAAC
2 Perfect,24,AAAG
8 Perfect,24,AAAT
1 Perfect,24,AACA
2 Perfect,24,AAGG
1 Perfect,24,AATA
16 Perfect,24,ACAC
1 Perfect,24,AGAG
1 Perfect,24,AGGG
1 Perfect,24,ATAA
12 Perfect,24,ATAT
8 Perfect,24,ATTT
4 Perfect,24,CAAA
7 Perfect,24,CACA
1 Perfect,24,CAGT
1 Perfect,24,CATA
1 Perfect,24,CATC
5 Perfect,24,CTCT
1 Perfect,24,CTTC
1 Perfect,24,CTTG
3 Perfect,24,CTTT
1 Perfect,24,GAAG
2 Perfect,24,GAAT
2 Perfect,24,GAGA
1 Perfect,24,GATA
1 Perfect,24,GGAA
1 Perfect,24,GGAG
2 Perfect,24,GTCT
16 Perfect,24,GTGT
2 Perfect,24,GTTT
2 Perfect,24,TAAA
7 Perfect,24,TATA
2 Perfect,24,TCCA
1 Perfect,24,TCCT
1 Perfect,24,TCTC
2 Perfect,24,TCTT
2 Perfect,24,TGAA
3 Perfect,24,TGTG
1 Perfect,24,TTCC
2 Perfect,24,TTTA
2 Perfect,24,TTTC
3 Perfect,24,TTTG
86 Perfect,24,TTTT
63 Perfect,25,AAAA
2 Perfect,25,AAAC
2 Perfect,25,AAAG
2 Perfect,25,AAAT
1 Perfect,25,AATG
1 Perfect,25,ACAA
18 Perfect,25,ACAC
4 Perfect,25,AGAG
1 Perfect,25,AGAT
2 Perfect,25,AGGA
3 Perfect,25,AGGG
1 Perfect,25,ATAC
14 Perfect,25,ATAT
1 Perfect,25,ATGA
1 Perfect,25,ATTA
9 Perfect,25,CACA
1 Perfect,25,CATT
1 Perfect,25,CCTC
1 Perfect,25,CTAT
1 Perfect,25,CTCT
1 Perfect,25,CTTT
1 Perfect,25,GAAG
3 Perfect,25,GAGA
2 Perfect,25,GATA
1 Perfect,25,GATG
2 Perfect,25,GGAG
7 Perfect,25,GTGT
13 Perfect,25,TATA
5 Perfect,25,TATT
1 Perfect,25,TCCA
1 Perfect,25,TCCC
1 Perfect,25,TCCT
1 Perfect,25,TCTA
8 Perfect,25,TCTC
1 Perfect,25,TCTT
1 Perfect,25,TGAA
19 Perfect,25,TGTG
1 Perfect,25,TGTT
2 Perfect,25,TTAT
2 Perfect,25,TTCA
1 Perfect,25,TTTC
1 Perfect,25,TTTG
87 Perfect,25,TTTT
51 Perfect,26,AAAA
1 Perfect,26,AAAC
1 Perfect,26,AAAG
7 Perfect,26,AAAT
1 Perfect,26,AAGA
3 Perfect,26,AATA
1 Perfect,26,AATG
2 Perfect,26,AATT
1 Perfect,26,ACAA
13 Perfect,26,ACAC
2 Perfect,26,AGAG
1 Perfect,26,AGCA
1 Perfect,26,AGGA
1 Perfect,26,ATAG
3 Perfect,26,ATAT
1 Perfect,26,ATCC
1 Perfect,26,ATGA
4 Perfect,26,CACA
3 Perfect,26,CATC
1 Perfect,26,CTAG
1 Perfect,26,GAAG
4 Perfect,26,GAGA
1 Perfect,26,GAGG
2 Perfect,26,GATA
1 Perfect,26,GGAA
11 Perfect,26,GTGT
1 Perfect,26,TAAA
4 Perfect,26,TATA
1 Perfect,26,TATC
1 Perfect,26,TATT
1 Perfect,26,TCCC
1 Perfect,26,TCCT
4 Perfect,26,TCTC
1 Perfect,26,TGGA
5 Perfect,26,TGTG
1 Perfect,26,TTAA
3 Perfect,26,TTAT
4 Perfect,26,TTCC
1 Perfect,26,TTCT
1 Perfect,26,TTTA
2 Perfect,26,TTTG
77 Perfect,26,TTTT
40 Perfect,27,AAAA
7 Perfect,27,AAAC
2 Perfect,27,AAAG
8 Perfect,27,AAAT
7 Perfect,27,ACAC
2 Perfect,27,AGAA
3 Perfect,27,AGAG
2 Perfect,27,AGAT
1 Perfect,27,AGGA
2 Perfect,27,AGGG
1 Perfect,27,AGTC
1 Perfect,27,ATAA
5 Perfect,27,ATAT
1 Perfect,27,ATCT
1 Perfect,27,ATGG
1 Perfect,27,ATTT
6 Perfect,27,CACA
1 Perfect,27,CATC
1 Perfect,27,CCAA
2 Perfect,27,CCAT
1 Perfect,27,CCTT
1 Perfect,27,CTTT
1 Perfect,27,GAAG
1 Perfect,27,GAGA
1 Perfect,27,GATG
1 Perfect,27,GGAG
1 Perfect,27,GGGA
8 Perfect,27,GTGT
1 Perfect,27,GTTG
1 Perfect,27,TAGA
5 Perfect,27,TATA
2 Perfect,27,TATT
4 Perfect,27,TCTC
2 Perfect,27,TCTG
2 Perfect,27,TGAA
1 Perfect,27,TGGA
1 Perfect,27,TGGT
23 Perfect,27,TGTG
1 Perfect,27,TTAC
2 Perfect,27,TTCC
1 Perfect,27,TTCT
6 Perfect,27,TTTA
5 Perfect,27,TTTC
9 Perfect,27,TTTG
46 Perfect,27,TTTT
33 Perfect,28,AAAA
1 Perfect,28,AAAG
1 Perfect,28,AAAT
1 Perfect,28,AATT
16 Perfect,28,ACAC
1 Perfect,28,AGAG
1 Perfect,28,ATAA
7 Perfect,28,ATAT
3 Perfect,28,CAAA
6 Perfect,28,CACA
1 Perfect,28,CCTC
1 Perfect,28,CCTT
1 Perfect,28,CTAT
1 Perfect,28,CTCT
1 Perfect,28,CTTT
1 Perfect,28,GAGA
1 Perfect,28,GAGG
1 Perfect,28,GGGA
10 Perfect,28,GTGT
1 Perfect,28,GTTG
1 Perfect,28,GTTT
1 Perfect,28,TAGA
4 Perfect,28,TATA
2 Perfect,28,TATC
1 Perfect,28,TATG
1 Perfect,28,TCCA
1 Perfect,28,TCTA
3 Perfect,28,TCTC
1 Perfect,28,TCTT
1 Perfect,28,TGAA
2 Perfect,28,TGTG
1 Perfect,28,TTAT
1 Perfect,28,TTGT
1 Perfect,28,TTTA
1 Perfect,28,TTTC
2 Perfect,28,TTTG
53 Perfect,28,TTTT
23 Perfect,29,AAAA
3 Perfect,29,AAAC
2 Perfect,29,AAAT
1 Perfect,29,AAGA
1 Perfect,29,AAGG
18 Perfect,29,ACAC
1 Perfect,29,AGAA
1 Perfect,29,AGGG
9 Perfect,29,ATAT
1 Perfect,29,ATCC
1 Perfect,29,ATCT
6 Perfect,29,CACA
1 Perfect,29,CCTT
1 Perfect,29,GGAG
4 Perfect,29,GTGT
1 Perfect,29,GTTT
3 Perfect,29,TATA
2 Perfect,29,TATT
1 Perfect,29,TCCC
5 Perfect,29,TCTC
1 Perfect,29,TCTT
1 Perfect,29,TGAA
1 Perfect,29,TGAT
1 Perfect,29,TGGA
1 Perfect,29,TGTA
5 Perfect,29,TGTG
1 Perfect,29,TGTT
21 Perfect,29,TTTT
13 Perfect,30,AAAA
1 Perfect,30,AAAG
3 Perfect,30,AAAT
2 Perfect,30,AACA
1 Perfect,30,AAGA
2 Perfect,30,AATA
6 Perfect,30,ACAC
1 Perfect,30,AGAC
2 Perfect,30,AGAG
3 Perfect,30,ATAT
1 Perfect,30,ATCT
2 Perfect,30,CACA
3 Perfect,30,CTCT
9 Perfect,30,GTGT
7 Perfect,30,TATA
1 Perfect,30,TATT
1 Perfect,30,TCCA
1 Perfect,30,TCCT
2 Perfect,30,TCTA
1 Perfect,30,TCTT
1 Perfect,30,TGGA
6 Perfect,30,TGTG
1 Perfect,30,TTAG
3 Perfect,30,TTAT
1 Perfect,30,TTTA
24 Perfect,30,TTTT
13 Perfect,31,AAAA
7 Perfect,31,AAAC
1 Perfect,31,AAAG
3 Perfect,31,AAAT
1 Perfect,31,AAGG
17 Perfect,31,ACAC
1 Perfect,31,AGGA
1 Perfect,31,ATAC
2 Perfect,31,ATAG
3 Perfect,31,ATAT
1 Perfect,31,ATGA
3 Perfect,31,CACA
1 Perfect,31,CATC
1 Perfect,31,GAAA
1 Perfect,31,GAAT
1 Perfect,31,GAGA
1 Perfect,31,GGAA
3 Perfect,31,GTGT
1 Perfect,31,TAGG
6 Perfect,31,TATA
5 Perfect,31,TCTC
20 Perfect,31,TGTG
1 Perfect,31,TTCC
2 Perfect,31,TTTA
1 Perfect,31,TTTC
5 Perfect,31,TTTG
20 Perfect,31,TTTT
8 Perfect,32,AAAA
1 Perfect,32,AAAC
1 Perfect,32,AAGG
7 Perfect,32,ACAC
1 Perfect,32,AGAG
2 Perfect,32,AGGA
11 Perfect,32,ATAT
2 Perfect,32,ATTT
7 Perfect,32,CACA
2 Perfect,32,CCAT
2 Perfect,32,GAGA
2 Perfect,32,GATA
17 Perfect,32,GTGT
5 Perfect,32,TATA
2 Perfect,32,TATC
2 Perfect,32,TATT
2 Perfect,32,TCTC
1 Perfect,32,TGGA
2 Perfect,32,TGTG
15 Perfect,32,TTTT
13 Perfect,33,AAAA
1 Perfect,33,AAAG
1 Perfect,33,AAAT
1 Perfect,33,AAGG
1 Perfect,33,AATA
1 Perfect,33,ACAA
20 Perfect,33,ACAC
1 Perfect,33,AGAG
1 Perfect,33,AGGA
1 Perfect,33,AGGG
1 Perfect,33,ATAT
1 Perfect,33,CAAA
5 Perfect,33,CACA
5 Perfect,33,GTGT
1 Perfect,33,GTTT
5 Perfect,33,TATA
1 Perfect,33,TCCC
2 Perfect,33,TCTC
1 Perfect,33,TCTT
12 Perfect,33,TGTG
2 Perfect,33,TGTT
6 Perfect,33,TTTT
3 Perfect,34,AAAA
2 Perfect,34,AAAT
9 Perfect,34,ACAC
1 Perfect,34,AGAA
1 Perfect,34,AGAG
4 Perfect,34,ATAT
2 Perfect,34,ATGT
4 Perfect,34,CACA
1 Perfect,34,GAAT
1 Perfect,34,GAGA
11 Perfect,34,GTGT
1 Perfect,34,TCTC
6 Perfect,34,TGTG
1 Perfect,34,TTCT
1 Perfect,34,TTTA
3 Perfect,34,TTTT
2 Perfect,35,AAAA
1 Perfect,35,AAAG
6 Perfect,35,AAAT
1 Perfect,35,AAGG
2 Perfect,35,AATA
1 Perfect,35,AATC
16 Perfect,35,ACAC
1 Perfect,35,AGAA
1 Perfect,35,AGAG
1 Perfect,35,AGAT
1 Perfect,35,AGGG
3 Perfect,35,ATAT
1 Perfect,35,ATCT
2 Perfect,35,CACA
1 Perfect,35,CATC
1 Perfect,35,GATG
1 Perfect,35,GGAA
2 Perfect,35,GTGT
1 Perfect,35,TAAA
1 Perfect,35,TATA
1 Perfect,35,TATC
1 Perfect,35,TCCT
3 Perfect,35,TCTC
1 Perfect,35,TGGA
20 Perfect,35,TGTG
1 Perfect,35,TTAT
3 Perfect,35,TTTA
1 Perfect,35,TTTC
2 Perfect,35,TTTG
4 Perfect,35,TTTT
6 Perfect,36,AAAA
1 Perfect,36,AAAT
1 Perfect,36,AAGA
2 Perfect,36,AATA
3 Perfect,36,ACAC
1 Perfect,36,ATAT
4 Perfect,36,CACA
1 Perfect,36,CCTC
1 Perfect,36,GAGA
1 Perfect,36,GGAT
13 Perfect,36,GTGT
1 Perfect,36,TAGA
2 Perfect,36,TATA
1 Perfect,36,TATC
1 Perfect,36,TATT
1 Perfect,36,TCTA
7 Perfect,36,TGTG
1 Perfect,36,TTCA
8 Perfect,36,TTTT
8 Perfect,37,AAAA
13 Perfect,37,ACAC
3 Perfect,37,AGAG
2 Perfect,37,ATAT
5 Perfect,37,CACA
1 Perfect,37,CTCT
2 Perfect,37,GATA
1 Perfect,37,GGAG
2 Perfect,37,GTGT
3 Perfect,37,TATA
1 Perfect,37,TCCA
4 Perfect,37,TCTC
12 Perfect,37,TGTG
2 Perfect,37,TTAT
1 Perfect,37,TTCT
1 Perfect,37,TTTA
5 Perfect,37,TTTT
3 Perfect,38,AAAA
2 Perfect,38,AAAT
8 Perfect,38,ACAC
1 Perfect,38,AGAG
1 Perfect,38,AGGA
2 Perfect,38,ATAT
1 Perfect,38,ATCC
1 Perfect,38,ATCT
5 Perfect,38,CACA
1 Perfect,38,CATC
1 Perfect,38,CTCT
1 Perfect,38,CTTC
1 Perfect,38,GAAT
1 Perfect,38,GGAA
11 Perfect,38,GTGT
1 Perfect,38,TAAA
3 Perfect,38,TATA
3 Perfect,38,TCTC
6 Perfect,38,TGTG
2 Perfect,38,TTAT
2 Perfect,38,TTCC
1 Perfect,38,TTTA
6 Perfect,38,TTTT
4 Perfect,39,AAAA
1 Perfect,39,AAAG
5 Perfect,39,AAAT
1 Perfect,39,AATA
15 Perfect,39,ACAC
1 Perfect,39,AGAG
2 Perfect,39,AGGG
1 Perfect,39,ATAG
3 Perfect,39,ATAT
3 Perfect,39,CACA
2 Perfect,39,CATC
1 Perfect,39,CTTC
1 Perfect,39,GAAG
1 Perfect,39,GATA
1 Perfect,39,GTGT
3 Perfect,39,TATA
1 Perfect,39,TATC
1 Perfect,39,TCTC
1 Perfect,39,TCTG
1 Perfect,39,TGGA
15 Perfect,39,TGTG
1 Perfect,39,TTAT
2 Perfect,39,TTTA
3 Perfect,39,TTTT
2 Perfect,40,AAAA
6 Perfect,40,ACAC
1 Perfect,40,AGAT
1 Perfect,40,ATTT
1 Perfect,40,CTCC
1 Perfect,40,CTTT
1 Perfect,40,GAAA
1 Perfect,40,GAGA
2 Perfect,40,GATA
1 Perfect,40,GGAT
8 Perfect,40,GTGT
2 Perfect,40,TAAA
1 Perfect,40,TAGA
2 Perfect,40,TATA
2 Perfect,40,TATC
4 Perfect,40,TGTG
1 Perfect,40,TTAT
1 Perfect,40,TTTA
4 Perfect,40,TTTT
5 Perfect,41,AAAA
1 Perfect,41,AAAG
12 Perfect,41,ACAC
1 Perfect,41,AGAG
1 Perfect,41,AGAT
1 Perfect,41,ATAT
3 Perfect,41,CACA
1 Perfect,41,GGAA
1 Perfect,41,GGTA
3 Perfect,41,GTGT
2 Perfect,41,TAGA
3 Perfect,41,TATA
1 Perfect,41,TATC
2 Perfect,41,TCTC
13 Perfect,41,TGTG
4 Perfect,41,TTAT
4 Perfect,41,TTTT
2 Perfect,42,AAAA
1 Perfect,42,AAAC
2 Perfect,42,AAAT
3 Perfect,42,ACAC
1 Perfect,42,ATAA
1 Perfect,42,ATAC
1 Perfect,42,ATAT
1 Perfect,42,ATTT
2 Perfect,42,CACA
1 Perfect,42,CTCT
1 Perfect,42,GATA
9 Perfect,42,GTGT
3 Perfect,42,TATA
1 Perfect,42,TCCT
1 Perfect,42,TCTA
1 Perfect,42,TGGA
6 Perfect,42,TGTG
2 Perfect,42,TTAT
1 Perfect,42,TTCT
1 Perfect,42,TTTA
1 Perfect,43,AAAA
1 Perfect,43,AAAG
2 Perfect,43,AAAT
1 Perfect,43,AAGA
1 Perfect,43,AATA
5 Perfect,43,ACAC
2 Perfect,43,AGAA
1 Perfect,43,AGAT
1 Perfect,43,AGGG
1 Perfect,43,ATAT
1 Perfect,43,ATCC
2 Perfect,43,ATCT
1 Perfect,43,ATGG
1 Perfect,43,ATTT
2 Perfect,43,CCAT
1 Perfect,43,CCTC
1 Perfect,43,CTTC
1 Perfect,43,CTTT
1 Perfect,43,GAAG
2 Perfect,43,GATA
5 Perfect,43,GTGT
1 Perfect,43,GTTG
1 Perfect,43,TATA
3 Perfect,43,TATC
1 Perfect,43,TATG
2 Perfect,43,TCTA
1 Perfect,43,TCTC
6 Perfect,43,TGTG
1 Perfect,43,TTGC
3 Perfect,43,TTTA
1 Perfect,43,TTTC
3 Perfect,43,TTTT
2 Perfect,44,AAAA
1 Perfect,44,AAAT
5 Perfect,44,ACAC
2 Perfect,44,AGAT
2 Perfect,44,ATAT
1 Perfect,44,ATGG
2 Perfect,44,ATTT
1 Perfect,44,CACA
1 Perfect,44,CCTC
1 Perfect,44,CTTT
1 Perfect,44,GATA
4 Perfect,44,GTGT
1 Perfect,44,TAGA
1 Perfect,44,TATA
6 Perfect,44,TATC
1 Perfect,44,TATG
1 Perfect,44,TCTA
1 Perfect,44,TGTG
1 Perfect,44,TTCT
2 Perfect,44,TTTA
1 Perfect,44,TTTC
1 Perfect,44,TTTT
1 Perfect,45,AAAA
1 Perfect,45,AAAT
12 Perfect,45,ACAC
1 Perfect,45,AGAG
1 Perfect,45,ATAG
1 Perfect,45,ATAT
1 Perfect,45,ATCT
1 Perfect,45,CTTC
1 Perfect,45,GAAG
4 Perfect,45,GTGT
1 Perfect,45,TAAA
4 Perfect,45,TATA
3 Perfect,45,TATC
1 Perfect,45,TATT
1 Perfect,45,TCTT
10 Perfect,45,TGTG
1 Perfect,45,TTCC
1 Perfect,45,TTTA
4 Perfect,46,AAAA
1 Perfect,46,AAAG
3 Perfect,46,ACAC
1 Perfect,46,AGAG
1 Perfect,46,ATAC
1 Perfect,46,ATAT
1 Perfect,46,ATCT
1 Perfect,46,CACA
5 Perfect,46,GATA
3 Perfect,46,GTGT
1 Perfect,46,TAGA
2 Perfect,46,TCTA
3 Perfect,46,TGTG
1 Perfect,46,TTAT
1 Perfect,46,TTTA
2 Perfect,47,AAAA
1 Perfect,47,AAAG
3 Perfect,47,AAAT
13 Perfect,47,ACAC
1 Perfect,47,AGAT
3 Perfect,47,ATCT
1 Perfect,47,ATGG
1 Perfect,47,CACA
1 Perfect,47,GATA
1 Perfect,47,GTGT
1 Perfect,47,TAAA
1 Perfect,47,TATA
1 Perfect,47,TATC
1 Perfect,47,TATG
1 Perfect,47,TCTC
6 Perfect,47,TGTG
2 Perfect,47,TTAT
2 Perfect,47,TTCC
5 Perfect,47,TTTA
2 Perfect,48,AAAT
4 Perfect,48,ACAC
1 Perfect,48,AGAT
1 Perfect,48,ATAC
2 Perfect,48,ATAT
1 Perfect,48,ATCT
1 Perfect,48,ATTT
2 Perfect,48,CACA
1 Perfect,48,CCTT
1 Perfect,48,CTCT
1 Perfect,48,TAGA
1 Perfect,48,TATA
3 Perfect,48,TATC
1 Perfect,48,TCTA
1 Perfect,48,TGGA
3 Perfect,48,TGTG
1 Perfect,48,TTTC
1 Perfect,48,TTTT
1 Perfect,49,AAAA
1 Perfect,49,ACAC
1 Perfect,49,AGAG
1 Perfect,49,AGGA
1 Perfect,49,ATAT
1 Perfect,49,ATCC
1 Perfect,49,ATGG
1 Perfect,49,CACA
1 Perfect,49,CTAT
2 Perfect,49,CTCC
1 Perfect,49,TATA
1 Perfect,49,TATC
1 Perfect,49,TATT
1 Perfect,49,TGCC
7 Perfect,49,TGTG
1 Perfect,49,TTTT
1 Perfect,50,AAAA
1 Perfect,50,AAAT
1 Perfect,50,AAGA
1 Perfect,50,ACAC
3 Perfect,50,ATAT
2 Perfect,50,CACA
1 Perfect,50,CTCT
2 Perfect,50,GTGT
2 Perfect,50,TAGA
2 Perfect,50,TATA
2 Perfect,50,TATC
1 Perfect,50,TGTG
3 Perfect,50,TTCC
2 Perfect,50,TTTC
1 Perfect,51,AAAT
3 Perfect,51,ACAC
3 Perfect,51,AGAA
1 Perfect,51,ATAT
2 Perfect,51,CCTT
1 Perfect,51,CTAT
1 Perfect,51,GAAA
1 Perfect,51,GAAG
1 Perfect,51,GATA
1 Perfect,51,GGAA
2 Perfect,51,GTGT
1 Perfect,51,TATA
4 Perfect,51,TATC
1 Perfect,51,TGTG
1 Perfect,51,TTCC
1 Perfect,51,TTTA
2 Perfect,51,TTTC
1 Perfect,52,ACAC
4 Perfect,52,ATAT
1 Perfect,52,CACA
1 Perfect,52,CTAT
1 Perfect,52,GAAA
1 Perfect,52,GATA
2 Perfect,52,TATA
1 Perfect,52,TATC
2 Perfect,52,TGTG
1 Perfect,52,TTCT
1 Perfect,52,TTTT
1 Perfect,53,AAAG
1 Perfect,53,AAGA
1 Perfect,53,ACAC
1 Perfect,53,ACAT
1 Perfect,53,AGAA
1 Perfect,53,AGAG
1 Perfect,53,ATAT
1 Perfect,53,GTGT
2 Perfect,53,TATC
1 Perfect,53,TATT
1 Perfect,53,TCCT
2 Perfect,53,TGTG
1 Perfect,53,TTTC
1 Perfect,53,TTTT
1 Perfect,54,AAGA
1 Perfect,54,AAGG
1 Perfect,54,ATTT
2 Perfect,54,CCTT
1 Perfect,54,CTTT
1 Perfect,54,GAAG
1 Perfect,54,GTGT
1 Perfect,54,TAAA
1 Perfect,54,TTCC
1 Perfect,55,AAAG
1 Perfect,55,ACAC
2 Perfect,55,AGAA
1 Perfect,55,AGAG
1 Perfect,55,ATAT
1 Perfect,55,CACA
1 Perfect,55,CCAT
2 Perfect,55,CCTT
1 Perfect,55,GAAG
1 Perfect,55,GATA
1 Perfect,55,TATA
1 Perfect,55,TATC
1 Perfect,55,TGGA
1 Perfect,55,TGTG
2 Perfect,55,TTTC
1 Perfect,55,TTTT
1 Perfect,56,AAAT
1 Perfect,56,AAGA
2 Perfect,56,ACAC
1 Perfect,56,AGAA
1 Perfect,56,ATAT
1 Perfect,56,GAAA
1 Perfect,56,GAAG
1 Perfect,56,GTGT
1 Perfect,56,TGTG
2 Perfect,56,TTCC
1 Perfect,57,AGAA
1 Perfect,57,ATAT
1 Perfect,57,TCTT
2 Perfect,57,TGTG
1 Perfect,57,TTCC
1 Perfect,58,AAGA
1 Perfect,58,AAGG
1 Perfect,58,ATAT
1 Perfect,58,CTAT
1 Perfect,58,CTTT
1 Perfect,58,GAAA
1 Perfect,58,TCCT
1 Perfect,59,AAAG
1 Perfect,59,ATAT
1 Perfect,59,GAAG
1 Perfect,59,TATA
1 Perfect,59,TGTG
1 Perfect,60,AAGG
1 Perfect,60,ACAC
1 Perfect,60,AGAT
1 Perfect,60,GAAA
1 Perfect,60,GGAA
1 Perfect,60,GTGT
1 Perfect,60,TATA
1 Perfect,61,AAAG
1 Perfect,61,AGAA
1 Perfect,61,CTCT
1 Perfect,61,GAGA
1 Perfect,61,TATA
1 Perfect,61,TCTT
1 Perfect,61,TTCC
1 Perfect,62,AAAG
1 Perfect,62,AAGA
1 Perfect,62,ACAC
1 Perfect,62,AGAA
1 Perfect,62,GAAA
1 Perfect,62,GAGA
1 Perfect,62,TCTT
1 Perfect,62,TTTC
1 Perfect,63,AAAG
1 Perfect,63,GAAA
1 Perfect,64,TCTT
2 Perfect,65,AGAA
1 Perfect,65,CTTT
1 Perfect,65,GAAG
1 Perfect,65,GTGT
1 Perfect,66,AGAA
2 Perfect,66,GAAA
1 Perfect,68,AAAG
1 Perfect,69,TATA
1 Perfect,69,TTTC
1 Perfect,70,AAAG
2 Perfect,70,CTTT
1 Perfect,70,TTTC
1 Perfect,71,TTCC
1 Perfect,74,AAAG
1 Perfect,74,AAGA
1 Perfect,74,TTTC
2 Perfect,76,GAAA
1 Perfect,77,AAGG
1 Perfect,77,GAAA
1 Perfect,78,GAAA
1 Perfect,79,TTTC
1 Perfect,80,TATA
1 Perfect,89,GAGA
3377 Perfect,8,AAAA
737 Perfect,8,AAAC
1738 Perfect,8,AAAG
2625 Perfect,8,AAAT
742 Perfect,8,AACA
413 Perfect,8,AACC
10 Perfect,8,AACG
331 Perfect,8,AACT
929 Perfect,8,AAGA
276 Perfect,8,AAGC
657 Perfect,8,AAGG
433 Perfect,8,AAGT
1412 Perfect,8,AATA
293 Perfect,8,AATC
760 Perfect,8,AATG
1315 Perfect,8,AATT
523 Perfect,8,ACAA
640 Perfect,8,ACAC
453 Perfect,8,ACAG
631 Perfect,8,ACAT
223 Perfect,8,ACCA
278 Perfect,8,ACCC
11 Perfect,8,ACCG
243 Perfect,8,ACCT
4 Perfect,8,ACGA
17 Perfect,8,ACGC
23 Perfect,8,ACGG
18 Perfect,8,ACGT
169 Perfect,8,ACTA
239 Perfect,8,ACTC
246 Perfect,8,ACTG
406 Perfect,8,ACTT
1177 Perfect,8,AGAA
262 Perfect,8,AGAC
744 Perfect,8,AGAG
351 Perfect,8,AGAT
347 Perfect,8,AGCA
286 Perfect,8,AGCC
21 Perfect,8,AGCG
184 Perfect,8,AGCT
702 Perfect,8,AGGA
511 Perfect,8,AGGC
649 Perfect,8,AGGG
254 Perfect,8,AGGT
266 Perfect,8,AGTA
181 Perfect,8,AGTC
360 Perfect,8,AGTG
326 Perfect,8,AGTT
1009 Perfect,8,ATAA
308 Perfect,8,ATAC
262 Perfect,8,ATAG
2002 Perfect,8,ATAT
293 Perfect,8,ATCA
210 Perfect,8,ATCC
4 Perfect,8,ATCG
362 Perfect,8,ATCT
494 Perfect,8,ATGA
255 Perfect,8,ATGC
314 Perfect,8,ATGG
633 Perfect,8,ATGT
716 Perfect,8,ATTA
549 Perfect,8,ATTC
384 Perfect,8,ATTG
2709 Perfect,8,ATTT
1056 Perfect,8,CAAA
224 Perfect,8,CAAC
384 Perfect,8,CAAG
383 Perfect,8,CAAT
1123 Perfect,8,CACA
466 Perfect,8,CACC
27 Perfect,8,CACG
398 Perfect,8,CACT
583 Perfect,8,CAGA
411 Perfect,8,CAGC
813 Perfect,8,CAGG
294 Perfect,8,CAGT
435 Perfect,8,CATA
322 Perfect,8,CATC
470 Perfect,8,CATG
749 Perfect,8,CATT
282 Perfect,8,CCAA
382 Perfect,8,CCAC
683 Perfect,8,CCAG
316 Perfect,8,CCAT
786 Perfect,8,CCCA
123 Perfect,8,CCCC
84 Perfect,8,CCCG
626 Perfect,8,CCCT
4 Perfect,8,CCGA
58 Perfect,8,CCGC
77 Perfect,8,CCGG
27 Perfect,8,CCGT
167 Perfect,8,CCTA
595 Perfect,8,CCTC
790 Perfect,8,CCTG
679 Perfect,8,CCTT
8 Perfect,8,CGAA
6 Perfect,8,CGAC
7 Perfect,8,CGAG
8 Perfect,8,CGAT
19 Perfect,8,CGCA
342 Perfect,8,CGCC
23 Perfect,8,CGCG
25 Perfect,8,CGCT
25 Perfect,8,CGGA
34 Perfect,8,CGGC
68 Perfect,8,CGGG
16 Perfect,8,CGGT
8 Perfect,8,CGTA
10 Perfect,8,CGTC
43 Perfect,8,CGTG
13 Perfect,8,CGTT
234 Perfect,8,CTAA
150 Perfect,8,CTAC
203 Perfect,8,CTAG
279 Perfect,8,CTAT
662 Perfect,8,CTCA
547 Perfect,8,CTCC
17 Perfect,8,CTCG
730 Perfect,8,CTCT
366 Perfect,8,CTGA
440 Perfect,8,CTGC
669 Perfect,8,CTGG
444 Perfect,8,CTGT
325 Perfect,8,CTTA
760 Perfect,8,CTTC
356 Perfect,8,CTTG
1549 Perfect,8,CTTT
1441 Perfect,8,GAAA
73 Perfect,8,GAAC
781 Perfect,8,GAAG
506 Perfect,8,GAAT
322 Perfect,8,GACA
24 Perfect,8,GACC
10 Perfect,8,GACG
206 Perfect,8,GACT
758 Perfect,8,GAGA
74 Perfect,8,GAGC
579 Perfect,8,GAGG
230 Perfect,8,GAGT
290 Perfect,8,GATA
17 Perfect,8,GATC
309 Perfect,8,GATG
267 Perfect,8,GATT
201 Perfect,8,GCAA
207 Perfect,8,GCAC
499 Perfect,8,GCAG
283 Perfect,8,GCAT
292 Perfect,8,GCCA
142 Perfect,8,GCCC
60 Perfect,8,GCCG
512 Perfect,8,GCCT
6 Perfect,8,GCGA
78 Perfect,8,GCGC
55 Perfect,8,GCGG
9 Perfect,8,GCGT
90 Perfect,8,GCTA
78 Perfect,8,GCTC
433 Perfect,8,GCTG
289 Perfect,8,GCTT
614 Perfect,8,GGAA
53 Perfect,8,GGAC
548 Perfect,8,GGAG
235 Perfect,8,GGAT
451 Perfect,8,GGCA
162 Perfect,8,GGCC
319 Perfect,8,GGCG
278 Perfect,8,GGCT
740 Perfect,8,GGGA
147 Perfect,8,GGGC
82 Perfect,8,GGGG
270 Perfect,8,GGGT
130 Perfect,8,GGTA
35 Perfect,8,GGTC
476 Perfect,8,GGTG
358 Perfect,8,GGTT
316 Perfect,8,GTAA
41 Perfect,8,GTAC
166 Perfect,8,GTAG
312 Perfect,8,GTAT
203 Perfect,8,GTCA
81 Perfect,8,GTCC
5 Perfect,8,GTCG
300 Perfect,8,GTCT
322 Perfect,8,GTGA
212 Perfect,8,GTGC
374 Perfect,8,GTGG
578 Perfect,8,GTGT
263 Perfect,8,GTTA
67 Perfect,8,GTTC
243 Perfect,8,GTTG
747 Perfect,8,GTTT
1744 Perfect,8,TAAA
262 Perfect,8,TAAC
294 Perfect,8,TAAG
743 Perfect,8,TAAT
406 Perfect,8,TACA
138 Perfect,8,TACC
2 Perfect,8,TACG
319 Perfect,8,TACT
290 Perfect,8,TAGA
81 Perfect,8,TAGC
165 Perfect,8,TAGG
165 Perfect,8,TAGT
1551 Perfect,8,TATA
272 Perfect,8,TATC
425 Perfect,8,TATG
1478 Perfect,8,TATT
752 Perfect,8,TCAA
270 Perfect,8,TCAC
340 Perfect,8,TCAG
533 Perfect,8,TCAT
453 Perfect,8,TCCA
748 Perfect,8,TCCC
19 Perfect,8,TCCG
723 Perfect,8,TCCT
3 Perfect,8,TCGA
12 Perfect,8,TCGC
10 Perfect,8,TCGG
8 Perfect,8,TCGT
324 Perfect,8,TCTA
742 Perfect,8,TCTC
633 Perfect,8,TCTG
895 Perfect,8,TCTT
706 Perfect,8,TGAA
182 Perfect,8,TGAC
668 Perfect,8,TGAG
311 Perfect,8,TGAT
405 Perfect,8,TGCA
444 Perfect,8,TGCC
22 Perfect,8,TGCG
380 Perfect,8,TGCT
420 Perfect,8,TGGA
316 Perfect,8,TGGC
750 Perfect,8,TGGG
222 Perfect,8,TGGT
402 Perfect,8,TGTA
317 Perfect,8,TGTC
1066 Perfect,8,TGTG
712 Perfect,8,TGTT
959 Perfect,8,TTAA
288 Perfect,8,TTAC
236 Perfect,8,TTAG
1048 Perfect,8,TTAT
755 Perfect,8,TTCA
729 Perfect,8,TTCC
6 Perfect,8,TTCG
1132 Perfect,8,TTCT
637 Perfect,8,TTGA
217 Perfect,8,TTGC
291 Perfect,8,TTGG
538 Perfect,8,TTGT
1523 Perfect,8,TTTA
1537 Perfect,8,TTTC
1016 Perfect,8,TTTG
3393 Perfect,8,TTTT
1 Perfect,95,ATAT
1 Perfect,98,ACAC
1 Perfect,99,TCTT
1925 Perfect,9,AAAA
387 Perfect,9,AAAC
570 Perfect,9,AAAG
844 Perfect,9,AAAT
148 Perfect,9,AACA
78 Perfect,9,AACC
1 Perfect,9,AACG
65 Perfect,9,AACT
421 Perfect,9,AAGA
165 Perfect,9,AAGC
205 Perfect,9,AAGG
98 Perfect,9,AAGT
465 Perfect,9,AATA
128 Perfect,9,AATC
273 Perfect,9,AATG
275 Perfect,9,AATT
430 Perfect,9,ACAA
693 Perfect,9,ACAC
192 Perfect,9,ACAG
281 Perfect,9,ACAT
97 Perfect,9,ACCA
83 Perfect,9,ACCC
44 Perfect,9,ACCT
4 Perfect,9,ACGA
10 Perfect,9,ACGC
2 Perfect,9,ACGG
4 Perfect,9,ACGT
49 Perfect,9,ACTA
126 Perfect,9,ACTC
113 Perfect,9,ACTG
79 Perfect,9,ACTT
808 Perfect,9,AGAA
207 Perfect,9,AGAC
632 Perfect,9,AGAG
132 Perfect,9,AGAT
103 Perfect,9,AGCA
95 Perfect,9,AGCC
3 Perfect,9,AGCG
43 Perfect,9,AGCT
295 Perfect,9,AGGA
152 Perfect,9,AGGC
181 Perfect,9,AGGG
61 Perfect,9,AGGT
141 Perfect,9,AGTA
86 Perfect,9,AGTC
113 Perfect,9,AGTG
130 Perfect,9,AGTT
584 Perfect,9,ATAA
274 Perfect,9,ATAC
121 Perfect,9,ATAG
698 Perfect,9,ATAT
105 Perfect,9,ATCA
124 Perfect,9,ATCC
2 Perfect,9,ATCG
68 Perfect,9,ATCT
286 Perfect,9,ATGA
140 Perfect,9,ATGC
187 Perfect,9,ATGG
157 Perfect,9,ATGT
190 Perfect,9,ATTA
206 Perfect,9,ATTC
151 Perfect,9,ATTG
546 Perfect,9,ATTT
79 Perfect,9,CAAA
43 Perfect,9,CAAC
44 Perfect,9,CAAG
33 Perfect,9,CAAT
431 Perfect,9,CACA
129 Perfect,9,CACC
12 Perfect,9,CACG
104 Perfect,9,CACT
78 Perfect,9,CAGA
93 Perfect,9,CAGC
109 Perfect,9,CAGG
46 Perfect,9,CAGT
54 Perfect,9,CATA
68 Perfect,9,CATC
81 Perfect,9,CATG
140 Perfect,9,CATT
59 Perfect,9,CCAA
496 Perfect,9,CCAC
119 Perfect,9,CCAG
92 Perfect,9,CCAT
194 Perfect,9,CCCA
42 Perfect,9,CCCC
19 Perfect,9,CCCG
155 Perfect,9,CCCT
2 Perfect,9,CCGA
297 Perfect,9,CCGC
13 Perfect,9,CCGG
5 Perfect,9,CCGT
25 Perfect,9,CCTA
272 Perfect,9,CCTC
149 Perfect,9,CCTG
145 Perfect,9,CCTT
1 Perfect,9,CGAC
5 Perfect,9,CGAG
1 Perfect,9,CGAT
8 Perfect,9,CGCA
21 Perfect,9,CGCC
12 Perfect,9,CGCG
13 Perfect,9,CGCT
3 Perfect,9,CGGA
17 Perfect,9,CGGC
13 Perfect,9,CGGG
3 Perfect,9,CGGT
1 Perfect,9,CGTA
14 Perfect,9,CGTC
7 Perfect,9,CGTG
2 Perfect,9,CGTT
24 Perfect,9,CTAA
48 Perfect,9,CTAC
24 Perfect,9,CTAG
40 Perfect,9,CTAT
121 Perfect,9,CTCA
236 Perfect,9,CTCC
7 Perfect,9,CTCG
221 Perfect,9,CTCT
42 Perfect,9,CTGA
170 Perfect,9,CTGC
107 Perfect,9,CTGG
94 Perfect,9,CTGT
32 Perfect,9,CTTA
188 Perfect,9,CTTC
58 Perfect,9,CTTG
232 Perfect,9,CTTT
230 Perfect,9,GAAA
3 Perfect,9,GAAC
178 Perfect,9,GAAG
116 Perfect,9,GAAT
72 Perfect,9,GACA
5 Perfect,9,GACC
2 Perfect,9,GACG
49 Perfect,9,GACT
213 Perfect,9,GAGA
16 Perfect,9,GAGC
158 Perfect,9,GAGG
108 Perfect,9,GAGT
23 Perfect,9,GATA
7 Perfect,9,GATC
69 Perfect,9,GATG
38 Perfect,9,GATT
58 Perfect,9,GCAA
7 Perfect,9,GCAC
180 Perfect,9,GCAG
81 Perfect,9,GCAT
93 Perfect,9,GCCA
18 Perfect,9,GCCC
12 Perfect,9,GCCG
148 Perfect,9,GCCT
3 Perfect,9,GCGA
13 Perfect,9,GCGC
17 Perfect,9,GCGG
5 Perfect,9,GCGT
26 Perfect,9,GCTA
2 Perfect,9,GCTC
124 Perfect,9,GCTG
49 Perfect,9,GCTT
210 Perfect,9,GGAA
5 Perfect,9,GGAC
253 Perfect,9,GGAG
66 Perfect,9,GGAT
169 Perfect,9,GGCA
15 Perfect,9,GGCC
268 Perfect,9,GGCG
111 Perfect,9,GGCT
234 Perfect,9,GGGA
21 Perfect,9,GGGC
50 Perfect,9,GGGG
136 Perfect,9,GGGT
33 Perfect,9,GGTA
3 Perfect,9,GGTC
490 Perfect,9,GGTG
36 Perfect,9,GGTT
53 Perfect,9,GTAA
45 Perfect,9,GTAG
39 Perfect,9,GTAT
54 Perfect,9,GTCA
3 Perfect,9,GTCC
2 Perfect,9,GTCG
94 Perfect,9,GTCT
190 Perfect,9,GTGA
13 Perfect,9,GTGC
176 Perfect,9,GTGG
351 Perfect,9,GTGT
29 Perfect,9,GTTA
54 Perfect,9,GTTG
97 Perfect,9,GTTT
526 Perfect,9,TAAA
117 Perfect,9,TAAC
91 Perfect,9,TAAG
286 Perfect,9,TAAT
127 Perfect,9,TACA
58 Perfect,9,TACC
3 Perfect,9,TACG
82 Perfect,9,TACT
79 Perfect,9,TAGA
43 Perfect,9,TAGC
46 Perfect,9,TAGG
38 Perfect,9,TAGT
752 Perfect,9,TATA
139 Perfect,9,TATC
268 Perfect,9,TATG
841 Perfect,9,TATT
163 Perfect,9,TCAA
114 Perfect,9,TCAC
117 Perfect,9,TCAG
254 Perfect,9,TCAT
209 Perfect,9,TCCA
189 Perfect,9,TCCC
2 Perfect,9,TCCG
227 Perfect,9,TCCT
2 Perfect,9,TCGA
3 Perfect,9,TCGC
2 Perfect,9,TCGG
3 Perfect,9,TCGT
105 Perfect,9,TCTA
577 Perfect,9,TCTC
192 Perfect,9,TCTG
545 Perfect,9,TCTT
226 Perfect,9,TGAA
89 Perfect,9,TGAC
138 Perfect,9,TGAG
139 Perfect,9,TGAT
118 Perfect,9,TGCA
152 Perfect,9,TGCC
7 Perfect,9,TGCG
186 Perfect,9,TGCT
101 Perfect,9,TGGA
108 Perfect,9,TGGC
94 Perfect,9,TGGG
80 Perfect,9,TGGT
274 Perfect,9,TGTA
200 Perfect,9,TGTC
640 Perfect,9,TGTG
402 Perfect,9,TGTT
217 Perfect,9,TTAA
116 Perfect,9,TTAC
44 Perfect,9,TTAG
411 Perfect,9,TTAT
231 Perfect,9,TTCA
300 Perfect,9,TTCC
2 Perfect,9,TTCG
393 Perfect,9,TTCT
104 Perfect,9,TTGA
69 Perfect,9,TTGC
96 Perfect,9,TTGG
172 Perfect,9,TTGT
526 Perfect,9,TTTA
792 Perfect,9,TTTC
349 Perfect,9,TTTG
1907 Perfect,9,TTTT
