541536 Imperfect,3,AA
535570 Imperfect,3,AC
499786 Imperfect,3,AG
347988 Imperfect,3,AT
533970 Imperfect,3,CA
603085 Imperfect,3,CC
183539 Imperfect,3,CG
568840 Imperfect,3,CT
572742 Imperfect,3,GA
183275 Imperfect,3,GC
602495 Imperfect,3,GG
534170 Imperfect,3,GT
349294 Imperfect,3,TA
498592 Imperfect,3,TC
542227 Imperfect,3,TG
542090 Imperfect,3,TT
2313 Perfect,10,AA
231 Perfect,10,AC
319 Perfect,10,AG
362 Perfect,10,AT
392 Perfect,10,CA
75 Perfect,10,CC
13 Perfect,10,CG
322 Perfect,10,CT
246 Perfect,10,GA
21 Perfect,10,GC
74 Perfect,10,GG
241 Perfect,10,GT
342 Perfect,10,TA
305 Perfect,10,TC
419 Perfect,10,TG
2449 Perfect,10,TT
1 Perfect,116,GT
1607 Perfect,11,AA
386 Perfect,11,AC
262 Perfect,11,AG
245 Perfect,11,AT
173 Perfect,11,CA
47 Perfect,11,CC
15 Perfect,11,CG
104 Perfect,11,CT
108 Perfect,11,GA
16 Perfect,11,GC
55 Perfect,11,GG
162 Perfect,11,GT
240 Perfect,11,TA
287 Perfect,11,TC
343 Perfect,11,TG
1691 Perfect,11,TT
1434 Perfect,12,AA
99 Perfect,12,AC
93 Perfect,12,AG
147 Perfect,12,AT
117 Perfect,12,CA
28 Perfect,12,CC
2 Perfect,12,CG
73 Perfect,12,CT
122 Perfect,12,GA
9 Perfect,12,GC
30 Perfect,12,GG
86 Perfect,12,GT
143 Perfect,12,TA
120 Perfect,12,TC
153 Perfect,12,TG
1488 Perfect,12,TT
1400 Perfect,13,AA
170 Perfect,13,AC
173 Perfect,13,AG
107 Perfect,13,AT
71 Perfect,13,CA
12 Perfect,13,CC
1 Perfect,13,CG
25 Perfect,13,CT
47 Perfect,13,GA
7 Perfect,13,GC
23 Perfect,13,GG
59 Perfect,13,GT
121 Perfect,13,TA
147 Perfect,13,TC
159 Perfect,13,TG
1415 Perfect,13,TT
1331 Perfect,14,AA
48 Perfect,14,AC
38 Perfect,14,AG
77 Perfect,14,AT
70 Perfect,14,CA
6 Perfect,14,CC
1 Perfect,14,CG
35 Perfect,14,CT
53 Perfect,14,GA
2 Perfect,14,GC
15 Perfect,14,GG
43 Perfect,14,GT
68 Perfect,14,TA
45 Perfect,14,TC
73 Perfect,14,TG
1342 Perfect,14,TT
1273 Perfect,15,AA
83 Perfect,15,AC
104 Perfect,15,AG
67 Perfect,15,AT
19 Perfect,15,CA
8 Perfect,15,CC
26 Perfect,15,CT
27 Perfect,15,GA
3 Perfect,15,GC
5 Perfect,15,GG
25 Perfect,15,GT
68 Perfect,15,TA
96 Perfect,15,TC
61 Perfect,15,TG
1349 Perfect,15,TT
1080 Perfect,16,AA
34 Perfect,16,AC
23 Perfect,16,AG
42 Perfect,16,AT
13 Perfect,16,CA
3 Perfect,16,CC
21 Perfect,16,CT
32 Perfect,16,GA
2 Perfect,16,GC
5 Perfect,16,GG
33 Perfect,16,GT
30 Perfect,16,TA
28 Perfect,16,TC
28 Perfect,16,TG
1071 Perfect,16,TT
917 Perfect,17,AA
44 Perfect,17,AC
46 Perfect,17,AG
36 Perfect,17,AT
14 Perfect,17,CA
1 Perfect,17,CC
1 Perfect,17,CG
12 Perfect,17,CT
14 Perfect,17,GA
9 Perfect,17,GG
20 Perfect,17,GT
40 Perfect,17,TA
58 Perfect,17,TC
43 Perfect,17,TG
950 Perfect,17,TT
719 Perfect,18,AA
19 Perfect,18,AC
13 Perfect,18,AG
34 Perfect,18,AT
18 Perfect,18,CA
5 Perfect,18,CC
9 Perfect,18,CT
21 Perfect,18,GA
3 Perfect,18,GC
20 Perfect,18,GT
20 Perfect,18,TA
12 Perfect,18,TC
22 Perfect,18,TG
695 Perfect,18,TT
667 Perfect,19,AA
40 Perfect,19,AC
31 Perfect,19,AG
20 Perfect,19,AT
13 Perfect,19,CA
1 Perfect,19,CC
3 Perfect,19,CT
9 Perfect,19,GA
2 Perfect,19,GG
8 Perfect,19,GT
16 Perfect,19,TA
36 Perfect,19,TC
42 Perfect,19,TG
640 Perfect,19,TT
526 Perfect,20,AA
11 Perfect,20,AC
10 Perfect,20,AG
29 Perfect,20,AT
12 Perfect,20,CA
1 Perfect,20,CC
13 Perfect,20,CT
13 Perfect,20,GA
1 Perfect,20,GC
14 Perfect,20,GT
12 Perfect,20,TA
9 Perfect,20,TC
11 Perfect,20,TG
563 Perfect,20,TT
503 Perfect,21,AA
36 Perfect,21,AC
12 Perfect,21,AG
14 Perfect,21,AT
11 Perfect,21,CA
6 Perfect,21,CT
9 Perfect,21,GA
8 Perfect,21,GT
18 Perfect,21,TA
25 Perfect,21,TC
25 Perfect,21,TG
533 Perfect,21,TT
428 Perfect,22,AA
10 Perfect,22,AC
1 Perfect,22,AG
23 Perfect,22,AT
11 Perfect,22,CA
1 Perfect,22,CC
2 Perfect,22,CT
7 Perfect,22,GA
13 Perfect,22,GT
5 Perfect,22,TA
9 Perfect,22,TC
8 Perfect,22,TG
463 Perfect,22,TT
379 Perfect,23,AA
32 Perfect,23,AC
11 Perfect,23,AG
11 Perfect,23,AT
10 Perfect,23,CA
2 Perfect,23,CT
1 Perfect,23,GA
7 Perfect,23,GT
13 Perfect,23,TA
19 Perfect,23,TC
20 Perfect,23,TG
389 Perfect,23,TT
312 Perfect,24,AA
8 Perfect,24,AC
6 Perfect,24,AG
10 Perfect,24,AT
5 Perfect,24,CA
4 Perfect,24,CT
8 Perfect,24,GA
19 Perfect,24,GT
11 Perfect,24,TA
6 Perfect,24,TC
10 Perfect,24,TG
320 Perfect,24,TT
267 Perfect,25,AA
17 Perfect,25,AC
8 Perfect,25,AG
11 Perfect,25,AT
5 Perfect,25,CA
2 Perfect,25,GA
8 Perfect,25,GT
6 Perfect,25,TA
4 Perfect,25,TC
22 Perfect,25,TG
251 Perfect,25,TT
171 Perfect,26,AA
11 Perfect,26,AC
4 Perfect,26,AG
14 Perfect,26,AT
2 Perfect,26,CA
2 Perfect,26,CT
4 Perfect,26,GA
10 Perfect,26,GT
7 Perfect,26,TA
2 Perfect,26,TC
5 Perfect,26,TG
172 Perfect,26,TT
131 Perfect,27,AA
23 Perfect,27,AC
5 Perfect,27,AG
10 Perfect,27,AT
8 Perfect,27,CA
2 Perfect,27,GA
2 Perfect,27,GT
9 Perfect,27,TA
7 Perfect,27,TC
16 Perfect,27,TG
152 Perfect,27,TT
105 Perfect,28,AA
6 Perfect,28,AC
4 Perfect,28,AG
9 Perfect,28,AT
7 Perfect,28,CA
2 Perfect,28,CT
1 Perfect,28,GA
1 Perfect,28,GC
7 Perfect,28,GT
2 Perfect,28,TA
9 Perfect,28,TG
112 Perfect,28,TT
71 Perfect,29,AA
21 Perfect,29,AC
6 Perfect,29,AG
5 Perfect,29,AT
5 Perfect,29,CA
3 Perfect,29,CT
1 Perfect,29,GA
1 Perfect,29,GG
8 Perfect,29,GT
7 Perfect,29,TA
3 Perfect,29,TC
12 Perfect,29,TG
80 Perfect,29,TT
48 Perfect,30,AA
12 Perfect,30,AC
1 Perfect,30,AG
5 Perfect,30,AT
5 Perfect,30,CA
2 Perfect,30,GA
18 Perfect,30,GT
3 Perfect,30,TA
2 Perfect,30,TC
7 Perfect,30,TG
68 Perfect,30,TT
49 Perfect,31,AA
21 Perfect,31,AC
3 Perfect,31,AG
4 Perfect,31,AT
2 Perfect,31,CA
2 Perfect,31,GA
7 Perfect,31,GT
7 Perfect,31,TA
1 Perfect,31,TC
19 Perfect,31,TG
48 Perfect,31,TT
17 Perfect,32,AA
12 Perfect,32,AC
4 Perfect,32,AT
8 Perfect,32,CA
3 Perfect,32,CT
1 Perfect,32,GA
22 Perfect,32,GT
1 Perfect,32,TA
1 Perfect,32,TC
6 Perfect,32,TG
31 Perfect,32,TT
23 Perfect,33,AA
18 Perfect,33,AC
1 Perfect,33,AG
5 Perfect,33,AT
6 Perfect,33,CA
2 Perfect,33,GA
4 Perfect,33,GT
2 Perfect,33,TA
5 Perfect,33,TC
15 Perfect,33,TG
25 Perfect,33,TT
21 Perfect,34,AA
7 Perfect,34,AC
2 Perfect,34,AG
2 Perfect,34,AT
5 Perfect,34,CA
3 Perfect,34,CT
2 Perfect,34,GA
12 Perfect,34,GT
1 Perfect,34,TA
1 Perfect,34,TC
12 Perfect,34,TG
18 Perfect,34,TT
11 Perfect,35,AA
14 Perfect,35,AC
1 Perfect,35,AG
7 Perfect,35,AT
6 Perfect,35,CA
8 Perfect,35,GT
2 Perfect,35,TA
3 Perfect,35,TC
16 Perfect,35,TG
14 Perfect,35,TT
12 Perfect,36,AA
13 Perfect,36,AC
4 Perfect,36,AT
5 Perfect,36,CA
1 Perfect,36,CT
1 Perfect,36,GA
15 Perfect,36,GT
2 Perfect,36,TA
2 Perfect,36,TC
6 Perfect,36,TG
10 Perfect,36,TT
13 Perfect,37,AA
12 Perfect,37,AC
2 Perfect,37,AG
3 Perfect,37,AT
5 Perfect,37,CA
1 Perfect,37,CT
9 Perfect,37,GT
1 Perfect,37,TA
5 Perfect,37,TC
14 Perfect,37,TG
13 Perfect,37,TT
17 Perfect,38,AA
13 Perfect,38,AC
2 Perfect,38,AG
7 Perfect,38,AT
4 Perfect,38,CA
3 Perfect,38,GA
12 Perfect,38,GT
3 Perfect,38,TA
2 Perfect,38,TC
2 Perfect,38,TG
4 Perfect,38,TT
10 Perfect,39,AA
12 Perfect,39,AC
4 Perfect,39,AG
5 Perfect,39,AT
3 Perfect,39,CA
6 Perfect,39,GT
1 Perfect,39,TA
1 Perfect,39,TC
14 Perfect,39,TG
12 Perfect,39,TT
10 Perfect,40,AA
13 Perfect,40,AC
2 Perfect,40,AT
3 Perfect,40,CA
2 Perfect,40,CT
1 Perfect,40,GA
11 Perfect,40,GT
3 Perfect,40,TA
3 Perfect,40,TG
3 Perfect,40,TT
4 Perfect,41,AA
7 Perfect,41,AC
1 Perfect,41,AG
6 Perfect,41,AT
6 Perfect,41,CA
2 Perfect,41,CT
4 Perfect,41,GT
4 Perfect,41,TA
1 Perfect,41,TC
18 Perfect,41,TG
6 Perfect,41,TT
6 Perfect,42,AA
10 Perfect,42,AC
1 Perfect,42,AG
6 Perfect,42,AT
8 Perfect,42,CA
1 Perfect,42,CT
3 Perfect,42,GA
13 Perfect,42,GT
4 Perfect,42,TA
4 Perfect,42,TG
1 Perfect,42,TT
9 Perfect,43,AC
3 Perfect,43,AG
5 Perfect,43,AT
4 Perfect,43,CA
1 Perfect,43,GA
4 Perfect,43,GT
3 Perfect,43,TA
1 Perfect,43,TC
11 Perfect,43,TG
7 Perfect,43,TT
4 Perfect,44,AA
8 Perfect,44,AC
1 Perfect,44,AG
3 Perfect,44,AT
4 Perfect,44,CA
1 Perfect,44,CT
1 Perfect,44,GA
9 Perfect,44,GT
4 Perfect,44,TA
4 Perfect,44,TC
6 Perfect,44,TG
1 Perfect,44,TT
5 Perfect,45,AA
5 Perfect,45,AC
4 Perfect,45,AT
4 Perfect,45,CA
1 Perfect,45,CT
2 Perfect,45,GT
1 Perfect,45,TA
1 Perfect,45,TC
10 Perfect,45,TG
4 Perfect,45,TT
1 Perfect,46,AA
6 Perfect,46,AC
1 Perfect,46,AG
3 Perfect,46,AT
8 Perfect,46,CA
1 Perfect,46,GA
3 Perfect,46,GT
1 Perfect,46,TC
3 Perfect,46,TG
3 Perfect,47,AA
6 Perfect,47,AC
4 Perfect,47,CA
1 Perfect,47,CT
2 Perfect,47,GT
4 Perfect,47,TA
5 Perfect,47,TG
2 Perfect,48,AA
4 Perfect,48,AC
2 Perfect,48,AT
1 Perfect,48,CA
5 Perfect,48,GT
3 Perfect,48,TA
2 Perfect,48,TG
1 Perfect,48,TT
2 Perfect,49,AA
9 Perfect,49,AC
1 Perfect,49,AG
4 Perfect,49,AT
1 Perfect,49,CA
1 Perfect,49,GA
1 Perfect,49,GT
1 Perfect,49,TA
1 Perfect,49,TC
6 Perfect,49,TG
187679 Perfect,4,AA
74026 Perfect,4,AC
158464 Perfect,4,AG
100446 Perfect,4,AT
155151 Perfect,4,CA
163067 Perfect,4,CC
13783 Perfect,4,CG
158655 Perfect,4,CT
183751 Perfect,4,GA
51026 Perfect,4,GC
165290 Perfect,4,GG
73726 Perfect,4,GT
71596 Perfect,4,TA
183797 Perfect,4,TC
156127 Perfect,4,TG
189157 Perfect,4,TT
3 Perfect,50,AC
3 Perfect,50,AT
5 Perfect,50,GT
1 Perfect,50,TA
1 Perfect,50,TC
1 Perfect,50,TT
1 Perfect,51,AA
2 Perfect,51,AC
1 Perfect,51,AG
5 Perfect,51,AT
1 Perfect,51,GA
3 Perfect,51,GT
2 Perfect,51,TA
3 Perfect,51,TG
1 Perfect,52,AA
3 Perfect,52,AC
1 Perfect,52,CA
3 Perfect,52,GT
4 Perfect,52,TA
1 Perfect,52,TC
2 Perfect,52,TG
1 Perfect,52,TT
1 Perfect,53,AA
5 Perfect,53,AC
2 Perfect,53,AT
1 Perfect,53,GT
1 Perfect,53,TA
2 Perfect,53,TC
2 Perfect,53,TG
1 Perfect,54,AC
1 Perfect,54,AG
2 Perfect,54,AT
1 Perfect,54,CA
1 Perfect,54,GA
1 Perfect,54,TA
1 Perfect,54,TC
1 Perfect,54,TG
3 Perfect,55,AC
1 Perfect,55,AG
1 Perfect,55,CA
2 Perfect,55,TC
1 Perfect,55,TG
1 Perfect,56,AT
2 Perfect,56,GT
1 Perfect,57,AC
1 Perfect,57,AT
2 Perfect,57,TG
1 Perfect,58,AA
1 Perfect,58,TC
1 Perfect,59,AG
1 Perfect,59,AT
1 Perfect,59,CA
91872 Perfect,5,AA
40203 Perfect,5,AC
66752 Perfect,5,AG
23728 Perfect,5,AT
41701 Perfect,5,CA
44731 Perfect,5,CC
9739 Perfect,5,CG
34136 Perfect,5,CT
34000 Perfect,5,GA
9658 Perfect,5,GC
45220 Perfect,5,GG
42024 Perfect,5,GT
23635 Perfect,5,TA
66720 Perfect,5,TC
40281 Perfect,5,TG
93239 Perfect,5,TT
1 Perfect,60,AC
1 Perfect,60,AT
1 Perfect,60,TA
1 Perfect,61,GA
1 Perfect,62,CT
1 Perfect,62,GT
2 Perfect,63,AC
1 Perfect,63,AT
1 Perfect,64,GA
2 Perfect,65,TA
1 Perfect,67,AT
1 Perfect,68,TC
1 Perfect,69,TC
28070 Perfect,6,AA
5487 Perfect,6,AC
12089 Perfect,6,AG
8229 Perfect,6,AT
12489 Perfect,6,CA
9698 Perfect,6,CC
744 Perfect,6,CG
12250 Perfect,6,CT
10507 Perfect,6,GA
1920 Perfect,6,GC
9708 Perfect,6,GG
5746 Perfect,6,GT
6325 Perfect,6,TA
10746 Perfect,6,TC
12967 Perfect,6,TG
28892 Perfect,6,TT
12684 Perfect,7,AA
4105 Perfect,7,AC
4877 Perfect,7,AG
3565 Perfect,7,AT
3798 Perfect,7,CA
1757 Perfect,7,CC
412 Perfect,7,CG
3449 Perfect,7,CT
3416 Perfect,7,GA
469 Perfect,7,GC
1714 Perfect,7,GG
3687 Perfect,7,GT
3527 Perfect,7,TA
4971 Perfect,7,TC
4152 Perfect,7,TG
12990 Perfect,7,TT
1 Perfect,80,TA
5040 Perfect,8,AA
856 Perfect,8,AC
1503 Perfect,8,AG
1598 Perfect,8,AT
1559 Perfect,8,CA
382 Perfect,8,CC
99 Perfect,8,CG
1385 Perfect,8,CT
1380 Perfect,8,GA
375 Perfect,8,GC
357 Perfect,8,GG
1006 Perfect,8,GT
1361 Perfect,8,TA
1326 Perfect,8,TC
1566 Perfect,8,TG
5309 Perfect,8,TT
1 Perfect,99,AC
3186 Perfect,9,AA
883 Perfect,9,AC
1075 Perfect,9,AG
762 Perfect,9,AT
542 Perfect,9,CA
128 Perfect,9,CC
64 Perfect,9,CG
462 Perfect,9,CT
469 Perfect,9,GA
75 Perfect,9,GC
128 Perfect,9,GG
477 Perfect,9,GT
686 Perfect,9,TA
1190 Perfect,9,TC
859 Perfect,9,TG
3249 Perfect,9,TT
